Error: Time=9984 Track=0 Note terminated when not on - pitch 74
Error: Time=15360 Track=0 Note terminated when not on - pitch 69
Error: Time=15360 Track=0 Note terminated when not on - pitch 72
Error: Time=15360 Track=0 Note terminated when not on - pitch 71
Error: Time=24320 Track=0 Note terminated when not on - pitch 65
Error: Time=71680 Track=0 Note terminated when not on - pitch 73
Error: Time=71680 Track=0 Note terminated when not on - pitch 75
Error: Time=73728 Track=0 Note terminated when not on - pitch 61
Error: Time=73728 Track=0 Note terminated when not on - pitch 63
Error: Time=108544 Track=0 Note terminated when not on - pitch 67
Error: Time=108544 Track=0 Note terminated when not on - pitch 68
Error in MIDI file - notes still on at end of track!
Error: Time=5888 Track=1 Note terminated when not on - pitch 54
Error: Time=36608 Track=1 Note terminated when not on - pitch 59
Error: Time=44800 Track=1 Note terminated when not on - pitch 56
Error: Time=48896 Track=1 Note terminated when not on - pitch 51
Error: Time=57088 Track=1 Note terminated when not on - pitch 55
Error: Time=69376 Track=1 Note terminated when not on - pitch 46
Error: Time=112384 Track=1 Note terminated when not on - pitch 42
Error in MIDI file - notes still on at end of track!
X: 1
T: from midi_transposed/C_alb_esp2.mid
M: 2/4
L: 1/16
Q:1/4=63
