Error: Time=75520 Track=0 Note terminated when not on - pitch 77
Error: Time=77056 Track=0 Note terminated when not on - pitch 75
Error: Time=80128 Track=0 Note terminated when not on - pitch 63
Error: Time=89344 Track=0 Note terminated when not on - pitch 76
Error: Time=100096 Track=0 Note terminated when not on - pitch 64
Error: Time=106752 Track=0 Note terminated when not on - pitch 54
Error: Time=112896 Track=0 Note terminated when not on - pitch 68
Error: Time=186624 Track=0 Note terminated when not on - pitch 67
Error in MIDI file - notes still on at end of track!
Error in MIDI file - notes still on at end of track!
X: 1
T: from midi_transposed/C_alb_se1.mid
M: 3/8
L: 1/16
Q:1/4=77
