Error: Time=31488 Track=0 Note terminated when not on - pitch 64
Error: Time=31488 Track=0 Note terminated when not on - pitch 65
Error: Time=36096 Track=0 Note terminated when not on - pitch 57
Error: Time=36181 Track=0 Note terminated when not on - pitch 59
Error: Time=271104 Track=0 Note terminated when not on - pitch 67
Error in MIDI file - notes still on at end of track!
Error: Time=283392 Track=1 Note terminated when not on - pitch 36
Error: Time=364885 Track=1 Note terminated when not on - pitch 74
Error: Time=367957 Track=1 Note terminated when not on - pitch 86
Error in MIDI file - notes still on at end of track!
X: 1
T: from midi_transposed/C_alb_se8.mid
M: 6/8
L: 1/8
Q:1/4=119
