Error: Time=35584 Track=0 Note terminated when not on - pitch 47
Error: Time=35584 Track=0 Note terminated when not on - pitch 50
Error: Time=35584 Track=0 Note terminated when not on - pitch 55
Error: Time=211968 Track=0 Note terminated when not on - pitch 84
Error: Time=211968 Track=0 Note terminated when not on - pitch 86
Error: Time=212224 Track=0 Note terminated when not on - pitch 88
Error: Time=212309 Track=0 Note terminated when not on - pitch 83
Error: Time=212651 Track=0 Note terminated when not on - pitch 79
Error: Time=212736 Track=0 Note terminated when not on - pitch 81
Error: Time=212736 Track=0 Note terminated when not on - pitch 77
Error: Time=212992 Track=0 Note terminated when not on - pitch 76
Error: Time=213333 Track=0 Note terminated when not on - pitch 74
Error: Time=213504 Track=0 Note terminated when not on - pitch 72
Error: Time=213760 Track=0 Note terminated when not on - pitch 71
Error: Time=214784 Track=0 Note terminated when not on - pitch 78
Error: Time=215808 Track=0 Note terminated when not on - pitch 80
Error: Time=222549 Track=0 Note terminated when not on - pitch 75
Error: Time=227584 Track=0 Note terminated when not on - pitch 82
Error: Time=256000 Track=0 Note terminated when not on - pitch 91
Error: Time=258816 Track=0 Note terminated when not on - pitch 89
Error: Time=259072 Track=0 Note terminated when not on - pitch 93
Error: Time=261120 Track=0 Note terminated when not on - pitch 69
Error: Time=261376 Track=0 Note terminated when not on - pitch 67
Error: Time=261461 Track=0 Note terminated when not on - pitch 65
Error: Time=261632 Track=0 Note terminated when not on - pitch 64
Error: Time=261803 Track=0 Note terminated when not on - pitch 62
Error: Time=261888 Track=0 Note terminated when not on - pitch 60
Error: Time=261888 Track=0 Note terminated when not on - pitch 59
Error in MIDI file - notes still on at end of track!
Error: Time=6912 Track=1 Note terminated when not on - pitch 41
Error: Time=8960 Track=1 Note terminated when not on - pitch 38
Error: Time=35584 Track=1 Note terminated when not on - pitch 43
Error: Time=197120 Track=1 Note terminated when not on - pitch 63
Error: Time=201216 Track=1 Note terminated when not on - pitch 53
Error: Time=209664 Track=1 Note terminated when not on - pitch 66
Error: Time=209920 Track=1 Note terminated when not on - pitch 68
Error: Time=228352 Track=1 Note terminated when not on - pitch 57
Error: Time=230912 Track=1 Note terminated when not on - pitch 70
Error: Time=262485 Track=1 Note terminated when not on - pitch 52
Error: Time=262827 Track=1 Note terminated when not on - pitch 48
Error: Time=262912 Track=1 Note terminated when not on - pitch 40
Error in MIDI file - notes still on at end of track!
X: 1
T: from midi_transposed/C_appass_2.mid
M: 2/4
L: 1/16
Q:1/4=42
