Error: Time=1034752 Track=1 Note terminated when not on - pitch 40
Error: Time=1034923 Track=1 Note terminated when not on - pitch 38
Error: Time=1035008 Track=1 Note terminated when not on - pitch 36
Error: Time=1035008 Track=1 Note terminated when not on - pitch 35
Error in MIDI file - notes still on at end of track!
X: 1
T: from midi_transposed/C_appass_3.mid
M: 2/4
L: 1/16
Q:1/4=139
%beats in anacrusis = 0
% Last note suggests minor mode tune
K:C % 0 sharps
V:1
% Piano
%%MIDI program 0
%%MIDI program 0
x4 [f4-^G4-]| \
[f2^G2] [f2^G2] [f4-^G4-]| \
[f2^G2] [f2^G2] [f3^G3][f^G]| \
[f3^G3][f^G] [f3^G3][f^G]|
[f3^G3][f^G] [f4^G4]| \
x2 f'e' d'e' d'c'| \
bc' ba ^g4| \
x2 fe de dc|
Bc BA ^G4| \
x2 fe de dc| \
Bc BA ^GA ^GF| \
EF E^D =DE DC|
B,C B,A, ^G,A, ^G,F,| \
E,F, E,^D, E,F, E,^D,| \
E,F, E,^D, E,F, E,^D,| \
E,F, E,^D, =D,E, D,^C,|
D,E, D,^C, D,E, D,^C,| \
D,E, D,^C, D,E, D,^C,| \
D,E, D,^C, D,B,, =C,D,| \
E,D, C,B,, xE, A,C|
EF ED CD CB,| \
A,B, CA, xE, A,C| \
EF ED CD CB,| \
A,B, CA, xF, ^A,D|
F=G FE DE DC| \
^A,C ^A,=A, ^G,A, B,^G,| \
A,B, CA, B,C DB,| \
^G,A, B,^G, A,E, A,C|
EF ED CD CB,| \
A,B, CA, xE, A,C| \
EF ED CD CB,| \
A,B, CA, xF, ^A,D|
F=G FE DE DC| \
^A,C ^A,=A, ^G,A, B,^G,| \
A,B, CA, B,C DB,| \
^G,A, B,^G, A,E Ac|
eE Ac xE Ac| \
eE Ac x^D ^Fc| \
^d-[^d-^D] [^d-^F][^dc] ^d-[^d-^D] [^d-^G][^dB]| \
e-[e-E] [e-^G][eB] xE ^GB|
eE ^GB xE ^GB| \
eE ^GB xE ^GB| \
e-[e-E] [e-^G][eB] e-[e-E] [e-^G][eB]| \
e-[e-E] [e-A][ec] xA ^ce|
aA ^ce xA ^ce| \
aA ^ce xA ^ce| \
a-[a-A] [a-^c][ae] [^cA]a [=dA]a| \
[eA]a [=fA]a xE A=c|
e-[e-E] [e-A][ec] e-[e-E] [e-B][ed]| \
e-[e-E] [e-^G][eB] [e4c4A4E4]| \
x3[c'a] [c'4a4]| \
x3[c'a] [c'4-a4-]|
[c'4a4] [b2^g2] x2| \
x8| \
x3[d'b] [d'4b4]| \
x3[d'b] [d'4-b4-]|
[d'4b4] [c'2a2] x2| \
x8| \
x3[=g'e'] [g'4e'4]| \
x3[g'e'] [g'4-e'4-]|
[g'6e'6] [f'2d'2]| \
[e'2c'2] [d'2b2] [c'4a4]| \
x3[a'c'a] [b'4d'4b4]| \
x3[^g'b^g] [a'c'a]e ac'|
e'f' e'd' c'd' c'b| \
ab c'a xe ac'| \
e'f' e'd' c'd' c'b| \
ab c'a xa ^d'^f'|
a'b' a'=g' ^f'g' ^f'e'| \
^d'e' ^f'^d' xa ^d'^f'| \
a'b' a'g' ^f'g' ^f'e'| \
^d'e' ^f'^d' xb e'g'|
b'c'' b'a' g'a' g'^f'| \
e'^f' g'e' xb e'g'| \
b'c'' b'a' g'a' g'^f'| \
e'^f' g'e' x=f' g'f'|
g'f' e'f' x^d' e'^d'| \
xe' ^f'e' x=f' g'f'| \
g'f' e'f' x^d' e'^d'| \
xe' ^f'e' x=f' g'f'|
g'f' e'^f' x^d' e'^d'| \
xc' =d'c' xb c'b| \
x^a b^a x=a ba| \
xg ag xg ag|
x^f g^f xe ^fe| \
x^d e^d xc c'c| \
c'c c'c xc c'b| \
ag ^fe xc' c''c'|
c''c' c''c' xc' c''b'| \
a'g' ^f'e' xc c'c| \
c'c c'c xc' cc'| \
xc'' c'c'' xb' bb'|
x^a' ^a^a' x=a' aa'| \
xg' [bg]g' xg' [^c'g]g'| \
x^f' [^c'^f]^f' xe' [ge]e'| \
x^d' [^f^d]^d' [e'bge]B eg|
b=c' ba ga g^f| \
e=d cB AG ^FE| \
^D2 [B3/2^F3/2^D3/2B,3/2]x/2 [B3/2A3/2^D3/2B,3/2]x/2 [B3/2A3/2^D3/2B,3/2]x/2| \
[B3/2A3/2^D3/2B,3/2]x/2 [B3/2A3/2^D3/2B,3/2]x/2 [BGEB,]b e'g'|
b'c'' b'a' g'a' g'^f'| \
e'=d' c'b ag ^fe| \
^d2 [b3/2^f3/2^d3/2B3/2]x/2 [b3/2a3/2^d3/2B3/2]x/2 [b3/2a3/2^d3/2B3/2]x/2| \
[b3/2a3/2^d3/2B3/2]x/2 [b3/2a3/2^d3/2B3/2]x/2 [b2g2e2B2] x2|
x2 [b'3/2g'3/2e'3/2b3/2]x/2 [b'3/2a'3/2^d'3/2b3/2]x/2 [b'3/2a'3/2^d'3/2b3/2]x/2| \
[b'3/2a'3/2^d'3/2b3/2]x/2 [b'3/2a'3/2^d'3/2b3/2]x/2 [b'3/2g'3/2e'3/2b3/2]x2x/2| \
x2 [b3/2g3/2e3/2B3/2]x/2 [b3/2a3/2^d3/2B3/2]x/2 [b3/2a3/2^d3/2B3/2]x/2| \
[b3/2a3/2^d3/2B3/2]x/2 [b3/2a3/2^d3/2B3/2]x/2 [b3/2g3/2e3/2B3/2]x2x/2|
x2 [e'3/2b3/2g3/2e3/2]x/2 [e'3/2b3/2^g3/2e3/2]x/2 [e'3/2b3/2^g3/2e3/2]x/2| \
[e'3/2b3/2^g3/2e3/2]x/2 [e'3/2b3/2^g3/2e3/2]x/2 [e'3/2c'3/2a3/2e3/2]x2x/2| \
x2 [e2c2A2E2] [e2=d2^G2E2] [e2d2^G2E2]| \
[e2d2^G2E2] [e2d2^G2E2] [e^c=GE]^C EG|
^A^c eg ^a^c' e'g'| \
^a'g' e'^c' ^ag e^c| \
^AG Ex4x| \
x8|
x8| \
x4 x^C EG| \
^A=c ^A=A GA G=F| \
EF GE x^C EG|
^A=c ^A=A GA GF| \
EF GE x^C EG| \
^A=c ^A=A G2 GA| \
^Ac ^A=A G2 GA|
^Ac ^A=A G2 [^a2^A2]| \
[=a2A2] [^c'2^c2] [d'd]A df| \
a^a =ag fg fe| \
de fd xA df|
a^a =ag fg fe| \
de fd x^A ^dg| \
^a=c' ^a=a ga gf| \
^df g^d =de d^c|
de fd ^cd ^cB| \
^cd e^c d2 df| \
a^a =ag fg fe| \
[d'-d][d'e] fd ^c'2 df|
[d'-a][d'^a] =ag fg fe| \
[d'-d][d'e] fd [^d'^d]^a ^d'g'| \
^a'=c'' ^a'=a' g'a' g'f'| \
^d'f' ^d'=d' ^c'e' g'f'|
e'f' e'd' ^c'd' ^c'^a| \
=ag fe dx a2-| \
a2 ax ax ^a2-| \
^a2 ^ax ^ax =a2-|
a2 ax ax ex| \
fx gx fx [a'2-a2-]| \
[a'2a2] [a'a]x [a'a]x [^a'2-^a2-]| \
[^a'2^a2] [^a'^a]x [^a'^a]x [=a'2-a2-]|
[a'2a2] [a'a]x [a'a]x [e'e]x| \
[f'f]x [g'g]x [f'f]x e2-| \
e2 ex ex ^d2-| \
^d2 ^dx ^dx e2-|
e2 ex ex Bx| \
=cx =dx cx [e'2-e2-]| \
[e'2e2] [e'e]x [e'e]x [^d'2-^d2-]| \
[^d'2^d2] [^d'^d]x [^d'^d]x [e'2-e2-]|
[e'2e2] [e'e]x [e'e]x [bB]x| \
[c'c]x [=d'd]x [c'c]E Ac| \
ef ed cd cB| \
AB cA ^AF ^Ad|
fg fe de dc| \
^Ac d^A ^cG ^ce| \
g=a gf ef ed| \
^cd e^c dA df|
a^a =ag fe d=c| \
^A=A GF ED C^A,| \
=A,G, F,E, D,E, F,D,| \
D,2 [C2A,2^F,2^D,2] [B,^G,E,][EE,] x[EE,]|
x[EE,] x[EE,] x[EE,] x[EE,]| \
x[EE,] x[EE,] x[eE] x[eE]| \
x[eE] x[eE] x[eE] x[eE]| \
x[eE] x[eE] x[e'e] x[e'e]|
x[e'e] x[e'e] x[e'e] x[e'e]| \
x[e'e] x[e'e] x[e''e'] x[e''e']| \
x[e''e'] x[e''e'] x[e''e'] x[e''e']| \
x[e''e'] x[e''e'] x4|
x4 x=F ^A=d| \
fx4f ^ad'| \
f'2 x6| \
x8|
^Gx4^G Bd| \
^gx4^g bd'| \
^g'2 x6| \
x8|
x2 F^G B2 x2| \
x8| \
DF ^GB d2 x2| \
x8|
F^G Bd f2 x2| \
x8| \
^GB df ^g2 x2| \
x8|
x4 F2 ^G2| \
B2 d2 f2 ^g2| \
b2 d'2 f'2 ^g'2| \
b'2 d''2 b'2 ^g'2|
f'2 d'2 b2 ^g2| \
f2 d2 B2 ^G2| \
F2 x6| \
x8|
x8| \
x8| \
x8| \
x8|
x8| \
x8| \
x8| \
x4 [^G4-E4-D4-B,4-]|
[^G2E2D2B,2] x2 [^g4-e4-d4-B4-]| \
[^g2e2d2B2] x2 [^g'4-e'4-d'4-b4-]| \
[^g'2e'2d'2b2] x6| \
x4 xE, =A,C|
EF ED CD CB,| \
A,B, CA, xE, A,C| \
EF ED CD CB,| \
A,B, CA, xF, ^A,D|
F=G FE DE DC| \
^A,C ^A,=A, ^G,A, B,^G,| \
A,B, CA, B,C DB,| \
^G,A, B,^G, A,4|
x2 ^Gx Ax Bx| \
cx Ax4x| \
x2 [^g^G]x [aA]x [bB]x| \
[c'c]x [aA]x4x|
x2 [a2A2] [^a2^A2] [d'2d2]| \
[f'f]x [f'f]x [f'4f4]| \
[e'8e8]| \
[^g4^G4] [=aA]E Ac|
eE Ac xE Ac| \
eE Ac x^D ^Fc| \
^d-[^d-^D] [^d-^F][^dc] ^d-[^d-^D] [^d-^G][^dB]| \
e-[e-E] [e-^G][eB] xE ^GB|
eE ^GB xE ^GB| \
eE ^GB xE ^GB| \
e-[e-E] [e-^G][eB] e-[e-E] [e-^G][eB]| \
e-[e-E] [e-A][ec] xA ^ce|
aA ^ce xA ^ce| \
aA ^ce xA ^ce| \
a-[a-A] [a-^c][ae] [^cA]a [=dA]a| \
[eA]a [=fA]a xE A=c|
e-[e-E] [e-A][ec] e-[e-E] [e-B][ed]| \
e-[e-E] [e-^G][eB] [e4c4A4E4]| \
x3[c'a] [c'4a4]| \
x3[c'a] [c'4-a4-]|
[c'4a4] [b2^g2] x2| \
x8| \
x3[d'b] [d'4b4]| \
x3[d'b] [d'4-b4-]|
[d'4b4] [c'2a2] x2| \
x8| \
x3[=g'e'] [g'4e'4]| \
x3[g'e'] [g'4-e'4-]|
[g'6e'6] [f'2d'2]| \
[e'2c'2] [d'2b2] [c'4a4]| \
x3[a'c'a] [b'4d'4b4]| \
x3[^g'b^g] [a'c'a]e ac'|
e'f' e'd' c'd' c'b| \
ab c'a xe ac'| \
e'f' e'd' c'd' c'b| \
ab c'a x^a e'=g'|
^a'c'' ^a'=a' g'a' g'f'| \
e'f' g'e' x^a e'g'| \
^a'c'' ^a'=a' g'a' g'f'| \
e'd' c'^a =ac' f'a'|
c''d'' c''^a' =a'^a' =a'g'| \
f'g' a'f' xc' f'a'| \
c''d'' c''^a' =a'^a' c''^a'| \
=a'^a' c''=a' x^a' c''^a'|
c''^a' =a'^a' x^g' =a'^g'| \
xa' b'a' x^a' c''^a'| \
c''^a' =a'^a' x^g' =a'^g'| \
xa' b'a' x^a' c''^a'|
c''^a' =a'b' x^g' a'^g'| \
xf' =g'f' xe' f'e'| \
x^d' e'^d' x=d' e'd'| \
xc' d'c' xc' d'c'|
xb c'b xa ba| \
x^g a^g xF fF| \
fF fF xF fe| \
dc BA xf f'f|
f'f f'f xf f'e'| \
d'c' ba xF fF| \
fF fF xf Ff| \
xf' ff' xe' ee'|
x^d' ^d^d' x=d' dd'| \
xc' [ec]c' xc' [^fc]c'| \
xb [^fB]b xa [cA]a| \
x^g [B^G]^g [acA]E Ac|
e=f ed cd cB| \
A=G FE DC ^A,=A,| \
^G,2 [E3/2^A,3/2^G,3/2E,3/2]x/2 [E3/2D3/2^G,3/2E,3/2]x/2 [E3/2D3/2^G,3/2E,3/2]x/2| \
[E3/2D3/2^G,3/2E,3/2]x/2 [E3/2D3/2^G,3/2E,3/2]x/2 [EC=A,E,]e ac'|
e'f' e'd' c'd' c'b| \
a=g fe dc BA| \
^G2 [e3/2B3/2^G3/2E3/2]x/2 [e3/2d3/2^G3/2E3/2]x/2 [e3/2d3/2^G3/2E3/2]x/2| \
[e3/2d3/2^G3/2E3/2]x/2 [e3/2d3/2^G3/2E3/2]x/2 [e2c2A2E2] x2|
x2 [e'3/2c'3/2a3/2e3/2]x/2 [e'3/2d'3/2^g3/2e3/2]x/2 [e'3/2d'3/2^g3/2e3/2]x/2| \
[e'3/2d'3/2^g3/2e3/2]x/2 [e'3/2d'3/2^g3/2e3/2]x/2 [e'3/2c'3/2a3/2e3/2]x2x/2| \
x2 [e3/2c3/2A3/2E3/2]x/2 [e3/2d3/2^G3/2E3/2]x/2 [e3/2d3/2^G3/2E3/2]x/2| \
[e3/2d3/2^G3/2E3/2]x/2 [e3/2d3/2^G3/2E3/2]x/2 [e3/2c3/2A3/2E3/2]x/2 [e'3/2c'3/2a3/2e3/2]x/2|
[e'3/2c'3/2a3/2e3/2]x/2 [e'3/2c'3/2a3/2e3/2]x/2 [e'3/2d'3/2^g3/2e3/2]x/2 [e'3/2d'3/2^g3/2e3/2]x/2| \
[e'3/2d'3/2^g3/2e3/2]x/2 [e'3/2d'3/2^g3/2e3/2]x/2 [e'^c'=ge]^C EG| \
^A^c eg ^a^c' e'g'| \
^a'g' e'^c' ^ag e^c|
^AG Ex4x| \
x8| \
x8| \
x4 x^C EG|
^A=c ^A=A GA GF| \
EF GE x^C EG| \
^A=c ^A=A GA GF| \
EF GE x^C EG|
^A=c ^A=A G2 GA| \
^Ac ^A=A G2 GA| \
^Ac ^A=A G2 [^a2^A2]| \
[=a2A2] [^c'2^c2] [d'd]A df|
a^a =ag fg fe| \
de fd xA df| \
a^a =ag fg fe| \
de fd x^A ^dg|
^a=c' ^a=a ga gf| \
^df g^d =de d^c| \
de fd ^cd ^cB| \
^cd e^c d2 df|
a^a =ag fg fe| \
[d'-d][d'e] fd ^c'2 df| \
[d'-a][d'^a] =ag fg fe| \
[d'-d][d'e] fd [^d'^d]^a ^d'g'|
^a'=c'' ^a'=a' g'a' g'f'| \
^d'f' ^d'=d' ^c'e' g'f'| \
e'f' e'd' ^c'd' ^c'^a| \
=ag fe dx a2-|
a2 ax ax ^a2-| \
^a2 ^ax ^ax =a2-| \
a2 ax ax ex| \
fx gx fx [a'2-a2-]|
[a'2a2] [a'a]x [a'a]x [^a'2-^a2-]| \
[^a'2^a2] [^a'^a]x [^a'^a]x [=a'2-a2-]| \
[a'2a2] [a'a]x [a'a]x [e'e]x| \
[f'f]x [g'g]x [f'f]x e2-|
e2 ex ex ^d2-| \
^d2 ^dx ^dx e2-| \
e2 ex ex Bx| \
=cx =dx cx [e'2-e2-]|
[e'2e2] [e'e]x [e'e]x [^d'2-^d2-]| \
[^d'2^d2] [^d'^d]x [^d'^d]x [e'2-e2-]| \
[e'2e2] [e'e]x [e'e]x [bB]x| \
[c'c]x [=d'd]x [c'c]E Ac|
ef ed cd cB| \
AB cA ^AF ^Ad| \
fg fe de dc| \
^Ac d^A ^cG ^ce|
g=a gf ef ed| \
^cd e^c dA df| \
a^a =ag fe d=c| \
^A=A GF ED C^A,|
=A,G, F,E, D,E, F,D,| \
D,2 [C2A,2^F,2^D,2] [B,^G,E,][EE,] x[EE,]| \
x[EE,] x[EE,] x[EE,] x[EE,]| \
x[EE,] x[EE,] x[eE] x[eE]|
x[eE] x[eE] x[eE] x[eE]| \
x[eE] x[eE] x[e'e] x[e'e]| \
x[e'e] x[e'e] x[e'e] x[e'e]| \
x[e'e] x[e'e] x[e''e'] x[e''e']|
x[e''e'] x[e''e'] x[e''e'] x[e''e']| \
x[e''e'] x[e''e'] x4| \
x4 x=F ^A=d| \
fx4f ^ad'|
f'2 x6| \
x8| \
^Gx4^G Bd| \
^gx4^g bd'|
^g'2 x6| \
x8| \
x2 F^G B2 x2| \
x8|
DF ^GB d2 x2| \
x8| \
F^G Bd f2 x2| \
x8|
^GB df ^g2 x2| \
x8| \
x4 F2 ^G2| \
B2 d2 f2 ^g2|
b2 d'2 f'2 ^g'2| \
b'2 d''2 b'2 ^g'2| \
f'2 d'2 b2 ^g2| \
f2 d2 B2 ^G2|
F2 x6| \
x8| \
x8| \
x8|
x8| \
x8| \
x8| \
x8|
x8| \
x4 [^G4-E4-D4-B,4-]| \
[^G2E2D2B,2] x2 [^g4-e4-d4-B4-]| \
[^g2e2d2B2] x2 [^g'4-e'4-d'4-b4-]|
[^g'2e'2d'2b2] x6| \
x4 xE, =A,C| \
EF ED CD CB,| \
A,B, CA, xE, A,C|
EF ED CD CB,| \
A,B, CA, xF, ^A,D| \
F=G FE DE DC| \
^A,C ^A,=A, ^G,A, B,^G,|
A,B, CA, B,C DB,| \
^G,A, B,^G, A,4| \
x2 ^Gx Ax Bx| \
cx Ax4x|
x2 [^g^G]x [aA]x [bB]x| \
[c'c]x [aA]x4x| \
x2 [a2A2] [^a2^A2] [d'2d2]| \
[f'f]x [f'f]x [f'4f4]|
[e'8e8]| \
[^g4^G4] [=aA]E Ac| \
eE Ac xE Ac| \
eE Ac x^D ^Fc|
^d-[^d-^D] [^d-^F][^dc] ^d-[^d-^D] [^d-^G][^dB]| \
e-[e-E] [e-^G][eB] xE ^GB| \
eE ^GB xE ^GB| \
eE ^GB xE ^GB|
e-[e-E] [e-^G][eB] e-[e-E] [e-^G][eB]| \
e-[e-E] [e-A][ec] xA ^ce| \
aA ^ce xA ^ce| \
aA ^ce xA ^ce|
a-[a-A] [a-^c][ae] [^cA]a [=dA]a| \
[eA]a [=fA]a xE A=c| \
e-[e-E] [e-A][ec] e-[e-E] [e-B][ed]| \
e-[e-E] [e-^G][eB] [e4c4A4E4]|
x3[c'a] [c'4a4]| \
x3[c'a] [c'4-a4-]| \
[c'4a4] [b2^g2] x2| \
x8|
x3[d'b] [d'4b4]| \
x3[d'b] [d'4-b4-]| \
[d'4b4] [c'2a2] x2| \
x8|
x3[=g'e'] [g'4e'4]| \
x3[g'e'] [g'4-e'4-]| \
[g'6e'6] [f'2d'2]| \
[e'2c'2] [d'2b2] [c'4a4]|
x3[a'c'a] [b'4d'4b4]| \
x3[^g'b^g] [a'c'a]e ac'| \
e'f' e'd' c'd' c'b| \
ab c'a xe ac'|
e'f' e'd' c'd' c'b| \
ab c'a x^a e'=g'| \
^a'c'' ^a'=a' g'a' g'f'| \
e'f' g'e' x^a e'g'|
^a'c'' ^a'=a' g'a' g'f'| \
e'd' c'^a =ac' f'a'| \
c''d'' c''^a' =a'^a' =a'g'| \
f'g' a'f' xc' f'a'|
c''d'' c''^a' =a'^a' c''^a'| \
=a'^a' c''=a' x^a' c''^a'| \
c''^a' =a'^a' x^g' =a'^g'| \
xa' b'a' x^a' c''^a'|
c''^a' =a'^a' x^g' =a'^g'| \
xa' b'a' x^a' c''^a'| \
c''^a' =a'b' x^g' a'^g'| \
xf' =g'f' xe' f'e'|
x^d' e'^d' x=d' e'd'| \
xc' d'c' xc' d'c'| \
xb c'b xa ba| \
x^g a^g xF fF|
fF fF xF fe| \
dc BA xf f'f| \
f'f f'f xf f'e'| \
d'c' ba xF fF|
fF fF xf Ff| \
xf' ff' xe' ee'| \
x^d' ^d^d' x=d' dd'| \
xc' [ec]c' xc' [^fc]c'|
xb [^fB]b xa [cA]a| \
x^g [B^G]^g [acA]E Ac| \
e=f ed cd cB| \
A=G FE DC ^A,=A,|
^G,2 [E3/2^A,3/2^G,3/2E,3/2]x/2 [E3/2D3/2^G,3/2E,3/2]x/2 [E3/2D3/2^G,3/2E,3/2]x/2| \
[E3/2D3/2^G,3/2E,3/2]x/2 [E3/2D3/2^G,3/2E,3/2]x/2 [EC=A,E,]e ac'| \
e'f' e'd' c'd' c'b| \
a=g fe dc BA|
^G2 [e3/2B3/2^G3/2E3/2]x/2 [e3/2d3/2^G3/2E3/2]x/2 [e3/2d3/2^G3/2E3/2]x/2| \
[e3/2d3/2^G3/2E3/2]x/2 [e3/2d3/2^G3/2E3/2]x/2 [e2c2A2E2] x2| \
x2 [e'3/2c'3/2a3/2e3/2]x/2 [e'3/2d'3/2^g3/2e3/2]x/2 [e'3/2d'3/2^g3/2e3/2]x/2| \
[e'3/2d'3/2^g3/2e3/2]x/2 [e'3/2d'3/2^g3/2e3/2]x/2 [e'3/2c'3/2a3/2e3/2]x2x/2|
x2 [e3/2c3/2A3/2E3/2]x/2 [e3/2d3/2^G3/2E3/2]x/2 [e3/2d3/2^G3/2E3/2]x/2| \
[e3/2d3/2^G3/2E3/2]x/2 [e3/2d3/2^G3/2E3/2]x/2 [ecAE]B cd| \
e^f ^ga ba ^g=f| \
ed cB AB cd|
e^f ^ga ba ^g=f| \
ed cB AB cd| \
e^f ^ga b^a b^a| \
b^a b^a b^a b^a|
b^a b^a b=a ^g=f| \
ed cB [A4-E4-C4-]| \
[A4E4C4] [c4-E4-C4-]| \
[c4E4C4] [BDB,]x [^GDB,]x|
[EDB,]x [^GDB,]x [AEC]x [EC]x| \
[AEC]x [cEC]x [BDB,]x [^GDB,]x| \
[EDB,]x [^GDB,]x [AEC]x [EC]x| \
[AEC]x [cEC]x [BEB,]x [=GEB,]x|
[^F^DB,]x [B^DB,]x E4| \
x2 E/2-[^F/2-E/2][^G/2-^F/2]^G/2 [A4-E4-C4-]| \
[A4E4C4] [c4-E4-C4-]| \
[c4E4C4] [B=DB,]x [^GDB,]x|
[EDB,]x [^GDB,]x [AEC]x [EC]x| \
[AEC]x [cEC]x [BDB,]x [^GDB,]x| \
[EDB,]x [^GDB,]x [AEC]x [EC]x| \
[AEC]x [cEC]x [BEB,]x [=GEB,]x|
[^F^DB,]x [B^DB,]x E4| \
x2 G/2-[A/2-G/2][B/2-A/2]B/2 [c4-G4-E4-]| \
[c4G4E4] [e4-G4-E4-]| \
[e4G4E4] [=d=FD]x [BFD]x|
[GFD]x [BFD]x [cGE]x [GE]x| \
[cGE]x [eGE]x [dFD]x [BFD]x| \
[GFD]x [BFD]x [cGE]x [GE]x| \
[cGE]x [eGE]x [^cGE]x [AGE]x|
[^cGE]x [eGE]x [dAF]x [AF]x| \
[dAF]x [fAF]x [eAE]x [=cAE]x| \
[B^GE]x [e^GE]x A4| \
x2 =G/2-[A/2-G/2][B/2-A/2]B/2 [c4-G4-E4-]|
[c4G4E4] [e4-G4-E4-]| \
[e4G4E4] [dFD]x [BFD]x| \
[GFD]x [BFD]x [cGE]x [GE]x| \
[cGE]x [eGE]x [dFD]x [BFD]x|
[GFD]x [BFD]x [cGE]x [GE]x| \
[cGE]x [eGE]x [^cGE]x [AGE]x| \
[^cGE]x [eGE]x [dAF]x [AF]x| \
[dAF]x [fAF]x [eAE]x [=cAE]x|
[B^GE]x [e^GE]x AE Ac| \
ef ed cd cB| \
AB cA cE Ac| \
ef ed cd cB|
AB cA ^AF ^Ad| \
f=g fe de dc| \
^Ac ^A=A ^GA Bc| \
dc BA ^GA Bc|
de ^f^g ae ac'| \
e'=f' e'd' c'd' c'b| \
ab c'a c'e ac'| \
e'f' e'd' c'd' c'b|
ab c'a ^af ^ad'| \
f'=g' f'e' d'e' d'c'| \
^ac' ^a=a ^ga bc'| \
d'c' ba ^ga bc'|
d'e' ^f'^g' a'c' e'a'| \
c''4- c''e' a'c''| \
e''c'' b'^g' a'c' e'a'| \
c''4- c''e' a'c''|
e''c'' b'^g' a'c' e'a'| \
c''4- c''e' a'c''| \
e''c'' b'^g' a'c' e'a'| \
c''4- c''e' a'c''|
e''c'' b'^g' a'e' a'c''| \
e''c'' b'^g' a'e' a'c''| \
e''c'' b'^g' a'e' a'c''| \
e''c'' b'^g' e''c'' b'^g'|
e''c'' b'^g' e''c'' a'e'| \
c''a' e'c' a'e' c'a| \
e'c' ae c'a ec| \
ae cA ec AE|
cA EC AE CA,| \
EC A,E, CA, E,C,| \
A,E, C,E, [A,2E,2C,2A,,2] x2| \
x4 [a2e2c2A2] x2|
x4 [A2E2C2A,2] 
V:2
% Piano
%%MIDI program 0
%%MIDI program 0
x4 
% Piano
%%MIDI program 0
%%MIDI program 0
[B,4-D,4-]| \
[B,2D,2] [B,2D,2] [B,4-D,4-]| \
[B,2D,2] [B,2D,2] [B,3D,3][B,D,]| \
[B,3D,3][B,D,] [B,3D,3][B,D,]|
[B,3D,3][B,D,] [B,4D,4]| \
x8| \
x8| \
x8|
x8| \
x8| \
x8| \
x8|
x8| \
E,,=F,, E,,^D,, E,,F,, E,,^D,,| \
E,,F,, E,,^D,, E,,F,, E,,^D,,| \
E,,F,, E,,^D,, =D,,E,, D,,^C,,|
D,,E,, D,,^C,, D,,E,, D,,^C,,| \
D,,E,, D,,^C,, D,,E,, D,,^C,,| \
D,,E,, D,,^C,, D,,B,,, =C,,D,,| \
E,,D,, C,,B,,, A,,,4|
x8| \
x3A,, A,,,4| \
x8| \
x3A,, D,,4|
x8| \
x3F,, E,,2 x2| \
F,,2 x2 D,,2 x2| \
E,,2 x2 [A,,4A,,,4]|
x3[ec] [e4c4]| \
[c2A2] x2 [A,,4A,,,4]| \
x3[ec] [e4c4]| \
[c2A2] x2 [D,4D,,4]|
x3[fd] [f4-d4-]| \
[f4d4] [e2d2] [E,2E,,2]| \
x2 [F,2F,,2] x2 [D,2D,,2]| \
x2 [E,2E,,2] [A,,4A,,,4]|
x3[CA,] [C4A,4]| \
x3[CA,] [C4-A,4-E,4-]| \
[C4A,4E,4] [B,2^G,2E,2] x2| \
x4 [E,4E,,4]|
x3[DB,] [D4B,4]| \
x3[DB,] [D4-B,4-A,4-]| \
[D4B,4A,4] [C2A,2] x2| \
x4 [A,4A,,4]|
x3[=GE] [G4E4]| \
x3[GE] [G4-E4-D4-]| \
[G6E6D6] [F2D2]| \
[E2C2] [D2B,2] [C4A,4E,4]|
x3[CA,] [D4B,4E,4]| \
x3[B,^G,] A,E CA,| \
E,C A,E, C,A, E,C,| \
A,,E, C,A,, E,,A,, C,E,|
^D,E, ^D,E, ^D,E, B,,E,| \
^G,,E, B,,E, E,,^G,, B,,E,| \
^G,,B,, E,^G, B,,E, ^G,B,| \
E,^G, B,E A,C EA|
^GA ^GA ^GA EA| \
CA EA A,^C EA| \
^CE A^c EA ^ce| \
A^c ea ^ca ^ga|
^ca ^ca ^ca =da| \
ea fa EA =ce| \
^de ^de E^G Be| \
EB =de A,[cA] [eE][cA]|
[eE][cA] [eE][cA] [eE][cA] [eE][cA]| \
[eE][cA] [eE][cA] A,[cA] [eE][cA]| \
[eE][cA] [eE][cA] [eE][cA] [eE][cA]| \
[eE][cA] [eE][cA] B,,[B,A,] [^D^F,][B,A,]|
[^D^F,][B,A,] [^D^F,][B,A,] [^D^F,][CA,] [^D^F,][CA,]| \
[^D^F,][B,A,] [^D^F,][B,A,] B,,[B,A,] [^D^F,][B,A,]| \
[^D^F,][B,A,] [^D^F,][B,A,] [^D^F,][CA,] [^D^F,][CA,]| \
[^D^F,][B,A,] [^D^F,][B,A,] E,[=GE] [BB,][GE]|
[BB,][GE] [BB,][GE] [BB,][GE] [BB,][GE]| \
[BB,][GE] [BB,][GE] E,2 BG| \
eB eB ge ge| \
bg bg [c'4-a4-]|
[c'2a2] [b2g2] [a4^f4]| \
[b4g4] [c'4-a4-]| \
[c'2a2] [b2g2] [a4^f4]| \
[b4g4] [c'4-a4-]|
[c'2a2] [b2g2] [a4^f4]| \
[g4e4] [^f4^d4]| \
[e4^c4] [e4=c4]| \
[e4B4] ^A4-|
[c4^A4] [B4-G4B,4-]| \
[B4^F4B,4] [=F4-C4-=A,4-]| \
[F2C2A,2] [E2B,2G,2] [^D4A,4^F,4]| \
[E4B,4G,4] [=F4-C4-A,4-]|
[F2C2A,2] [E2B,2G,2] [^D4A,4^F,4]| \
[E4B,4G,4] [=F4-C4-A,4-]| \
[F2C2A,2] [E2B,2G,2] [^D4A,4^F,4]| \
[C4G,4E,4] [B,4^F,4^D,4]|
[^A,4G,4E,4^C,4] [=A,4^F,4^D,4]| \
[G,4E,4] [G,4^C,4-^A,,4-]| \
[^F,4^C,4^A,,4] [E,4B,,4-]| \
[^D,4B,,4] [E,2B,,2G,,2E,,2] x2|
xB, EG B=c B=A| \
G^F E=D CB, A,G,| \
^F,G, A,G, ^F,E, ^D,C,| \
B,,A,, G,,^F,, [E,2B,,2G,,2E,,2] x2|
xB eg bc' ba| \
g^f e=d cB AG| \
^FG AG ^FE ^DC| \
B,A, G,^F, E,^F, G,A,|
B,^C ^DE ^FE ^D=C| \
B,A, G,^F, E,^F, G,A,| \
B,^C ^DE ^FE ^D=C| \
B,A, G,^F, E,^F, G,A,|
B,^C ^DE =D=C B,A,| \
^G,^F, E,D, C,D, E,^F,| \
^G,A, B,C B,A, ^G,^F,| \
E,D, C,B,, [^A,,^A,,,]x3|
x8| \
x8| \
x3^C ^A,=G, E,^C,| \
^A,,G,, E,,^C,, ^A,,,^C,, E,,G,,|
^A,,,^C,, E,,G,, ^A,,,^C,, E,,G,,| \
^A,,,^C,, E,,G,, =A,,,4| \
x8| \
x3A,, A,,,4|
x8| \
x3A,, A,,,4| \
x2 ^CD E=F ED| \
^C2 ^CD EF ED|
^C2 ^CD EF ED| \
^C^A, =A,G, F,-[A,F,-] [DF,-][A,F,-]| \
[DF,-][A,F,-] [DF,-][A,F,-] [DF,-][A,F,-] [DF,-][A,F,-]| \
[DF,-][A,F,-] [DF,-][A,F,] F,-[A,F,-] [DF,-][A,F,-]|
[DF,-][A,F,-] [DF,-][A,F,-] [DF,-][A,F,-] [DF,-][A,F,-]| \
[DF,-][A,F,-] [DF,-][A,F,] G,-[^A,G,-] [^DG,-][^A,G,-]| \
[^DG,-][^A,G,-] [^DG,-][^A,G,-] [^DG,-][^A,G,-] [^DG,-][^A,G,-]| \
[^DG,-][^A,G,-] [^DG,-][^A,G,] =A,-[=DA,-] [FA,-][DA,-]|
[FA,-][DA,-] [FA,-][DA,] G,-[A,G,-] [EG,-][A,G,-]| \
[EG,-][A,G,-] [EG,-][A,G,] F,A x2| \
D-[FD-] [AD-][FD] ^C-[F^C-] [A^C-][F^C]| \
D-[FD-] [AD-][FD] F,A x2|
D-[FD-] [AD-][FD] ^C-[F^C-] [A^C-][F^C]| \
D-[FD-] [AD-][FD] G,[^d^A] G[^d^A]| \
G[^d^A] G[^d^A] G[^d^A] G[^d^A]| \
G[^d^A] G[^d^A] =A[ge^c] A[ge^c]|
A[ge^c] A[ge^c] A^c A^c| \
A,A A,A =D,2 [FD]A| \
[FD]A [FD]A [FD]A [FD]^G| \
[FD]^G [FD]^G [E^C]^G [E^C]A|
[E^C]A [E^C]A [E^C]A [E^C]A| \
[E^C]A [E^C]A [FD]A [FD]A| \
[FD]A [FD]A [FD]A [FD]^G| \
[FD]^G [FD]^G [E^C]^G [E^C]A|
[E^C]A [E^C]A [E^C]A [E^C]A| \
[E^C]A [E^C]A [FD]A [B,^G,]E| \
[B,^G,]E [B,^G,]E [=CA,]E [CA,]^F| \
[CA,]^F [CA,]^F [B,^G,]^F [B,^G,]E|
[B,^G,]E [B,^G,]E [B,^G,]E [B,^G,]E| \
[B,^G,]E [B,^G,]E [CA,]E [CA,]E| \
[CA,]E [CA,]E [CA,]E [CA,]^F| \
[CA,]^F [CA,]^F [B,^G,]^F [B,^G,]E|
[B,^G,]E [B,^G,]E [B,^G,]E [B,^G,]E| \
[B,^G,]E [B,^G,]E [A,4E,4C,4A,,4]| \
xE, A,C E=F ED| \
CD EC DE DC|
^A,F, ^A,D F=G FE| \
DE FD EF ED| \
^CG, ^CE G=A GF| \
EF GE FA, DF|
A^A =AG FE D=C| \
^A,=A, G,F, E,D, C,^A,,| \
=A,,G,, F,,E,, D,,E,, F,,E,,| \
D,,2 ^D,,2 E,,x ^G,,x|
E,,x A,,x E,,x B,,x| \
E,,x C,x E,,x =D,x| \
E,,x C,x E,,x B,,x| \
E,,x A,,x E,,x ^G,,x|
E,,x A,,x E,,x B,,x| \
E,,x C,x E,,x ^C,x| \
E,,x D,x E,,x ^D,x| \
E,,x E,x [=D,-^A,,-F,,-D,,-][F,D,^A,,F,,D,,] ^A,D|
FD, F,^A, Dx3| \
xD F^A dx3| \
x8| \
x4 [E,-D,-B,,-E,,-][^G,E,D,B,,E,,] B,D|
xE, B,D Ex3| \
xE Bd ex3| \
x8| \
x4  (3F,,2F,2^G,2|
B,D x6| \
x4 ^G,,3/2^G,-[B,/2-^G,/2]B,| \
x8| \
x4 B,,3/2B,-[D/2-B,/2]D|
x8| \
x4 D,3/2D-[F/2-D/2]F| \
x8| \
x4 F,2 ^G,2|
B,2 D2 x4| \
x8| \
x8| \
x8|
x8| \
x8| \
x2 D2 B,2 ^G,2| \
F,2 D,2 B,,4-|
B,,4 ^G,,4-| \
^G,,4 F,,4-| \
F,,4 D,,4-| \
D,,4 B,,,4-|
B,,,8-| \
B,,,4 [^G,4-E,4-D,4-B,,4-E,,4-]| \
[^G,2E,2D,2B,,2E,,2-] E,,6-| \
E,,8-|
E,,8-| \
E,,8-| \
E,,4- [^G,4-E,4-D,4-B,,4-E,,4-]| \
[^G,2E,2D,2B,,2E,,2-] E,,E,, [=A,,4A,,,4]|
x8| \
x4 [A,,4A,,,4]| \
x3[e=c] [e4c4]| \
[c2A2] x2 [D,4D,,4]|
x3[fd] [f4-d4-]| \
[f4d4] [e2d2] [E,2E,,2]| \
x2 [F,2F,,2] x2 [D,2D,,2]| \
x2 [E,2E,,2] [A,,A,,,]E, A,C|
EF ED CD CB,| \
A,B, CA, CE, A,C| \
EF ED CD CB,| \
A,B, CA, DF, ^A,D|
F=G FE DE DC| \
^A,C ^A,=A, ^G,A, B,C| \
DC B,A, ^G,A, ^G,F,| \
E,D, C,B,, A,,4|
x3[CA,] [C4A,4]| \
x3[CA,] [C4-A,4-E,4-]| \
[C4A,4E,4] [B,2^G,2E,2] x2| \
x4 [E,4E,,4]|
x3[DB,] [D4B,4]| \
x3[DB,] [D4-B,4-A,4-]| \
[D4B,4A,4] [C2A,2] x2| \
x4 [A,4A,,4]|
x3[=GE] [G4E4]| \
x3[GE] [G4-E4-D4-]| \
[G6E6D6] [F2D2]| \
[E2C2] [D2B,2] [C4A,4E,4]|
x3[CA,] [D4B,4E,4]| \
x3[B,^G,] A,E CA,| \
E,C A,E, C,A, E,C,| \
A,,E, C,A,, E,,A,, C,E,|
^D,E, ^D,E, ^D,E, B,,E,| \
^G,,E, B,,E, E,,^G,, B,,E,| \
^G,,B,, E,^G, B,,E, ^G,B,| \
E,^G, B,E A,C EA|
^GA ^GA ^GA EA| \
CA EA A,^C EA| \
^CE A^c EA ^ce| \
A^c ea ^ca ^ga|
^ca ^ca ^ca =da| \
ea fa EA =ce| \
^de ^de E^G Be| \
EB =de A,[cA] [eE][cA]|
[eE][cA] [eE][cA] [eE][cA] [eE][cA]| \
[eE][cA] [eE][cA] A,[cA] [eE][cA]| \
[eE][cA] [eE][cA] [eE][cA] [eE][cA]| \
[eE][cA] [eE][cA] C,[C^A,] [E=G,][C^A,]|
[EG,][C^A,] [EG,][C^A,] [EG,][C^A,] [EG,][C^A,]| \
[EG,][C^A,] [EG,][C^A,] C,[C^A,] [EG,][C^A,]| \
[EG,][C^A,] [EG,][C^A,] [EG,][C^A,] [EG,][C^A,]| \
[EG,][C^A,] [EG,][C^A,] F,[=AF] [cC][AF]|
[cC][AF] [cC][AF] [cC][AF] [cC][AF]| \
[cC][AF] [cC][AF] F,[AF] [cC][AF]| \
c2 f2 a2 c'2| \
f'2 f'2 [f'4-d'4-]|
[f'2d'2] [e'2c'2] [d'4b4]| \
[e'4c'4] [f'4-d'4-]| \
[f'2d'2] [e'2c'2] [d'4b4]| \
[e'4c'4] [f'4-d'4-]|
[f'2d'2] [e'2c'2] [d'4b4]| \
[c'4a4] [b4^g4]| \
[a4^f4] [a4=f4]| \
[a4e4] ^d4-|
[^f4^d4] [e4-c4E4-]| \
[e4B4E4] [^A,4-=F,4-=D,4-]| \
[^A,2F,2D,2] [=A,2E,2C,2] [^G,4D,4B,,4]| \
[A,4E,4C,4] [^A,4-F,4-D,4-]|
[^A,2F,2D,2] [=A,2E,2C,2] [^G,4D,4B,,4]| \
[A,4E,4C,4] [^A,4-F,4-D,4-]| \
[^A,2F,2D,2] [=A,2E,2C,2] [^G,4D,4B,,4]| \
[F,4C,4A,,4] [E,4B,,4^G,,4]|
[^D,4C,4A,,4^F,,4] [=D,4B,,4^G,,4]| \
[C,4A,,4] [C,4^D,,4-]| \
[^A,,4^D,,4] [=A,,4E,,4-]| \
[^G,,4E,,4] [A,,2E,,2C,,2A,,,2] x2|
xE, A,C E=F E=D| \
CB, A,=G, F,E, D,C,| \
B,,C, D,C, B,,A,, ^G,,^F,,| \
E,,D,, C,,B,,, [A,,2E,,2C,,2A,,,2] x2|
xE Ac e=f ed| \
cB A=G FE DC| \
B,C DC B,A, ^G,^F,| \
E,D, C,B,, A,,B,, C,D,|
E,^F, ^G,A, B,A, ^G,^F,| \
E,D, C,B,, A,,B,, C,D,| \
E,^F, ^G,A, B,A, ^G,^F,| \
E,D, C,B,, A,,^G,, ^F,,E,,|
D,,C,, B,,,A,,, B,,,C,, D,,E,,| \
^F,,^G,, A,,B,, [^A,,^A,,,]x3| \
x8| \
x8|
x3^C ^A,=G, E,^C,| \
^A,,G,, E,,^C,, ^A,,,G,, E,,^C,,| \
^A,,,G,, E,,^C,, ^A,,,G,, E,,^C,,| \
^A,,,G,, E,,^C,, =A,,,4|
x8| \
x3A,, A,,,4| \
x8| \
x3A,, A,,,4|
x2 ^CD E=F ED| \
^C2 ^CD EF ED| \
^C2 ^CD EF ED| \
^C^A, =A,G, F,-[A,F,-] [DF,-][A,F,-]|
[DF,-][A,F,-] [DF,-][A,F,-] [DF,-][A,F,-] [DF,-][A,F,-]| \
[DF,-][A,F,-] [DF,-][A,F,] F,-[A,F,-] [DF,-][A,F,-]| \
[DF,-][A,F,-] [DF,-][A,F,-] [DF,-][A,F,-] [DF,-][A,F,-]| \
[DF,-][A,F,-] [DF,-][A,F,] G,-[^A,G,-] [^DG,-][^A,G,-]|
[^DG,-][^A,G,-] [^DG,-][^A,G,-] [^DG,-][^A,G,-] [^DG,-][^A,G,-]| \
[^DG,-][^A,G,-] [^DG,-][^A,G,] =A,-[=DA,-] [FA,-][DA,-]| \
[FA,-][DA,-] [FA,-][DA,] G,-[A,G,-] [EG,-][A,G,-]| \
[EG,-][A,G,-] [EG,-][A,G,] F,A x2|
D-[FD-] [AD-][FD] ^C-[F^C-] [A^C-][F^C]| \
D-[FD-] [AD-][FD] F,A x2| \
D-[FD-] [AD-][FD] ^C-[F^C-] [A^C-][F^C]| \
D-[FD-] [AD-][FD] G,[^d^A] G[^d^A]|
G[^d^A] G[^d^A] G[^d^A] G[^d^A]| \
G[^d^A] G[^d^A] =A[ge^c] A[ge^c]| \
A[ge^c] A[ge^c] A^c A^c| \
A,A A,A =D,2 [FD]A|
[FD]A [FD]A [FD]A [FD]^G| \
[FD]^G [FD]^G [E^C]^G [E^C]A| \
[E^C]A [E^C]A [E^C]A [E^C]A| \
[E^C]A [E^C]A [FD]A [FD]A|
[FD]A [FD]A [FD]A [FD]^G| \
[FD]^G [FD]^G [E^C]^G [E^C]A| \
[E^C]A [E^C]A [E^C]A [E^C]A| \
[E^C]A [E^C]A [FD]A [B,^G,]E|
[B,^G,]E [B,^G,]E [=CA,]E [CA,]^F| \
[CA,]^F [CA,]^F [B,^G,]^F [B,^G,]E| \
[B,^G,]E [B,^G,]E [B,^G,]E [B,^G,]E| \
[B,^G,]E [B,^G,]E [CA,]E [CA,]E|
[CA,]E [CA,]E [CA,]E [CA,]^F| \
[CA,]^F [CA,]^F [B,^G,]^F [B,^G,]E| \
[B,^G,]E [B,^G,]E [B,^G,]E [B,^G,]E| \
[B,^G,]E [B,^G,]E [A,4E,4C,4A,,4]|
xE, A,C E=F ED| \
CD EC DE DC| \
^A,F, ^A,D F=G FE| \
DE FD EF ED|
^CG, ^CE G=A GF| \
EF GE FA, DF| \
A^A =AG FE D=C| \
^A,=A, G,F, E,D, C,^A,,|
=A,,G,, F,,E,, D,,E,, F,,E,,| \
D,,2 ^D,,2 E,,x ^G,,x| \
E,,x A,,x E,,x B,,x| \
E,,x C,x E,,x =D,x|
E,,x C,x E,,x B,,x| \
E,,x A,,x E,,x ^G,,x| \
E,,x A,,x E,,x B,,x| \
E,,x C,x E,,x ^C,x|
E,,x D,x E,,x ^D,x| \
E,,x E,x [=D,-^A,,-F,,-D,,-][F,D,^A,,F,,D,,] ^A,D| \
FD, F,^A, Dx3| \
xD F^A dx3|
x8| \
x4 [E,-D,-B,,-E,,-][^G,E,D,B,,E,,] B,D| \
xE, B,D Ex3| \
xE Bd ex3|
x8| \
x4  (3F,,2F,2^G,2| \
B,D x6| \
x4 ^G,,3/2^G,-[B,/2-^G,/2]B,|
x8| \
x4 B,,3/2B,-[D/2-B,/2]D| \
x8| \
x4 D,3/2D-[F/2-D/2]F|
x8| \
x4 F,2 ^G,2| \
B,2 D2 x4| \
x8|
x8| \
x8| \
x8| \
x8|
x2 D2 B,2 ^G,2| \
F,2 D,2 B,,4-| \
B,,4 ^G,,4-| \
^G,,4 F,,4-|
F,,4 D,,4-| \
D,,4 B,,,4-| \
B,,,8-| \
B,,,4 [^G,4-E,4-D,4-B,,4-E,,4-]|
[^G,2E,2D,2B,,2E,,2-] E,,6-| \
E,,8-| \
E,,8-| \
E,,8-|
E,,4- [^G,4-E,4-D,4-B,,4-E,,4-]| \
[^G,2E,2D,2B,,2E,,2-] E,,E,, [=A,,4A,,,4]| \
x8| \
x4 [A,,4A,,,4]|
x3[e=c] [e4c4]| \
[c2A2] x2 [D,4D,,4]| \
x3[fd] [f4-d4-]| \
[f4d4] [e2d2] [E,2E,,2]|
x2 [F,2F,,2] x2 [D,2D,,2]| \
x2 [E,2E,,2] [A,,A,,,]E, A,C| \
EF ED CD CB,| \
A,B, CA, CE, A,C|
EF ED CD CB,| \
A,B, CA, DF, ^A,D| \
F=G FE DE DC| \
^A,C ^A,=A, ^G,A, B,C|
DC B,A, ^G,A, ^G,F,| \
E,D, C,B,, A,,4| \
x3[CA,] [C4A,4]| \
x3[CA,] [C4-A,4-E,4-]|
[C4A,4E,4] [B,2^G,2E,2] x2| \
x4 [E,4E,,4]| \
x3[DB,] [D4B,4]| \
x3[DB,] [D4-B,4-A,4-]|
[D4B,4A,4] [C2A,2] x2| \
x4 [A,4A,,4]| \
x3[=GE] [G4E4]| \
x3[GE] [G4-E4-D4-]|
[G6E6D6] [F2D2]| \
[E2C2] [D2B,2] [C4A,4E,4]| \
x3[CA,] [D4B,4E,4]| \
x3[B,^G,] A,E CA,|
E,C A,E, C,A, E,C,| \
A,,E, C,A,, E,,A,, C,E,| \
^D,E, ^D,E, ^D,E, B,,E,| \
^G,,E, B,,E, E,,^G,, B,,E,|
^G,,B,, E,^G, B,,E, ^G,B,| \
E,^G, B,E A,C EA| \
^GA ^GA ^GA EA| \
CA EA A,^C EA|
^CE A^c EA ^ce| \
A^c ea ^ca ^ga| \
^ca ^ca ^ca =da| \
ea fa EA =ce|
^de ^de E^G Be| \
EB =de A,[cA] [eE][cA]| \
[eE][cA] [eE][cA] [eE][cA] [eE][cA]| \
[eE][cA] [eE][cA] A,[cA] [eE][cA]|
[eE][cA] [eE][cA] [eE][cA] [eE][cA]| \
[eE][cA] [eE][cA] C,[C^A,] [E=G,][C^A,]| \
[EG,][C^A,] [EG,][C^A,] [EG,][C^A,] [EG,][C^A,]| \
[EG,][C^A,] [EG,][C^A,] C,[C^A,] [EG,][C^A,]|
[EG,][C^A,] [EG,][C^A,] [EG,][C^A,] [EG,][C^A,]| \
[EG,][C^A,] [EG,][C^A,] F,[=AF] [cC][AF]| \
[cC][AF] [cC][AF] [cC][AF] [cC][AF]| \
[cC][AF] [cC][AF] F,[AF] [cC][AF]|
c2 f2 a2 c'2| \
f'2 f'2 [f'4-d'4-]| \
[f'2d'2] [e'2c'2] [d'4b4]| \
[e'4c'4] [f'4-d'4-]|
[f'2d'2] [e'2c'2] [d'4b4]| \
[e'4c'4] [f'4-d'4-]| \
[f'2d'2] [e'2c'2] [d'4b4]| \
[c'4a4] [b4^g4]|
[a4^f4] [a4=f4]| \
[a4e4] ^d4-| \
[^f4^d4] [e4-c4E4-]| \
[e4B4E4] [^A,4-=F,4-=D,4-]|
[^A,2F,2D,2] [=A,2E,2C,2] [^G,4D,4B,,4]| \
[A,4E,4C,4] [^A,4-F,4-D,4-]| \
[^A,2F,2D,2] [=A,2E,2C,2] [^G,4D,4B,,4]| \
[A,4E,4C,4] [^A,4-F,4-D,4-]|
[^A,2F,2D,2] [=A,2E,2C,2] [^G,4D,4B,,4]| \
[F,4C,4A,,4] [E,4B,,4^G,,4]| \
[^D,4C,4A,,4^F,,4] [=D,4B,,4^G,,4]| \
[C,4A,,4] [C,4^D,,4-]|
[^A,,4^D,,4] [=A,,4E,,4-]| \
[^G,,4E,,4] [A,,2E,,2C,,2A,,,2] x2| \
xE, A,C E=F E=D| \
CB, A,=G, F,E, D,C,|
B,,C, D,C, B,,A,, ^G,,^F,,| \
E,,D,, C,,B,,, [A,,2E,,2C,,2A,,,2] x2| \
xE Ac e=f ed| \
cB A=G FE DC|
B,C DC B,A, ^G,^F,| \
E,D, C,B,, A,,B,, C,D,| \
E,^F, ^G,A, B,A, ^G,^F,| \
E,D, C,B,, A,,B,, C,D,|
E,^F, ^G,A, B,A, ^G,^F,| \
E,D, C,B,, A,,4| \
x2 [E,3/2C,3/2A,,3/2E,,3/2]x/2 [E,3/2D,3/2B,,3/2^G,,3/2E,,3/2]x/2 [E,3/2D,3/2B,,3/2^G,,3/2E,,3/2]x/2| \
[E,3/2D,3/2B,,3/2^G,,3/2E,,3/2]x/2 [E,3/2D,3/2B,,3/2^G,,3/2E,,3/2]x/2 [E,4C,4A,,4E,,4]|
x2 [E3/2C3/2A,3/2E,3/2]x/2 [E3/2D3/2B,3/2^G,3/2E,3/2]x/2 [E3/2D3/2B,3/2^G,3/2E,3/2]x/2| \
[E3/2D3/2B,3/2^G,3/2E,3/2]x/2 [E3/2D3/2B,3/2^G,3/2E,3/2]x/2 [E4C4A,4E,4]| \
x2 [E,3/2C,3/2A,,3/2E,,3/2]x/2 [E,3/2D,3/2B,,3/2^G,,3/2E,,3/2]x/2 [E,3/2D,3/2B,,3/2^G,,3/2E,,3/2]x/2| \
[E,3/2D,3/2B,,3/2^G,,3/2E,,3/2]x/2 [E,3/2D,3/2B,,3/2^G,,3/2E,,3/2]x/2 [E,3/2D,3/2B,,3/2^G,,3/2E,,3/2]x/2 [E,3/2D,3/2B,,3/2^G,,3/2E,,3/2]x/2|
[E,3/2D,3/2B,,3/2^G,,3/2E,,3/2]x/2 [E,3/2D,3/2B,,3/2^G,,3/2E,,3/2]x/2 [E,3/2D,3/2B,,3/2^G,,3/2E,,3/2]x/2 [E,3/2D,3/2B,,3/2^G,,3/2E,,3/2]x/2| \
[E,3/2D,3/2B,,3/2^G,,3/2E,,3/2]x/2 [E,3/2D,3/2B,,3/2^G,,3/2E,,3/2]x/2 [A,,4-E,,4-C,,4-A,,,4-]| \
[A,,4E,,4C,,4A,,,4] [A,,4-E,,4-C,,4-A,,,4-]| \
[A,,4E,,4C,,4A,,,4] [E,E,,]x E,,x|
E,,x E,,x [A,,A,,,]x A,,x| \
A,,x A,,x [E,E,,]x E,,x| \
E,,x E,,x [A,,A,,,]x A,,x| \
A,,x A,,x B,,,x B,,x|
B,,,x B,,,x E,,4| \
x2 E,,/2-[E,,/2-D,,/2-][E,,-D,,-C,,-B,,,-] [A,,4-E,,4-E,,4-D,,4-C,,4-C,,4-B,,,4-A,,,4-]| \
[A,,4E,,4-E,,4D,,4-C,,4-C,,4B,,,4-A,,,4] [A,,4-E,,4-E,,4-D,,4-C,,4-C,,4-B,,,4-A,,,4-]| \
[A,,4E,,4-E,,4D,,4-C,,4-C,,4B,,,4-A,,,4] [E,E,,-E,,D,,-C,,-B,,,-][E,,-D,,-C,,-B,,,-] [E,,-E,,D,,-C,,-B,,,-][E,,-D,,-C,,-B,,,-]|
[E,,-E,,D,,-C,,-B,,,-][E,,-D,,-C,,-B,,,-] [E,,-E,,D,,-C,,-B,,,-][E,,-D,,-C,,-B,,,-] [A,,E,,-D,,-C,,-B,,,-A,,,][E,,-D,,-C,,-B,,,-] [A,,E,,-D,,-C,,-B,,,-][E,,-D,,-C,,-B,,,-]| \
[A,,E,,-D,,-C,,-B,,,-][E,,-D,,-C,,-B,,,-] [A,,E,,-D,,-C,,-B,,,-][E,,-D,,-C,,-B,,,-] [E,E,,-E,,D,,-C,,-B,,,-][E,,-D,,-C,,-B,,,-] [E,,-E,,D,,-C,,-B,,,-][E,,-D,,-C,,-B,,,-]| \
[E,,-E,,D,,-C,,-B,,,-][E,,-D,,-C,,-B,,,-] [E,,-E,,D,,-C,,-B,,,-][E,,-D,,-C,,-B,,,-] [A,,E,,-D,,-C,,-B,,,-A,,,][E,,-D,,-C,,-B,,,-] [A,,E,,-D,,-C,,-B,,,-][E,,-D,,-C,,-B,,,-]| \
[A,,E,,-D,,-C,,-B,,,-][E,,-D,,-C,,-B,,,-] [A,,E,,-D,,-C,,-B,,,-][E,,-D,,-C,,-B,,,-] [E,,-D,,-C,,-B,,,-B,,,][E,,-D,,-C,,-B,,,-] [B,,E,,-D,,-C,,-B,,,-][E,,-D,,-C,,-B,,,-]|
[E,,-D,,-C,,-B,,,-B,,,][E,,-D,,-C,,-B,,,-] [E,,-D,,-C,,-B,,,-B,,,][E,,-D,,-C,,-B,,,-] [E,,4-E,,4D,,4-C,,4-B,,,4-]| \
[E,,2-D,,2-C,,2-B,,,2-] [=G,,/2-E,,/2-D,,/2-C,,/2-B,,,/2-][A,,/2-G,,/2E,,/2-D,,/2-C,,/2-B,,,/2-][B,,/2-A,,/2E,,/2-D,,/2-C,,/2-B,,,/2-][B,,/2E,,/2-D,,/2-C,,/2-B,,,/2-] [C,4-G,,4-E,,4-E,,4-D,,4-C,,4-C,,4-B,,,4-]| \
[C,4G,,4E,,4-E,,4D,,4-C,,4-C,,4B,,,4-] [C,4-G,,4-E,,4-E,,4-D,,4-C,,4-C,,4-B,,,4-]| \
[C,4G,,4E,,4-E,,4D,,4-C,,4-C,,4B,,,4-] [G,G,,E,,-D,,-C,,-B,,,-][E,,-D,,-C,,-B,,,-] [G,,E,,-D,,-C,,-B,,,-][E,,-D,,-C,,-B,,,-]|
[G,,E,,-D,,-C,,-B,,,-][E,,-D,,-C,,-B,,,-] [G,,E,,-D,,-C,,-B,,,-][E,,-D,,-C,,-B,,,-] [C,E,,-D,,-C,,-C,,B,,,-][E,,-D,,-C,,-B,,,-] [C,E,,-D,,-C,,-B,,,-][E,,-D,,-C,,-B,,,-]| \
[C,E,,-D,,-C,,-B,,,-][E,,-D,,-C,,-B,,,-] [C,E,,-D,,-C,,-B,,,-][E,,-D,,-C,,-B,,,-] [G,G,,E,,-D,,-C,,-B,,,-][E,,-D,,-C,,-B,,,-] [G,,E,,-D,,-C,,-B,,,-][E,,-D,,-C,,-B,,,-]| \
[G,,E,,-D,,-C,,-B,,,-][E,,-D,,-C,,-B,,,-] [G,,E,,-D,,-C,,-B,,,-][E,,-D,,-C,,-B,,,-] [C,E,,-D,,-C,,-C,,B,,,-][E,,-D,,-C,,-B,,,-] [C,E,,-D,,-C,,-B,,,-][E,,-D,,-C,,-B,,,-]| \
[C,E,,-D,,-C,,-B,,,-][E,,-D,,-C,,-B,,,-] [C,E,,-D,,-C,,-B,,,-][E,,-D,,-C,,-B,,,-] [A,,E,,-D,,-C,,-B,,,-A,,,][E,,-D,,-C,,-B,,,-] [E,,-D,,-C,,-B,,,-A,,,][E,,-D,,-C,,-B,,,-]|
[E,,-D,,-C,,-B,,,-A,,,][E,,-D,,-C,,-B,,,-] [E,,-D,,-C,,-B,,,-A,,,][E,,-D,,-C,,-B,,,-] [D,E,,-D,,-D,,C,,-B,,,-][E,,-D,,-C,,-B,,,-] [D,E,,-D,,-C,,-B,,,-][E,,-D,,-C,,-B,,,-]| \
[D,E,,-D,,-C,,-B,,,-][E,,-D,,-C,,-B,,,-] [D,E,,-D,,-C,,-B,,,-][E,,-D,,-C,,-B,,,-] [E,,-E,,D,,-C,,-B,,,-][E,,-D,,-C,,-B,,,-] [E,E,,-D,,-C,,-B,,,-][E,,-D,,-C,,-B,,,-]| \
[E,,-E,,D,,-C,,-B,,,-][E,,-D,,-C,,-B,,,-] [E,,-E,,D,,-C,,-B,,,-][E,,-D,,-C,,-B,,,-] [A,,4E,,4-D,,4-C,,4-B,,,4-A,,,4]| \
[E,,2-D,,2-C,,2-B,,,2-] [G,,/2-E,,/2-D,,/2-C,,/2-B,,,/2-][A,,/2-G,,/2E,,/2-D,,/2-C,,/2-B,,,/2-][B,,/2-A,,/2E,,/2-D,,/2-C,,/2-B,,,/2-][B,,/2E,,/2-D,,/2-C,,/2-B,,,/2-] [C,4-G,,4-E,,4-E,,4-D,,4-C,,4-C,,4-B,,,4-]|
[C,4G,,4E,,4-E,,4D,,4-C,,4-C,,4B,,,4-] [C,4-G,,4-E,,4-E,,4-D,,4-C,,4-C,,4-B,,,4-]| \
[C,4G,,4E,,4-E,,4D,,4-C,,4-C,,4B,,,4-] [G,G,,E,,-D,,-C,,-B,,,-][E,,-D,,-C,,-B,,,-] [G,,E,,-D,,-C,,-B,,,-][E,,-D,,-C,,-B,,,-]| \
[G,,E,,-D,,-C,,-B,,,-][E,,-D,,-C,,-B,,,-] [G,,E,,-D,,-C,,-B,,,-][E,,-D,,-C,,-B,,,-] [C,E,,-D,,-C,,-C,,B,,,-][E,,-D,,-C,,-B,,,-] [C,E,,-D,,-C,,-B,,,-][E,,-D,,-C,,-B,,,-]| \
[C,E,,-D,,-C,,-B,,,-][E,,-D,,-C,,-B,,,-] [C,E,,-D,,-C,,-B,,,-][E,,-D,,-C,,-B,,,-] [G,G,,E,,-D,,-C,,-B,,,-][E,,-D,,-C,,-B,,,-] [G,,E,,-D,,-C,,-B,,,-][E,,-D,,-C,,-B,,,-]|
[G,,E,,-D,,-C,,-B,,,-][E,,-D,,-C,,-B,,,-] [G,,E,,-D,,-C,,-B,,,-][E,,-D,,-C,,-B,,,-] [C,E,,-D,,-C,,-C,,B,,,-][E,,-D,,-C,,-B,,,-] [C,E,,-D,,-C,,-B,,,-][E,,-D,,-C,,-B,,,-]| \
[C,E,,-D,,-C,,-B,,,-][E,,-D,,-C,,-B,,,-] [C,E,,-D,,-C,,-B,,,-][E,,-D,,-C,,-B,,,-] [A,,E,,-D,,-C,,-B,,,-A,,,][E,,-D,,-C,,-B,,,-] [E,,-D,,-C,,-B,,,-A,,,][E,,-D,,-C,,-B,,,-]| \
[E,,-D,,-C,,-B,,,-A,,,][E,,-D,,-C,,-B,,,-] [E,,-D,,-C,,-B,,,-A,,,][E,,-D,,-C,,-B,,,-] [D,E,,-D,,-D,,C,,-B,,,-][E,,-D,,-C,,-B,,,-] [D,E,,-D,,-C,,-B,,,-][E,,-D,,-C,,-B,,,-]| \
[D,E,,-D,,-C,,-B,,,-][E,,-D,,-C,,-B,,,-] [D,E,,-D,,-C,,-B,,,-][E,,-D,,-C,,-B,,,-] [E,,-E,,D,,-C,,-B,,,-][E,,-D,,-C,,-B,,,-] [E,E,,-D,,-C,,-B,,,-][E,,-D,,-C,,-B,,,-]|
[E,,-E,,D,,-C,,-B,,,-][E,,-D,,-C,,-B,,,-] [E,,-E,,D,,-C,,-B,,,-][E,,-D,,-C,,-B,,,-] [A,,E,,-D,,-C,,-B,,,-A,,,][A,,-E,,-D,,-C,,-B,,,-] [C,-A,,-E,,-D,,-C,,-B,,,-][E,-C,-A,,-E,,-D,,-C,,-B,,,-]| \
[A,4-E,4-C,4-A,,4-E,,4-D,,4-C,,4-B,,,4-] [A,E,C,A,,E,,-D,,-C,,-B,,,-][A,,-E,,-D,,-C,,-B,,,-] [C,-A,,-E,,-D,,-C,,-B,,,-][E,-C,-A,,-E,,-D,,-C,,-B,,,-]| \
[A,4-E,4-C,4-A,,4-E,,4-D,,4-C,,4-B,,,4-] [A,E,C,A,,E,,-D,,-C,,-B,,,-][A,,-E,,-D,,-C,,-B,,,-] [C,-A,,-E,,-D,,-C,,-B,,,-][E,-C,-A,,-E,,-D,,-C,,-B,,,-]| \
[A,4-E,4-C,4-A,,4-E,,4-D,,4-C,,4-B,,,4-] [A,E,C,A,,E,,-D,,-C,,-B,,,-][A,,-E,,-D,,-C,,-B,,,-] [C,-A,,-E,,-D,,-C,,-B,,,-][E,-C,-A,,-E,,-D,,-C,,-B,,,-]|
[A,4E,4C,4A,,4E,,4-D,,4-C,,4-B,,,4-] [E,,-D,,-C,,-B,,,-][D,-E,,-D,,-C,,-B,,,-] [=F,-D,-E,,-D,,-C,,-B,,,-][^A,-F,-D,-E,,-D,,-C,,-B,,,-]| \
[D4-^A,4-F,4-D,4-E,,4-D,,4-C,,4-B,,,4-] [D^A,F,D,E,,-D,,-C,,-B,,,-][D,-E,,-D,,-C,,-B,,,-] [F,-D,-E,,-D,,-C,,-B,,,-][^A,-F,-D,-E,,-D,,-C,,-B,,,-]| \
[D4^A,4F,4D,4E,,4-D,,4-C,,4-B,,,4-] [E,,-D,,-C,,-B,,,-][E,-E,,-D,,-C,,-B,,,-] [B,-E,-E,,-D,,-C,,-B,,,-][D-B,-E,-E,,-D,,-C,,-B,,,-]| \
[E4-D4-B,4-E,4-E,,4-D,,4-C,,4-B,,,4-] [EDB,E,E,,-D,,-C,,-B,,,-][E,-E,,-D,,-C,,-B,,,-] [B,-E,-E,,-D,,-C,,-B,,,-][D-B,-E,-E,,-D,,-C,,-B,,,-]|
[E4D4B,4E,4E,,4-D,,4-C,,4-B,,,4-] [=A,A,,E,,-D,,-C,,-B,,,-][A,-E,,-D,,-C,,-B,,,-] [C-A,-E,,-D,,-C,,-B,,,-][E-C-A,-E,,-D,,-C,,-B,,,-]| \
[A4-E4-C4-A,4-E,,4-D,,4-C,,4-B,,,4-] [AECA,E,,-D,,-C,,-B,,,-][A,-E,,-D,,-C,,-B,,,-] [C-A,-E,,-D,,-C,,-B,,,-][E-C-A,-E,,-D,,-C,,-B,,,-]| \
[A4-E4-C4-A,4-E,,4-D,,4-C,,4-B,,,4-] [AECA,E,,-D,,-C,,-B,,,-][A,-E,,-D,,-C,,-B,,,-] [C-A,-E,,-D,,-C,,-B,,,-][E-C-A,-E,,-D,,-C,,-B,,,-]| \
[A4-E4-C4-A,4-E,,4-D,,4-C,,4-B,,,4-] [AECA,E,,-D,,-C,,-B,,,-][A,-E,,-D,,-C,,-B,,,-] [C-A,-E,,-D,,-C,,-B,,,-][E-C-A,-E,,-D,,-C,,-B,,,-]|
[A4E4C4A,4E,,4-D,,4-C,,4-B,,,4-] [E,,-D,,-C,,-B,,,-][D-E,,-D,,-C,,-B,,,-] [F-D-E,,-D,,-C,,-B,,,-][^A-F-D-E,,-D,,-C,,-B,,,-]| \
[d4-^A4-F4-D4-E,,4-D,,4-C,,4-B,,,4-] [d^AFDE,,-D,,-C,,-B,,,-][D-E,,-D,,-C,,-B,,,-] [F-D-E,,-D,,-C,,-B,,,-][^A-F-D-E,,-D,,-C,,-B,,,-]| \
[d4^A4F4D4E,,4-D,,4-C,,4-B,,,4-] [E,,-D,,-C,,-B,,,-][E-E,,-D,,-C,,-B,,,-] [^G-E-E,,-D,,-C,,-B,,,-][B-^G-E-E,,-D,,-C,,-B,,,-]| \
[e4-B4-^G4-E4-E,,4-D,,4-C,,4-B,,,4-] [eB^GEE,,-D,,-C,,-B,,,-][E,-E,,-D,,-C,,-B,,,-] [^G,-E,-E,,-D,,-C,,-B,,,-][B,-^G,-E,-E,,-D,,-C,,-B,,,-]|
[E4B,4^G,4E,4E,,4-D,,4-C,,4-B,,,4-] [=A,A,,E,,-D,,-C,,-B,,,-][E,,3-D,,3-C,,3-B,,,3-]| \
[E,,2-D,,2-C,,2-B,,,2-] [e-E,,-D,,-C,,-B,,,-][a-e-E,,-D,,-C,,-B,,,-] [c'4-a4-e4-E,,4-D,,4-C,,4-B,,,4-]| \
[c'2a2e2E,,2-D,,2-C,,2-B,,,2-] [E2E,,2-D,,2-C,,2-B,,,2-] [A2E,,2-D,,2-C,,2-B,,,2-] [E,,2-D,,2-C,,2-B,,,2-]| \
[E,,2-D,,2-C,,2-B,,,2-] [e-E,,-D,,-C,,-B,,,-][a-e-E,,-D,,-C,,-B,,,-] [c'4-a4-e4-E,,4-D,,4-C,,4-B,,,4-]|
[c'2a2e2E,,2-D,,2-C,,2-B,,,2-] [E2E,,2-D,,2-C,,2-B,,,2-] [A2E,,2-D,,2-C,,2-B,,,2-] [E,,2-D,,2-C,,2-B,,,2-]| \
[E,,2-D,,2-C,,2-B,,,2-] [e-E,,-D,,-C,,-B,,,-][a-e-E,,-D,,-C,,-B,,,-] [c'4-a4-e4-E,,4-D,,4-C,,4-B,,,4-]| \
[c'2a2e2E,,2-D,,2-C,,2-B,,,2-] [E2E,,2-D,,2-C,,2-B,,,2-] [A2E,,2-D,,2-C,,2-B,,,2-] [E,,2-D,,2-C,,2-B,,,2-]| \
[E,,2-D,,2-C,,2-B,,,2-] [e-E,,-D,,-C,,-B,,,-][a-e-E,,-D,,-C,,-B,,,-] [c'4-a4-e4-E,,4-D,,4-C,,4-B,,,4-]|
[c'2a2e2E,,2-D,,2-C,,2-B,,,2-] [E2E,,2-D,,2-C,,2-B,,,2-] [A4E,,4-D,,4-C,,4-B,,,4-]| \
[E,,2-D,,2-C,,2-B,,,2-] [E2E,,2-D,,2-C,,2-B,,,2-] [A,4E,,4-D,,4-C,,4-B,,,4-]| \
[E,,2-D,,2-C,,2-B,,,2-] [E,2E,,2-D,,2-C,,2-B,,,2-] [A,,4E,,4-D,,4-C,,4-B,,,4-]| \
[E,,2-D,,2-C,,2-B,,,2-] [E,,2-E,,2D,,2-C,,2-B,,,2-] [E,,2-D,,2-C,,2-B,,,2-A,,,2] [E,,2-E,,2D,,2-C,,2-B,,,2-]|
[E,,2-D,,2-C,,2-B,,,2-A,,,2] [E,,2-E,,2D,,2-C,,2-B,,,2-] [E,,-D,,-C,,-B,,,-A,,,][E,,-D,,-C,,-C,,B,,,-] [E,,-E,,D,,-C,,-B,,,-][A,,E,,-D,,-C,,-B,,,-]| \
[E,,-D,,-C,,-B,,,-A,,,][E,,-D,,-C,,-C,,B,,,-] [E,,-E,,D,,-C,,-B,,,-][A,,E,,-D,,-C,,-B,,,-] [E,,-D,,-C,,-B,,,-A,,,][E,,-D,,-C,,-C,,B,,,-] [E,,-E,,D,,-C,,-B,,,-][A,,E,,-D,,-C,,-B,,,-]| \
[E,,-D,,-C,,-B,,,-A,,,][E,,-D,,-C,,-C,,B,,,-] [E,,-E,,D,,-C,,-B,,,-][A,,E,,-D,,-C,,-B,,,-] [E,,-D,,-C,,-B,,,-A,,,][E,,-D,,-C,,-C,,B,,,-] [E,,-E,,D,,-C,,-B,,,-][A,,E,,-D,,-C,,-B,,,-]| \
[E,,-D,,-C,,-B,,,-A,,,][E,,-D,,-C,,-C,,B,,,-] [E,,-E,,D,,-C,,-B,,,-][A,,E,,-D,,-C,,-B,,,-] [E,,-D,,-C,,-B,,,-A,,,][E,,-D,,-C,,-C,,B,,,-] [E,,-E,,D,,-C,,-B,,,-][A,,E,,-D,,-C,,-B,,,-]|
[E,,-D,,-C,,-B,,,-A,,,][E,,-D,,-C,,-C,,B,,,-] [E,,-E,,D,,-C,,-B,,,-][A,,E,,-D,,-C,,-B,,,-] [E,,-D,,-C,,-B,,,-A,,,][E,,-D,,-C,,-C,,B,,,-] [E,,-E,,D,,-C,,-B,,,-][A,,E,,-D,,-C,,-B,,,-]| \
[E,,-D,,-C,,-B,,,-A,,,][E,,-D,,-C,,-C,,B,,,-] [E,,-E,,D,,-C,,-B,,,-][A,,E,,-D,,-C,,-B,,,-] [E,,-D,,-C,,-B,,,-A,,,][E,,-D,,-C,,-C,,B,,,-] [E,,-E,,D,,-C,,-B,,,-][A,,E,,-D,,-C,,-B,,,-]| \
[E,,-D,,-C,,-B,,,-A,,,][E,,-D,,-C,,-C,,B,,,-] [E,,-E,,D,,-C,,-B,,,-][A,,E,,-D,,-C,,-B,,,-] [A,,2E,,2-E,,2D,,2-C,,2-C,,2B,,,2-A,,,2] [E,,2-D,,2-C,,2-B,,,2-]| \
[E,,4-D,,4-C,,4-B,,,4-] [A,,2E,,2-E,,2D,,2-C,,2-C,,2B,,,2-A,,,2] [E,,2-D,,2-C,,2-B,,,2-]|
[E,,4-D,,4-C,,4-B,,,4-] [A,,2E,,2-E,,2D,,2-C,,2-C,,2B,,,2-A,,,2] 
