Error: Time=153344 Track=2 Note terminated when not on - pitch 74
Error: Time=153344 Track=2 Note terminated when not on - pitch 72
Error: Time=171776 Track=2 Note terminated when not on - pitch 79
Error: Time=171776 Track=2 Note terminated when not on - pitch 77
Error: Time=196608 Track=2 Note terminated when not on - pitch 71
Error: Time=219136 Track=2 Note terminated when not on - pitch 76
Error: Time=249088 Track=2 Note terminated when not on - pitch 67
Error: Time=249173 Track=2 Note terminated when not on - pitch 69
Error in MIDI file - notes still on at end of track!
Error: Time=147200 Track=3 Note terminated when not on - pitch 65
Error: Time=243456 Track=3 Note terminated when not on - pitch 70
Error in MIDI file - notes still on at end of track!
Error: Time=159488 Track=4 Note terminated when not on - pitch 62
Error: Time=159488 Track=4 Note terminated when not on - pitch 60
Error: Time=192256 Track=4 Note terminated when not on - pitch 59
Error: Time=192256 Track=4 Note terminated when not on - pitch 57
Error: Time=212736 Track=4 Note terminated when not on - pitch 64
Error: Time=241408 Track=4 Note terminated when not on - pitch 55
Error: Time=241408 Track=4 Note terminated when not on - pitch 53
Error in MIDI file - notes still on at end of track!
Error: Time=186112 Track=5 Note terminated when not on - pitch 50
Error: Time=186112 Track=5 Note terminated when not on - pitch 48
Error in MIDI file - notes still on at end of track!
X: 1
T: from midi_transposed/C_bach_846.mid
M: 4/4
L: 1/8
Q:1/4=74
