Error: Time=136960 Track=0 Note terminated when not on - pitch 81
Error: Time=138581 Track=0 Note terminated when not on - pitch 84
Error: Time=140032 Track=0 Note terminated when not on - pitch 89
Error: Time=144725 Track=0 Note terminated when not on - pitch 77
Error: Time=146176 Track=0 Note terminated when not on - pitch 72
Error: Time=149248 Track=0 Note terminated when not on - pitch 79
Error: Time=150869 Track=0 Note terminated when not on - pitch 83
Error: Time=152320 Track=0 Note terminated when not on - pitch 87
Error: Time=153941 Track=0 Note terminated when not on - pitch 82
Error: Time=157013 Track=0 Note terminated when not on - pitch 75
Error: Time=158464 Track=0 Note terminated when not on - pitch 70
Error: Time=640768 Track=0 Note terminated when not on - pitch 86
Error: Time=643840 Track=0 Note terminated when not on - pitch 94
Error: Time=656128 Track=0 Note terminated when not on - pitch 92
Error: Time=660821 Track=0 Note terminated when not on - pitch 80
Error: Time=785749 Track=0 Note terminated when not on - pitch 65
Error: Time=788821 Track=0 Note terminated when not on - pitch 69
Error in MIDI file - notes still on at end of track!
Error: Time=788821 Track=1 Note terminated when not on - pitch 53
Error in MIDI file - notes still on at end of track!
X: 1
T: from midi_transposed/C_beethoven_les_adieux_3.mid
M: 6/8
L: 1/8
Q:1/4=120
