X: 1
T: from midi_transposed/C_beethoven_opus90_1.mid
M: 3/4
L: 1/8
Q:1/4=150
%beats in anacrusis = 4
% Last note suggests minor mode tune
K:C % 0 sharps
V:1
% Piano
%%MIDI program 0
%%MIDI program 0
x2| \
x4 [c/2A/2E/2C/2]x3/2| \
[c3A3-E3-C3-][BAEC] [A/2C/2]x3/2| \
[dBD]x3 [d2B2]| \
[d3B3]c [d3/2B3/2]x/2|
[e3/2c3/2]x2x/2 [e/2c/2G/2E/2]x3/2| \
[e3c3-G3-E3-][dcGE] [c/2E/2]x3/2| \
[^f^d^F]x3 [^f2^d2]| \
[^f3^d3]e [^f3/2^d3/2]x/2|
[g3/2e3/2]x2x/2 g2-| \
g2 c'2 a2| \
g2 =f2 f2-| \
f2 =d'2 f2-|
f2 e2 e2-| \
e2 c2 c2-| \
c2 A2 A2-| \
A2 C2 A,2|
[E3-^G,3-][E/2^G,/2]x/2 [a'2-a2-]| \
[a'3a3][^g'^g] [a'2a2]| \
[B4A4F4] [B2A2^F2]| \
[B3^G3-D3-][c^G-D-] [d^G-D-][c^GD]|
B2 A2 [a'2-a2-]| \
[a'3a3][^g'^g] [a'2a2]| \
[B4A4=F4] [B2A2^F2]| \
[B3^G3-D3-][d^G-D-] [c^G-D-][B^GD]|
[A2C2] x2 [e/2E/2]x3/2| \
[e4E4] [a/2A/2]x3/2| \
[a4A4] [e'/2e/2]x3/2| \
[e'4e4] [a'/2a/2]x3/2|
[a'4a4] [^a'/2=g'/2e'/2^a/2]x3/2| \
[^a'3g'3e'3^a3]=a'/2g'/2 =f'/2e'/2d'/2c'/2| \
^a/2=a/2g/2f/2 e/2[d/2c/2]^A/2[=A/2G/2] F/2[E/2D/2]x/2[C/2B,/2]| \
Cx3 [^A/2G/2C/2]x3/2|
[=AFC]x3 [g'/2e'/2^c'/2g/2]x3/2| \
[g'3e'3^c'3g3]f'/2e'/2 d'/2^c'/2b/2a/2| \
g/2f/2e/2d/2 ^c/2[B/2A/2]G/2[F/2E/2] D/2[^C/2B,/2]x/2[A,/2^G,/2]| \
A,2 x2 [=G/2E/2A,/2]x3/2|
[FDA,]x3 ^d'2| \
^d'3=d'/2=c'/2 ^a/2^g/2=g/2f/2| \
^d/2=d/2c/2 (3^A^G=GF/2 ^D2| \
^D6-|
^D4 c2| \
c4 [^f2c2]| \
[^f4c4] [c'2=a2^f2]| \
[c'4a4-^f4-] [b2a2-^f2-]|
[^a4=a4^f4] [b2a2^f2]| \
[b6g6e6]| \
[e'6b6e6]| \
[e/2B/2]x3/2 [=f/2F/2]x3x/2|
[f/2c/2]x3/2 [^g/2^G/2]x3x/2| \
[^g/2=d/2]x3/2 [a/2A/2]x3x/2| \
[a/2e/2]x3/2 [^a/2^A/2]x3x/2| \
[=a/2e/2^c/2]x/2[^a/2e/2^c/2]x/2 [^a/2e/2^c/2]x/2[^a/2e/2^c/2]x/2 [^a/2e/2^c/2]x/2[^a/2e/2^c/2]x/2|
[^a/2e/2^c/2]x/2[^a/2e/2^c/2]x/2 [^a/2e/2^c/2]x/2[^a/2e/2^c/2]x/2 [^a/2e/2^c/2]x/2[^a/2e/2^c/2]x/2| \
[b'/2=a'/2^f'/2^d'/2b/2]x/2[=c''/2a'/2^f'/2^d'/2c'/2]x/2 [c''/2a'/2^f'/2^d'/2c'/2]x/2[c''/2a'/2^f'/2^d'/2c'/2]x/2 [c''/2a'/2^f'/2^d'/2c'/2]x/2[c''/2a'/2^f'/2^d'/2c'/2]x/2| \
[c''/2a'/2^f'/2^d'/2c'/2]x/2[c''/2a'/2^f'/2^d'/2c'/2]x/2 [c''/2a'/2^f'/2^d'/2c'/2]x/2[c''/2a'/2^f'/2^d'/2c'/2]x/2 [c''/2a'/2^f'/2^d'/2c'/2]x/2[c''/2a'/2^f'/2^d'/2c'/2]x/2| \
[c''2c'2] [b'4-b4-]|
[b'2b2] [e'4-e4-]| \
[e'2e2] [b4-B4-]| \
[b2B2] [e4-E4]| \
e2 c2 B2|
B4 ^d2| \
ec'2<c''2b'| \
xb'2<^f'2e'| \
xe'2<c'2b|
xb2<^f2e| \
e2 c2 B2| \
B=G EC B,^D| \
E2 x4|
[E6C6]| \
[=F4C4-] [c2-C2]| \
[c4A4-^F4-^D4-] [B2A2^F2^D2]| \
[B2G2E2] x4|
[E6C6]| \
[=F4C4-] [c2-C2]| \
[c4A4-^F4-^D4-] [B2A2^F2^D2]| \
x4 c2-|
[c4G4-E4-] [B2G2E2]| \
x4 c2-| \
[c4A4-^F4-] [^d2A2^F2]| \
[e2G2E2] x4|
[e2G2E2] x4| \
[e2G2E2] x4| \
e6| \
e6|
e4 [=d'/2e/2]x/2e/2x/2| \
[d'/2-e/2]d'/2-[d'/2-e/2]d'/2- [d'/2-e/2]d'/2[c'/2-e/2]c'/2 [b/2e/2]x/2e/2x/2| \
[e'/2-c'/2-e/2][e'/2c'/2]e/2x/2 e/2x/2e/2x/2 [e'/2-c'/2-e/2][e'/2-c'/2-][e'/2-c'/2-e/2][e'/2c'/2]| \
[e'/2-^c'/2-e/2][e'/2-^c'/2-][e'/2-^c'/2-e/2][e'/2-^c'/2-] [e'/2-^c'/2-e/2][e'/2^c'/2][d'/2-e/2]d'/2 [e'/2-^c'/2-e/2][e'/2^c'/2]e/2x/2|
[=f'2d'2f2] x2 [f'/2f/2]x3/2| \
[f'3f3][e'e] [d'/2d/2]x3/2| \
[g'g]x3 [g'/2g/2]x3/2| \
[g'3g3][f'f] [g'/2g/2]x3/2|
[^g'3^g3][=g'g] [^g'^g]x| \
^G3=G ^Gx| \
[B3^G3][^A=G] [B^G]x| \
[b3^g3][^a=g] [b^g]x|
[f'3f3][e'e] [f'f]x| \
D3^C Dx| \
[b'3b3][^a'^a] [b'b]x| \
[f3d3B3][edB] [fdB]x|
[e2^c2^A2] x[^a/2e/2d/2]x/2 [=a/2f/2=c/2]x3/2| \
[^g2d2B2] x[^g/2d/2B/2]x/2 [=g/2e/2^A/2]x3/2| \
[^f2c2=A2] x[=f/2c/2^G/2]x/2 [e/2c/2=G/2]x3/2| \
[^d/2A/2^F/2]x3/2 [=d/2A/2=F/2]x3/2 [^c/2^G/2F/2]x3/2|
=c/2x3/2 B/2x3/2 ^A/2x3/2| \
=A/2x3/2 ^G/2x3/2 =G/2x3/2| \
^F/2x3/2 =F/2x3/2 E/2x3/2| \
^D/2x3/2 =D/2x3/2 ^C/2x3/2|
^C=C c4-| \
c4 c2-| \
c2 f2 d2| \
c2 ^A2 ^A2-|
^A2 g2 ^A2-| \
^A2 =A2 A/2c/2f/2a/2| \
^a/2f/2d/2^A/2 d/2f/2^a/2d'/2 d'/2g/2d'/2g'/2| \
d'/2g/2d'/2^d'/2 c'/2g/2c'/2^d'/2 c'/2^f/2c'/2^d'/2|
c'/2=f/2c'/2^d'/2 =a/2f/2a/2c'/2 c'/2a/2c'/2f'/2| \
c'/2a/2c'/2f'/2 =d'/2^a/2d'/2f'/2 d'/2^a/2d'/2f'/2| \
d'/2^a/2d'/2g'/2 d'/2^a/2d'/2g'/2 ^d'/2^a/2^d'/2g'/2| \
e'/2^a/2e'/2g'/2 e'/2=a/2e'/2g'/2 e'/2a/2e'/2g'/2|
e'/2a/2e'/2g'/2 e'/2a/2e'/2g'/2 e'/2a/2e'/2g'/2| \
e'/2a/2e'/2f'/2 =d'/2a/2d'/2f'/2 d'/2a/2d'/2f'/2| \
d'/2g/2d'/2e'/2 ^c'/2g/2^c'/2e'/2 ^c'/2g/2^c'/2e'/2| \
^c'/2f/2^c'/2e'/2 ^c'/2d'/2f/2d'/2 ^c'/2d'/2f/2d'/2|
d'/2e/2d'/2e'/2 d'/2e/2d'/2e'/2 d'/2e/2d'/2e'/2| \
d'/2e/2d'/2e'/2 d'/2e/2d'/2e'/2 d'/2e/2d'/2e'/2| \
d'/2e/2d'/2e'/2 d'/2e/2d'/2e'/2 d'/2e/2d'/2e'/2| \
=c'/2e/2c'/2e'/2 c'/2e/2c'/2e'/2 e'/2a/2e'/2a'/2|
f'/2a/2f'/2a'/2 f'/2a/2f'/2a'/2 f'/2a/2f'/2a'/2| \
^f'/2c'/2^f'/2a'/2 ^f'/2c'/2^f'/2a'/2 ^f'/2c'/2^f'/2a'/2| \
e'/2c'/2e'/2a'/2 c''/2b'/2a'/2^g'/2 a'/2^g'/2a'/2b'/2| \
c''/2b'/2a'/2^g'/2 c''/2b'/2a'/2^g'/2 c''/2b'/2a'/2^g'/2|
c''/2b'/2a'/2^g'/2 a'x3| \
c''b' a'^g' a'2| \
c''2 b'2 a'2| \
^g'2 a'2 x2|
c''4 b'2-| \
b'2 a'2 x2| \
c4 BA| \
A2 x4|
x2 c2 BA| \
Ax2c BA| \
xc'' b'a' xc| \
BA x2 [c/2A/2E/2C/2]x3/2|
[c3A3-E3-C3-][BAEC] [A/2C/2]x3/2| \
[dBD]x3 [d2B2]| \
[d3B3]c [d3/2B3/2]x/2| \
[e3/2c3/2]x2x/2 [e/2c/2=G/2E/2]x3/2|
[e3c3-G3-E3-][dcGE] [c/2E/2]x3/2| \
[^f^d^F]x3 [^f2^d2]| \
[^f3^d3]e [^f3/2^d3/2]x/2| \
[g3/2e3/2]x2x/2 g2-|
g2 c'2 a2| \
g2 =f2 f2-| \
f2 =d'2 f2-| \
f2 e2 e2-|
e2 c2 c2-| \
c2 A2 A2-| \
A2 C2 A,2| \
[E3-^G,3-][E/2^G,/2]x/2 [a'2-a2-]|
[a'3a3][^g'^g] [a'2a2]| \
[B4A4F4] [B2A2^F2]| \
[B3^G3-D3-][c^G-D-] [d^G-D-][c^GD]| \
B2 A2 [a'2-a2-]|
[a'3a3][^g'^g] [a'2a2]| \
[B4A4=F4] [B2A2^F2]| \
[B3^G3-D3-][d^G-D-] [c^G-D-][B^GD]| \
[A2C2] x2 [c/2C/2]x3/2|
[c4C4] [=f/2F/2]x3/2| \
[f4F4] [c'/2c/2]x3/2| \
[c'4c4] [f'/2f/2]x3/2| \
[f'4f4] [^a'/2=g'/2^a/2]x3/2|
[^a'3g'3^a3]=a'/2g'/2 f'/2e'/2d'/2c'/2| \
^a/2=a/2g/2f/2 e/2[d/2c/2]^A/2[=A/2G/2] F/2[E/2D/2]x/2[C/2B,/2]| \
Cx3 [^A/2G/2C/2]x3/2| \
[=AFC]x3 [g'/2e'/2^c'/2g/2]x3/2|
[g'3e'3^c'3g3]f'/2e'/2 d'/2^c'/2b/2a/2| \
g/2f/2e/2d/2 ^c/2[B/2A/2]G/2[F/2E/2] D/2[^C/2B,/2]x/2[A,/2^G,/2]| \
A,2 x2 [=G/2E/2A,/2]x3/2| \
[FDA,]x3 f'x|
f'3^d'/2=d'/2 =c'/2^a/2=a/2g/2| \
f/2^d/2=d/2c/2 B/2[A/2G/2]x/2[F/2^D/2] =D2| \
D4 [^G2D2]| \
[^G4D4] [d2^G2]|
[d4^G4] [^g2d2^G2]| \
[^g4d4^G4] [f'2d'2^g2f2]| \
[f'4d'4^g4f4] [e'2d'2^g2e2]| \
[^d'4^g4^d4] [e'2=d'2^g2e2]|
[e'6a6e6]| \
[a'6a6]| \
[a/2=g/2e/2]x3/2 [^a/2f/2^A/2]x3x/2| \
[^a/2=a/2f/2]x3/2 [^c'/2g/2^c/2]x3x/2|
[^c'/2a/2g/2^c/2]x3/2 [d'/2a/2d/2]x3x/2| \
[d'/2a/2]x3/2 [^d'/2=c'/2a/2^d/2]x3x/2| \
[=d'/2a/2^f/2]x/2[^d'/2a/2^f/2]x/2 [^d'/2a/2^f/2]x/2[^d'/2a/2^f/2]x/2 [^d'/2a/2^f/2]x/2[^d'/2a/2^f/2]x/2| \
[^d'/2a/2^f/2]x/2[^d'/2a/2^f/2]x/2 [^d'/2a/2^f/2]x/2[^d'/2a/2^f/2]x/2 [^d'/2a/2^f/2]x/2[^d'/2a/2^f/2]x/2|
e'/2x/2[=f''/2f'/2]x/2 [f''/2f'/2]x/2[f''/2f'/2]x/2 [f''/2f'/2]x/2[f''/2f'/2]x/2| \
[f''/2f'/2]x/2[f''/2f'/2]x/2 [f''/2f'/2]x/2[f''/2f'/2]x/2 [f''/2f'/2]x/2[f''/2f'/2]x/2| \
[f''2f'2] [e''4-e'4-]| \
[e''2e'2] [a'4-a4-]|
[a'2a2] [e'4-e4-]| \
[e'2e2] [a4-A4]| \
a2 f2 e2| \
e4 ^g2|
af2<f'2e'| \
xe'2<b2a| \
xa2<f2e| \
xe2<B2A|
A2 F2 E2| \
EC A,F, E,^G,| \
A,2 x4| \
[A6F6]|
[^A4F4-] [f2-F2]| \
[f4=d4-B4-^G4-] [e2d2B2^G2]| \
[e2c2=A2] x4| \
[A,6F,6]|
[^A,4F,4-] [F2-F,2]| \
[F4D4-B,4-^G,4-] [E2D2B,2^G,2]| \
x4 F2-| \
[F4C4-=A,4-] [E2C2A,2]|
x4 F2-| \
[F4D4-B,4-] [^G2D2B,2]| \
[A2C2] x2 f2-| \
[f4d4-B4-^G4-] [e2d2B2^G2]|
x4 f2-| \
[f4c4-A4-] [e2c2A2]| \
x4 f2-| \
[f4d4-B4-] [^g2d2B2]|
[a2c2] x2 f'2-| \
[f'4d'4-b4-^g4-] [e'2d'2b2^g2]| \
x6| \
x4 [b2^g2]|
[c'3a3][b^g] a3/2x/2| \
[d'3/2b3/2]x2x/2 [d'2b2]| \
[d'3b3]c' [d'3/2b3/2]x/2| \
[e'3/2c'3/2]x2x/2 e'2|
e'3d' [e'3/2c'3/2]x/2| \
[f'3/2d'3/2]x2x/2 [a'2-a2-]| \
[a'3a3][^g'^g] [a'2a2]| \
[B4A4F4] [B2A2^F2]|
[B3^G3-D3-][c^G-D-] [d^G-D-][c^GD]| \
B2 A2 [a'2-a2-]| \
[a'3a3][^g'^g] [a'2a2]| \
[B4A4=F4] [B2A2^F2]|
[B3^G3-D3-][d^G-D-] [c^G-D-][B^GD]| \
[A2C2] 
V:2
% Piano
%%MIDI program 0
%%MIDI program 0
x2| \
x4 
% Piano
%%MIDI program 0
%%MIDI program 0
[A,/2A,,/2]x3/2| \
[A,4A,,4] [A,/2A,,/2]x3/2| \
[=G,G,,]x3 G2| \
[G3=F3][GE] [F3/2D3/2]x/2|
[E3/2C3/2]x2x/2 [C/2C,/2]x3/2| \
[C4C,4] [C,/2C,,/2]x3/2| \
[B,,B,,,]x3 B2| \
[B3A3][BG] [A3/2^F3/2]x/2|
[G3/2E3/2]x4x/2| \
[c4-G4E4-] [c2-A2-E2]| \
[c4A4D4] [B2-^G2]| \
[B4=G4] B2|
c4 C2| \
A,4 A2| \
=F4 F,2-| \
[F,6F,,6]|
[E,3-E,,3-][E,/2E,,/2]x2x/2| \
[E6A,6-C,6]| \
[A,4-D,4] [A,2^D,2]| \
E,6|
[C4F,4] E,=D,| \
[E4-A,4-C,4] [E2A,2-^C,2]| \
[A,4-D,4] [A,2^D,2]| \
[E,6E,,6]|
[A,2A,,2] x2 [E,/2E,,/2]x3/2| \
[E,4E,,4] [A,/2A,,/2]x3/2| \
[A,4A,,4] [E/2E,/2]x3/2| \
[E4E,4] [A/2A,/2]x3/2|
[A4A,4] [^A/2G/2E/2=C/2]x3/2| \
[^A3G3E3C3]x3| \
x6| \
x4 [E,/2E,,/2]x3/2|
[F,F,,]x3 [G/2E/2^C/2=A,/2]x3/2| \
[G3E3^C3A,3]x3| \
x6| \
x4 [^C,/2^C,,/2]x3/2|
[=D,D,,]x3 ^D2| \
^D6-| \
^D2 x4| \
x4 A2|
A4 [A2^D2]| \
[A4^D4] [A2^D2]| \
[A4^D4] [=c2A2^F2^D2]| \
[c4A4-^F4-^D4-] [B2A2-^F2-^D2-]|
[^A4=A4^F4^D4] [B2A2^F2^D2]| \
[B/2G/2E/2]x/2[B/2G/2E/2]x/2 [B/2G/2E/2]x/2[B/2G/2E/2]x/2 [B/2G/2E/2]x/2[B/2G/2E/2]x/2| \
[E/2B,/2G,/2]x/2[E/2B,/2G,/2]x/2 [E/2B,/2G,/2]x/2[E/2B,/2G,/2]x/2 [E/2B,/2G,/2]x/2[E/2B,/2G,/2]x/2| \
[=D/2B,/2^G,/2]x/2[D/2B,/2^G,/2]x/2 [C/2A,/2]x/2[C/2A,/2]x/2 [C/2A,/2]x/2[C/2A,/2]x/2|
[E/2C/2A,/2]x/2[E/2C/2A,/2]x/2 [D/2B,/2]x/2[D/2B,/2]x/2 [D/2B,/2]x/2[D/2B,/2]x/2| \
[=F/2D/2B,/2]x/2[F/2D/2B,/2]x/2 [E/2C/2]x/2[E/2C/2]x/2 [E/2C/2]x/2[E/2C/2]x/2| \
[E/2^C/2]x/2[=G/2E/2^C/2]x/2 [^F/2E/2^C/2]x/2[^F/2E/2^C/2]x/2 [^F/2E/2^C/2]x/2[^F/2E/2^C/2]x/2| \
^F/2x/2^F/2x/2 ^F/2x/2^F/2x/2 ^F/2x/2^F/2x/2|
^F/2x/2^F/2x/2 ^F/2x/2^F/2x/2 ^F/2x/2^F/2x/2| \
[A/2^F/2^D/2B,/2]x/2[A/2^F/2^D/2B,/2]x/2 [A/2^F/2^D/2B,/2]x/2[A/2^F/2^D/2B,/2]x/2 [A/2^F/2^D/2B,/2]x/2[A/2^F/2^D/2B,/2]x/2| \
[A/2^F/2^D/2B,/2]x/2[A/2^F/2^D/2B,/2]x/2 [A/2^F/2^D/2B,/2]x/2[A/2^F/2^D/2B,/2]x/2 [A/2^F/2^D/2B,/2]x/2[A/2^F/2^D/2B,/2]x/2| \
E,/2G/2B,/2G/2 ^F,/2A/2B,/2A/2 G,/2B/2B,/2B/2|
E,/2G/2B,/2G/2 ^F,/2A/2B,/2A/2 G,/2B/2B,/2B/2| \
E,/2G/2B,/2G/2 ^F,/2A/2B,/2A/2 G,/2B/2B,/2B/2| \
E,/2G/2B,/2G/2 ^F,/2A/2B,/2A/2 G,/2B/2B,/2B/2| \
A,/2G/2E/2G/2 ^A,/2G/2E/2G/2 B,/2G/2E/2G/2|
B,/2G/2E/2G/2 B,/2G/2E/2G/2 B,/2=A/2^F/2A/2| \
E,/2G/2B,/2G/2 ^F,/2A/2B,/2A/2 G,/2B/2B,/2B/2| \
E,/2G/2B,/2G/2 ^F,/2A/2B,/2A/2 G,/2B/2B,/2B/2| \
E,/2G/2B,/2G/2 ^F,/2A/2B,/2A/2 G,/2B/2B,/2B/2|
E,/2G/2B,/2G/2 ^F,/2A/2B,/2A/2 G,/2B/2B,/2B/2| \
A,/2G/2E/2G/2 ^A,/2G/2E/2G/2 B,/2G/2E/2G/2| \
B,4 [B,,2B,,,2]| \
[E,/2E,,/2]x/2[^F,/2^F,,/2]x/2 [G,/2G,,/2]x/2[=A,/2A,,/2]x/2 [B,2-B,,2-]|
[B,6B,,6]| \
[A,6A,,6]| \
[B,6B,,6]| \
[E,/2E,,/2]x/2[^F,/2^F,,/2]x/2 [G,/2G,,/2]x/2[A,/2A,,/2]x/2 [B,2-B,,2-]|
[B,6B,,6]| \
[A,6A,,6]| \
[B,6B,,6]| \
x6|
[E,6E,,6]| \
x6| \
[B,,6B,,,6]| \
[E,2E,,2] x4|
[E,2E,,2] x4| \
[E,2E,,2] x4| \
x6| \
x6|
x4 [=d/2B/2]x3/2| \
[d2B2] x2 [d/2B/2]x3/2| \
[=c2A2] x2 [c2A2]| \
[^A2G2] x2 [^AG]x|
[=A=F]A/2x/2 A/2x/2A/2x/2 A/2x/2A/2x/2| \
[A/2F/2-D/2-][F/2-D/2-][A/2F/2-D/2-][F/2D/2] A/2x/2A/2x/2 [A/2F/2D/2]x/2A/2x/2| \
[^A/2E/2-^C/2-][E/2-^C/2-][^A/2E/2-^C/2-][E/2^C/2] ^A/2x/2^A/2x/2 [^A/2E/2^C/2]x/2^A/2x/2| \
[^A/2^D/2-^C/2-][^D/2-^C/2-][^A/2^D/2-^C/2-][^D/2^C/2] ^A/2x/2^A/2x/2 [^A/2^D/2^C/2]x/2^A/2x/2|
[^G/2^D/2=C/2]x/2[^G/2^D/2C/2]x/2 [^G/2^D/2C/2]x/2[^G/2^D/2C/2]x/2 [^G/2^D/2C/2]x/2[^G/2^D/2C/2]x/2| \
[^D/2B,/2]x/2[^D/2B,/2]x/2 [^D/2B,/2]x/2[^D/2B,/2]x/2 [^D/2B,/2]x/2[^D/2B,/2]x/2| \
[B,/2^G,/2]x/2[B,/2^G,/2]x/2 [B,/2^G,/2]x/2[B,/2^G,/2]x/2 [B,/2^G,/2]x/2[B,/2^G,/2]x/2| \
[^G,/2F,/2]x/2[^G,/2F,/2]x/2 [^G,/2F,/2]x/2[^G,/2F,/2]x/2 [^G,/2F,/2]x/2[^G,/2F,/2]x/2|
[F,/2=D,/2]x/2[F,/2D,/2]x/2 [F,/2D,/2]x/2[F,/2D,/2]x/2 [F,/2D,/2]x/2[F,/2D,/2]x/2| \
[F,/2D,/2B,,/2]x/2[F,/2D,/2B,,/2]x/2 [F,/2D,/2B,,/2]x/2[F,/2D,/2B,,/2]x/2 [F,/2D,/2B,,/2]x/2[F,/2D,/2B,,/2]x/2| \
[F,/2D,/2B,,/2^G,,/2]x/2[F,/2D,/2B,,/2^G,,/2]x/2 [F,/2D,/2B,,/2^G,,/2]x/2[F,/2D,/2B,,/2^G,,/2]x/2 [F,/2D,/2B,,/2^G,,/2]x/2[F,/2D,/2B,,/2^G,,/2]x/2| \
[F,/2D,/2B,,/2=G,,/2]x/2[F,/2D,/2B,,/2G,,/2]x/2 [F,/2D,/2B,,/2G,,/2]x/2[F,/2D,/2B,,/2G,,/2]x/2 [F,/2D,/2B,,/2G,,/2]x/2[F,/2D,/2B,,/2G,,/2]x/2|
[C,/2C,,/2]x/2[C,/2C,,/2]x/2 [C,/2C,,/2]x3x/2| \
x[C,/2C,,/2]x/2 [C,/2C,,/2]x3x/2| \
x[C,/2C,,/2]x/2 [C,/2C,,/2]x3x/2| \
x[C,/2C,,/2]x3/2[C,/2C,,/2]x3/2[C,/2C,,/2]x/2|
x[C,/2C,,/2]x3/2[D,/2D,,/2]x3/2[E,/2E,,/2]x/2| \
x[F,/2F,,/2]x3/2[^F,/2^F,,/2]x3/2[G,/2G,,/2]x/2| \
x[^G,/2^G,,/2]x3/2[=A,/2A,,/2]x3/2[^A,/2^A,,/2]x/2| \
x[B,/2B,,/2]x3/2[C/2C,/2]x3/2[C/2C,/2]x/2|
x6| \
^A4 [^A2E2]| \
[=A2=F2] F2 ^F2| \
=G2 D2 ^D2|
E2 C2 G2| \
^F2 =F2 [F2-^D2]| \
[F2=D2] [^A2^A,2] [G2B,2]| \
[F2C2] [^D2G,2] [^D2-^A,2]|
[^D2=A,2] c2 [^D2-F,2]| \
[^D2^A,2] [=D2^A,2] D,2-| \
D,2 G,2 ^D,2| \
=D,2 ^C,2 ^C,2-|
^C,2 =A,2- [A,2^C,2]| \
D,2 A,2- [A,2D,2]| \
E,2 A,2- [A,2E,2]| \
F,2 A,2- [A,2F,2]|
^G,2 E2- [E2^G,2]| \
A,2 F2- [F2A,2]| \
B,2 ^G2- [^G2B,2]| \
=C2 A2- [A2C2]|
D2 B2- [B2D2]| \
^D2 c2- [c2^D2]| \
E2- [A2E2-] [c2E2]| \
e2 a2 c'2|
x2 c'/2b/2a/2^g/2 ax| \
x2 c'b a^g| \
a2 x2 c'2| \
b2 a2 ^g2|
a2 x4| \
c'4 b2-| \
b2 a2 x2| \
c4 BA|
A2 x2 c2| \
BA Ax2c'| \
ba xc' ba| \
xC B,A,/2x/2 [A,/2A,,/2]x3/2|
[A,4A,,4] [A,/2A,,/2]x3/2| \
[=G,G,,]x3 G2| \
[G3F3][GE] [F3/2=D3/2]x/2| \
[E3/2C3/2]x2x/2 [C/2C,/2]x3/2|
[C4C,4] [C,/2C,,/2]x3/2| \
[B,,B,,,]x3 B2| \
[B3A3][BG] [A3/2^F3/2]x/2| \
[G3/2E3/2]x4x/2|
[c4-G4E4-] [c2-A2-E2]| \
[c4A4D4] [B2-^G2]| \
[B4=G4] B2| \
c4 C2|
A,4 A2| \
=F4 F,2-| \
[F,6F,,6]| \
[E,3-E,,3-][E,/2E,,/2]x2x/2|
[E6A,6-C,6]| \
[A,4-D,4] [A,2^D,2]| \
E,6| \
[C4F,4] E,=D,|
[E4-A,4-C,4] [E2A,2-^C,2]| \
[A,4-D,4] [A,2^D,2]| \
[E,6E,,6]| \
[A,2A,,2] x2 [=C,/2C,,/2]x3/2|
[C,4C,,4] [F,/2F,,/2]x3/2| \
[F,4F,,4] [C/2C,/2]x3/2| \
[C4C,4] [F/2F,/2]x3/2| \
[F4F,4] [c/2^A/2G/2E/2]x3/2|
[c3^A3G3E3]x3| \
x6| \
x4 [E,/2E,,/2]x3/2| \
[F,F,,]x3 [G/2E/2^C/2=A,/2]x3/2|
[G3E3^C3A,3]x3| \
x6| \
x4 [^C,/2^C,,/2]x3/2| \
[=D,D,,]x3 [DF,^A,,]x|
[D6-F,6-^A,,6-]| \
[D4F,4^A,,4] [F,2^A,,2]| \
[F,4^A,,4] [F,2^A,,2]| \
[F,4^A,,4] [D2F,2B,,2]|
[D4F,4B,,4] [D2F,2B,,2]| \
[D4F,4B,,4] [D2F,2B,,2]| \
[D6-E,6-B,,6-]| \
[D4E,4B,,4] [D2E,2B,,2]|
[=C/2E,/2C,/2]x/2[E/2C/2]x/2 [E/2C/2]x/2[E/2C/2]x/2 [E/2C/2]x/2[E/2C/2]x/2| \
[E/2^C/2]x/2[E/2^C/2]x/2 [E/2^C/2]x/2[E/2^C/2]x/2 [E/2^C/2]x/2[E/2^C/2]x/2| \
[G/2E/2^C/2]x/2[G/2E/2^C/2]x/2 [F/2D/2]x/2[F/2D/2]x/2 [F/2D/2]x/2[F/2D/2]x/2| \
[=A/2F/2D/2]x/2[A/2F/2D/2]x/2 [G/2E/2]x/2[G/2E/2]x/2 [G/2E/2]x/2[G/2E/2]x/2|
[A/2G/2E/2]x/2[A/2G/2E/2]x/2 [A/2F/2]x/2[A/2F/2]x/2 [A/2F/2]x/2[A/2F/2]x/2| \
[A/2F/2]x/2[A/2^F/2]x/2 [A/2^F/2]x/2[A/2^F/2]x/2 [A/2^F/2]x/2[A/2^F/2]x/2| \
B/2x/2B/2x/2 B/2x/2B/2x/2 B/2x/2B/2x/2| \
B/2x/2B/2x/2 B/2x/2B/2x/2 B/2x/2B/2x/2|
[d/2B/2^G/2E/2]x/2[d/2B/2^G/2E/2]x/2 [d/2B/2^G/2E/2]x/2[d/2B/2^G/2E/2]x/2 [d/2B/2^G/2E/2]x/2[d/2B/2^G/2E/2]x/2| \
[d/2B/2^G/2E/2]x/2[d/2B/2^G/2E/2]x/2 [d/2B/2^G/2E/2]x/2[d/2B/2^G/2E/2]x/2 [d/2B/2^G/2E/2]x/2[d/2B/2^G/2E/2]x/2| \
A,/2=c/2E/2c/2 B,/2d/2E/2d/2 C/2e/2E/2e/2| \
A,/2c/2E/2c/2 B,/2d/2E/2d/2 C/2e/2E/2e/2|
A,/2c/2E/2c/2 B,/2d/2E/2d/2 C/2e/2E/2e/2| \
A,/2c/2E/2c/2 B,/2d/2E/2d/2 C/2e/2E/2e/2| \
D/2c/2A/2c/2 ^D/2c/2A/2c/2 E/2c/2A/2c/2| \
E/2c/2A/2c/2 E/2c/2A/2c/2 E/2=d/2B/2d/2|
A,,/2C/2E,/2C/2 B,,/2D/2E,/2D/2 C,/2E/2E,/2E/2| \
A,,/2C/2E,/2C/2 B,,/2D/2E,/2D/2 C,/2E/2E,/2E/2| \
A,,/2C/2E,/2C/2 B,,/2D/2E,/2D/2 C,/2E/2E,/2E/2| \
A,,/2C/2E,/2C/2 B,,/2D/2E,/2D/2 C,/2E/2E,/2E/2|
D,/2C/2A,/2C/2 ^D,/2C/2A,/2C/2 E,/2C/2A,/2C/2| \
E,4 E,,2| \
A,,/2x/2[B,/2B,,/2]x/2 [C/2C,/2]x/2[=D/2D,/2]x/2 [E2-E,2-]| \
[E6E,6]|
[D6D,6]| \
[E6E,6]| \
[A,,/2A,,,/2]x/2[B,,/2B,,,/2]x/2 [C,/2C,,/2]x/2[D,/2D,,/2]x/2 [E,2-E,,2-]| \
[E,6E,,6]|
[D,6D,,6]| \
[E,6E,,6]| \
x6| \
[E,6A,,6]|
x6| \
[E,6E,,6]| \
A,,2 x4| \
[E6E,6]|
x6| \
[E6A,6]| \
x6| \
[E6E,6]|
A,2 x4| \
e6| \
x4 =f2-| \
f2 e2 [d2B2]|
[c3A3][dB] c3/2x/2| \
[d3/2B3/2=G3/2]x2x/2 g2| \
[g3f3][ge] [f3/2d3/2]x/2| \
[e3/2c3/2]x2x/2 c'2|
c'3b a3/2x/2| \
^g3/2x4x/2| \
[E6A,6C,6]| \
D,4 ^D,2|
E,6| \
[C4F,4] [E,E,,][=D,D,,]| \
[C,4C,,4] [^C,2^C,,2]| \
[D,4D,,4] [^D,2^D,,2]|
[E,6E,,6]| \
A,,2 
