Error: Time=65280 Track=0 Note terminated when not on - pitch 70
Error: Time=96256 Track=0 Note terminated when not on - pitch 88
Error: Time=96256 Track=0 Note terminated when not on - pitch 89
Error: Time=97024 Track=0 Note terminated when not on - pitch 87
Error: Time=99328 Track=0 Note terminated when not on - pitch 86
Error: Time=99328 Track=0 Note terminated when not on - pitch 68
Error: Time=99584 Track=0 Note terminated when not on - pitch 69
Error: Time=99669 Track=0 Note terminated when not on - pitch 71
Error: Time=99840 Track=0 Note terminated when not on - pitch 72
Error: Time=100011 Track=0 Note terminated when not on - pitch 73
Error: Time=100096 Track=0 Note terminated when not on - pitch 74
Error: Time=100096 Track=0 Note terminated when not on - pitch 75
Error: Time=101376 Track=0 Note terminated when not on - pitch 77
Error: Time=101632 Track=0 Note terminated when not on - pitch 83
Error: Time=101717 Track=0 Note terminated when not on - pitch 80
Error: Time=102144 Track=0 Note terminated when not on - pitch 76
Error: Time=106155 Track=0 Note terminated when not on - pitch 84
Error: Time=106240 Track=0 Note terminated when not on - pitch 81
Error: Time=151296 Track=0 Note terminated when not on - pitch 41
Error: Time=179456 Track=0 Note terminated when not on - pitch 78
Error: Time=179968 Track=0 Note terminated when not on - pitch 66
Error: Time=179968 Track=0 Note terminated when not on - pitch 63
Error: Time=180480 Track=0 Note terminated when not on - pitch 62
Error: Time=180480 Track=0 Note terminated when not on - pitch 65
Error: Time=183040 Track=0 Note terminated when not on - pitch 60
Error: Time=265472 Track=0 Note terminated when not on - pitch 59
Error: Time=265557 Track=0 Note terminated when not on - pitch 56
Error: Time=265728 Track=0 Note terminated when not on - pitch 53
Error: Time=265899 Track=0 Note terminated when not on - pitch 50
Error: Time=265984 Track=0 Note terminated when not on - pitch 47
Error: Time=272128 Track=0 Note terminated when not on - pitch 85
Error: Time=273920 Track=0 Note terminated when not on - pitch 91
Error: Time=276480 Track=0 Note terminated when not on - pitch 92
Error: Time=276736 Track=0 Note terminated when not on - pitch 93
Error: Time=276992 Track=0 Note terminated when not on - pitch 95
Error: Time=277504 Track=0 Note terminated when not on - pitch 96
Error: Time=286976 Track=0 Note terminated when not on - pitch 82
Error: Time=304811 Track=0 Note terminated when not on - pitch 94
Error: Time=305920 Track=0 Note terminated when not on - pitch 98
Error: Time=308480 Track=0 Note terminated when not on - pitch 79
Error: Time=312320 Track=0 Note terminated when not on - pitch 100
Error: Time=412416 Track=0 Note terminated when not on - pitch 45
Error: Time=486144 Track=0 Note terminated when not on - pitch 46
Error in MIDI file - notes still on at end of track!
Error: Time=160512 Track=1 Note terminated when not on - pitch 58
Error: Time=178944 Track=1 Note terminated when not on - pitch 34
Error: Time=178944 Track=1 Note terminated when not on - pitch 33
Error: Time=179200 Track=1 Note terminated when not on - pitch 36
Error: Time=179456 Track=1 Note terminated when not on - pitch 39
Error: Time=179541 Track=1 Note terminated when not on - pitch 42
Error: Time=179883 Track=1 Note terminated when not on - pitch 48
Error: Time=179968 Track=1 Note terminated when not on - pitch 51
Error: Time=179968 Track=1 Note terminated when not on - pitch 54
Error: Time=180224 Track=1 Note terminated when not on - pitch 57
Error: Time=410368 Track=1 Note terminated when not on - pitch 64
Error: Time=439979 Track=1 Note terminated when not on - pitch 38
Error: Time=440064 Track=1 Note terminated when not on - pitch 37
Error: Time=440064 Track=1 Note terminated when not on - pitch 49
Error: Time=440320 Track=1 Note terminated when not on - pitch 40
Error: Time=440576 Track=1 Note terminated when not on - pitch 43
Error: Time=441003 Track=1 Note terminated when not on - pitch 52
Error: Time=441088 Track=1 Note terminated when not on - pitch 55
Error: Time=441344 Track=1 Note terminated when not on - pitch 61
Error: Time=441344 Track=1 Note terminated when not on - pitch 67
Error in MIDI file - notes still on at end of track!
X: 1
T: from midi_transposed/C_beethoven_hammerklavier_3.mid
M: 6/8
L: 1/8
Q:1/4=46
