Error: Time=1536 Track=0 Note terminated when not on - pitch 67
Error: Time=1792 Track=0 Note terminated when not on - pitch 79
Error: Time=19200 Track=0 Note terminated when not on - pitch 68
Error: Time=19200 Track=0 Note terminated when not on - pitch 72
Error: Time=67584 Track=0 Note terminated when not on - pitch 71
Error: Time=94208 Track=0 Note terminated when not on - pitch 61
Error: Time=94208 Track=0 Note terminated when not on - pitch 64
Error: Time=96256 Track=0 Note terminated when not on - pitch 69
Error: Time=98304 Track=0 Note terminated when not on - pitch 66
Error: Time=100352 Track=0 Note terminated when not on - pitch 74
Error: Time=104448 Track=0 Note terminated when not on - pitch 76
Error: Time=106496 Track=0 Note terminated when not on - pitch 78
Error: Time=106496 Track=0 Note terminated when not on - pitch 75
Error: Time=106496 Track=0 Note terminated when not on - pitch 83
Error: Time=239104 Track=0 Note terminated when not on - pitch 81
Error: Time=239275 Track=0 Note terminated when not on - pitch 80
Error: Time=239360 Track=0 Note terminated when not on - pitch 77
Error: Time=287232 Track=0 Note terminated when not on - pitch 94
Error: Time=287403 Track=0 Note terminated when not on - pitch 93
Error: Time=287488 Track=0 Note terminated when not on - pitch 91
Error: Time=469504 Track=0 Note terminated when not on - pitch 62
Error: Time=469675 Track=0 Note terminated when not on - pitch 60
Error: Time=469760 Track=0 Note terminated when not on - pitch 59
Error: Time=572928 Track=0 Note terminated when not on - pitch 85
Error: Time=573099 Track=0 Note terminated when not on - pitch 84
Error: Time=573184 Track=0 Note terminated when not on - pitch 82
Error: Time=832512 Track=0 Note terminated when not on - pitch 73
Error: Time=833536 Track=0 Note terminated when not on - pitch 65
Error: Time=838656 Track=0 Note terminated when not on - pitch 86
Error: Time=840704 Track=0 Note terminated when not on - pitch 90
Error: Time=1047211 Track=0 Note terminated when not on - pitch 70
Error: Time=1109760 Track=0 Note terminated when not on - pitch 88
Error: Time=1189376 Track=0 Note terminated when not on - pitch 96
Error: Time=1189547 Track=0 Note terminated when not on - pitch 95
Error: Time=1289899 Track=0 Note terminated when not on - pitch 87
Error: Time=1293824 Track=0 Note terminated when not on - pitch 89
Error: Time=1302187 Track=0 Note terminated when not on - pitch 92
Error in MIDI file - notes still on at end of track!
Error: Time=1280 Track=1 Note terminated when not on - pitch 55
Error: Time=66901 Track=1 Note terminated when not on - pitch 47
Error: Time=81920 Track=1 Note terminated when not on - pitch 54
Error: Time=86016 Track=1 Note terminated when not on - pitch 51
Error: Time=86272 Track=1 Note terminated when not on - pitch 35
Error: Time=88320 Track=1 Note terminated when not on - pitch 44
Error: Time=88320 Track=1 Note terminated when not on - pitch 32
Error: Time=90112 Track=1 Note terminated when not on - pitch 56
Error: Time=90368 Track=1 Note terminated when not on - pitch 40
Error: Time=90368 Track=1 Note terminated when not on - pitch 52
Error: Time=92416 Track=1 Note terminated when not on - pitch 37
Error: Time=92416 Track=1 Note terminated when not on - pitch 49
Error: Time=94464 Track=1 Note terminated when not on - pitch 45
Error: Time=94464 Track=1 Note terminated when not on - pitch 57
Error: Time=96512 Track=1 Note terminated when not on - pitch 42
Error: Time=98560 Track=1 Note terminated when not on - pitch 50
Error: Time=102656 Track=1 Note terminated when not on - pitch 43
Error: Time=106752 Track=1 Note terminated when not on - pitch 39
Error: Time=116992 Track=1 Note terminated when not on - pitch 31
Error: Time=245248 Track=1 Note terminated when not on - pitch 63
Error: Time=331264 Track=1 Note terminated when not on - pitch 58
Error: Time=337664 Track=1 Note terminated when not on - pitch 53
Error: Time=831488 Track=1 Note terminated when not on - pitch 46
Error: Time=1010176 Track=1 Note terminated when not on - pitch 48
Error: Time=1058475 Track=1 Note terminated when not on - pitch 41
Error: Time=1248256 Track=1 Note terminated when not on - pitch 36
Error: Time=1248256 Track=1 Note terminated when not on - pitch 38
Error in MIDI file - notes still on at end of track!
X: 1
T: from midi_transposed/C_beethoven_hammerklavier_4.mid
M: 4/4
L: 1/8
Q:1/4=55
