Error: Time=32256 Track=0 Note terminated when not on - pitch 71
Error: Time=32256 Track=0 Note terminated when not on - pitch 83
Error: Time=32512 Track=0 Note terminated when not on - pitch 72
Error: Time=32512 Track=0 Note terminated when not on - pitch 84
Error: Time=35328 Track=0 Note terminated when not on - pitch 73
Error: Time=35499 Track=0 Note terminated when not on - pitch 74
Error: Time=35584 Track=0 Note terminated when not on - pitch 75
Error: Time=35584 Track=0 Note terminated when not on - pitch 76
Error: Time=35840 Track=0 Note terminated when not on - pitch 77
Error: Time=35840 Track=0 Note terminated when not on - pitch 78
Error: Time=36096 Track=0 Note terminated when not on - pitch 79
Error: Time=36181 Track=0 Note terminated when not on - pitch 80
Error: Time=36352 Track=0 Note terminated when not on - pitch 81
Error: Time=36523 Track=0 Note terminated when not on - pitch 82
Error: Time=66560 Track=0 Note terminated when not on - pitch 55
Error: Time=66560 Track=0 Note terminated when not on - pitch 47
Error: Time=66816 Track=0 Note terminated when not on - pitch 50
Error: Time=67072 Track=0 Note terminated when not on - pitch 59
Error: Time=67243 Track=0 Note terminated when not on - pitch 62
Error: Time=67328 Track=0 Note terminated when not on - pitch 67
Error: Time=70144 Track=0 Note terminated when not on - pitch 69
Error: Time=72021 Track=0 Note terminated when not on - pitch 86
Error: Time=72448 Track=0 Note terminated when not on - pitch 91
Error: Time=72704 Track=0 Note terminated when not on - pitch 90
Error: Time=78848 Track=0 Note terminated when not on - pitch 60
Error: Time=79104 Track=0 Note terminated when not on - pitch 63
Error: Time=80213 Track=0 Note terminated when not on - pitch 87
Error: Time=81664 Track=0 Note terminated when not on - pitch 66
Error: Time=81920 Track=0 Note terminated when not on - pitch 65
Error: Time=149163 Track=0 Note terminated when not on - pitch 58
Error: Time=149248 Track=0 Note terminated when not on - pitch 57
Error: Time=149845 Track=0 Note terminated when not on - pitch 54
Error: Time=155307 Track=0 Note terminated when not on - pitch 70
Error: Time=172715 Track=0 Note terminated when not on - pitch 68
Error: Time=194304 Track=0 Note terminated when not on - pitch 89
Error: Time=198997 Track=0 Note terminated when not on - pitch 64
Error: Time=242944 Track=0 Note terminated when not on - pitch 88
Error: Time=252416 Track=0 Note terminated when not on - pitch 61
Error: Time=297984 Track=0 Note terminated when not on - pitch 52
Error: Time=310272 Track=0 Note terminated when not on - pitch 53
Error: Time=351744 Track=0 Note terminated when not on - pitch 85
Error in MIDI file - notes still on at end of track!
Error: Time=141056 Track=1 Note terminated when not on - pitch 51
Error: Time=148736 Track=1 Note terminated when not on - pitch 42
Error: Time=148736 Track=1 Note terminated when not on - pitch 45
Error: Time=148992 Track=1 Note terminated when not on - pitch 43
Error: Time=148992 Track=1 Note terminated when not on - pitch 46
Error: Time=149248 Track=1 Note terminated when not on - pitch 48
Error: Time=151808 Track=1 Note terminated when not on - pitch 56
Error: Time=153088 Track=1 Note terminated when not on - pitch 49
Error: Time=312320 Track=1 Note terminated when not on - pitch 40
Error: Time=396032 Track=1 Note terminated when not on - pitch 34
Error: Time=406528 Track=1 Note terminated when not on - pitch 36
Error in MIDI file - notes still on at end of track!
X: 1
T: from midi_transposed/C_beethoven_opus22_4.mid
M: 2/4
L: 1/16
Q:1/4=86
