Error: Time=25344 Track=0 Note terminated when not on - pitch 69
Error: Time=25344 Track=0 Note terminated when not on - pitch 72
Error: Time=31488 Track=0 Note terminated when not on - pitch 64
Error in MIDI file - notes still on at end of track!
Error in MIDI file - notes still on at end of track!
X: 1
T: from midi_transposed/C_beethoven_opus10_1.mid
M: 3/4
L: 1/8
Q:1/4=183
