Error: Time=2389 Track=0 Note terminated when not on - pitch 71
Error: Time=2389 Track=0 Note terminated when not on - pitch 79
Error: Time=3840 Track=0 Note terminated when not on - pitch 68
Error: Time=3840 Track=0 Note terminated when not on - pitch 76
Error: Time=5461 Track=0 Note terminated when not on - pitch 64
Error: Time=5461 Track=0 Note terminated when not on - pitch 72
Error: Time=6912 Track=0 Note terminated when not on - pitch 65
Error: Time=8533 Track=0 Note terminated when not on - pitch 74
Error: Time=9984 Track=0 Note terminated when not on - pitch 77
Error: Time=10752 Track=0 Note terminated when not on - pitch 75
Error: Time=10752 Track=0 Note terminated when not on - pitch 67
Error: Time=11264 Track=0 Note terminated when not on - pitch 69
Error: Time=11264 Track=0 Note terminated when not on - pitch 81
Error: Time=13056 Track=0 Note terminated when not on - pitch 83
Error: Time=13056 Track=0 Note terminated when not on - pitch 91
Error: Time=14677 Track=0 Note terminated when not on - pitch 80
Error: Time=14677 Track=0 Note terminated when not on - pitch 88
Error: Time=16128 Track=0 Note terminated when not on - pitch 84
Error: Time=19200 Track=0 Note terminated when not on - pitch 86
Error: Time=20821 Track=0 Note terminated when not on - pitch 90
Error: Time=22016 Track=0 Note terminated when not on - pitch 93
Error: Time=30037 Track=0 Note terminated when not on - pitch 62
Error: Time=40704 Track=0 Note terminated when not on - pitch 89
Error: Time=52992 Track=0 Note terminated when not on - pitch 87
Error: Time=69973 Track=0 Note terminated when not on - pitch 95
Error: Time=71168 Track=0 Note terminated when not on - pitch 96
Error: Time=111104 Track=0 Note terminated when not on - pitch 63
Error: Time=131072 Track=0 Note terminated when not on - pitch 70
Error: Time=241152 Track=0 Note terminated when not on - pitch 61
Error: Time=241152 Track=0 Note terminated when not on - pitch 73
Error: Time=245760 Track=0 Note terminated when not on - pitch 60
Error in MIDI file - notes still on at end of track!
Error: Time=2389 Track=1 Note terminated when not on - pitch 55
Error: Time=3840 Track=1 Note terminated when not on - pitch 52
Error: Time=3840 Track=1 Note terminated when not on - pitch 59
Error: Time=5461 Track=1 Note terminated when not on - pitch 48
Error: Time=6912 Track=1 Note terminated when not on - pitch 50
Error: Time=8533 Track=1 Note terminated when not on - pitch 47
Error: Time=9984 Track=1 Note terminated when not on - pitch 45
Error: Time=9984 Track=1 Note terminated when not on - pitch 53
Error: Time=10752 Track=1 Note terminated when not on - pitch 51
Error: Time=10752 Track=1 Note terminated when not on - pitch 43
Error: Time=11264 Track=1 Note terminated when not on - pitch 42
Error: Time=39253 Track=1 Note terminated when not on - pitch 49
Error: Time=46592 Track=1 Note terminated when not on - pitch 36
Error: Time=131072 Track=1 Note terminated when not on - pitch 58
Error: Time=132096 Track=1 Note terminated when not on - pitch 57
Error: Time=232192 Track=1 Note terminated when not on - pitch 37
Error in MIDI file - notes still on at end of track!
X: 1
T: from midi_transposed/C_beethoven_hammerklavier_2.mid
M: 3/8
L: 1/16
Q:1/4=120
