Error: Time=4437 Track=0 Note terminated when not on - pitch 65
Error: Time=8960 Track=0 Note terminated when not on - pitch 69
Error: Time=13653 Track=0 Note terminated when not on - pitch 64
Error: Time=88832 Track=0 Note terminated when not on - pitch 67
Error: Time=89088 Track=0 Note terminated when not on - pitch 66
Error: Time=90112 Track=0 Note terminated when not on - pitch 71
Error: Time=108800 Track=0 Note terminated when not on - pitch 76
Error: Time=108885 Track=0 Note terminated when not on - pitch 78
Error: Time=109056 Track=0 Note terminated when not on - pitch 79
Error: Time=109227 Track=0 Note terminated when not on - pitch 81
Error: Time=109312 Track=0 Note terminated when not on - pitch 83
Error: Time=109312 Track=0 Note terminated when not on - pitch 84
Error: Time=116224 Track=0 Note terminated when not on - pitch 61
Error: Time=116395 Track=0 Note terminated when not on - pitch 62
Error: Time=116480 Track=0 Note terminated when not on - pitch 63
Error: Time=117077 Track=0 Note terminated when not on - pitch 68
Error: Time=117419 Track=0 Note terminated when not on - pitch 70
Error: Time=117504 Track=0 Note terminated when not on - pitch 72
Error: Time=117760 Track=0 Note terminated when not on - pitch 73
Error: Time=117760 Track=0 Note terminated when not on - pitch 74
Error: Time=118016 Track=0 Note terminated when not on - pitch 75
Error: Time=118272 Track=0 Note terminated when not on - pitch 77
Error: Time=118528 Track=0 Note terminated when not on - pitch 80
Error: Time=118784 Track=0 Note terminated when not on - pitch 82
Error: Time=119125 Track=0 Note terminated when not on - pitch 85
Error: Time=129792 Track=0 Note terminated when not on - pitch 57
Error: Time=134656 Track=0 Note terminated when not on - pitch 56
Error: Time=134827 Track=0 Note terminated when not on - pitch 59
Error: Time=147200 Track=0 Note terminated when not on - pitch 60
Error: Time=332800 Track=0 Note terminated when not on - pitch 54
Error: Time=332800 Track=0 Note terminated when not on - pitch 55
Error: Time=333312 Track=0 Note terminated when not on - pitch 58
Error in MIDI file - notes still on at end of track!
Error: Time=129792 Track=1 Note terminated when not on - pitch 48
Error: Time=346453 Track=1 Note terminated when not on - pitch 53
Error in MIDI file - notes still on at end of track!
X: 1
T: from midi_transposed/C_beethoven_opus22_2.mid
M: 9/8
L: 1/8
Q:1/4=65
