Error: Time=32512 Track=0 Note terminated when not on - pitch 75
Error: Time=32512 Track=0 Note terminated when not on - pitch 76
Error: Time=35584 Track=0 Note terminated when not on - pitch 71
Error: Time=35584 Track=0 Note terminated when not on - pitch 73
Error: Time=47872 Track=0 Note terminated when not on - pitch 66
Error: Time=47872 Track=0 Note terminated when not on - pitch 68
Error: Time=87808 Track=0 Note terminated when not on - pitch 83
Error: Time=87808 Track=0 Note terminated when not on - pitch 84
Error: Time=90880 Track=0 Note terminated when not on - pitch 79
Error: Time=90880 Track=0 Note terminated when not on - pitch 81
Error: Time=103168 Track=0 Note terminated when not on - pitch 74
Error: Time=106240 Track=0 Note terminated when not on - pitch 67
Error: Time=106240 Track=0 Note terminated when not on - pitch 69
Error: Time=109312 Track=0 Note terminated when not on - pitch 65
Error: Time=112384 Track=0 Note terminated when not on - pitch 62
Error: Time=112384 Track=0 Note terminated when not on - pitch 64
Error: Time=129792 Track=0 Note terminated when not on - pitch 55
Error: Time=131840 Track=0 Note terminated when not on - pitch 56
Error: Time=155392 Track=0 Note terminated when not on - pitch 60
Error: Time=155392 Track=0 Note terminated when not on - pitch 63
Error: Time=161536 Track=0 Note terminated when not on - pitch 61
Error: Time=204544 Track=0 Note terminated when not on - pitch 72
Error: Time=226048 Track=0 Note terminated when not on - pitch 70
Error in MIDI file - notes still on at end of track!
Error: Time=7936 Track=1 Note terminated when not on - pitch 59
Error: Time=11008 Track=1 Note terminated when not on - pitch 57
Error: Time=54016 Track=1 Note terminated when not on - pitch 51
Error: Time=54016 Track=1 Note terminated when not on - pitch 52
Error: Time=115456 Track=1 Note terminated when not on - pitch 50
Error in MIDI file - notes still on at end of track!
X: 1
T: from midi_transposed/C_bor_ps4.mid
M: 3/4
L: 1/8
Q:1/4=125
