X: 1
T: from midi_transposed/C_br_im5.mid
M: 6/8
L: 1/8
Q:1/4=80
%beats in anacrusis = 8
% Last note suggests minor mode tune
K:C % 0 sharps
V:1
% Piano
%%MIDI program 0
%%MIDI program 0
x4| \
x3 [ecE]f/2x3/2| \
[c'ae]^d/2x3/2 [ecE]f/2x3/2| \
[c'ae]A/2x3/2 [f=dF]g/2x3/2| \
[d'bf]e/2x3/2 [fdF]g/2x3/2|
[d'bf]B/2x3/2 [geG]a/2x3/2| \
[e'^c'g]^c/2x3/2 [afA]^a/2x3/2| \
[^f'^d'=a]^d/2x3/2 [^ag^A]=c'/2x3/2| \
[^f'b-][b/2c/2]x3/2 [e'=a-][a/2B/2]x3/2|
[^d'2-g2][^d'/2^f/2]x/2 [bgB]e'/2x3/2| \
[a'^f'=d'-][d'/2^f/2]x3/2 [g'e'c'-][c'/2e/2]x3/2| \
[^f'^d'b-][b^d]a [^dA-][^f2-A2-]| \
[^f3-A3] [^f^G-][=f2-=d2-^G2-]|
[f3/2d3/2^G3/2-]^Gx/2 [ecE]f/2x3/2| \
[c'ae]^d/2x3/2 [ecE]f/2x3/2| \
[c'ae]A/2x3/2 [f=dF]=g/2x3/2| \
[d'bf]e/2x3/2 [fdF]g/2x3/2|
[d'bf]B/2x3/2 [geG]a/2x3/2| \
[e'^c'g]^c/2x3/2 [afA]^a/2x3/2| \
[^f'^d'=a]^d/2x3/2 [^ag^A]=c'/2x3/2| \
[^f'b-][b/2c/2]x3/2 [e'=a-][a/2B/2]x3/2|
[^d'2-g2][^d'/2^f/2]x/2 [bgB]e'/2x3/2| \
[a'^f'=d'-][d'/2^f/2]x3/2 [g'e'c'-][c'/2e/2]x3/2| \
[^f'^d'b-][b^d]a [^dA-][^f2-A2]| \
[^f-^G][^f2B2-] [eB-][^g2-B2]|
[^gA]^c2- [^c=F]^G2-| \
[^G-^A,][^G2^C2-] [^F^C-][E2-^C2]| \
[EB,]x^D ^d^f2-| \
^fB-[B-E] [eB]^g2-|
^g^c-[^c-=F] [f^c]^g2-| \
^g^c-[^c-^F] [^f^c]^c'2-| \
^c'^d-[^d-B] [b^d]=a2-| \
a=d-[d-^G] [^gd]=f2-|
f^G-[^G-D] [d^G]B2-| \
B^G-[^G-D] [d^G]f2-| \
f^G-[^G-D] [d^G]B2-| \
B^G-[^G-D] [d^G]f2-|
f4-fx| \
[ed^G]Bx [edA]fx| \
[ed^G]Bx [^gf=c]ax| \
[^gfB]dx [^gfc]ax|
[^gfB]dx [afA]^a/2x3/2| \
[f'd'=a]^g/2x3/2 [afA]^a/2x3/2| \
[f'd'^g]d/2x3/2 [=geG]^g/2x3/2| \
[e'c'=g]^f/2x3/2 [geG]^g/2x3/2|
[^d'c'^f]c/2x3/2 [=f=dF]^f/2x3/2| \
[=fd^A]=g/2x3/2 [d'^af]e/2x3/2| \
[^afd]c/2x3/2 [f-d-^A][f2-d2-=A2-]| \
[f-d-A][f2d2^G2-] [f^G-][e2-^G2-]|
[e^G][^d2A2] ^d^f2-| \
[^f-^G][^f2B2-] [eB-][^g2-B2]| \
[^gA]^c2- [^c=F]^G2-| \
[^G-^A,][^G2^C2-] [^F^C-][E2-^C2]|
[EB,]x^D ^d^f2-| \
^fB-[B-E] [eB]^g2-| \
^g^c-[^c-=F] [f^c]^g2-| \
^g^c-[^c-^F] [^f^c]^c'2-|
^c'^d-[^d-B] [b^d]=a2-| \
a=d-[d-^G] [^gd]=f2-| \
f^G-[^G-D] [d^G]B2-| \
B^G-[^G-D] [d^G]f2-|
f^G-[^G-D] [d^G]B2-| \
B^G-[^G-D] [d^G]f2-| \
f4-fx| \
[ed^G]Bx [edA]fx|
[ed^G]Bx [^gf=c]ax| \
[^gfB]dx [^gfc]ax| \
[^gfB]dx [afA]^a/2x3/2| \
[f'd'=a]^g/2x3/2 [afA]^a/2x3/2|
[f'd'^g]d/2x3/2 [=geG]^g/2x3/2| \
[e'c'=g]^f/2x3/2 [geG]^g/2x3/2| \
[^d'c'^f]c/2x3/2 [=f=dF]^f/2x3/2| \
[=fd^A]=g/2x3/2 [d'^af]e/2x3/2|
[^afd]c/2x3/2 [f-d-^A][f2-d2-=A2-]| \
[f6-d6-A6-]| \
[fdA][e3-^G3D3-][e2-d2-D2-]| \
[edD][e3-^c3E3][e2-B2-^G2-D2-]|
[e4-B4^G4D4][e2A2^C2]|
V:2
% Piano
%%MIDI program 0
%%MIDI program 0
x4| \
x3 
% Piano
%%MIDI program 0
%%MIDI program 0
[A=CA,]^G,/2x3/2| \
[A,E,C,]B,/2x3/2 [ACA,]^G,/2x3/2| \
[A,E,C,]C/2x3/2 [BDB,]^A,/2x3/2| \
[B,F,D,]C/2x3/2 [BDB,]^A,/2x3/2|
[B,F,D,]D/2x3/2 [cEC]B,/2x3/2| \
[^C=G,E,]G/2x3/2 [dFD]^C/2x3/2| \
[^D=A,^F,]A/2x3/2 [eGE]G,/2x3/2| \
[^F=CA,]B/2x3/2 [EB,]A/2x3/2|
[^D-B,-][B^D-B,-][A/2^D/2B,/2]x/2 [eGE]G,/2x3/2| \
[^F=DA,]d/2x3/2 [GEB,]c/2x3/2| \
[A^FB,]Bx E,,E,2-| \
[A,E,-][C2E,2-] [B,E,-][D2-E,2-]|
[D3/2E,3/2]x3/2 [ACA,]^G,/2x3/2| \
[A,E,C,]B,/2x3/2 [ACA,]^G,/2x3/2| \
[A,E,C,]C/2x3/2 [BDB,]^A,/2x3/2| \
[B,=F,D,]C/2x3/2 [BDB,]^A,/2x3/2|
[B,F,D,]D/2x3/2 [cEC]B,/2x3/2| \
[^C=G,E,]G/2x3/2 [dFD]^C/2x3/2| \
[^D=A,^F,]A/2x3/2 [eGE]G,/2x3/2| \
[^F=CA,]B/2x3/2 [EB,]A/2x3/2|
[^D-B,-][B^D-B,-][A/2^D/2B,/2]x/2 [eGE]G,/2x3/2| \
[^F=DA,]d/2x3/2 [GEB,]c/2x3/2| \
[A^FB,]Bx E,,B,,2| \
E,^G,2 E,,^C,2|
E,A,2 E,,^A,,2| \
^C,E,2 E,,=A,,2| \
=C,[A,3^F,3E,3]E,^G,| \
^Gx2 E,,/2x/2E,A,|
Ax2 E,,/2x/2E,^A,| \
^Ax2 E,,/2x/2E,=A,| \
Ax2 E,,/2x/2E,B,| \
B2<E,,2E,B,|
A2<E,,2=F,-[DF,]| \
AE,2 xD,-[B,D,]| \
AE,2 xF,-[DF,]| \
AE,2 xD,-[B,D,]|
A/2x/2B,,-[DB,,] A/2x/2E,D| \
x2E x2[DE,]| \
x2E x2[DE,]| \
x2E x2[DE,]|
x2E [dFD]^C/2x3/2| \
[DA,F,]E/2x3/2 [dFD]^C/2x3/2| \
[DB,F,]^G/2x3/2 [=cEC]B,/2x3/2| \
[C=G,E,]D/2x3/2 [cEC]B,/2x3/2|
[CA,^D,]^F/2x3/2 [^A=D^A,]=A,/2x3/2| \
[=FD^A,]=A,/2x3/2 [^A,F,D,]^C/2x3/2| \
[D^A,F,]E/2x3/2 [F3-D3-^A,3-]| \
[F-D-^A,][F2D2B,2-] [DB,-][E2-B,2-]|
[EB,-][^F2B,2] E,,B,,2| \
E,^G,2 E,,^C,2| \
E,=A,2 E,,^A,,2| \
^C,E,2 E,,=A,,2|
=C,[A,3^F,3E,3]E,^G,| \
^Gx2 E,,/2x/2E,A,| \
Ax2 E,,/2x/2E,^A,| \
^Ax2 E,,/2x/2E,=A,|
Ax2 E,,/2x/2E,B,| \
B2<E,,2E,B,| \
A2<E,,2=F,-[DF,]| \
AE,2 xD,-[B,D,]|
AE,2 xF,-[DF,]| \
AE,2 xD,-[B,D,]| \
A/2x/2B,,-[DB,,] A/2x/2E,D| \
x2E x2[DE,]|
x2E x2[DE,]| \
x2E x2[DE,]| \
x2E [dFD]^C/2x3/2| \
[DA,F,]E/2x3/2 [dFD]^C/2x3/2|
[DB,F,]^G/2x3/2 [=cEC]B,/2x3/2| \
[C=G,E,]D/2x3/2 [cEC]B,/2x3/2| \
[CA,^D,]^F/2x3/2 [^A=D^A,]=A,/2x3/2| \
[=FD^A,]=A,/2x3/2 [^A,F,D,]^C/2x3/2|
[D^A,F,]E/2x3/2 [F3-D3-^A,3-]| \
[F6-D6-^A,6-]| \
[FD^A,][B,4-E,4-B,,4-][B,-E,-B,,-]| \
[B,E,B,,][E,4-E,,4-][E,-E,,-]|
[E,E,,][=A,,4-A,,,4-][A,,-A,,,-]|[A,,A,,,]
