Error: Time=23040 Track=0 Note terminated when not on - pitch 79
Error: Time=23211 Track=0 Note terminated when not on - pitch 78
Error: Time=23296 Track=0 Note terminated when not on - pitch 76
Error in MIDI file - notes still on at end of track!
Error: Time=779008 Track=1 Note terminated when not on - pitch 32
Error: Time=779008 Track=1 Note terminated when not on - pitch 44
Error: Time=1360640 Track=1 Note terminated when not on - pitch 29
Error: Time=1360640 Track=1 Note terminated when not on - pitch 41
Error: Time=1420032 Track=1 Note terminated when not on - pitch 54
Error in MIDI file - notes still on at end of track!
X: 1
T: from midi_transposed/C_brahms_opus1_1.mid
M: 4/4
L: 1/8
Q:1/4=120
