Error: Time=99072 Track=1 Note terminated when not on - pitch 64
Error in MIDI file - notes still on at end of track!
X: 1
T: from midi_transposed/C_burg_agitato.mid
M: 4/4
L: 1/8
Q:1/4=144
%beats in anacrusis = 0
% Last note suggests minor mode tune
K:C % 0 sharps
V:1
% Piano
%%MIDI program 0
%%MIDI program 0
x6 xc'-| \
c'c'2c'2b2^a-| \
^ab2e'2c'2b-| \
b=a2c'2b2^a-|
^ab2c'2c'2^c'-| \
^c'^c'2d'2=a2^g-| \
^ga2=c'2b2a-| \
a^g2a/2x4x/2|
x6 xc'-| \
c'c'2c'2b2^a-| \
^ab2e'2c'2b-| \
b=a2c'2b2^a-|
^ab2c'2c'2^c'-| \
^c'^c'2d'2=a2^g-| \
^ga2=c'2b2a-| \
a^g2a/2x4x/2|
x3=G2c2d-| \
de2e2d2^c-| \
^cd2G2=c2d-| \
de2g2^f2=f-|
fd2e2e2a-| \
ae2f2f2c'-| \
c'g2a2a2a-| \
aa2^g2e2e-|
ee/2-[e/2A/2-E/2-] [ecAE]x4c'-| \
c'c'2c'2b2^a-| \
^ab2f'2e'2c'-| \
c'=a2c'2b2^a-|
^ab2c'2c'2^c'-| \
^c'^c'2d'2=a2^g-| \
^ga2=c'2b2a-| \
a^g2a/2x4x/2|
x3=G2c2d-| \
de2e2d2^c-| \
^cd2G2=c2d-| \
de2g2^f2=f-|
fd2e2e2a-| \
ae2f2f2c'-| \
c'g2a2a2a-| \
aa2^g2e2e-|
ee/2-[e/2A/2-E/2-] [ecAE]x4c'-| \
c'c'2c'2b2^a-| \
^ab2f'2e'2c'-| \
c'=a2c'2b2^a-|
^ab2c'2c'2^c'-| \
^c'^c'2d'2=a2^g-| \
^ga2=c'2b2a-| \
a^g2a2a2a-|
aa2a2a2a-| \
aa2a2e2c-| \
cA2E2E2C-| \
CA, x6|
x6 [c'aec]x| \
x2 A,4 
V:2
% Piano
%%MIDI program 0
%%MIDI program 0
x2 
% Piano
%%MIDI program 0
%%MIDI program 0
A/2c/2e/2c/2 A/2c/2e/2c/2 A/2c/2x/2e/2| \
A/2c/2x/2e/2 ^G/2d/2x/2e/2 ^G/2d/2x/2e/2 ^G/2d/2x/2e/2| \
^G/2d/2x/2e/2 A/2c/2x/2e/2 A/2c/2x/2e/2 A/2c/2x/2e/2| \
A/2c/2x/2e/2 ^G/2d/2x/2e/2 ^G/2d/2x/2e/2 ^G/2d/2x/2e/2|
^G/2d/2x/2e/2 A/2c/2x/2e/2 A/2c/2x/2e/2 =G/2^A/2x/2e/2| \
G/2^A/2x/2e/2 F/2=A/2x/2d/2 F/2A/2x/2d/2 F/2A/2x/2d/2| \
F/2A/2x/2d/2 E/2A/2x/2e/2 E/2d/2x/2e/2 E/2c/2x/2e/2| \
E/2B/2x/2e/2 A/2c/2x/2e/2 ^d/2e/2f/2e/2 ^d/2e/2f/2e/2|
^d/2e/2f/2e/2 A/2c/2e/2c/2 A/2c/2e/2c/2 A/2c/2x/2e/2| \
A/2c/2x/2e/2 ^G/2=d/2x/2e/2 ^G/2d/2x/2e/2 ^G/2d/2x/2e/2| \
^G/2d/2x/2e/2 A/2c/2x/2e/2 A/2c/2x/2e/2 A/2c/2x/2e/2| \
A/2c/2x/2e/2 ^G/2d/2x/2e/2 ^G/2d/2x/2e/2 ^G/2d/2x/2e/2|
^G/2d/2x/2e/2 A/2c/2x/2e/2 A/2c/2x/2e/2 =G/2^A/2x/2e/2| \
G/2^A/2x/2e/2 F/2=A/2x/2d/2 F/2A/2x/2d/2 F/2A/2x/2d/2| \
F/2A/2x/2d/2 E/2A/2x/2e/2 E/2d/2x/2e/2 E/2c/2x/2e/2| \
E/2B/2x/2e/2 A/2c/2x/2e/2 ^d/2e/2f/2e/2 ^d/2e/2f/2e/2|
^d/2e/2f/2e/2 C/2E/2x/2E/2 C/2E/2x/2G/2 C/2E/2x/2G/2| \
C/2E/2x/2G/2 B,/2F/2x/2G/2 B,/2F/2x/2G/2 B,/2F/2x/2G/2| \
B,/2F/2x/2G/2 C/2E/2x/2E/2 C/2E/2x/2G/2 C/2E/2x/2G/2| \
C/2E/2x/2G/2 B,/2=D/2x/2G/2 B,/2D/2x/2G/2 B,/2D/2x/2G/2|
B,/2F/2x/2G/2 C/2E/2x/2G/2 C/2E/2x/2G/2 ^C/2E/2x/2A/2| \
^C/2E/2x/2A/2 D/2F/2x/2A/2 D/2F/2x/2A/2 E/2G/2x/2=c/2| \
E/2G/2x/2c/2 F/2A/2x/2c/2 F/2A/2x/2^c/2 F/2A/2x/2d/2| \
F/2A/2x/2^d/2 E/2B/2x/2e/2 E,/2E/2x/2E/2 =C,/2C/2x/2E/2|
B,,/2B,/2x/2E/2- [E-A,A,,][e/2E/2-][c/2E/2-] [A/2E/2-][c/2E/2-][e/2E/2-][c/2E/2-] [A/2E/2-][c/2E/2-]E/2-[e/2E/2-]| \
[A/2E/2-][c/2E/2-]E/2-[e/2E/2-] [^G/2E/2-][=d/2E/2-]E/2-[e/2E/2-] [^G/2E/2-][d/2E/2-]E/2-[e/2E/2-] [^G/2E/2-][d/2E/2-]E/2-[e/2E/2-]| \
[^G/2E/2-][d/2E/2-]E/2-[e/2E/2-] [A/2E/2-][c/2E/2-]E/2-[e/2E/2-] [A/2E/2-][c/2E/2-]E/2-[e/2E/2-] [A/2E/2-][c/2E/2-]E/2-[e/2E/2-]| \
[A/2E/2-][c/2E/2-]E/2-[e/2E/2-] [^G/2E/2-][d/2E/2-]E/2-[e/2E/2-] [^G/2E/2-][d/2E/2-]E/2-[e/2E/2-] [^G/2E/2-][d/2E/2-]E/2-[e/2E/2-]|
[^G/2E/2-][d/2E/2-]E/2-[e/2E/2-] [A/2E/2-][c/2E/2-]E/2-[e/2E/2-] [A/2E/2-][c/2E/2-]E/2-[e/2E/2-] [=G/2E/2-][^A/2E/2-]E/2-[e/2E/2-]| \
[G/2E/2-][^A/2E/2-]E/2-[e/2E/2-] [F/2E/2-][=A/2E/2-]E/2-[d/2E/2-] [F/2E/2-][A/2E/2-]E/2-[d/2E/2-] [F/2E/2-][A/2E/2-]E/2-[d/2E/2-]| \
[F/2E/2-][A/2E/2-]E/2-[d/2E/2-] [E/2-E/2][A/2E/2-]E/2-[e/2E/2-] [E/2-E/2][d/2E/2-]E/2-[e/2E/2-] [E/2-E/2][c/2E/2-]E/2-[e/2E/2-]| \
[E/2-E/2][B/2E/2-]E/2-[e/2E/2-] [A/2E/2-][c/2E/2-]E/2-[e/2E/2-] [^d/2E/2-][e/2E/2-][f/2E/2-][e/2E/2-] [^d/2E/2-][e/2E/2-][f/2E/2-][e/2E/2-]|
[^d/2E/2-][e/2E/2-][f/2E/2-][e/2E/2-] [E/2-C/2][E/2-E/2]E/2-[E/2-E/2] [E/2-C/2][E/2-E/2]E/2-[G/2E/2-] [E/2-C/2][E/2-E/2]E/2-[G/2E/2-]| \
[E/2-C/2][E/2-E/2]E/2-[G/2E/2-] [E/2-B,/2][F/2E/2-]E/2-[G/2E/2-] [E/2-B,/2][F/2E/2-]E/2-[G/2E/2-] [E/2-B,/2][F/2E/2-]E/2-[G/2E/2-]| \
[E/2-B,/2][F/2E/2-]E/2-[G/2E/2-] [E/2-C/2][E/2-E/2]E/2-[E/2-E/2] [E/2-C/2][E/2-E/2]E/2-[G/2E/2-] [E/2-C/2][E/2-E/2]E/2-[G/2E/2-]| \
[E/2-C/2][E/2-E/2]E/2-[G/2E/2-] [E/2-B,/2][E/2-=D/2]E/2-[G/2E/2-] [E/2-B,/2][E/2-D/2]E/2-[G/2E/2-] [E/2-B,/2][E/2-D/2]E/2-[G/2E/2-]|
[E/2-B,/2][F/2E/2-]E/2-[G/2E/2-] [E/2-C/2][E/2-E/2]E/2-[G/2E/2-] [E/2-C/2][E/2-E/2]E/2-[G/2E/2-] [E/2-^C/2][E/2-E/2]E/2-[A/2E/2-]| \
[E/2-^C/2][E/2-E/2]E/2-[A/2E/2-] [E/2-D/2][F/2E/2-]E/2-[A/2E/2-] [E/2-D/2][F/2E/2-]E/2-[A/2E/2-] [E/2-E/2][G/2E/2-]E/2-[=c/2E/2-]| \
[E/2-E/2][G/2E/2-]E/2-[c/2E/2-] [F/2E/2-][A/2E/2-]E/2-[c/2E/2-] [F/2E/2-][A/2E/2-]E/2-[^c/2E/2-] [F/2E/2-][A/2E/2-]E/2-[d/2E/2-]| \
[F/2E/2-][A/2E/2-]E/2-[^d/2E/2-] [E/2-E/2][B/2E/2-]E/2-[e/2E/2-] [E/2-E,/2][E/2-E/2]E/2-[E/2-E/2] [E/2-=C,/2][E/2-C/2]E/2-[E/2-E/2]|
[E/2-B,,/2][E/2-B,/2]E/2E/2- [E-A,A,,][e/2E/2-][c/2E/2-] [A/2E/2-][c/2E/2-][e/2E/2-][c/2E/2-] [A/2E/2-][c/2E/2-]E/2-[e/2E/2-]| \
[A/2E/2-][c/2E/2-]E/2-[e/2E/2-] [^G/2E/2-][=d/2E/2-]E/2-[e/2E/2-] [^G/2E/2-][d/2E/2-]E/2-[e/2E/2-] [^G/2E/2-][d/2E/2-]E/2-[e/2E/2-]| \
[^G/2E/2-][d/2E/2-]E/2-[e/2E/2-] [A/2E/2-][c/2E/2-]E/2-[e/2E/2-] [A/2E/2-][c/2E/2-]E/2-[e/2E/2-] [A/2E/2-][c/2E/2-]E/2-[e/2E/2-]| \
[A/2E/2-][c/2E/2-]E/2-[e/2E/2-] [^G/2E/2-][d/2E/2-]E/2-[e/2E/2-] [^G/2E/2-][d/2E/2-]E/2-[e/2E/2-] [^G/2E/2-][d/2E/2-]E/2-[e/2E/2-]|
[^G/2E/2-][d/2E/2-]E/2-[e/2E/2-] [A/2E/2-][c/2E/2-]E/2-[e/2E/2-] [A/2E/2-][c/2E/2-]E/2-[e/2E/2-] [=G/2E/2-][^A/2E/2-]E/2-[e/2E/2-]| \
[G/2E/2-][^A/2E/2-]E/2-[e/2E/2-] [F/2E/2-][=A/2E/2-]E/2-[d/2E/2-] [F/2E/2-][A/2E/2-]E/2-[d/2E/2-] [F/2E/2-][A/2E/2-]E/2-[d/2E/2-]| \
[F/2E/2-][A/2E/2-]E/2-[d/2E/2-] [E/2-E/2][A/2E/2-]E/2-[e/2E/2-] [E/2-E/2][d/2E/2-]E/2-[e/2E/2-] [E/2-E/2][c/2E/2-]E/2-[e/2E/2-]| \
[E/2-E/2][B/2E/2-]E/2-[e/2E/2-] [A/2E/2-][c/2E/2-]E/2-[e/2E/2-] [A/2E/2-][c/2E/2-]E/2-[e/2E/2-] [A/2E/2-][d/2E/2-]E/2-[f/2E/2-]|
[A/2E/2-][B/2E/2-]E/2-[d/2E/2-] [A/2E/2-][c/2E/2-]E/2-[e/2E/2-] [A/2E/2-][c/2E/2-]E/2-[e/2E/2-] [A/2E/2-][d/2E/2-]E/2-[f/2E/2-]| \
[A/2E/2-][B/2E/2-]E/2-[d/2E/2-] [A/2E/2-][c/2E/2-]E/2-[e/2E/2-] [A/2E/2-][c/2E/2-]E/2-[c/2E/2-] [E/2-E/2][A/2E/2-]E/2-[A/2E/2-]| \
[E/2-C/2][E/2-E/2]E/2-[E/2-E/2] [E/2-A,/2][E/2-C/2]E/2-[E/2-C/2] [E/2-A,/2][E/2-C/2]E/2-[E/2-C/2] [E/2-E,/2][E/2-A,/2]E/2-[E/2-A,/2]| \
[E/2-C,/2][E/2-E,/2]E/2-[E/2-E,/2] [E/2-A,,/2-][E/2-C,/2A,,/2-][E/2-E,/2A,,/2-][E/2-C,/2A,,/2] [E/2-A,,/2-][E/2-C,/2A,,/2-][E/2-E,/2A,,/2-][E/2-C,/2A,,/2] [E/2-A,,/2-][E/2-C,/2A,,/2-][E/2-E,/2A,,/2-][E/2-C,/2A,,/2]|
[E/2-A,,/2-][E/2-C,/2A,,/2-][E/2-E,/2A,,/2-][E/2-C,/2A,,/2] [E2-A,,2] E2- [AE-EA,]E-| \
E2- [E4-A,,4A,,,4] 
