X: 1
T: from midi_transposed/C_burg_geschwindigkeit.mid
M: 6/8
L: 1/8
Q:1/4=125
%beats in anacrusis = 0
K:C % 0 sharps
V:1
% Piano
%%MIDI program 0
%%MIDI program 0
x2c/2d/2 e/2f/2^f/2g/2a/2g/2| \
^f/2g/2a/2b/2c'/2d'/2 e'/2=f'/2^f'/2g'/2a'/2g'/2| \
^f'/2g'/2a'/2b'/2c''/2e''/2 g''/2=f''/2e''/2d''/2c''/2b'/2| \
a'/2g'/2f'/2e'/2d'/2e'/2 f'/2e'/2d'/2c'/2b/2a/2|
g/2f/2e/2d/2c/2d/2 e/2f/2^f/2g/2a/2g/2| \
^f/2g/2a/2b/2c'/2d'/2 e'/2=f'/2^f'/2g'/2a'/2g'/2| \
^f'/2g'/2a'/2b'/2c''/2d''/2 e''/2d''/2c''/2b'/2a'/2b'/2| \
c''/2b'/2a'/2g'/2^f'/2e'/2 d'/2c'/2b/2a/2g/2^f/2|
a/2g/2=f/2d/2c/2d/2 e/2f/2^f/2g/2a/2g/2| \
^f/2g/2a/2b/2c'/2d'/2 e'/2=f'/2^f'/2g'/2a'/2g'/2| \
^f'/2g'/2a'/2b'/2c''/2e''/2 g''/2=f''/2e''/2d''/2c''/2b'/2| \
a'/2g'/2f'/2e'/2d'/2e'/2 f'/2e'/2d'/2c'/2b/2a/2|
g/2f/2e/2d/2c/2d/2 e/2f/2^f/2g/2a/2g/2| \
^f/2g/2a/2b/2c'/2d'/2 e'/2=f'/2^f'/2g'/2a'/2g'/2| \
^f'/2g'/2a'/2b'/2c''/2d''/2 e''/2d''/2c''/2b'/2a'/2b'/2| \
c''/2b'/2a'/2g'/2^f'/2e'/2 d'/2c'/2b/2a/2g/2x/2|
x2=f/2g/2 a/2g/2f/2e/2d/2e/2| \
f/2e/2d/2c/2B/2c/2 B/2^A/2B/2=a/2g/2x/2| \
x2^F,,/2G,,/2 A,,/2G,,/2^F,,/2G,,/2B,,/2C,/2| \
D,/2C,/2B,,/2C,/2^D,/2E,/2 =F,/2E,/2^D,/2E,/2G,/2x/2|
x2f/2g/2 ^g/2=g/2f/2^d/2=d/2^d/2| \
f/2^d/2=d/2c/2B/2c/2 B/2^A/2B/2^g/2=g/2x/2| \
x2^F,,/2G,,/2 ^G,,/2=G,,/2^F,,/2G,,/2B,,/2C,/2| \
D,/2C,/2B,,/2C,/2D,/2^D,/2 =F,/2^D,/2=D,/2^D,/2G,/2x/2|
x2^d/2f/2 ^d/2c/2c'/2x3/2| \
^c'^d^d/2f/2 ^d/2=c/2c'/2x3/2| \
^c'^d^d/2f/2 ^d/2=c/2c'/2x/2e/2f/2| \
e/2c/2c'/2x/2f/2g/2 f/2c/2c'/2x/2^f/2g/2|
^f/2c/2c'/2x/2g/2=a/2 b/2c'/2e/2=f/2^f/2g/2| \
c/2=d/2^d/2e/2G/2A/2 B/2c/2E/2=F/2^F/2G/2| \
C/2=D/2^D/2E/2G,2x[G-E-]| \
[G2E2][A3^F3^D3][B-=F-=D-]|
[B2F2D2]c/2d/2 e/2f/2^f/2g/2a/2g/2| \
^f/2g/2a/2b/2c'/2d'/2 e'/2=f'/2^f'/2g'/2a'/2g'/2| \
^f'/2g'/2a'/2b'/2c''/2e''/2 g''/2=f''/2e''/2d''/2c''/2b'/2| \
a'/2g'/2f'/2e'/2d'/2e'/2 f'/2e'/2d'/2c'/2b/2a/2|
g/2f/2e/2d/2c/2d/2 e/2f/2^f/2g/2a/2g/2| \
^f/2g/2a/2g/2g/2=f/2 e/2f/2g/2f/2f/2e/2| \
^d/2e/2f/2e/2e/2=d/2 ^c/2d/2^c/2d/2^d/2=c/2| \
B/2c/2B/2c/2G/2g/2 f/2e/2=d/2c/2B/2A/2|
G/2F/2E/2D/2C/2D/2 ^D/2E/2xB,/2C/2| \
^C/2=D/2x=C/2D/2 ^D/2E/2xB,/2C/2| \
^C/2=D/2x=C/2D/2 ^D/2E/2xG,/2A,/2| \
B,/2C/2xE,/2F,/2 ^F,/2G,/2xC,/2=D,/2|
^D,/2E,/2x^G,/2x2x/2[=d/2c/2^F/2]x/2| \
x2=G,/2x2x/2[g/2B/2G/2]x/2| \
x2C/2x2x/2[c'/2e/2c/2]
V:2
% Piano
%%MIDI program 0
%%MIDI program 0
x2
% Piano
%%MIDI program 0
%%MIDI program 0
[E/2C/2]x/2 G,/2x/2G,/2x/2[=F/2B,/2]x/2| \
G,/2x/2G,/2x/2[E/2C/2]x/2 G,/2x/2G,/2x/2[F/2B,/2]x/2| \
G,/2x/2G,/2x/2[E/2C/2]x/2 [E/2C/2]x3/2[C/2G,/2E,/2]x/2| \
[C/2G,/2E,/2]x3/2[D/2A,/2F,/2]x/2 [D/2A,/2F,/2]x3/2[F/2B,/2G,/2]x/2|
[F/2B,/2G,/2]x3/2[E/2C/2]x/2 G,/2x/2G,/2x/2[F/2B,/2]x/2| \
G,/2x/2G,/2x/2[E/2C/2]x/2 G,/2x/2G,/2x/2[F/2B,/2]x/2| \
G,/2x/2G,/2x/2[E/2C/2]x/2 [E/2C/2]x3/2[A,/2E,/2C,/2]x/2| \
[A,/2E,/2C,/2]x3/2[C/2^F,/2D,/2]x/2 [C/2^F,/2D,/2]x3/2[B,/2G,/2]x/2|
x2[E/2C/2]x/2 G,/2x/2G,/2x/2[=F/2B,/2]x/2| \
G,/2x/2G,/2x/2[E/2C/2]x/2 G,/2x/2G,/2x/2[F/2B,/2]x/2| \
G,/2x/2G,/2x/2[E/2C/2]x/2 [E/2C/2]x3/2[C/2G,/2E,/2]x/2| \
[C/2G,/2E,/2]x3/2[D/2A,/2F,/2]x/2 [D/2A,/2F,/2]x3/2[F/2B,/2G,/2]x/2|
[F/2B,/2G,/2]x3/2[E/2C/2]x/2 G,/2x/2G,/2x/2[F/2B,/2]x/2| \
G,/2x/2G,/2x/2[E/2C/2]x/2 G,/2x/2G,/2x/2[F/2B,/2]x/2| \
G,/2x/2G,/2x/2[E/2C/2]x/2 [E/2C/2]x3/2[A,/2E,/2C,/2]x/2| \
[A,/2E,/2C,/2]x3/2[C/2^F,/2D,/2]x/2 [C/2^F,/2D,/2]x3/2[B,/2G,/2]x/2|
G,/2x/2G,/2x/2[=F/2B,/2G,/2]x/2 [F/2B,/2G,/2]x/2[F/2B,/2G,/2]x/2[F/2B,/2G,/2]x/2| \
[F/2B,/2G,/2]x/2[F/2B,/2G,/2]x/2[F/2B,/2G,/2]x/2 [F/2B,/2G,/2]x/2[F/2B,/2G,/2]x/2[F/2B,/2G,/2]x/2| \
[F/2B,/2G,/2]x/2[F/2B,/2G,/2]x/2[E/2C/2]x/2 [E/2C/2]x/2[E/2C/2]x/2[E/2C/2]x/2| \
[E/2C/2]x/2[E/2C/2]x/2[E/2C/2]x/2 [E/2C/2]x/2[E/2C/2]x/2[E/2C/2]x/2|
[E/2C/2]x/2[E/2C/2]x/2[F/2B,/2G,/2]x/2 [F/2B,/2G,/2]x/2[F/2B,/2G,/2]x/2[F/2B,/2G,/2]x/2| \
[F/2B,/2G,/2]x/2[F/2B,/2G,/2]x/2[F/2B,/2G,/2]x/2 [F/2B,/2G,/2]x/2[F/2B,/2G,/2]x/2[F/2B,/2G,/2]x/2| \
[F/2B,/2G,/2]x/2[F/2B,/2G,/2]x/2[^D/2C/2]x/2 [^D/2C/2]x/2[^D/2C/2]x/2[^D/2C/2]x/2| \
[^D/2C/2]x/2[^D/2C/2]x/2[^D/2C/2]x/2 [^D/2C/2]x/2[^D/2C/2]x/2[^D/2C/2]x/2|
[^D/2C/2]x/2[^D/2C/2]x/2[^D/2C/2^G,/2]x/2 [^D/2C/2^G,/2]x/2[^D/2C/2^G,/2]x/2[^D/2^A,/2=G,/2]x/2| \
[^D/2^A,/2G,/2]x/2[^D/2^A,/2G,/2]x/2[^D/2C/2^G,/2]x/2 [^D/2C/2^G,/2]x/2[^D/2C/2^G,/2]x/2[^D/2^A,/2=G,/2]x/2| \
[^D/2^A,/2G,/2]x/2[^D/2^A,/2G,/2]x/2[^D/2C/2^G,/2]x/2 [^D/2C/2^G,/2]x/2[^D/2C/2^G,/2]x/2[E/2C/2^G,/2]x/2| \
[E/2C/2^G,/2]x/2[E/2C/2^G,/2]x/2[F/2C/2^G,/2]x/2 [F/2C/2^G,/2]x/2[F/2C/2^G,/2]x/2[^D/2C/2^G,/2]x/2|
[^D/2C/2^G,/2]x/2[^D/2C/2^G,/2]x/2[E4-C4-=G,4-]| \
[E2C2G,2]G,/2=A,/2 B,/2C/2E,/2F,/2^F,/2G,/2| \
C,/2=D,/2^D,/2E,/2G,,/2x/2 G,,/2x/2G,,/2x3/2| \
[G,/2G,,/2]x/2[G,/2G,,/2]x3/2 [G,/2G,,/2]x/2[G,/2G,,/2]x3/2|
[G,/2G,,/2]x/2[G,/2G,,/2]x/2[E/2C/2]x/2 G,/2x/2G,/2x/2[=F/2B,/2]x/2| \
G,/2x/2G,/2x/2[E/2C/2]x/2 G,/2x/2G,/2x/2[F/2B,/2]x/2| \
G,/2x/2G,/2x/2[E/2C/2]x/2 [E/2C/2]x3/2[C/2G,/2E,/2]x/2| \
[C/2G,/2E,/2]x3/2[=D/2A,/2F,/2]x/2 [D/2A,/2F,/2]x3/2[F/2B,/2G,/2]x/2|
[F/2B,/2G,/2]x3/2[E/2C/2]x/2 G,/2x/2G,/2x/2^A,-| \
[E/2C/2^A,/2-]^A,/2-[E/2C/2^A,/2-]^A,/2=A,- [FCA,-][FCA,]G,-| \
[ECG,-][ECG,]F,- [DA,F,-][DA,F,]^F,-| \
[^DA,^F,-][^DA,^F,][E/2C/2G,/2]x2x/2[=F/2=D/2G,/2]x/2|
x2[E,2C,2]G,[F,-C,-]| \
[F,C,]G,[E,2C,2]G,[F,-C,-]| \
[F,C,]G,[E,2C,2]G,x| \
xE,/2x2x/2C,/2x3/2|
xG,,/2x/2^G,,/2x2x/2[D/2C/2^G,/2]x/2| \
x2=G,,/2x2x/2[F/2D/2G,/2]x/2| \
x2[C,/2C,,/2]x2x/2[G/2E/2C/2]
