X: 1
T: from midi_transposed/C_chpn-p14.mid
M: 4/4
L: 1/8
Q:1/4=156
%beats in anacrusis = 0
% Last note suggests minor mode tune
K:C % 0 sharps
V:1
% Piano
%%MIDI program 0
%%MIDI program 0
x2  (3A,EC  (3FA,F  (3^G,FB,| \
 (3E^G,E  (3A,EC  (3FA,F  (3^G,FB,| \
 (3E^G,E  (3A,EC  (3FA,^F  (3B,^FD| \
 (3A^D=G  (3CGE  (3AC^A  (3^D^A^F|
 (3cGB  (3EBG  (3cEc  (3^Dc^F| \
 (3B^DB  (3EBG  (3c^Dc  (3=Dc^G| \
 (3B=FB  (3D^AF  (3^GD^G  (3^C^GE| \
 (3B^C=A  (3B,=G^C  (3FB,F  (3^A,F^C|
 (3G^A,^F  (3=C^G^D  (3^FC^F  (3B,^F=D| \
 (3=AB,=G  (3A,=FB,  (3^DA,^D  (3^G,^DB,| \
 (3ECE  (3A,EC  (3FCF  (3^G,FB,| \
 (3E^G,E  (3A,EC  (3F^CF  (3^G,F=C|
 (3EB,E  (3A,EC  (3FA,F  (3B,=G^D| \
 (3GB,G  (3CG^D  (3^GC^G  (3EAC| \
 (3^A^CB  (3=DF=C  (3FB,F  (3=A,D^G,| \
 (3CA,C  (3D,CA,  (3CD,C  (3E,CA,|
 (3CE,C  (3A,EA,  (3FA,=G  (3A,EA,| \
 (3FA,G  (3A,GA,  (3FA,E  (3A,DA,| \
 (3EA,E A,2 
V:2
% Piano
%%MIDI program 0
%%MIDI program 0
x2 
% Piano
%%MIDI program 0
%%MIDI program 0
 (3A,,E,C,  (3F,A,,F,  (3^G,,F,B,,| \
 (3E,^G,,E,  (3A,,E,C,  (3F,A,,F,  (3^G,,F,B,,| \
 (3E,^G,,E,  (3A,,E,C,  (3F,A,,^F,  (3B,,^F,D,| \
 (3A,^D,=G,  (3C,G,E,  (3A,C,^A,  (3^D,^A,^F,|
 (3CG,B,  (3E,B,G,  (3CE,C  (3^D,C^F,| \
 (3B,^D,B,  (3E,B,G,  (3C^D,C  (3=D,C^G,| \
 (3B,=F,B,  (3D,^A,F,  (3^G,D,^G,  (3^C,^G,E,| \
 (3B,^C,=A,  (3B,,=G,^C,  (3F,B,,F,  (3^A,,F,^C,|
 (3G,^A,,^F,  (3=C,^G,^D,  (3^F,C,^F,  (3B,,^F,=D,| \
 (3=A,B,,=G,  (3A,,=F,B,,  (3^D,A,,^D,  (3^G,,^D,B,,| \
 (3E,C,E,  (3A,,E,C,  (3F,C,F,  (3^G,,F,B,,| \
 (3E,^G,,E,  (3A,,E,C,  (3F,^C,F,  (3^G,,F,=C,|
 (3E,B,,E,  (3A,,E,C,  (3F,A,,F,  (3B,,=G,^D,| \
 (3G,B,,G,  (3C,G,^D,  (3^G,C,^G,  (3E,A,C,| \
 (3^A,^C,B,  (3=D,F,=C,  (3F,B,,F,  (3=A,,D,^G,,| \
 (3C,A,,C,  (3D,,C,A,,  (3C,D,,C,  (3E,,C,A,,|
 (3C,E,,C,  (3A,,E,A,,  (3F,A,,=G,  (3A,,E,A,,| \
 (3F,A,,G,  (3A,,G,A,,  (3F,A,,E,  (3A,,D,A,,| \
 (3E,A,,E, A,,,2 
