X: 1
T: from midi_transposed/C_chpn_op35_4.mid
M: 4/4
L: 1/8
Q:1/4=202
%beats in anacrusis = 0
% Last note suggests minor mode tune
K:C % 0 sharps
V:1
% Piano
%%MIDI program 0
%%MIDI program 0
x2  (3E,^F,A,  (3C^D,^F,  (3E,^F,A,| \
 (3C^D,^F,  (3^F,^G,B,  (3=D=F,^G,  (3^F,^G,B,| \
 (3D=F,^G,  (3A,B,D  (3F^G,B,  (3CDF| \
 (3^GB,D  (3CDF  (3^GB,D  (3FAB|
 (3dE^G  (3Acf  (3eBc ^d/2-[^d/2-B/2]^d/2c/2| \
 (3^GAF  (3^DEA  (3=G^Gc  (3^GAc| \
 (3^ABe  (3=G^A^d  (3=d=A^A ^c/2-[^c/2-=A/2]^c/2^A/2| \
^F/2-[G/2^F/2-]^F/2 (3^D^C=D (3G^DE (3^AE=F^A/2|
^G/2-[=A/2^G/2-]^G/2 (3=d=cE (3AC^D (3^GB=D=G/2| \
^A,/2-[^C/2^A,/2-]^A,/2 (3^F^A^C (3=F=A,=C (3FAF^A/2| \
 (3Bcd  (3^d^FB =D/2-[=F/2D/2-]D/2 (3^A^cE=A/2| \
=C/2-[^D/2C/2-]C/2 (3^GB^D (3=G^A,^C (3^F^A=F=c/2|
 (3^c=d^d  (3e^G=d  (3^def  (3e=A=c| \
 (3^def  (3^f^Ae  (3=f^f=g  (3^fB=d| \
 (3=f^fg d/2-[d/2-B/2]d/2 (3edG (3cBD=A/2| \
G/2-[G/2-B,/2]G/2 (3EDG, (3CB,^F, (3G,B,=F,^C/2|
 (3B,E,F,  (3^F,^G,^A,  (3B,^CD  (3=G,=A,^A,| \
 (3B,=CD  (3^G,=A,B,  (3CDE  (3A,^A,B,| \
 (3CDE  (3B,C^C  (3DE=F  (3^G,=C^C| \
 (3DEF  (3^GF^D  (3^C^DF  (3^G,=C^C|
 (3^DEF  (3^G=G^F  (3=F=DB,  (3FDB,| \
 (3=A,^G,=G,  (3^F,G,^G,  (3E,=F,=G,  (3^D,E,F,| \
 (3^C,=D,E,  (3^F,,G,,A,,  (3B,,=C,D,  (3E,=F,^F,| \
 (3G,E,A,  (3G,ED  (3CB,A,  (3G,E,=F,|
 (3G,E,A,  (3G,D,E,  (3F,D,A,  (3G,C,D,| \
 (3E,C,A,  (3G,B,,C,  (3D,B,,E,  (3D,A,,E,| \
 (3D,G,,A,,  (3G,,C,D,  (3E,F,G,  (3A,B,C| \
 (3DEF  (3Ged  (3cBA  (3GEF|
 (3GEA  (3GDE  (3FDA  (3GCD| \
 (3ECA  (3GB,C  (3DB,E  (3DA,E| \
 (3DG,E  (3FED  (3CB,A, ^G,/2-[E/2^G,/2-]^G,/2B,/2| \
 (3DCA, ^G,/2-[E/2^G,/2-]^G,/2 (3B,DC (3A,^G,EB,/2|
 (3DCA,  (3=G^FE  (3D^CB, ^A,/2-[^F/2^A,/2-]^A,/2^C/2| \
 (3EDB, ^A,/2-[^F/2^A,/2-]^A,/2 (3^CED (3B,^A,^F^C/2| \
 (3EDB,  (3=cB=A  (3G^FE  (3A^D^F| \
 (3C^DB,  (3cBA  (3G^FE  (3A^D^F|
 (3C^DB,  (3A^D^F  (3C^DB,  (3^FC^D| \
 (3B,^DA,  (3^DA,C  (3^G,A,=G,  (3CG,A,| \
 (3^F,A,=F,  (3E,^F,A,  (3C^D,^F,  (3E,^F,A,| \
 (3C^D,^F,  (3^F,^G,B,  (3=D=F,^G,  (3^F,^G,B,|
 (3D=F,^G,  (3A,B,D  (3F^G,B,  (3CDF| \
 (3^GB,D  (3CDF  (3^GB,D  (3FAB| \
 (3dE^G  (3Acf  (3eBc ^d/2-[^d/2-B/2]^d/2c/2| \
^G/2-[A/2^G/2-]^G/2 (3F^DE (3A=G^G (3c^GAc/2|
^A/2-[B/2^A/2-]^A/2 (3e=G^A (3^d=d=A (3^A^c=A^A/2| \
^F/2-[G/2^F/2-]^F/2 (3^D^C=D (3G^DE (3^AE=F^A/2| \
^G/2-[=A/2^G/2-]^G/2 (3=d=cB (3^A=A^G (3ed^c=c/2| \
 (3BAf  (3ed^c  (3=cB^g B/2-[c/2B/2-]B/2a/2|
^c/2-[d/2^c/2-]^c/2 (3aba (3=gfe (3^dbag/2| \
 (3fe^d  (3fe^d  (3=d^c=c  (3d^AB| \
 (3c^G=A B/2-[B/2-^F/2]B/2 (3=G^A=F (3d=AEF/2| \
^G/2-[^G/2-^D/2]^G/2 (3c=G=D (3^D^F^C (3^A=F=C^C/2|
E/2-[E/2-B,/2]E/2 (3^G^c^G (3=A=c=G (3eB^FG/2| \
^A/2-[^A/2-=F/2]^A/2 (3=d=AE (3F^G^D (3c=G=D^D/2| \
^F/2-[^F/2-^C/2]^F/2 (3^A^d^A (3B=d=A (3^f^c^GA/2| \
=c/2-[c/2-=G/2]c/2 (3eB^F (3G^A=F (3d=AEd/2|
A/2-[A/2-E/2]A/2 (3cFE (3^D=DC (3B,FED/2| \
 (3CB,A,  (3FED  (3CB,^A,  (3FED| \
 (3C^A,=A,  (3^G,A,B,  (3DC^G,  (3B,A,E,| \
 (3=G,F,E,  (3D,E,F,  (3A,G,F,  (3E,C,D,|
 (3E,^D,E,  (3F,E,^D,  (3=D,C,B,,  (3F,E,D,| \
 (3C,B,,A,,  (3F,E,D,  (3C,B,,^A,,  (3F,E,D,| \
 (3C,^A,,=A,,  (3^G,,A,,^A,,  (3C,D,E,  (3F,=G,=A,| \
 (3^A,CD  (3E^DC  (3B,=A,F,  (3E,^D,C,|
 (3B,,A,,F,, E,,/2-[A,,/2E,,/2-]E,,/2 (3G,,^G,,C, (3^G,,A,,=D,^A,,/2| \
B,,/2-[E,/2B,,/2-]B,,/2 (3B,,C,F, (3^C,D,^G, (3E,F,=C^G,/2| \
B,/2-[F/2B,/2-]B,/2 (3E^G,C (3^G,B,F (3E^G,C^G,/2| \
B,/2-[F/2B,/2-]B,/2 (3EB,F (3EB,F (3EB,FE/2|
=A,/2-[F/2A,/2-]A,/2 (3ECE, (3DED (3CA,E,B,/2| \
 (3CB,A,  (3CE,D  (3EDC  (3A,E,B,| \
 (3CB,A,  (3D,E,A,  (3CC,E,  (3D,E,A,| \
 (3CC,E,  (3B,,C,E,  (3A,A,,C,  (3B,,C,E,|
A,/2A,,/2x/2C,/2 x4  (3B,,C,E,| \
A,/2A,,/2x/2C,/2 x4  (3B,,C,E,| \
 (3A,A,,C, A,,2 x2 [a'2-a2-]|[a'2a2] 
V:2
% Piano
%%MIDI program 0
%%MIDI program 0
x2 
% Piano
%%MIDI program 0
%%MIDI program 0
 (3E,,^F,,A,,  (3C,^D,,^F,,  (3E,,^F,,A,,| \
 (3C,^D,,^F,,  (3^F,,^G,,B,,  (3=D,=F,,^G,,  (3^F,,^G,,B,,| \
 (3D,=F,,^G,,  (3A,,B,,D,  (3F,^G,,B,,  (3C,D,F,| \
 (3^G,B,,D,  (3C,D,F,  (3^G,B,,D,  (3F,A,B,|
 (3DE,^G,  (3A,CF  (3EB,C ^D/2-[^D/2-B,/2]^D/2C/2| \
 (3^G,A,F,  (3^D,E,A,  (3=G,^G,C  (3^G,A,C| \
 (3^A,B,E  (3=G,^A,^D  (3=D=A,^A, ^C/2-[^C/2-=A,/2]^C/2^A,/2| \
^F,/2-[G,/2^F,/2-]^F,/2 (3^D,^C,=D, (3G,^D,E, (3^A,E,=F,^A,/2|
^G,/2-[=A,/2^G,/2-]^G,/2 (3=D=CE, (3A,C,^D, (3^G,B,=D,=G,/2| \
^A,,/2-[^C,/2^A,,/2-]^A,,/2 (3^F,^A,^C, (3=F,=A,,=C, (3F,A,F,^A,/2| \
 (3B,CD  (3^D^F,B, =D,/2-[=F,/2D,/2-]D,/2 (3^A,^CE,=A,/2| \
=C,/2-[^D,/2C,/2-]C,/2 (3^G,B,^D, (3=G,^A,,^C, (3^F,^A,=F,=C/2|
 (3^C=D^D  (3E^G,=D  (3^DEF  (3E=A,=C| \
 (3^DEF  (3^F^A,E  (3=F^F=G  (3^FB,=D| \
 (3=F^FG D/2-[D/2-B,/2]D/2 (3EDG, (3CB,D,=A,/2| \
G,/2-[G,/2-B,,/2]G,/2 (3E,D,G,, (3C,B,,^F,, (3G,,B,,=F,,^C,/2|
 (3B,,E,,F,,  (3^F,,^G,,^A,,  (3B,,^C,D,  (3=G,,=A,,^A,,| \
 (3B,,=C,D,  (3^G,,=A,,B,,  (3C,D,E,  (3A,,^A,,B,,| \
 (3C,D,E,  (3B,,C,^C,  (3D,E,=F,  (3^G,,=C,^C,| \
 (3D,E,F,  (3^G,F,^D,  (3^C,^D,F,  (3^G,,=C,^C,|
 (3^D,E,F,  (3^G,=G,^F,  (3=F,=D,B,,  (3F,D,B,,| \
 (3=A,,^G,,=G,,  (3^F,,G,,^G,,  (3E,,=F,,=G,,  (3^D,,E,,F,,| \
 (3^C,,=D,,E,,  (3^F,,,G,,,A,,,  (3B,,,=C,,D,,  (3E,,=F,,^F,,| \
 (3G,,E,,A,,  (3G,,E,D,  (3C,B,,A,,  (3G,,E,,=F,,|
 (3G,,E,,A,,  (3G,,D,,E,,  (3F,,D,,A,,  (3G,,C,,D,,| \
 (3E,,C,,A,,  (3G,,B,,,C,,  (3D,,B,,,E,,  (3D,,A,,,E,,| \
 (3D,,G,,,A,,,  (3G,,,C,,D,,  (3E,,F,,G,,  (3A,,B,,C,| \
 (3D,E,F,  (3G,ED  (3CB,A,  (3G,E,F,|
 (3G,E,A,  (3G,D,E,  (3F,D,A,  (3G,C,D,| \
 (3E,C,A,  (3G,B,,C,  (3D,B,,E,  (3D,A,,E,| \
 (3D,G,,E,  (3F,E,D,  (3C,B,,A,, ^G,,/2-[E,/2^G,,/2-]^G,,/2B,,/2| \
 (3D,C,A,, ^G,,/2-[E,/2^G,,/2-]^G,,/2 (3B,,D,C, (3A,,^G,,E,B,,/2|
 (3D,C,A,,  (3=G,^F,E,  (3D,^C,B,, ^A,,/2-[^F,/2^A,,/2-]^A,,/2^C,/2| \
 (3E,D,B,, ^A,,/2-[^F,/2^A,,/2-]^A,,/2 (3^C,E,D, (3B,,^A,,^F,^C,/2| \
 (3E,D,B,,  (3=CB,=A,  (3G,^F,E,  (3A,^D,^F,| \
 (3C,^D,B,,  (3CB,A,  (3G,^F,E,  (3A,^D,^F,|
 (3C,^D,B,,  (3A,^D,^F,  (3C,^D,B,,  (3^F,C,^D,| \
 (3B,,^D,A,,  (3^D,A,,C,  (3^G,,A,,=G,,  (3C,G,,A,,| \
 (3^F,,A,,=F,,  (3E,,^F,,A,,  (3C,^D,,^F,,  (3E,,^F,,A,,| \
 (3C,^D,,^F,,  (3^F,,^G,,B,,  (3=D,=F,,^G,,  (3^F,,^G,,B,,|
 (3D,=F,,^G,,  (3A,,B,,D,  (3F,^G,,B,,  (3C,D,F,| \
 (3^G,B,,D,  (3C,D,F,  (3^G,B,,D,  (3F,A,B,| \
 (3DE,^G,  (3A,CF  (3EB,C ^D/2-[^D/2-B,/2]^D/2C/2| \
^G,/2-[A,/2^G,/2-]^G,/2 (3F,^D,E, (3A,=G,^G, (3C^G,A,C/2|
^A,/2-[B,/2^A,/2-]^A,/2 (3E=G,^A, (3^D=D=A, (3^A,^C=A,^A,/2| \
^F,/2-[G,/2^F,/2-]^F,/2 (3^D,^C,=D, (3G,^D,E, (3^A,E,=F,^A,/2| \
^G,/2-[=A,/2^G,/2-]^G,/2 (3=D=CB, (3^A,=A,^G, (3ED^C=C/2| \
 (3B,A,F  (3ED^C  (3=CB,^G B,/2-[C/2B,/2-]B,/2A/2|
^C/2-[D/2^C/2-]^C/2 (3ABA (3=GFE (3^DBAG/2| \
 (3FE^D  (3FE^D  (3=D^C=C  (3D^A,B,| \
 (3C^G,=A, B,/2-[B,/2-^F,/2]B,/2 (3=G,^A,=F, (3D=A,E,F,/2| \
^G,/2-[^G,/2-^D,/2]^G,/2 (3C=G,=D, (3^D,^F,^C, (3^A,=F,=C,^C,/2|
E,/2-[E,/2-B,,/2]E,/2 (3^G,^C^G, (3=A,=C=G, (3EB,^F,G,/2| \
^A,/2-[^A,/2-=F,/2]^A,/2 (3=D=A,E, (3F,^G,^D, (3C=G,=D,^D,/2| \
^F,/2-[^F,/2-^C,/2]^F,/2 (3^A,^D^A, (3B,=D=A, (3^F^C^G,A,/2| \
=C/2-[C/2-=G,/2]C/2 (3EB,^F, (3G,^A,=F, (3D=A,E,D/2|
A,/2-[A,/2-E,/2]A,/2 (3CF,E, (3^D,=D,C, (3B,,F,E,D,/2| \
 (3C,B,,A,,  (3F,E,D,  (3C,B,,^A,,  (3F,E,D,| \
 (3C,^A,,=A,,  (3^G,,A,,B,,  (3D,C,^G,,  (3B,,A,,E,,| \
 (3=G,,F,,E,,  (3D,,E,,F,,  (3A,,G,,F,,  (3E,,C,,D,,|
 (3E,,^D,,E,,  (3F,,E,,^D,,  (3=D,,C,,B,,,  (3F,,E,,D,,| \
 (3C,,B,,,A,,,  (3F,,E,,D,,  (3C,,B,,,^A,,,  (3F,,E,,D,,| \
 (3C,,^A,,,=A,,,  (3^G,,,A,,,^A,,,  (3C,,D,,E,,  (3F,,=G,,=A,,| \
 (3^A,,C,D,  (3E,^D,C,  (3B,,=A,,F,,  (3E,,^D,,C,,|
 (3B,,,A,,,F,,, E,,,/2-[A,,,/2E,,,/2-]E,,,/2 (3G,,,^G,,,C,, (3^G,,,A,,,=D,,^A,,,/2| \
B,,,/2-[E,,/2B,,,/2-]B,,,/2 (3B,,,C,,F,, (3^C,,D,,^G,, (3E,,F,,=C,^G,,/2| \
B,,/2-[F,/2B,,/2-]B,,/2 (3E,^G,,C, (3^G,,B,,F, (3E,^G,,C,^G,,/2| \
B,,/2-[F,/2B,,/2-]B,,/2 (3E,B,,F, (3E,B,,F, (3E,B,,F,E,/2|
=A,,/2-[F,/2A,,/2-]A,,/2 (3E,C,E,, (3D,E,D, (3C,A,,E,,B,,/2| \
 (3C,B,,A,,  (3C,E,,D,  (3E,D,C,  (3A,,E,,B,,| \
 (3C,B,,A,,  (3D,,E,,A,,  (3C,C,,E,,  (3D,,E,,A,,| \
 (3C,C,,E,,  (3B,,,C,,E,,  (3A,,A,,,C,,  (3B,,,C,,E,,|
A,,/2A,,,/2x/2C,,/2 x4  (3B,,,C,,E,,| \
A,,/2A,,,/2x/2C,,/2 x4  (3B,,,C,,E,,| \
 (3A,,A,,,C,, A,,,2 x2 [E2-C2-A,2-E,2-]|[E2C2A,2E,2] 
