Error: Time=347904 Track=0 Note terminated when not on - pitch 76
Error: Time=347904 Track=0 Note terminated when not on - pitch 78
Error in MIDI file - notes still on at end of track!
Error: Time=155392 Track=1 Note terminated when not on - pitch 76
Error: Time=155392 Track=1 Note terminated when not on - pitch 88
Error: Time=161536 Track=1 Note terminated when not on - pitch 74
Error: Time=161536 Track=1 Note terminated when not on - pitch 86
Error: Time=167680 Track=1 Note terminated when not on - pitch 72
Error: Time=167680 Track=1 Note terminated when not on - pitch 84
Error in MIDI file - notes still on at end of track!
Error: Time=424704 Track=2 Note terminated when not on - pitch 56
Error: Time=424704 Track=2 Note terminated when not on - pitch 57
Error: Time=427520 Track=2 Note terminated when not on - pitch 59
Error: Time=427776 Track=2 Note terminated when not on - pitch 55
Error in MIDI file - notes still on at end of track!
X: 1
T: from midi_transposed/C_chpn_op35_2.mid
M: 3/4
L: 1/8
Q:1/4=187
