Error: Time=5120 Track=0 Note terminated when not on - pitch 80
Error: Time=5120 Track=0 Note terminated when not on - pitch 82
Error: Time=11264 Track=0 Note terminated when not on - pitch 75
Error: Time=11264 Track=0 Note terminated when not on - pitch 77
Error: Time=17408 Track=0 Note terminated when not on - pitch 70
Error: Time=17408 Track=0 Note terminated when not on - pitch 72
Error: Time=23552 Track=0 Note terminated when not on - pitch 58
Error: Time=23552 Track=0 Note terminated when not on - pitch 60
Error: Time=31744 Track=0 Note terminated when not on - pitch 62
Error: Time=403968 Track=0 Note terminated when not on - pitch 74
Error: Time=404139 Track=0 Note terminated when not on - pitch 76
Error: Time=414720 Track=0 Note terminated when not on - pitch 69
Error: Time=414720 Track=0 Note terminated when not on - pitch 71
Error: Time=435883 Track=0 Note terminated when not on - pitch 78
Error in MIDI file - notes still on at end of track!
Error: Time=392960 Track=1 Note terminated when not on - pitch 59
Error in MIDI file - notes still on at end of track!
X: 1
T: from midi_transposed/C_chpn_op33_4.mid
M: 3/4
L: 1/8
Q:1/4=120
