Error: Time=16128 Track=0 Note terminated when not on - pitch 74
Error: Time=44800 Track=0 Note terminated when not on - pitch 70
Error: Time=45056 Track=0 Note terminated when not on - pitch 67
Error: Time=61184 Track=0 Note terminated when not on - pitch 72
Error: Time=61440 Track=0 Note terminated when not on - pitch 69
Error: Time=323584 Track=0 Note terminated when not on - pitch 76
Error: Time=323925 Track=0 Note terminated when not on - pitch 73
Error: Time=324096 Track=0 Note terminated when not on - pitch 75
Error: Time=324267 Track=0 Note terminated when not on - pitch 79
Error: Time=324352 Track=0 Note terminated when not on - pitch 78
Error: Time=324608 Track=0 Note terminated when not on - pitch 77
Error in MIDI file - notes still on at end of track!
Error in MIDI file - notes still on at end of track!
X: 1
T: from midi_transposed/C_chpn-p15.mid
M: 4/4
L: 1/8
Q:1/4=74
%beats in anacrusis = 0
% Last note suggests Locrian mode tune
K:F % 1 flats
V:1
% Piano
%%MIDI program 0
%%MIDI program 0
x2 e3/2c/2 G4| \
A4<=B4| \
c2 [d3/2F3/2=B,3/2-][e/2G/2=B,/2-] [f4A4=B,4]| \
[e-GC]e [e-G=B,-][e-=B,-] [eF=B,-][d=B,] c3/2d/2-|
[d/2-d/2][e/2d/2-d/2][d/2-d/2_d/2][f/2e/2=d/2-] [e3/2d3/2-][d/2-c/2] [d4-G4]| \
[d2-A2] [d6-=B6]| \
[d2-c2] [d3/2-d3/2F3/2=B,3/2-][e/2d/2-G/2=B,/2-] [f4d4-A4=B,4]| \
[e-d-GC][ed-] [e-d-G=B,-][e-d-=B,-] [ed-F=B,-][d-d=B,] [d2-c2]|
[d-=B][d-c] [d2-d2] [d4-d4]| \
[e2d2-] [fd-][ed-] [d-d][d-c] [e2-d2-]| \
[e2d2-] [d-d][d-_B] [d-A][d-G] [d3/2-A3/2][d/2-B/2-]| \
[d3/2-B3/2-A3/2G3/2-][d/2-B/2-B/2G/2-] [d2-B2-G2-G2] [d2-d2B2-G2-] [d2-c2B2-G2-]|
[_e2d2-B2-G2-] [d2-d2B2-G2-] [d4-d4B4-G4-]| \
[=e2d2-B2-G2-] [fd-B-G-][ed-B-G-] [d-dB-G-][d-cB-G-] [e2-d2-B2-G2-]| \
[e3d3-B3-G3-][d-cB-G-] [d-=B_B-G-][d-B-AG-] [d3/2-=B3/2_B3/2-G3/2-][d/2-c/2-B/2-G/2-]| \
[d-c-=B_B-A-G-][d-c-cB-A-G-] [d2-c2-B2-A2-A2G2-] [e2d2-c2-B2-A2-G2-] [d2-d2c2-B2-A2-G2-]|
[f2d2-c2-B2-A2-G2-] [ed-c-B-A-G-][d-c-cB-A-G-] [d-c-=B_B-A-G-][d-c-B-A-AG-] [d3/2-c3/2=B3/2_B3/2-A3/2-G3/2-][d/2-c/2-B/2-A/2G/2-]| \
[d3/2-c3/2-=B3/2_B3/2-A3/2-G3/2-][d/2-c/2-c/2B/2-A/2-G/2-] [d2-c2-B2-A2-A2G2-] [d2-d2c2-B2-A2-G2-] [e2d2-c2-B2-A2-G2-]| \
[d2-d2c2-B2-A2-G2-] [e6d6-c6-B6-A6-G6-]| \
[d2-d2c2-B2-A2-G2-] [e3/2d3/2-c3/2-B3/2-A3/2-G3/2-][d/2-c/2-c/2B/2-A/2-G/2-] [d4-c4-B4-A4-G4-G4]|
[d2-c2-B2-A2-A2G2-] [d6-c6-=B6_B6-A6-G6-]| \
[d2-c2-c2B2-A2-G2-] [d3/2-d3/2c3/2-B3/2-A3/2-G3/2-F3/2=B,3/2-][e/2d/2-c/2-_B/2-A/2-G/2-G/2=B,/2-] [f4d4-c4-_B4-A4-A4G4-=B,4]| \
[e-d-c-_B-A-G-GC][ed-c-B-A-G-] [e-d-c-B-A-G-G=B,][e-d-c-_B-A-G-] [ed-c-B-A-G-F=B,][d-dc-_B-A-G-] [d2-c2-c2B2-A2-G2-]| \
[d/2-_d/2c/2-B/2-A/2-G/2-][_e/2=d/2-d/2c/2-B/2-A/2-G/2-][g/2=e/2d/2-c/2-B/2-A/2-G/2-][_g/2f/2d/2-c/2-B/2-A/2-=G/2-] [e3/2d3/2-c3/2-B3/2-A3/2-G3/2-][d/2-c/2-c/2B/2-A/2-G/2-] [d4-c4-B4-A4-G4-G4]|
[d2-c2-B2-A2-A2G2-] [d6-c6-=B6_B6-A6-G6-]| \
[d2-c2-c2B2-A2-G2-] [d3/2-d3/2c3/2-B3/2-A3/2-G3/2-F3/2=B,3/2-][e/2d/2-c/2-_B/2-A/2-G/2-G/2=B,/2-] [f4d4-c4-_B4-A4-A4G4-=B,4]| \
[d-c-=B-_B-A-G-D][d-c-=B_B-A-G-] [d4-d4c4-B4-A4-G4-F4] [d2-c2-B2-A2-G2-]| \
[d2-c2-B2-A2-G2-] [d-c-B-A-G-G,][d-c-B-A-G-G,] [d-c-B-A-G-G,][d-c-B-A-G-G,] [d-c-B-A-G-G,][d-c-B-A-G-G,]|
[d-c-B-A-G-G,][d-c-B-A-G-G,] [d-c-B-A-G-G,][d-c-B-A-G-G,] [d-c-B-A-G-G,][d-c-B-A-G-G,] [d-c-B-A-G-G,][d-c-B-A-G-G,]| \
[d-c-B-A-G-G,][d-c-B-A-G-G,] [d-c-B-A-G-G,][d-c-B-A-G-G,] [d-c-B-A-G-G,][d-c-B-A-G-G,] [d-c-B-A-G-G,][d-c-B-A-G-G,]| \
[d-c-B-A-G-G,][d-c-B-A-G-G,] [d-c-B-A-G-G,][d-c-B-A-G-G,] [d-c-B-A-G-G,][d-c-B-A-G-G,] [d-c-B-A-G-G,][d-c-B-A-G-G,]| \
[d-c-B-A-G-G,][d-c-B-A-G-G,] [d-c-B-A-G-G,][d-c-B-A-G-G,] [d-c-B-A-G-G,][d-c-B-A-G-G,] [d-c-B-A-G-G,][d-c-B-A-G-G,]|
[d-c-B-A-G-G,][d-c-B-A-G-G,] [d-c-B-A-G-G,][d-c-B-A-G-G,] [d-c-B-A-G-G,][d-c-B-A-G-G,] [d-c-B-A-G-G,][d-c-B-A-G-G,]| \
[d-c-B-A-G-G,][d-c-B-A-G-G,] [d-c-B-A-G-G,][d-c-B-A-G-G,] [d-c-B-A-G-G,][d-c-B-A-G-G,] [d-c-B-A-G-G,][d-c-B-A-G-G,]| \
[d-c-B-A-G-G,][d-c-B-A-G-G,] [d-c-B-A-G-G,][d-c-B-A-G-GG,] [d-c-B-A-G-GG,][d-c-B-A-G-GG,] [d-c-B-A-G-GG,][d-c-B-A-G-GG,]| \
[d-c-B-A-G-GG,][d-c-B-A-G-GG,] [d-c-B-A-G-GG,][d-c-B-A-G-GG,] [d-c-B-A-G-GG,][d-c-B-A-G-GG,] [d-c-B-A-G-GC-G,][d-c-B-A-G-GCG,]|
[d-c-B-A-G-G=B,-G,][d-c-_B-A-G-G=B,G,] [d-c-_B-A-G-GG,][d-c-B-A-G-GG,] [d-c-B-A-G-GG,][d-c-B-A-G-GG,] [d-c-B-A-G-GD-G,][d-c-B-A-G-GDG,]| \
[d-c-B-A-G-GC-G,][d-c-B-A-G-GC-G,] [d-c-B-A-G-GC-G,][d-c-B-A-G-GCG,] [d-c-B-A-G-GD-G,][d-c-B-A-G-GDG,] [d-c-B-A-G-G_E-G,][d-c-B-A-G-G_EG,]| \
[d-c-B-A-G-GD-G,][d-c-B-A-G-GDG,] [d-c-B-A-G-GD-G,][d-c-B-A-G-GD-G,] [d-c-B-A-G-GD-G,][d-c-B-A-G-GD-G,] [d-c-B-A-G-GD-G,][d-c-B-A-G-GD-G,]| \
[d-c-B-A-G-GD-G,][d-c-B-A-G-GDG,] [d-c-B-BA-G-G-_E-B,][d-c-B-BA-G-G-_E-B,] [d-c-B-BA-G-G-_E-B,][d-c-B-BA-G-G_EB,] [d-c-B-BA-G-G-D-B,][d-c-B-BA-G-G-D-B,]|
[d-c-B-BA-G-G-D-B,][d-c-B-BA-G-GDB,] [d-c-B-BA-G-G-_E-B,][d-c-B-BA-G-G-_E-B,] [d-c-B-BA-G-G-_E-B,][d-c-B-BA-G-G_EB,] [d-c-B-BA-G-G-D-B,][d-c-B-BA-G-G-D-B,]| \
[d-c-B-BA-G-G-D-B,][d-c-B-BA-G-GDB,] [d-c-B-BA-G-G-D-B,][d-c-B-BA-G-G-D-B,] [d-c-B-BA-G-G-D-B,][d-c-B-BA-G-GDB,] [d-c-B-BA-G-_G-D-B,][d-c-B-BA-=G-_G-D-B,]| \
[d-c-B-BA-=G-_G-D-B,][d-c-B-BA-=G-_GDB,] [d-c-B-BA-=G-GDB,][d-c-B-A-G-G,] [d-c-B-A-G-G,][d-c-B-A-G-G,] [d-c-B-A-G-G,][d-c-B-A-G-G,]| \
[d-c-B-A-G-G,][d-c-B-A-G-G,] [d-c-B-A-G-G,][d-c-B-A-G-G,] [d-c-B-A-G-G,][d-c-B-A-G-G,] [d-c-B-A-G-G,][d-c-B-A-G-G,]|
[d-c-B-A-G-G,][d-c-B-A-G-G,] [d-c-B-A-G-G,][d-c-B-A-G-G,] [d-c-B-A-G-G,][d-c-B-A-G-G,] [d-c-B-A-G-G,][d-c-B-A-G-G,]| \
[d-c-B-A-G-G,][d-c-B-A-G-G,] [d-c-B-A-G-G,][d-c-B-A-G-G,] [d-c-B-A-G-G,][d-c-B-A-G-G,] [d-c-B-A-G-G,][d-c-B-A-G-G,]| \
[d-c-B-A-G-G,][d-c-B-A-G-G,] [d-c-B-A-G-G,][d-c-B-A-G-G,] [d-c-B-A-G-G,][d-c-B-A-G-G,] [d-c-B-A-G-G,][d-c-B-A-G-G,]| \
[d-c-B-A-G-G,][d-c-B-A-G-G,] [d-c-B-A-G-G,][d-c-B-A-G-G,] [d-c-B-A-G-G,][d-c-B-A-G-G,] [d-c-B-A-G-G,][d-c-B-A-G-G,]|
[d-c-B-A-G-G,][d-c-B-A-G-G,] [d-c-B-A-G-G,][d-c-B-A-G-G,] [d-c-B-A-G-G,][d-c-B-A-G-G,] [d-c-B-A-G-G,][d-c-B-A-G-G,]| \
[d-c-B-A-G-G,][d-c-B-A-G-G,] [d-c-B-A-G-G,][d-c-B-A-G-G,] [d-c-B-A-G-G,][d-c-B-A-G-G,] [d-c-B-A-G-G,][d-c-B-A-G-G,]| \
[d-c-B-A-G-G,][d-c-B-A-G-G,] [d-c-B-A-G-G,][d-c-B-A-G-GG,] [d-c-B-A-G-GG,][d-c-B-A-G-GG,] [d-c-B-A-G-GG,][d-c-B-A-G-GG,]| \
[d-c-B-A-G-GG,][d-c-B-A-G-GG,] [d-c-B-A-G-GG,][d-c-B-A-G-GG,] [d-c-B-A-G-GG,][d-c-B-A-G-GG,] [d-c-B-A-G-GC-G,][d-c-B-A-G-GCG,]|
[d-c-B-A-G-G=B,-G,][d-c-_B-A-G-G=B,G,] [d-c-_B-A-G-GG,][d-c-B-A-G-GG,] [d-c-B-A-G-GG,][d-c-B-A-G-GG,] [d-c-B-A-G-GD-G,][d-c-B-A-G-GDG,]| \
[d-c-B-A-G-GC-G,][d-c-B-A-G-GC-G,] [d-c-B-A-G-GC-G,][d-c-B-A-G-GCG,] [d-c-B-A-G-GD-G,][d-c-B-A-G-GDG,] [d-c-B-A-G-G_E-G,][d-c-B-A-G-G_EG,]| \
[d-c-B-A-G-GD-G,][d-c-B-A-G-GDG,] [d-c-B-A-G-GD-G,][d-c-B-A-G-GD-G,] [d-c-B-A-G-GD-G,][d-c-B-A-G-GD-G,] [d-c-B-A-G-GD-G,][d-c-B-A-G-GD-G,]| \
[d-c-B-A-G-GD-G,][d-c-B-A-G-GDG,] [d-c-B-BA-G-G-_E-B,][d-c-B-BA-G-G-_E-B,] [d-c-B-BA-G-G-_E-B,][d-c-B-BA-G-G_EB,] [d-c-B-BA-G-G-D-B,][d-c-B-BA-G-G-D-B,]|
[d-c-B-BA-G-G-D-B,][d-c-B-BA-G-GDB,] [d-c-B-BA-G-G-_E-B,][d-c-B-BA-G-G-_E-B,] [d-c-B-BA-G-G-_E-B,][d-c-B-BA-G-G_EB,] [d-c-B-BA-G-G-D-B,][d-c-B-BA-G-G-D-B,]| \
[d-c-B-BA-G-G-D-B,][d-c-B-BA-G-GDB,] [d-c-B-BA-G-G-D-B,][d-c-B-BA-G-G-D-B,] [d-c-B-BA-G-G-D-B,][d-c-B-BA-G-GDB,] [d-c-B-BA-G-_G-D-B,][d-c-B-BA-=G-_G-D-B,]| \
[d-c-B-BA-=G-_G-D-B,][d-c-B-BA-=G-_GDB,] [d-c-B-BA-=G-GDB,][d-c-B-A-G-G] [d-c-B-A-G-G][d-c-B-A-G-G] [d-c-B-A-G-G][d-c-B-A-G-G]| \
[d-c-B-A-G-G][d-c-B-A-G-G] [d-c-=B-_B-A-G-G=B,-][d-c-=B-_B-A-G-G=B,-] [d-c-=B-_B-A-G-G=B,-][d-c-=B_B-A-G-G=B,] [d-c-c-_B-A-G-GC-][d-c-c-B-A-G-GC-]|
[d-c-c-B-A-G-GC-][d-c-cB-A-G-GC] [d-d-c-c-B-A-G-GD-][d-d-c-c-B-A-G-GD-] [d-d-c-c-B-A-G-GD-][d-d-c-c-B-A-G-GD-] [d-d-c-c-B-A-G-GD-][d-dc-cB-A-G-GD]| \
[d-d-c-=B-_B-A-G-GD-][d-dc-=B_B-A-G-GD] [_e-d-d-c-B-A-G-G_E-][_ed-dc-B-A-G-G_E] [_e-d-c-c-B-A-G-G_E-][_ed-c-cB-A-G-G_E] [d-d-c-c-B-A-G-GD-][d-dc-cB-A-G-GD]| \
[d-d-c-=B-_B-A-G-GD-][d-dc-=B_B-A-G-GD] [d-c-c-B-A-G-GC-][d-c-c-B-A-G-GC-] [d-c-c-B-A-G-FC-][d-c-c-B-A-G-FC-] [d-c-c-B-A-G-GC-][d-c-c-B-A-G-GC-]| \
[d-c-c-B-A-_AG-C-][d-c-cB-=A-_AG-C] [d-c-B-=A-G-G-D-=B,-G,][d-c-_B-A-G-G-D-=B,-G,] [d-c-_B-A-G-G-D-=B,-G,][d-c-_B-A-G-GD=B,G,] [d-c-_B-A-G-G-_E-C-G,][d-c-B-A-G-G_ECG,]|
[d-c-B-A-G-G-C-A,-G,][d-c-B-A-G-GCA,G,] [d-c-B-A-G-G-D-=B,-G,][d-c-_B-A-G-GD=B,G,] [d-c-_B-A-G-G-_E-C-G,][d-c-B-A-G-G_ECG,] [d-c-B-A-G-G-C-A,-G,][d-c-B-A-G-GCA,G,]| \
[d-c-B-A-G-G-_E-C-G,][d-c-B-A-G-G_ECG,] [d-c-B-A-G-G-_E-C-G,][d-c-B-A-G-G_ECG,] [d-c-B-A-G-G-D-=B,-G,][d-c-_B-A-G-GD=B,G,] [d-c-_B-A-G-G-F-D-G,][d-c-B-A-G-GFDG,]| \
[d-c-B-A-G-G-_E-C-G,][d-c-B-A-G-G_ECG,] [d-c-B-A-G-G-D-=B,-G,][d-c-_B-A-G-G-D-=B,-G,] [d-c-_B-A-G-G-D-=B,-G,][d-c-_B-A-G-G-D-=B,-G,] [d-c-_B-A-G-G-D-=B,-G,][d-c-_B-A-G-G-D-=B,-G,]| \
[d-c-_B-A-G-G-D-=B,-G,][d-c-_B-A-G-GD=B,G,] [d-c-=B-_B-A-G-GD-=B,-][d-c-=B-_B-A-G-GD-=B,-] [d-c-=B-_B-A-G-GD-=B,-][d-c-=B_B-A-G-GD=B,] [d-c-c-_B-A-G-GC-][d-c-c-B-A-G-GC-]|
[d-c-c-B-A-G-GC-][d-c-cB-A-G-GC] [d-d-c-c-B-A-G-GD-][d-d-c-c-B-A-G-GD-] [d-d-c-c-B-A-G-GD-][d-d-c-c-B-A-G-GD-] [d-d-c-c-B-A-G-GD-][d-dc-cB-A-G-GD]| \
[d-d-c-=B-_B-A-G-GD-][d-dc-=B_B-A-G-GD] [_e-d-d-c-B-A-G-G_E-][_ed-dc-B-A-G-G_E] [_e-d-c-c-B-A-G-G_E-][_ed-c-cB-A-G-G_E] [d-d-c-c-B-A-G-GD-][d-dc-cB-A-G-GD]| \
[d-d-c-=B-_B-A-G-GD-][d-dc-=B_B-A-G-GD] [d-c-c-B-B-A-G-G-C][d-c-c-B-B-A-G-G-C] [d-c-c-B-B-A-G-G-C][d-c-cB-BA-G-GC] [d-c-c-B-A-_A-G-G-C][d-c-cB-=A-_AG-GC]| \
[d-c-c-B-=A-_A-G-F-C][d-c-cB-=A-_AG-FC] [d-c-B-=A-G-G-F-D-G,][d-c-B-A-G-G-F-D-G,] [d-c-B-A-G-G-F-D-G,][d-c-B-A-G-GFDG,] [d-c-B-A-G-G-F-C-G,][d-c-B-A-G-GFCG,]|
[d-c-B-A-A-G-_E-C-G,][d-c-B-A-AG-_ECG,] [d-c-B-A-A-G-_E-C-G,][d-c-B-A-A-G-_E-C-G,] [d-c-B-A-A-G-_E-C-G,][d-c-B-A-AG-_ECG,] [d-c-B-A-G-G-D-=B,-G,][d-c-_B-A-G-GD=B,G,]| \
[d-c-_B-A-A-G-_E-C-G,][d-c-B-A-AG-_ECG,] [d-c-B-A-A-G-_E-C-G,][d-c-B-A-A-G-_E-C-G,] [d-c-B-A-A-G-_E-C-G,][d-c-B-A-AG-_ECG,] [d-c-B-A-G-G-D-=B,-G,][d-c-_B-A-G-GD=B,G,]| \
[d-c-_B-A-A-G-_E-C-G,][d-c-B-A-AG-_ECG,] [d-c-B-A-A-G-_E-C-G,][d-c-B-A-AG-_ECG,] [d-c-B-A-G-G-D-=B,-G,][d-c-_B-A-G-GD=B,G,] [d-c-_B-A-G-G,][d-c-B-A-G-G,]| \
[d-c-B-A-G-G,][d-c-B-A-G-G,] [=e3/2d3/2-c3/2-B3/2-A3/2-G3/2-][d/2-c/2-c/2B/2-A/2-G/2-] [d4-c4-B4-A4-G4-G4]|
[d2-c2-B2-A2-A2G2-] [d6-c6-=B6_B6-A6-G6-]| \
[d2-c2-c2B2-A2-G2-] [d3/2-d3/2c3/2-B3/2-A3/2-G3/2-F3/2=B,3/2-][e/2d/2-c/2-_B/2-A/2-G/2-G/2=B,/2-] [f4d4-c4-_B4-A4-A4G4-=B,4]| \
[e-d-c-_B-A-G-GC][ed-c-B-A-G-] [e-d-c-B-A-G-G=B,-][e-d-c-_B-A-G-=B,-] [ed-c-_B-A-G-F=B,-][d-dc-_B-A-G-=B,] [d3/2-c3/2-c3/2_B3/2-A3/2-G3/2-][d/2_d/2c/2-B/2-A/2-G/2-]| \
[e/2-=d/2c/2-B/2-A/2-G/2-][e/2-d/2-_d/2-c/2-B/2-A/2-G/2-][e/2_e/2-=d/2-_d/2-c/2-B/2-A/2-G/2-][g/2-_g/2-=e/2-_e/2-=d/2-_d/2-c/2-B/2-A/2-=G/2-] [g3/2-_g3/2-f3/2-=e3/2-e3/2_e3/2-=d3/2-_d3/2-c3/2-B3/2-A3/2-=G3/2-][g/2-_g/2-f/2-=e/2-_e/2-=d/2-_d/2-c/2-c/2B/2-A/2-=G/2-] [g4-_g4-f4-=e4-_e4-=d4-_d4-c4-B4-A4-=G4-G4]|
[g2-_g2-f2-=e2-_e2-=d2-_d2-c2-B2-A2-A2=G2-] [g6-_g6-f6-=e6-_e6-=d6-_d6-c6-=B6_B6-A6-=G6-]| \
[a4g4-_g4-f4-=e4-_e4-=d4-_d4-c4-B4-A4-=G4-] [g2-g2_g2-f2-=e2-_e2-=d2-_d2-c2-B2-A2-=G2-] [g2-_g2-f2-f2=e2-_e2-=d2-_d2-c2-B2-A2-=G2-]| \
[g2-_g2-f2-=e2-_e2-=d2-_d2-c2-=B2_B2-A2-=G2-] [g2-_g2-f2-=e2-e2_e2-=d2-_d2-c2-B2-A2-=G2-] [g2-_g2-f2-=e2-_e2-=d2-d2_d2-c2-B2-A2-=G2-] [g2-_g2-f2-=e2-_e2-=d2-_d2-c2-c2B2-A2-=G2-]| \
[g2-_g2-f2-=e2-_e2-=d2-_d2-c2-B2-A2-A2=G2-] [g4-_g4-f4-=e4-_e4-=d4-_d4-c4-B4-A4-=G4-F4-=D4-A,4] [g2-_g2-f2-=e2-_e2-d2-_d2-c2-B2-A2-=G2-F2-=D2-=B,2-]|
[g2-_g2-f2-=e2-_e2-d2-_d2-c2-_B2-A2-=G2-F2=D2=B,2] [g4-_g4-f4-=e4-_e4-d4-_d4-c4-_B4-A4-=G4-=E4-C4-] [g-_g-f-e-_e-=d-_d-c-B-A-=G-=E-C][g-_g-f-e-_e-=d-_d-c-B-A-=G-=E-C]| \
[g3/2-_g3/2-f3/2-e3/2-_e3/2-=d3/2-_d3/2-c3/2-B3/2-A3/2-=G3/2-=E3/2-=D3/2][g/2-_g/2-f/2-e/2-_e/2-d/2-_d/2-c/2-B/2-A/2-=G/2-=E/2C/2] [g2-_g2-f2-e2-_e2-=d2-_d2-c2-B2-A2-=G2-F2-=D2-C2] [g2-_g2-f2-=e2-_e2-d2-_d2-c2-B2-A2-=G2-F2-=D2-=B,2] [g2-_g2-f2-=e2-_e2-d2-_d2-c2-_B2-A2-A2=G2-F2-=D2-]| \
[g2-_g2-f2-=e2-_e2-d2-_d2-c2-B2-A2-=G2-F2=D2=B,2] [g6-_g6-f6-=e6-_e6-d6-_d6-c6-_B6-A6-=G6-F6-=D6-=B,6-]| \
[g2-_g2-f2-=e2-_e2-d2-_d2-c2-_B2-A2-=G2-F2=D2=B,2] [g6-_g6-f6-=e6-_e6-d6-_d6-c6-_B6-A6-=G6-=E6-C6-]|
[g2-_g2-f2-e2-_e2-=d2-_d2-c2-B2-A2-=G2-=E2C2] [g6-_g6-f6-e6-_e6-=d6-_d6-c6-B6-A6-=G6-=E6-C6-G,6-]|[g2-_g2-f2-e2-_e2-=d2-_d2-c2-B2-A2-=G2-=E2C2G,2] 
V:2
% Piano
%%MIDI program 0
%%MIDI program 0
x2 
% Piano
%%MIDI program 0
%%MIDI program 0
C,G, [E-C-][E-C-G,] [E-C-G,][ECG,]| \
[EC]G, [F-=D-][F-D-G,] [F-D-G,][F-D-G,] [F-D-A,][FDG,]| \
[EC]G, xG,2G, G,G,-| \
G,G, xG, xG, [EC]G,|
[F=B,]G, C,G, [E-C-][E-C-G,] [E-C-G,][E-C-G,]| \
[E-C-G,][ECG,] [F-D-][F-D-G,] [F-D-G,][F-D-G,] [F-D-A,][FDG,]| \
[EC]G, xG,2G, G,G,-| \
G,G, xG, xG, [EC]G,|
[EC]G, G,,G, [D=B,]G, [D_B,]G,| \
[EB,C,]C [A,F,]C [FA,]C C,G,| \
[EC]G, D,G, [DB,]G, D,_G,| \
[DC]_G, =G,,G, [DB,]G, [CA,]G,|
[_EC]G, G,,G, [D-B,-][D-B,-G,] [D-B,-G,][DB,G,]| \
[=EB,]G, D,F, [FA,]F, A,,E,| \
[ECA,]E, E,,E, [ECA,]E, E,,E,| \
[ED_A,]E, =A,,E, [EC]E, [D=B,]E,|
[FD]E, [EC]E, [ECA,]E, [D_A,]E,| \
[ED]E, =A,,E, [D=B,]E, [EC]E,| \
[D=B,]E, [E-C-][E-C-E,] [E-C-E,][ECE,] [EC]F,-| \
[D=B,F,]G, C,G, [E-C-][E-C-G,] [E-C-G,][ECG,]|
[EC]G, [F-D-][F-D-G,] [F-D-G,][F-D-G,] [F-D-A,][FDG,]| \
[EC]G, xG,2G, G,G,-| \
G,G, xG, xG, [EC]G,| \
[F=B,]G, C,G, [E-C-][E-C-G,] [E-C-G,][E-C-G,]|
[E-C-G,][ECG,] [F-D-][F-D-G,] [F-D-G,][F-D-G,] [F-D-A,][FDG,]| \
[EC]G, xG,2G, G,G,-| \
G,G, xG, G,G, G,G,| \
G,G, [G,,2C,,2] [G,,2D,,2] [C,2_E,,2]|
[=B,,2D,,2] [G,,2D,,2] [G,,2_E,,2] [D,2F,,2]| \
[C,2_E,,2] [C,2_E,,2] [D,2G,,2] [_E,2C,2]| \
[D,2G,,2] [D,6-G,,6-]| \
[D,4G,,4] [_E,2C,2] [D,2G,,2]|
[C,2_E,,2] [D,2G,,2] [C,2_E,,2] [=B,,2D,,2]| \
[C,2_E,,2] [=B,,2D,,2] [C,2_E,,2] [D,2D,,2]| \
[_E,2C,,2] [D,6-G,,6-]| \
[D,2G,,2] [G,,2C,,2] [G,,2D,,2] [C,2_E,,2]|
[=B,,2D,,2] [G,,2D,,2] [G,,2_E,,2] [D,2F,,2]| \
[C,2_E,,2] [C,2_E,,2] [D,2G,,2] [_E,2C,2]| \
[D,3/2G,,3/2]G,,,/2 [D,6-G,,6-]| \
[D,2G,,2] [_E,,4_E,,,4] [_B,,2-B,,,2-]|
[B,,2B,,,2] [_E,,4_E,,,4] [B,,2-B,,,2-]| \
[B,,B,,,][A,,A,,,] [G,,4G,,,4] [D,2-D,,2-]| \
[D,2D,,2] [G,,4G,,,4] x2| \
x2 [G,,2C,,2] [G,,2D,,2] [C,2_E,,2]|
[=B,,2D,,2] [G,,2D,,2] [G,,2_E,,2] [D,2F,,2]| \
[C,2_E,,2] [C,2_E,,2] [D,2G,,2] [_E,2C,2]| \
[D,2G,,2] [D,6-G,,6-]| \
[D,4G,,4] [_E,2C,2] [D,2G,,2]|
[C,2_E,,2] [D,2G,,2] [C,2_E,,2] [=B,,2D,,2]| \
[C,2_E,,2] [=B,,2D,,2] [C,2_E,,2] [D,2D,,2]| \
[_E,2C,,2] [D,6-G,,6-]| \
[D,2G,,2] [G,,2C,,2] [G,,2D,,2] [C,2_E,,2]|
[=B,,2D,,2] [G,,2D,,2] [G,,2_E,,2] [D,2F,,2]| \
[C,2_E,,2] [C,2_E,,2] [D,2G,,2] [_E,2C,2]| \
[D,3/2G,,3/2]G,,,/2 [D,6-G,,6-]| \
[D,2G,,2] [_E,,4_E,,,4] [_B,,2-B,,,2-]|
[B,,2B,,,2] [_E,,4_E,,,4] [B,,2-B,,,2-]| \
[B,,B,,,][A,,A,,,] [G,,4G,,,4] [D,2-D,,2-]| \
[D,2D,,2] [G,,4G,,,4] x2| \
x2 [F,4G,,4F,,4] [_E,2G,,2-_E,,2]|
[C,2G,,2C,,2] [G,,6G,,,6]| \
[G,2G,,2] [G,4C,4] [G,2-G,,2-]| \
[G,2G,,2] [_A,4_A,,4] [G,2G,,2]| \
[F,2F,,2] G,,4 [G,,2-C,,2-]|
[G,,2C,,2] [G,,2G,,,2] [G,,4-C,,4-]| \
[G,,2C,,2] [G,,2C,,2] [G,,4G,,,4]| \
[G,,2C,,2] [G,,6-G,,,6-]| \
[G,,2G,,,2] [F,-G,,F,,-][F,-G,,F,,-] [F,-G,,F,,-][F,G,,F,,] [_E,2G,,2-_E,,2]|
[C,2G,,2C,,2] [G,,6-G,,,6-]| \
[G,,2G,,,2] [G,,4C,,4] [G,2-G,,2-]| \
[G,2G,,2] [=E,4E,,4] [F,2-F,,2-]| \
[F,2F,,2] [=B,,4=B,,,4] [C,2-C,,2-]|
[C,2C,,2] [G,,6G,,,6]| \
[G,,2C,,2] [G,,6G,,,6]| \
[G,,2C,,2] [G,,2G,,,2-] [G,,2G,,,2-] G,,,-[E,G,,,]| \
F,D, C,G, [E-C-][E-C-G,] [E-C-G,][E-C-G,]|
[E-C-G,][ECG,] [F-D-][F-D-G,] [F-D-G,][F-D-G,] [F-D-=A,][FDG,]| \
[EC]G, xG,2G, G,G,-| \
G,G, xG, xG, [EC]G,| \
[F=B,]G, C,G, [E-C-][E-C-G,] [E-C-G,][E-C-G,]|
[E-C-G,][ECG,] [FD]G, G,G, A,G,| \
x8| \
x8| \
x2 G,,-[G,G,,-] [G,G,,-][G,G,,-] [G,G,,-][G,G,,-]|
[G,G,,-][G,G,,] [G,C,-][G,C,-] [G,C,-][G,C,-] [G,C,-][G,C,-]| \
[G,C,-][G,C,] [G,G,,-][G,G,,-] [G,G,,-][G,G,,-] [G,G,,-][G,G,,-]| \
[G,G,,-][G,G,,] [G,G,,-][G,G,,-] [G,G,,-][G,G,,-] [G,G,,-][G,G,,-]| \
[G,G,,-][G,G,,] [G,C,-][G,C,-] [G,C,-][G,C,] [G,G,,-][G,G,,-]|
[G,G,,-][G,G,,] C,,6-|C,,2 
