Error: Time=44800 Track=0 Note terminated when not on - pitch 69
Error: Time=44800 Track=0 Note terminated when not on - pitch 71
Error in MIDI file - notes still on at end of track!
Error in MIDI file - notes still on at end of track!
X: 1
T: from midi_transposed/C_chpn-p11.mid
M: 6/8
L: 1/8
Q:1/4=111
%beats in anacrusis = 0
% Last note suggests Phrygian mode tune
K:C % 0 sharps
V:1
% Piano
%%MIDI program 0
%%MIDI program 0
x2g4-| \
g2^f gag| \
=fe[dF] G/2B/2AG| \
Ge[dF] G/2B/2AG|
Ge[dF] G[cE]G| \
[ec]G[^fc] [gG][ac][gG]| \
[=fc][eG][dF] G/2B/2AG| \
Ge[dF] G/2B/2AG|
Ge[dF] G[cE]G| \
[ec]G[gc] G[^gc]^G| \
[ac]A[c'e] e/2=g/2fe| \
c[c'a][bg] eB/2d/2c|
B[ge][c-A] [c/2-F/2][c/2-A/2][c-G][c-F]| \
[cA-][dA][e-c] [e-E][e-G][e-E]| \
[e-G][eA][dF] G/2[B/2-A/2-][B-A-A][B-A-G]| \
[B-A-G][eB-A-][dB-A-F] [B/2A/2G/2][B/2-A/2-][B-A-A][B-A-G]|
[B-A-G][eB-A-][dB-A-F] [B-A-G][cB-A-E][B-A-G]| \
[ecB-A-][B-A-G][^fcB-A-] [gB-A-G][acB-A-][gB-A-G]| \
[=fcB-A-][eB-A-G][dB-A-F] [B/2A/2G/2][B/2-A/2-][B-A-A][B-A-G]| \
[B-A-G][eB-A-][dB-A-F] [B/2A/2G/2][B/2-A/2-][B-A-A][B-A-G]|
[B-A-G][g/2-B/2-A/2-][g/2B/2-A/2-E/2-][g4-B4-A4-E4-]| \
[g3/2-B3/2-A3/2-E3/2][g/2B/2-A/2-][^fB-A-] [gB-A-][aB-A-][gB-A-]| \
[=fB-A-][eB-A-][e3B3-A3-][^dB-A-^G]| \
[eB-A-][fB-A-][eB-A-A-] [=dB-A-A-][cB-A-A][eB-A-F-]|
[dB-A-F-][cB-A-F][c4-B4-A4-E4-]| \
[c2B2-A2-E2][B4-A4-=G4-E4-]| \
[B2-A2-G2E2][B4-A4-E4-]|[B2-A2-E2]
V:2
% Piano
%%MIDI program 0
%%MIDI program 0
x6| \
x6| \
x2
% Piano
%%MIDI program 0
%%MIDI program 0
B, G,D,G,,| \
D,G,B, G,D,G,,|
D,G,C, G,C,G,| \
E,CE G,CE,| \
G,C,B, G,D,G,,| \
D,G,B, G,D,G,,|
D,G,C, G,C,G,| \
E,CE G,DF,| \
CE,A,, E,EA,| \
ECE, GB,G,|
EB,F,, CC,A,| \
CF,C, ^F,G,D| \
CA,B, G,D,G,,| \
D,G,B, G,D,G,,|
D,G,C,, G,,C,G,| \
E,C^D E=FE| \
=DCB, xD,G,,| \
D,G,B, G,D,G,,|
D,B,[G,4-C,4-]| \
[G,2C,2]x4| \
x4x[B,-E,-]| \
[B,2E,2][C3A,3][B,-G,-]|
[B,2G,2][G,4-C,4-]| \
[G,2C,2][G,3-C,3C,,3][G,-G,,-G,,,-]| \
[G,2G,,2G,,,2][C4-G,4-C,4-C,,4-]|[C2G,2C,2C,,2]
