X: 1
T: from midi_transposed/C_chpn_op10_e01.mid
M: 4/4
L: 1/8
Q:1/4=174
%beats in anacrusis = 0
% Last note suggests Phrygian mode tune
K:C % 0 sharps
V:1
% Piano
%%MIDI program 0
%%MIDI program 0
x4 E/2C/2G/2c/2 e/2c/2g/2c'/2| \
e'/2c'/2g'/2c''/2 e''/2c''/2g'/2c'/2 e'/2c'/2g/2c/2 e/2c/2G/2C/2| \
E/2C/2x3 F/2C/2A/2c/2 f/2c/2a/2c'/2| \
f'/2c'/2a'/2c''/2 e''/2c''/2a'/2c'/2 e'/2c'/2a/2c/2 e/2c/2A/2C/2|
D/2C/2x3 D/2B,/2G/2B/2 d/2B/2g/2b/2| \
d'/2b/2g'/2a'/2 d''/2a'/2^f'/2c'/2 d'/2a/2^f/2c/2 d/2A/2^F/2C/2| \
D/2x3x/2 D/2C/2=F/2^G/2 d/2c/2f/2^g/2| \
d'/2c'/2f'/2^g'/2 d''/2=g'/2f'/2b/2 d'/2g/2f/2B/2 d/2G/2F/2B,/2|
^D/2x3x/2 E/2C/2G/2c/2 e/2c/2g/2c'/2| \
e'/2c'/2g'/2c''/2 e''/2c''/2g'/2c'/2 e'/2c'/2g/2c/2 e/2c/2G/2C/2| \
E/2C/2x3 F/2C/2F/2c/2 f/2c/2f/2c'/2| \
f'/2c'/2f'/2c''/2 e''/2c''/2^f'/2c'/2 e'/2c'/2^f/2c/2 e/2c/2^F/2C/2|
E/2C/2x3 =D/2C/2G/2c/2 d/2c/2g/2c'/2| \
d'/2c'/2g'/2c''/2 d''/2b'/2g'/2b/2 d'/2b/2g/2B/2 d/2B/2G/2B,/2| \
D/2B,/2x3 E/2D/2G/2d/2 e/2d/2g/2d'/2| \
e'/2d'/2g'/2d''/2 e''/2c''/2g'/2c'/2 e'/2c'/2g/2c/2 e/2c/2G/2C/2|
E/2C/2x2x/2E/2 =F/2E/2c/2e/2 f/2e/2c'/2e'/2| \
f'/2e'/2c''/2e''/2 f''/2d''/2b'/2d'/2 f'/2d'/2b/2d/2 f/2d/2B/2D/2| \
F/2D/2B,/2x2x/2 E/2D/2B/2d/2 e/2d/2b/2d'/2| \
e'/2d'/2b'/2d''/2 e''/2c''/2a'/2c'/2 e'/2c'/2a/2c/2 e/2c/2A/2C/2|
E/2C/2x3 E/2C/2A/2c/2 e/2c/2a/2c'/2| \
e'/2c'/2a'/2c''/2 ^d''/2b'/2a'/2b/2 ^d'/2b/2a/2B/2 ^d/2B/2A/2B,/2| \
^D/2x3x/2 E/2B,/2A/2B/2 e/2B/2a/2b/2| \
e'/2b/2a'/2b'/2 e''/2b'/2^g'/2b/2 e'/2b/2^g/2B/2 e/2B/2^G/2B,/2|
E/2B,/2x3 =G/2E/2A/2^c/2 g/2e/2a/2^c'/2| \
g'/2^c'/2a/2e/2 g'/2=c'/2a/2e/2 g/2c/2A/2E/2 G/2C/2x| \
^F/2C/2x3 =F/2=D/2G/2c/2 f/2d/2g/2c'/2| \
f'/2d'/2g'/2c''/2 f''/2b'/2g'/2d'/2 f'/2b/2g/2d/2 f/2B/2G/2D/2|
F/2x3x/2 E/2C/2G/2^A/2 e/2c/2g/2^a/2| \
e'/2c'/2g'/2c''/2 ^d''/2^a'/2^d'/2c'/2 ^d'/2^a/2^d/2c/2 ^d/2^A/2^D/2C/2| \
^D/2^A,/2x3 ^D/2C/2^D/2=A/2 ^d/2c/2^d/2a/2| \
^d'/2c'/2^d'/2a'/2 ^d''/2^g'/2^d'/2b/2 ^d'/2^g/2^d/2B/2 ^d/2^G/2^D/2B,/2|
^D/2x3x/2 =D/2^A,/2F/2^G/2 d/2^A/2f/2^g/2| \
d'/2^a/2f'/2^g'/2 d''/2^g'/2e'/2^a/2 d'/2^g/2e/2^A/2 d/2^G/2E/2^A,/2| \
D/2x3x/2 ^C/2=A,/2E/2A/2 ^c/2A/2e/2a/2| \
^c'/2a/2e'/2a'/2 ^c''/2a'/2e'/2a/2 ^c'/2a/2e/2A/2 ^c/2A/2E/2A,/2|
^C/2x3x/2 =C/2A,/2D/2^F/2 c/2A/2d/2^f/2| \
c'/2a/2d'/2^f'/2 c''/2=f'/2d'/2=g/2 c'/2f/2d/2G/2 c/2F/2D/2x/2| \
x4 xC/2E/2 B/2G/2c/2e/2| \
b/2g/2c'/2e'/2 b'/2e'/2c'/2f/2 b/2e/2c/2F/2 B/2E/2C/2x/2|
x4 x3/2D/2 A/2F/2B/2d/2| \
a/2f/2b/2d'/2 g'/2d'/2b/2e/2 g/2d/2B/2E/2 A/2c/2g/2e/2| \
a/2c'/2g'/2e'/2 f'/2c'/2a/2d/2 f/2c/2A/2D/2 G/2B/2f/2d/2| \
g/2b/2f'/2d'/2 e'/2b/2g/2c/2 e/2B/2G/2C/2 F/2A/2e/2c/2|
f/2a/2e'/2c'/2 d'/2a/2f/2B/2 d/2A/2F/2B,/2 D/2x3/2| \
x2 ^d'/2a/2^f/2B/2 ^d/2A/2^F/2B,/2 ^D/2x3/2| \
x4 E/2B,/2E/2^G/2 e/2B/2e/2^g/2| \
e'/2b/2e'/2^g'/2 e''/2^g'/2e'/2b/2 e'/2^g/2e/2B/2 e/2^G/2E/2B,/2|
=F/2B,/2x3 E/2C/2=G/2c/2 e/2c/2g/2c'/2| \
e'/2c'/2g'/2c''/2 e''/2c''/2g'/2c'/2 e'/2c'/2g/2c/2 e/2c/2G/2C/2| \
E/2C/2x3 F/2C/2A/2c/2 f/2c/2a/2c'/2| \
f'/2c'/2a'/2c''/2 e''/2c''/2a'/2c'/2 e'/2c'/2a/2c/2 e/2c/2A/2C/2|
=D/2C/2x3 D/2B,/2G/2B/2 d/2B/2g/2b/2| \
d'/2b/2g'/2a'/2 d''/2a'/2^f'/2c'/2 d'/2a/2^f/2c/2 d/2A/2^F/2C/2| \
D/2x3x/2 D/2C/2=F/2^G/2 d/2c/2f/2^g/2| \
d'/2c'/2f'/2^g'/2 d''/2=g'/2f'/2b/2 d'/2g/2f/2B/2 d/2G/2F/2B,/2|
^D/2x3x/2 E/2C/2G/2c/2 e/2c/2g/2c'/2| \
e'/2c'/2g'/2c''/2 e''/2c''/2g'/2c'/2 e'/2c'/2g/2c/2 e/2c/2G/2C/2| \
E/2C/2x3 F/2C/2F/2c/2 f/2c/2f/2c'/2| \
f'/2c'/2f'/2c''/2 e''/2c''/2^f'/2c'/2 e'/2c'/2^f/2c/2 ^d/2c/2^F/2C/2|
^D/2C/2x3 =D/2C/2G/2c/2 d/2c/2g/2c'/2| \
d'/2c'/2g'/2c''/2 d''/2b'/2g'/2b/2 d'/2b/2g/2B/2 d/2B/2G/2B,/2| \
D/2B,/2x3 D/2C/2A/2c/2 d/2c/2a/2c'/2| \
d'/2c'/2a'/2c''/2 ^d''/2c''/2a'/2c'/2 ^d'/2c'/2a/2c/2 ^d/2B/2A/2B,/2|
^D/2B,/2x3 E/2B,/2^G/2B/2 e/2B/2^g/2b/2| \
e'/2b/2^g'/2b'/2 e''/2b'/2^g'/2b/2 e'/2b/2^g/2B/2 e/2B/2^G/2B,/2| \
E/2B,/2x3 =F/2=D/2A/2c/2 f/2d/2a/2c'/2| \
f'/2d'/2a'/2c''/2 f''/2b'/2=g'/2d'/2 f'/2b/2g/2d/2 f/2B/2G/2D/2|
F/2B,/2x3 E/2C/2G/2c/2 e/2c/2^a/2c'/2| \
g'/2c'/2^a/2e/2 ^f'/2c'/2=a/2^d/2 ^f/2c/2A/2^D/2 =f/2B/2^G/2=D/2| \
F/2B,/2x3 E/2C/2=G/2c/2 g/2e/2g/2c'/2| \
e'/2c'/2g/2c/2 ^d'/2a/2^f/2c/2 ^d/2A/2^F/2C/2 =d/2^G/2=F/2B,/2|
D/2x4x/2E/2=G/2 ^c/2^A/2e/2g/2| \
^c'/2^a/2e'/2g'/2 ^c''/2^f'/2^d'/2=a/2 ^c'/2^f/2^d/2A/2 ^c/2^F/2^D/2A,/2| \
=c/2^F/2^D/2A,/2 x/2^G,/2=D/2=F/2 c/2^G/2d/2f/2 c'/2^g/2d'/2f'/2| \
c''/2f'/2d'/2^g/2 b'/2f'/2d'/2=g/2 b/2f/2d/2G/2 B/2F/2D/2x/2|
x4 xE/2G/2 c/2G/2e/2g/2| \
c'/2g/2e'/2g'/2 c''/2g'/2e'/2g/2 c'/2g/2e/2G/2 c/2G/2E/2
V:2
% Piano
%%MIDI program 0
%%MIDI program 0
x2 
% Piano
%%MIDI program 0
%%MIDI program 0
[C,/2C,,/2-][C,/2-C,,/2-][G,/2C,/2-C,,/2-][C/2C,/2-C,,/2-] [C,4-C,,4-]| \
[C,8-C,,8-]| \
[C,-C,,-][G,/2C,/2C,,/2-]C,,/2 [F,,/2-F,,,/2-][C,/2F,,/2-F,,,/2-][A,/2F,,/2-F,,,/2-][C/2F,,/2-F,,,/2-] [F,,4-F,,,4-]| \
[F,,2F,,,2] [^F,,6-^F,,,6-]|
[^F,,-^F,,,-][A,/2^F,,/2-^F,,,/2-][C,/2^F,,/2^F,,,/2] [G,,/2-G,,,/2-][B,,/2G,,/2-G,,,/2-][G,/2G,,/2-G,,,/2-][B,/2G,,/2-G,,,/2-] [G,,2G,,,2] [^F,,2^F,,,2]| \
[E,,2E,,,2] [D,,6-D,,,6-]| \
[D,,/2-D,,,/2-][A,/2D,,/2-D,,,/2-][^F,/2D,,/2-D,,,/2-][C,/2D,,/2D,,,/2] [G,,/2-G,,,/2-][C,/2G,,/2-G,,,/2-][=F,/2G,,/2-G,,,/2-][^G,/2=G,,/2-G,,,/2-] [G,,4-G,,,4-]| \
[G,,8-G,,,8-]|
[G,,/2-G,,,/2-][G,/2G,,/2-G,,,/2-][F,/2G,,/2-G,,,/2-][B,,/2G,,/2G,,,/2] [C,/2C,,/2-][C,/2-C,,/2-][G,/2C,/2-C,,/2-][C/2C,/2-C,,/2-] [C,4-C,,4-]| \
[C,8-C,,8-]| \
[C,-C,,-][G,/2C,/2C,,/2-]C,,/2 [A,,/2-A,,,/2-][C,/2A,,/2-A,,,/2-][F,/2A,,/2-A,,,/2-][C/2A,,/2-A,,,/2-] [A,,4-A,,,4-]| \
[A,,8-A,,,8-]|
[A,,-A,,,-][^F,/2A,,/2-A,,,/2-][C,/2A,,/2A,,,/2] [G,,/2-G,,,/2-][C,/2G,,/2-G,,,/2-][G,/2G,,/2-G,,,/2-][C/2G,,/2-G,,,/2-] [G,,4-G,,,4-]| \
[G,,8-G,,,8-]| \
[G,,-G,,,-][G,/2G,,/2-G,,,/2-][B,,/2G,,/2G,,,/2] [C,/2-C,,/2-][D,/2C,/2-C,,/2-][G,/2C,/2-C,,/2-][D/2C,/2-C,,/2-] [C,4-C,,4-]| \
[C,8-C,,8-]|
[C,-C,,-][G,/2C,/2C,,/2-]C,,/2 [A,,/2-A,,,/2-][E,/2A,,/2-A,,,/2-][C/2A,,/2-A,,,/2-][A,,4-A,,,4-][A,,/2-A,,,/2-]| \
[A,,2A,,,2] [B,,4B,,,4] [A,,2-A,,,2-]| \
[A,,3/2-A,,,3/2-][D,/2A,,/2A,,,/2] [^G,,/2-^G,,,/2-][D,/2^G,,/2-^G,,,/2-][B,/2^G,,/2-^G,,,/2-][D/2^G,,/2-^G,,,/2-] [^G,,4-^G,,,4-]| \
[^G,,2^G,,,2] [A,,4A,,,4] [=G,,2-G,,,2-]|
[G,,-G,,,-][A,/2G,,/2-G,,,/2-][C,/2G,,/2G,,,/2] [=F,,/2-F,,,/2-][C,/2F,,/2-F,,,/2-][A,/2F,,/2-F,,,/2-][C/2F,,/2-F,,,/2-] [F,,4-F,,,4-]| \
[F,,8-F,,,8-]| \
[F,,/2-F,,,/2-][B,/2F,,/2-F,,,/2-][A,/2F,,/2-F,,,/2-][B,,/2F,,/2F,,,/2] [E,,/2-E,,,/2-][B,,/2E,,/2-E,,,/2-][A,/2E,,/2-E,,,/2-][B,/2E,,/2-E,,,/2-] [E,,4-E,,,4-]| \
[E,,8-E,,,8-]|
[E,,-E,,,-][^G,/2E,,/2-E,,,/2-][B,,/2E,,/2E,,,/2] [A,,/2-A,,,/2-][E,/2A,,/2-A,,,/2-][A,/2A,,/2-A,,,/2-][^C/2A,,/2-A,,,/2-] [A,,4-A,,,4-]| \
[A,,2A,,,2] [D,4-D,,4-] [D,-D,,-][A,/2D,/2-D,,/2-][E,/2D,/2-D,,/2-]| \
[D,-D,,-][A,/2D,/2D,,/2-]D,,/2 [=G,,/2-G,,,/2-][D,/2G,,/2-G,,,/2-][G,/2G,,/2-G,,,/2-][=C/2G,,/2-G,,,/2-] [G,,4-G,,,4-]| \
[G,,8-G,,,8-]|
[G,,/2-G,,,/2-][B,/2G,,/2-G,,,/2-][G,/2G,,/2-G,,,/2-][D,/2G,,/2G,,,/2] [C,/2C,,/2-][C,/2-C,,/2-][G,/2C,/2-C,,/2-][^A,/2C,/2-C,,/2-] [C,4-C,,4-]| \
[C,2C,,2] [^F,,6-^F,,,6-]| \
[^F,,-^F,,,-][^D,/2^F,,/2-^F,,,/2-][C,/2^F,,/2^F,,,/2] [=F,,/2-F,,,/2-][C,/2F,,/2-F,,,/2-][^D,/2F,,/2-F,,,/2-][=A,/2F,,/2-F,,,/2-] [F,,4-F,,,4-]| \
[F,,2F,,,2] [B,,6-B,,,6-]|
[B,,/2-B,,,/2-][^G,/2B,,/2-B,,,/2-][^D,/2B,,/2B,,,/2-]B,,,/2 ^A,,,/2-[^A,,/2^A,,,/2-][F,/2^A,,,/2-][^G,/2^A,,,/2-] ^A,,,4-| \
^A,,,2- [^A,,6-^A,,,6-]| \
[^A,,/2-^A,,,/2-][^G,/2^A,,/2-^A,,,/2-][E,/2^A,,/2^A,,,/2-]^A,,,/2 [=A,,/2A,,,/2-][A,,/2-A,,,/2-][E,/2A,,/2-A,,,/2-][A,/2A,,/2-A,,,/2-] [A,,4-A,,,4-]| \
[A,,8-A,,,8-]|
[A,,/2-A,,,/2-][A,/2A,,/2-A,,,/2-][E,/2A,,/2A,,,/2-]A,,,/2 =D,,/2-[A,,/2D,,/2-][D,/2D,,/2-][^F,/2D,,/2-] D,,4-| \
D,,2 [=G,,4-G,,,4-] [G,,3/2-G,,,3/2-][G,/2G,,/2-G,,,/2-]| \
[B,/2G,,/2-G,,,/2-][=F,/2G,,/2-G,,,/2-][D,/2G,,/2G,,,/2-]G,,,/2 C,,/2-[G,,/2C,,/2-][C,/2C,,/2-][E,/2C,,/2-] [B,/2C,,/2-][G,/2C,,/2-]C,,3-| \
C,,2 [F,,4-F,,,4-] [F,,3/2-F,,,3/2-][F,/2F,,/2-F,,,/2-]|
[A,/2F,,/2-F,,,/2-][E,/2F,,/2-F,,,/2-][C,/2F,,/2F,,,/2-]F,,,/2 B,,,/2-[F,,/2B,,,/2-][B,,/2B,,,/2-][D,/2B,,,/2-] [A,/2B,,,/2-][F,/2B,,,/2-][B,/2B,,,/2-]B,,,2-B,,,/2-| \
B,,,2 [E,,4E,,,4] [A,,2-A,,,2-]| \
[A,,2A,,,2] [D,,4D,,,4] [G,,2-G,,,2-]| \
[G,,2G,,,2] [C,,4C,,,4] [F,,2-F,,,2-]|
[F,,2F,,,2] [B,,4-B,,,4-] [B,,/2-B,,,/2-][A,/2B,,/2-B,,,/2-][F,/2B,,/2B,,,/2-]B,,,/2| \
B,,,2- [B,,4-B,,,4-] [B,,/2-B,,,/2-][A,/2B,,/2-B,,,/2-][^F,/2B,,/2B,,,/2-]B,,,/2| \
B,,,2 [E,,/2-E,,,/2-][B,,/2E,,/2-E,,,/2-][E,/2E,,/2-E,,,/2-][^G,/2E,,/2-E,,,/2-] [E,,4-E,,,4-]| \
[E,,8E,,,8]|
[D,,-D,,,-][=G,/2D,,/2-D,,,/2-][D,/2D,,/2D,,,/2] [C,,/2-C,,,/2-][C,/2C,,/2-C,,,/2-][G,/2C,,/2-C,,,/2-][C/2C,,/2-C,,,/2-] [C,,4-C,,,4-]| \
[C,,2-C,,,2] [C,6-C,,6-]| \
[C,-C,,-][G,/2C,/2C,,/2-]C,,/2 [=F,,/2-F,,,/2-][C,/2F,,/2-F,,,/2-][A,/2F,,/2-F,,,/2-][C/2F,,/2-F,,,/2-] [F,,4-F,,,4-]| \
[F,,2F,,,2] [^F,,6-^F,,,6-]|
[^F,,-^F,,,-][A,/2^F,,/2-^F,,,/2-][C,/2^F,,/2^F,,,/2] [G,,/2-G,,,/2-][B,,/2G,,/2-G,,,/2-][G,/2G,,/2-G,,,/2-][B,/2G,,/2-G,,,/2-] [G,,2G,,,2] [^F,,2^F,,,2]| \
[E,,2E,,,2] [D,,6-D,,,6-]| \
[D,,/2-D,,,/2-][A,/2D,,/2-D,,,/2-][^F,/2D,,/2-D,,,/2-][C,/2D,,/2D,,,/2] [G,,/2-G,,,/2-][C,/2G,,/2-G,,,/2-][=F,/2G,,/2-G,,,/2-][^G,/2=G,,/2-G,,,/2-] [G,,4-G,,,4-]| \
[G,,8-G,,,8-]|
[G,,/2-G,,,/2-][G,/2G,,/2-G,,,/2-][F,/2G,,/2-G,,,/2-][B,,/2G,,/2G,,,/2] [C,/2C,,/2-][C,/2-C,,/2-][G,/2C,/2-C,,/2-][C/2C,/2-C,,/2-] [C,4-C,,4-]| \
[C,8-C,,8-]| \
[C,-C,,-][G,/2C,/2C,,/2-]C,,/2 [A,,/2-A,,,/2-][C,/2A,,/2-A,,,/2-][F,/2A,,/2-A,,,/2-][C/2A,,/2-A,,,/2-] [A,,4-A,,,4-]| \
[A,,8A,,,8]|
[^G,,-^G,,,-][^F,/2^G,,/2-^G,,,/2-][C,/2^G,,/2^G,,,/2] [=G,,/2-G,,,/2-][C,/2G,,/2-G,,,/2-][G,/2G,,/2-G,,,/2-][C/2G,,/2-G,,,/2-] [G,,4-G,,,4-]| \
[G,,8-G,,,8-]| \
[G,,-G,,,-][G,/2G,,/2-G,,,/2-][B,,/2G,,/2G,,,/2] [^F,,/2-^F,,,/2-][C,/2^F,,/2-^F,,,/2-][A,/2^F,,/2-^F,,,/2-][C/2^F,,/2-^F,,,/2-] [^F,,4-^F,,,4-]| \
[^F,,2^F,,,2] [=F,,6-F,,,6-]|
[F,,-F,,,-][A,/2F,,/2-F,,,/2-][B,,/2F,,/2F,,,/2] [E,,/2-E,,,/2-][B,,/2E,,/2-E,,,/2-][^G,/2E,,/2-E,,,/2-][B,/2E,,/2-E,,,/2-] [E,,4-E,,,4-]| \
[E,,2-E,,,2] [E,6-E,,6-]| \
[E,-E,,-][^G,/2E,/2-E,,/2-][E,/2B,,/2E,,/2] D,,/2-[D,/2D,,/2-][A,/2D,,/2-][C/2D,,/2-] D,,4-| \
D,,2 [=G,,6-G,,,6-]|
[G,,-G,,,-][G,/2G,,/2-G,,,/2-][D,/2G,,/2G,,,/2] C,,/2-[C,/2C,,/2-][G,/2C,,/2-][C/2C,,/2-] C,,4-| \
C,,2- [C,6-C,,6-]| \
[C,-C,,-][^G,/2C,/2-C,,/2-][D,/2C,/2C,,/2] C,,/2-[C,/2C,,/2-][=G,/2C,,/2-][C/2C,,/2-] C,,4-| \
C,,2 [G,,6-G,,,6-]|
[G,,/2-G,,,/2-][^G,/2=G,,/2-G,,,/2-][F,/2G,,/2-G,,,/2-][B,,/2G,,/2G,,,/2] [G,,/2-G,,,/2-][^A,,/2G,,/2-G,,,/2-][E,/2G,,/2-G,,,/2-][G,/2G,,/2-G,,,/2-] [^C/2G,,/2-G,,,/2-][^A,/2G,,/2-G,,,/2-][G,,3-G,,,3-]| \
[G,,8-G,,,8-]| \
[G,,2G,,,2] [G,,6-G,,,6-]| \
[G,,6-G,,,6-] [G,,3/2-G,,,3/2-][G,/2G,,/2-G,,,/2-]|
[B,/2G,,/2-G,,,/2-][F,/2G,,/2-G,,,/2-][D,/2G,,/2G,,,/2-]G,,,/2 [=C,,/2-C,,,/2-][G,,/2C,,/2-C,,,/2-][E,/2C,,/2-C,,,/2-][G,/2C,,/2-C,,,/2-] [C/2C,,/2-C,,,/2-][G,/2C,,/2-C,,,/2-][C,,3-C,,,3-]| \
[C,,6-C,,,6-] [C,,3/2-C,,,3/2-][G,/2C,,/2-C,,,/2-]| \
[C/2C,,/2-C,,,/2-][G,/2C,,/2-C,,,/2-][E,/2C,,/2-C,,,/2-][G,,/2C,,/2C,,,/2] [C,,6-C,,,6-]|[C,,2C,,,2] 
