Error: Time=3840 Track=1 Note terminated when not on - pitch 33
Error: Time=3840 Track=1 Note terminated when not on - pitch 45
Error: Time=28416 Track=1 Note terminated when not on - pitch 57
Error in MIDI file - notes still on at end of track!
X: 1
T: from midi_transposed/C_chpn-p22.mid
M: 6/8
L: 1/8
Q:1/4=178
%beats in anacrusis = 10
% Last note suggests minor mode tune
K:C % 0 sharps
V:1
% Piano
%%MIDI program 0
%%MIDI program 0
x4x| \
x4[F-D-B,-][FD-B,-F,]| \
[E-D-B,E,][ED]x2[^G-F-D][^GF-^G,]| \
[A2F2A,2]x2[A-F-D][AF-A,]| \
[^G2F2D2^G,2]x2[B-^G-F][B^GB,]|
[c2A2C2]x2[a-f-c-][afcA]| \
[^g2e2B2^G2]x2[=g-^d-^A-][g^d^AG]| \
[^f2=d2=A2^F2]x2[g-^d-^A-][g^d^AG]| \
[^f2=d2=A2^F2]x2[=fdBF]x|
x4[f-d-B-][fd-B-F]| \
[e2d2B2E2]x2[^g-f-d][^gf-^G]| \
[a2f2A2]x2[a-f-d-][af-d-A]| \
[^g2f2d2^G2]x2[b-^g-f][b^gB]|
[c'2a2c2]x2[c'-a-][c'ac]| \
x[b-a-^f-][ba^fB] x[^a-=g-][^ag^A]| \
x[=a-g-e-][ageA] x[=f-d-A-][fdAF]| \
x[f-d-^G-][fd^GF] [f/2d/2A/2F/2]x/2[f/2d/2^A/2F/2]x3/2|
x4[=g-^d-^A-][g^d^AG]| \
x[=a-f-c-][afcA] x[^a-f-=d-][^afd^A]| \
x[f-d-^A-][fd^AF] x[g-^d-^A-][g^d^AG]| \
x[=a-f-c-][afcA] x[^a-f-=d-][^afd^A]|
x[=a-f-d-][afdA] x[g-e-^A-][ge^AG]| \
x[^g-e-B-][^geB^G] x[=a-e-c-][aecA]| \
x[d-B-A-][dBAD] x[e-c-A-][ecAE]| \
x[A-F-C-][AFCA,] x[d-A-F-][dAFD]|
x[c^G][BD] x[=g-^d-^A-][g^d^AG]| \
x[=a-f-c-][afcA] x[^a-f-=d-][^afd^A]| \
x[f-d-^A-][fd^AF] x[g-^d-^A-][g^d^AG]| \
x[=a-f-c-][afcA] x[^a-f-=d-][^afd^A]|
x[=a-f-d-][afdA] x[g-e-^A-][ge^AG]| \
x[^g-e-B-][^geB^G] x[=a-e-c-][aecA]| \
x[d-B-A-][dBAD] x[e-c-A-][ecAE]| \
x[A-F-C-][AFCA,] x[d-A-F-][dAFD]|
x[c^G][BD] x[e-c-A-][ecAE]| \
x[A-F-C-][AFCA,] x[d-AF][d^GD]| \
x[A-F-C-][AFCA,] x[F-D-B,-][FD-B,-F,]| \
[E-D-B,E,][ED]x2[^G-F-D][^GF-^G,]|
[A2F2A,2]x2[^G-F-D][^GF-^G,]| \
[A2F2A,2]x2[^g-f-d][^gf-^G]| \
[a2f2A2]x [a'2f'2c'2a2]x| \
x3 [e3c3A3E3]|
[^G3E3D3^G,3] [C/2-A,/2-][A2-E2-C2-A,2-][A/2-E/2-C/2-A,/2-]|[A2-E2-C2-A,2-][A/2-E/2-C/2A,/2][A/2E/2] 
V:2
% Piano
%%MIDI program 0
%%MIDI program 0
x4x| \
% Piano
%%MIDI program 0
%%MIDI program 0
[C,C,,][B,,3/2B,,,3/2][A,,/2-A,,,/2-] [A,,3-A,,3-A,,,3-A,,,3-]| \
[A,,-A,,A,,,-A,,,][A,,-^G,,A,,,-^G,,,][B,,/2A,,/2-B,,,/2A,,,/2-][A,,/2-A,,,/2-] [B,,3-A,,3-B,,,3-A,,,3-]| \
[B,,A,,-B,,,A,,,-][C,A,,-C,,A,,,-][A,,-A,,A,,,-A,,,] [C,3-A,,3-C,,3-A,,,3-]| \
[C,A,,-C,,A,,,-][B,,A,,-B,,,A,,,-][D,/2A,,/2-D,,/2A,,,/2-][A,,/2-A,,,/2-] [D,3-A,,3-D,,3-A,,,3-]|
[D,A,,-D,,A,,,-][E,A,,-E,,A,,,-][C,A,,-C,,A,,,-] [^D3-^D,3-A,,3-A,,,3-]| \
[^D^D,A,,-A,,,-][EE,A,,-A,,,-][B,B,,A,,-A,,,-] [^C3-^C,3-A,,3-A,,,3-]| \
[^C^C,A,,-A,,,-][=DD,A,,-A,,,-][A,A,,-A,,A,,,-] [^C3-^C,3-A,,3-A,,,3-]| \
[^C^C,A,,-A,,,-][DD,A,,-A,,,-][A,/2A,,/2-A,,/2A,,,/2-][A,,/2-A,,,/2-] [A,A,,-A,,A,,,-][^G,A,,-^G,,A,,,-][A,A,,-A,,A,,,-]|
[=CC,A,,-A,,,-][B,B,,A,,-A,,,-][A,,/2A,,,/2-][A,/2-A,,/2-A,,,/2-] [A,3-A,3-A,,3-A,,3-A,,,3-]| \
[A,-A,A,,-A,,A,,,-][A,-^G,A,,-^G,,A,,,-][B,/2A,/2-B,,/2A,,/2-A,,,/2-][A,/2-A,,/2-A,,,/2-] [B,3-A,3-B,,3-A,,3-A,,,3-]| \
[B,A,-B,,A,,-A,,,-][CA,-C,A,,-A,,,-][A,-A,A,,-A,,A,,,-] [C3-A,3-C,3-A,,3-A,,,3-]| \
[CA,-C,A,,-A,,,-][B,A,-B,,A,,-A,,,-][D/2A,/2-D,/2A,,/2-A,,,/2-][A,/2-A,,/2-A,,,/2-] [D3-A,3-D,3-A,,3-A,,,3-]|
[DA,-D,A,,-A,,,-][EA,-E,A,,-A,,,-][CA,-C,A,,-A,,,-] [AA,-A,A,,-A,,,-][FA,-F,A,,-A,,,-][E/2A,/2-E,/2A,,/2-A,,,/2-][A,/2-A,,/2-A,,,/2-]| \
[E2A,2-E,2A,,2-A,,,2-][^DA,-^D,A,,-A,,,-] [=GA,-G,A,,-A,,,-][^DA,-^D,A,,-A,,,-][=D/2A,/2-D,/2A,,/2-A,,,/2-][A,/2-A,,/2-A,,,/2-]| \
[D2A,2-D,2A,,2-A,,,2-][^CA,-^C,A,,-A,,,-] [FA,-F,A,,-A,,,-][DA,-D,A,,-A,,,-][=CA,-C,A,,-A,,,-]| \
[B,A,-B,,A,,-A,,,-][DA,-D,A,,-A,,,-][^A,=A,-^A,,=A,,-A,,,-] [A,/2-A,/2A,,/2-A,,/2A,,,/2-][A,/2-A,,/2-A,,,/2-][A,/2-^G,/2A,,/2-^G,,/2A,,,/2-][A,/2-A,,/2-A,,,/2-][A,/2-=G,/2A,,/2-G,,/2A,,,/2-][A,/2-A,,/2-A,,,/2-]|
[A,/2-^F,/2A,,/2-^F,,/2A,,,/2-][A,/2-A,,/2-A,,,/2-][A,/2-=F,/2A,,/2-F,,/2A,,,/2-][A,/2-A,,/2-A,,,/2-][A,/2-E,/2A,,/2-E,,/2A,,,/2-][A,/2-A,,/2-A,,,/2-] [A,/2-^D,/2A,,/2-^D,,/2A,,,/2-][A,/2-A,,/2-A,,,/2-][^D/2A,/2-^D,/2A,,/2-A,,,/2-][A,/2-A,,/2-A,,,/2-][^D/2A,/2-^D,/2A,,/2-A,,,/2-][A,/2-A,,/2-A,,,/2-]| \
[^D/2A,/2-^D,/2A,,/2-A,,,/2-][A,/2-A,,/2-A,,,/2-][^D/2A,/2-^D,/2A,,/2-A,,,/2-][A,/2-A,,/2-A,,,/2-][^D/2A,/2-^D,/2A,,/2-A,,,/2-][A,/2-A,,/2-A,,,/2-] [=DA,-D,A,,-A,,,-][CA,-C,A,,-A,,,-][^A,=A,-^A,,=A,,-A,,,-]| \
[A,-A,A,,-A,,A,,,-][A,-G,A,,-G,,A,,,-][A,-F,A,,-F,,A,,,-] [A,/2-^D,/2A,,/2-^D,,/2A,,,/2-][A,/2-A,,/2-A,,,/2-][^D/2A,/2-^D,/2A,,/2-A,,,/2-][A,/2-A,,/2-A,,,/2-][^D/2A,/2-^D,/2A,,/2-A,,,/2-][A,/2-A,,/2-A,,,/2-]| \
[^D/2A,/2-^D,/2A,,/2-A,,,/2-][A,/2-A,,/2-A,,,/2-][^D/2A,/2-^D,/2A,,/2-A,,,/2-][A,/2-A,,/2-A,,,/2-][^D/2A,/2-^D,/2A,,/2-A,,,/2-][A,/2-A,,/2-A,,,/2-] [=DA,-D,A,,-A,,,-][CA,-C,A,,-A,,,-][^A,=A,-^A,,=A,,-A,,,-]|
[A,-A,A,,-A,,A,,,-][A,-G,A,,-G,,A,,,-][A,-F,A,,-F,,A,,,-] [A,-E,A,,-E,,A,,,-][D/2A,/2-D,/2A,,/2-A,,,/2-][A,/2-A,,/2-A,,,/2-][D/2A,/2-D,/2A,,/2-A,,,/2-][A,/2-A,,/2-A,,,/2-]| \
[D/2A,/2-D,/2A,,/2-A,,,/2-][A,/2-A,,/2-A,,,/2-][D/2A,/2-D,/2A,,/2-A,,,/2-][A,/2-A,,/2-A,,,/2-][D/2A,/2-D,/2A,,/2-A,,,/2-][A,/2-A,,/2-A,,,/2-] [CA,-C,A,,-A,,,-][B,A,-B,,A,,-A,,,-][A,-A,A,,-A,,A,,,-]| \
[A,-F,A,,-F,,A,,,-][A,-E,A,,-E,,A,,,-][A,-D,A,,-D,,A,,,-] [A,2-C,2A,,2-C,,2A,,,2-][A,-A,,-A,,,-]| \
[A,2-F,2A,,2-F,,2A,,,2-][A,-A,,-A,,,-] [A,2-B,,2A,,2-B,,,2A,,,2-][A,-A,,-A,,,-]|
[A,2-E,2A,,2-E,,2A,,,2-][A,-A,,-A,,,-] [A,/2-^D,/2A,,/2-^D,,/2A,,,/2-][A,/2-A,,/2-A,,,/2-][^D/2A,/2-^D,/2A,,/2-A,,,/2-][A,/2-A,,/2-A,,,/2-][^D/2A,/2-^D,/2A,,/2-A,,,/2-][A,/2-A,,/2-A,,,/2-]| \
[^D/2A,/2-^D,/2A,,/2-A,,,/2-][A,/2-A,,/2-A,,,/2-][^D/2A,/2-^D,/2A,,/2-A,,,/2-][A,/2-A,,/2-A,,,/2-][^D/2A,/2-^D,/2A,,/2-A,,,/2-][A,/2-A,,/2-A,,,/2-] [=DA,-D,A,,-A,,,-][CA,-C,A,,-A,,,-][^A,=A,-^A,,=A,,-A,,,-]| \
[A,-A,A,,-A,,A,,,-][A,-G,A,,-G,,A,,,-][A,-F,A,,-F,,A,,,-] [A,/2-^D,/2A,,/2-^D,,/2A,,,/2-][A,/2-A,,/2-A,,,/2-][^D/2A,/2-^D,/2A,,/2-A,,,/2-][A,/2-A,,/2-A,,,/2-][^D/2A,/2-^D,/2A,,/2-A,,,/2-][A,/2-A,,/2-A,,,/2-]| \
[^D/2A,/2-^D,/2A,,/2-A,,,/2-][A,/2-A,,/2-A,,,/2-][^D/2A,/2-^D,/2A,,/2-A,,,/2-][A,/2-A,,/2-A,,,/2-][^D/2A,/2-^D,/2A,,/2-A,,,/2-][A,/2-A,,/2-A,,,/2-] [=DA,-D,A,,-A,,,-][CA,-C,A,,-A,,,-][^A,=A,-^A,,=A,,-A,,,-]|
[A,-A,A,,-A,,A,,,-][A,-G,A,,-G,,A,,,-][A,-F,A,,-F,,A,,,-] [A,-E,A,,-E,,A,,,-][D/2A,/2-D,/2A,,/2-A,,,/2-][A,/2-A,,/2-A,,,/2-][D/2A,/2-D,/2A,,/2-A,,,/2-][A,/2-A,,/2-A,,,/2-]| \
[D/2A,/2-D,/2A,,/2-A,,,/2-][A,/2-A,,/2-A,,,/2-][D/2A,/2-D,/2A,,/2-A,,,/2-][A,/2-A,,/2-A,,,/2-][D/2A,/2-D,/2A,,/2-A,,,/2-][A,/2-A,,/2-A,,,/2-] [CA,-C,A,,-A,,,-][B,A,-B,,A,,-A,,,-][A,-A,A,,-A,,A,,,-]| \
[A,-F,A,,-F,,A,,,-][A,-E,A,,-E,,A,,,-][A,-D,A,,-D,,A,,,-] [A,2-C,2A,,2-C,,2A,,,2-][A,-A,,-A,,,-]| \
[A,2-F,2A,,2-F,,2A,,,2-][A,-A,,-A,,,-] [A,2-B,,2A,,2-B,,,2A,,,2-][A,-A,,-A,,,-]|
[A,2-E,2A,,2-E,,2A,,,2-][A,-A,,-A,,,-] [A,2-C,2A,,2-C,,2A,,,2-][A,-A,,-A,,,-]| \
[A,2-F,2A,,2-F,,2A,,,2-][A,-A,,-A,,,-] [A,3-B,,3A,,3-B,,,3A,,,3-]| \
[A,-C,A,,-C,,A,,,-][A,-B,,A,,-B,,,A,,,-][A,/2-A,,/2A,,,/2][A,/2-A,,/2-A,,,/2-] [A,3-A,,3-A,,3-A,,,3-A,,,3-]| \
[A,-A,,-A,,A,,,-A,,,][A,-A,,-^G,,A,,,-^G,,,][A,/2-B,,/2A,,/2-B,,,/2A,,,/2-][A,/2-A,,/2-A,,,/2-] [A,3-B,,3-A,,3-B,,,3-A,,,3-]|
[A,-B,,A,,-B,,,A,,,-][A,-C,A,,-C,,A,,,-][A,-A,,-A,,A,,,-A,,,] [A,3-B,,3-A,,3-B,,,3-A,,,3-]| \
[A,-B,,A,,-B,,,A,,,-][A,-C,A,,-C,,A,,,-][A,-A,,-A,,A,,,-A,,,] [A,3-B,,3-A,,3-B,,,3-A,,,3-]| \
[A,-B,,A,,-B,,,A,,,-][A,-C,A,,-C,,A,,,-][A,-A,,-A,,A,,,-A,,,] [A,2-A,,2-^D,,2A,,,2-^D,,,2][A,-A,,-A,,,-]| \
[A,3-A,,3-A,,,3-] [A,3-A,,3-E,,3A,,,3-E,,,3]|
[A,2-E,2-B,,2-A,,2-E,,2-A,,,2-][A,/2-E,/2B,,/2A,,/2-E,,/2A,,,/2-][A,/2-A,,/2-A,,,/2-A,,,/2] [A,3-E,3-A,,3-A,,3-A,,,3-]|[A,3-E,3A,,3-A,,3A,,,3-] 
