Error: Time=18773 Track=0 Note terminated when not on - pitch 66
Error: Time=39253 Track=0 Note terminated when not on - pitch 73
Error: Time=67925 Track=0 Note terminated when not on - pitch 69
Error: Time=80213 Track=0 Note terminated when not on - pitch 65
Error in MIDI file - notes still on at end of track!
Error in MIDI file - notes still on at end of track!
X: 1
T: from midi_transposed/C_chpn-p2.mid
M: 4/4
L: 1/8
Q:1/4=53
%beats in anacrusis = 0
% Last note suggests Dorian mode tune
K:G % 1 sharps
V:1
% Piano
%%MIDI program 0
%%MIDI program 0
x8| \
x8| \
x2 E6-| \
EB, D6-|
D2 D2- D/2F/2-[F-E] [F2-D2-]| \
[F-D][F-A,] [F2-B,2] [F3/2-B,3/2][F/2-B,/2] [F2-B,2-]| \
[F6-B,6] F2-| \
F6- [B2-F2-]|
[BF-][F-F] [A6-F6-]| \
[A2F2-] [A2-F2-] [A/2F/2-][^c/2-F/2-][^c-BF-] [^c2-A2-F2-]| \
[^c-AF-][^c-F-E] [^c2-F2-F2] [^c3/2-F3/2-F3/2][^c/2-F/2-F/2] [^c2-F2-F2-]| \
[^c6-F6-F6] [^c2-F2-]|
[^c8-F8-]| \
[^c4-F4-] [^c4-A4-F4-]| \
[^c8-A8-F8-]| \
[^c-AF-][^c-F-E] [^c6-F6-=F6-]|
[^c2-^F2-=F2] [^c2-^F2-=F2-] [^c/2-^F/2-=F/2][^c/2-A/2-^F/2-][^c-A-GF-] [^c2-A2-F2-=F2-]| \
[^c-A-^F-=F][^c-A-^F-=C] [^c2-A2-F2-D2] [^c3/2-A3/2-F3/2-D3/2][^c/2-A/2-F/2-D/2] [^c2-A2-F2-D2-]| \
[^c6-A6-F6-D6] [^c2-A2-F2-]| \
[^cA-F-][A-F-] [A2-F2-D2-] [A/2-F/2-D/2][A/2-F/2-=F/2-][A-^F-=F-E] [A2-^F2-=F2-D2-]|
[A-^F-=F-D][A-^F-=F-A,-] [A2-^F2-=F2-B,2A,2-] [A3/2-^F3/2-=F3/2-B,3/2A,3/2-][A/2-^F/2-=F/2-B,/2A,/2] [A2-^F2-=F2-B,2^G,2E,2]| \
[A2-^F2-=F2-B,2^F,2^D,2] [A2-F2=F2-B,2-^G,2-E,2-] [A3/2-=F3/2-B,3/2^G,3/2E,3/2][A/2-=F/2-^G,/2-E,/2-=D,/2-] [A2-=F2-B,2-^G,2-E,2-D,2-]| \
[A-=F-B,^G,-E,-D,-][A/2-=F/2-=C/2-^G,/2E,/2-D,/2-][A/2-=F/2-C/2E,/2D,/2] [A/2-=F/2-][A/2-=F/2-E,/2-C,/2-][A4-=F4-A,4-E,4-C,4-][A-=F-A,-E,-C,-]|[A2-=F2-A,2E,2C,2] 
V:2
% Piano
%%MIDI program 0
%%MIDI program 0
x2 
% Piano
%%MIDI program 0
%%MIDI program 0
[B,,E,,][=G,^A,,] [B,,E,,][G,G,,] [B,,E,,][G,^A,,]| \
[B,,E,,][G,G,,] [B,,E,,][G,^A,,] [B,,E,,][G,G,,] [B,,E,,][G,^A,,]| \
[B,,E,,][G,G,,] [B,,E,,][G,^A,,] [B,,E,,][G,G,,] [B,,E,,][G,^A,,]| \
[B,,E,,][G,G,,] [B,,D,,][G,^A,,] [B,,D,,][G,G,,] [B,,D,,][G,^A,,]|
[B,,D,,][G,G,,] [=A,,D,,][G,^G,,] [A,,D,,][=G,G,,] [A,,D,,][^F,^G,,]| \
[A,,D,,][F,F,,] [=G,,G,,,][G,E,] [D,G,,][G,^D,] [=D,G,,][G,E,]| \
[D,G,,][G,^D,] [=D,G,,][G,E,] [D,G,,][G,^D,] [=D,G,,][G,E,]| \
[D,G,,][G,^D,] [F,B,,][=D=F,] [^F,B,,][DD,] [F,B,,][D=F,]|
[^F,B,,][DD,] [F,A,,][D=F,] [^F,A,,][DD,] [F,A,,][D=F,]| \
[^F,A,,][DD,] [E,A,,][D^D,] [E,A,,][=DD,] [E,A,,][^C^D,]| \
[E,A,,][^C^C,] [^D,A,,][^C=D,] [^D,A,,][^C^C,] [^D,A,,][^C=D,]| \
[^D,A,,][^C^C,] [^D,A,,][^C=D,] [^D,A,,][^C^C,] [^D,A,,][=C=D,]|
[^D,A,,][CC,] [^D,F,,][A,=D,] [^D,F,,][A,C,] [^D,F,,][A,=D,]| \
[^D,F,,][A,C,] [^D,F,,][A,=D,] [^D,F,,][A,C,] [^D,=F,,][A,=D,]| \
[^D,=F,,][A,B,,] [C,E,,][A,B,,] [C,E,,][A,A,,] [C,E,,][A,B,,]| \
[C,E,,][A,A,,] [C,E,,][A,B,,] [C,E,,][A,A,,] [C,E,,][A,B,,]|
[C,E,,][A,A,,] x6| \
x6 [C,E,,][=F,B,,]| \
[C,E,,][=F,A,,] [C,E,,][=F,B,,] [C,E,,][=F,A,,] x2| \
x8|
x6 E,,2| \
[B,,2B,,,2] [B,,4E,,4] [E,,2-E,,,2-]| \
[E,,2E,,,2] [E,,6-A,,,6-]|[E,,3/2A,,,3/2-]
