Error: Time=9984 Track=1 Note terminated when not on - pitch 42
Error: Time=9984 Track=1 Note terminated when not on - pitch 43
Error: Time=10240 Track=1 Note terminated when not on - pitch 45
Error: Time=26368 Track=1 Note terminated when not on - pitch 49
Error: Time=26368 Track=1 Note terminated when not on - pitch 50
Error: Time=26624 Track=1 Note terminated when not on - pitch 52
Error: Time=42752 Track=1 Note terminated when not on - pitch 54
Error: Time=42752 Track=1 Note terminated when not on - pitch 55
Error: Time=43008 Track=1 Note terminated when not on - pitch 57
Error in MIDI file - notes still on at end of track!
X: 1
T: from midi_transposed/C_chpn-p23.mid
M: 4/4
L: 1/8
Q:1/4=150
%beats in anacrusis = 0
K:C % 0 sharps
V:1
% Piano
%%MIDI program 0
%%MIDI program 0
x8| \
x2 G/2E/2C/2A,/2 G,/2C/2c/2A/2 G/2E/2C/2A,/2| \
G,/2C/2c/2A/2 G/2E/2C/2A,/2 G,/2C/2c/2A/2 G/2E/2C/2A,/2| \
G,/2B,/2F/2D/2 E/2C/2G,/2E,/2 G,/2C/2[F/2B,/2]D/2 E/2C/2G,/2E,/2|
G,/2C/2[F/2B,/2]D/2 E/2C/2G,/2E,/2 G,/2C/2F/2^D/2 E/2F/2A/2^F/2| \
G/2B/2c/2e/2 =d/2B/2G/2E/2 D/2G/2g/2e/2 d/2B/2G/2E/2| \
D/2G/2g/2e/2 d/2B/2G/2E/2 D/2G/2g/2e/2 d/2B/2G/2E/2| \
D/2^F/2c/2A/2 B/2G/2D/2B,/2 D/2G/2[c/2^F/2]A/2 B/2G/2D/2B,/2|
D/2G/2[c/2^F/2]A/2 B/2G/2D/2B,/2 D/2G/2B/2d/2 g/2b/2a/2d/2| \
A/2d/2A/2B/2 g/2e/2c/2A/2 G/2c/2c'/2a/2 g/2e/2c/2A/2| \
G/2c/2c'/2a/2 g/2e/2c/2A/2 G/2c/2c'/2a/2 g/2e/2c/2A/2| \
G/2B/2=f/2d/2 e/2c/2G/2E/2 G/2c/2[f/2B/2]d/2 e/2c/2G/2E/2|
G/2c/2[f/2B/2]d/2 e/2c/2G/2E/2 G/2c/2e/2g/2 c'/2e'/2d'/2g/2| \
d/2g/2d/2e/2 c'/2a/2f/2d/2 c/2f/2f'/2d'/2 c'/2a/2f/2d/2| \
c/2f/2f'/2d'/2 c'/2a/2^f/2d/2 c/2d/2^f'/2d'/2 c'/2a/2^f/2d/2| \
c/2d/2^f'/2d'/2 c'/2a/2g/2e/2 d/2g/2g'/2e'/2 c'/2a/2g/2e/2|
d/2g/2g'/2e'/2 c'/2a/2g/2e/2 d/2g/2g'/2e'/2 d'/2b/2g/2e/2| \
d/2g/2g'/2d'/2 g'/2e'/2c'/2a/2 g/2c'/2c''/2a'/2 g'/2e'/2c'/2a/2| \
g/2c'/2c''/2a'/2 g'/2e'/2c'/2a/2 g/2c'/2c''/2a'/2 g'/2e'/2c'/2a/2| \
g/2b/2=f'/2d'/2 e'/2c'/2g/2e/2 c/2G/2[f/2B/2]d/2 e/2c/2G/2E/2|
C/2G,/2[F/2B,/2]D/2 E/2C/2G,/2E,/2 G,/2C/2[F/2B,/2]D/2 E/2C/2G,/2E,/2| \
G,/2C/2[F/2B,/2]D/2 E/2C/2G,/2E,/2 G,/2C/2E/2G/2 c/2e/2g/2c'/2| \
e'/2g/2c'/2e/2 c''2 
V:2
% Piano
%%MIDI program 0
%%MIDI program 0
x8| \
x3/2
% Piano
%%MIDI program 0
%%MIDI program 0
[G,,/2-C,,/2-] [E,3-G,,3-C,,3-][E,/2-G,,/2C,,/2-][E,/2C,,/2] x2| \
x2 G,,,3/2-[G,,/2^F,,/2-G,,,/2] [A,,/2G,,/2^F,,/2-][A,,/2G,,/2^F,,/2-][A,,/2-^F,,/2][A,,/2-G,,/2-^F,,/2-] [E,2A,,2-G,,2-G,,2-^F,,2-]| \
[D,2A,,2-G,,2-G,,2^F,,2-] [A,,-G,,-^F,,-C,,][A,,/2-G,,/2-G,,/2^F,,/2-][C,/2A,,/2-G,,/2-^F,,/2-] [E,A,,-G,,-^F,,-][D,A,,-G,,-G,,^F,,-] [A,,-G,,-^F,,-C,,][A,,/2-G,,/2-G,,/2^F,,/2-][C,/2A,,/2-G,,/2-^F,,/2-]|
[E,A,,-G,,-^F,,-][D,A,,-G,,-G,,^F,,-] [A,,-G,,-^F,,-C,,][A,,/2-G,,/2-G,,/2^F,,/2-][C,/2A,,/2-G,,/2-^F,,/2-] [E,/2A,,/2-G,,/2-^F,,/2-][C,/2A,,/2-G,,/2-^F,,/2-][A,/2A,,/2-G,,/2-^F,,/2-][^F,/2A,,/2-G,,/2-^F,,/2-] [G,A,,-G,,-^F,,-][=F/2A,,/2-G,,/2-^F,,/2-][^D/2A,,/2-G,,/2-^F,,/2-]| \
[EA,,-G,,-^F,,-][A,,/2-G,,/2-^F,,/2-][=D,/2-A,,/2G,,/2-G,,/2-^F,,/2-] [B,-D,-G,,-G,,-^F,,][B,2-D,2-G,,2-G,,2-][B,/2-D,/2G,,/2-G,,/2-][B,/2G,,/2-G,,/2] G,,2-| \
G,,2- [G,,3/2-D,,3/2-][D,/2^C,/2-G,,/2-D,,/2] [E,/2D,/2^C,/2-G,,/2-][E,/2D,/2^C,/2-G,,/2-][E,/2-^C,/2G,,/2-][E,/2-D,/2-^C,/2-G,,/2-] [B,2E,2-D,2-D,2-^C,2-G,,2-]| \
[A,2E,2-D,2-D,2^C,2-G,,2-] [E,-D,-^C,-G,,-G,,][E,/2-D,/2-D,/2^C,/2-G,,/2-][G,/2E,/2-D,/2-^C,/2-G,,/2-] [B,E,-D,-^C,-G,,-][A,E,-D,-D,^C,-G,,-] [E,-D,-^C,-G,,-G,,][E,/2-D,/2-D,/2^C,/2-G,,/2-][G,/2E,/2-D,/2-^C,/2-G,,/2-]|
[B,E,-D,-^C,-G,,-][A,E,-D,-D,^C,-G,,-] [E,/2-D,/2-^C,/2-G,,/2-G,,/2][E,-D,-D,^C,-G,,-][G,/2E,/2-D,/2-^C,/2-G,,/2-] [B,/2E,/2-D,/2-^C,/2-G,,/2-][=F/2E,/2-D,/2-^C,/2-G,,/2-][E,3-D,3-^C,3-G,,3-]| \
[E,3/2-D,3/2-^C,3/2-G,,3/2-][G,/2-E,/2-D,/2-^C,/2-=C,/2-G,,/2-] [E3-G,3-E,3-D,3-^C,3-=C,3-G,,3-][E/2-G,/2E,/2-D,/2-^C,/2-=C,/2-G,,/2-][E/2E,/2-D,/2-^C,/2-=C,/2G,,/2-] [E,2-D,2-^C,2-G,,2-]| \
[E,2-D,2-^C,2-G,,2-] [E,3/2-D,3/2-^C,3/2-G,,3/2-G,,3/2-][G,/2^F,/2-E,/2-D,/2-^C,/2-G,,/2-G,,/2] [A,/2G,/2^F,/2-E,/2-D,/2-^C,/2-G,,/2-][A,/2G,/2^F,/2-E,/2-D,/2-^C,/2-G,,/2-][A,/2-^F,/2E,/2-D,/2-^C,/2-G,,/2-][A,/2-G,/2-^F,/2-E,/2-D,/2-^C,/2-G,,/2-] [E2A,2-G,2-G,2-^F,2-E,2-D,2-^C,2-G,,2-]| \
[D2A,2-G,2-G,2^F,2-E,2-D,2-^C,2-G,,2-] [A,-G,-^F,-E,-D,-^C,-=C,G,,-][A,/2-G,/2-G,/2^F,/2-E,/2-D,/2-^C,/2-G,,/2-][=C/2A,/2-G,/2-^F,/2-E,/2-D,/2-^C,/2-G,,/2-] [EA,-G,-^F,-E,-D,-^C,-G,,-][DA,-G,-G,^F,-E,-D,-^C,-G,,-] [A,-G,-^F,-E,-D,-^C,-=C,G,,-][A,/2-G,/2-G,/2^F,/2-E,/2-D,/2-^C,/2-G,,/2-][=C/2A,/2-G,/2-^F,/2-E,/2-D,/2-^C,/2-G,,/2-]|
[EA,-G,-^F,-E,-D,-^C,-G,,-][DA,-G,-G,^F,-E,-D,-^C,-G,,-] [A,/2-G,/2-^F,/2-E,/2-D,/2-^C,/2-=C,/2G,,/2-][A,-G,-G,^F,-E,-D,-^C,-G,,-][=C/2A,/2-G,/2-^F,/2-E,/2-D,/2-^C,/2-G,,/2-] [E/2A,/2-G,/2-^F,/2-E,/2-D,/2-^C,/2-G,,/2-][^A/2=A,/2-G,/2-^F,/2-E,/2-D,/2-^C,/2-G,,/2-][A,3-G,3-^F,3-E,3-D,3-^C,3-G,,3-]| \
[A,2-G,2-^F,2-E,2-D,2-^C,2-G,,2-] [A,/2-G,/2-^F,/2-=F,/2E,/2-D,/2-^C,/2-G,,/2-][=C/2A,/2-G,/2-^F,/2-E,/2-D,/2-^C,/2G,,/2-][A,/2-G,/2-^F,/2-E,/2-D,/2-G,,/2-][A/2A,/2-G,/2-^F,/2-E,/2-D,/2-G,,/2-] [A,4-G,4-^F,4-E,4-D,4-G,,4-]| \
[A,2-G,2-^F,2-E,2-D,2-G,,2-] [A,/2-G,/2-^F,/2-E,/2-D,/2-D,/2G,,/2-][=C/2A,/2-G,/2-^F,/2-E,/2-D,/2-G,,/2-][A,/2-G,/2-^F,/2-E,/2-D,/2-G,,/2-][A/2A,/2-G,/2-^F,/2-E,/2-D,/2-G,,/2-] [A,4-G,4-^F,4-E,4-D,4-G,,4-]| \
[A,2-G,2-^F,2-E,2-D,2-G,,2-] [A,/2-G,/2-G,/2^F,/2-E,/2-D,/2-G,,/2-][D-A,-G,-^F,-E,-D,-G,,-][G/2D/2-A,/2-G,/2-^F,/2-E,/2-D,/2-G,,/2-] [c4-D4-A,4-G,4-^F,4-E,4-D,4-G,,4-]|
[c3/2-D3/2A,3/2-G,3/2-^F,3/2-E,3/2-D,3/2-G,,3/2-][c/2A,/2-G,/2-G,/2-^F,/2-E,/2-D,/2-G,,/2-] [=F2-A,2-G,2-G,2^F,2-E,2-D,2-G,,2-] [B2-=F2-A,2-G,2-^F,2-E,2-D,2-G,,2-] [eB-=F-A,-G,-^F,-E,-D,-G,,-][B-=F-A,-G,-^F,-E,-D,-G,,-]| \
[B3/2-=F3/2-A,3/2-G,3/2-^F,3/2-E,3/2-D,3/2-G,,3/2-][B/2=F/2A,/2-G,/2-G,/2-^F,/2-E,/2-D,/2-C,/2-G,,/2-] [E3-A,3-G,3-G,3-^F,3-E,3-D,3-C,3-G,,3-][E/2-A,/2-G,/2-G,/2^F,/2-E,/2-D,/2-C,/2-G,,/2-][E/2A,/2-G,/2-^F,/2-E,/2-D,/2-C,/2G,,/2-] [A,2-G,2-^F,2-E,2-D,2-G,,2-]| \
[A,2-G,2-^F,2-E,2-D,2-G,,2-] [A,3/2-G,3/2^F,3/2E,3/2-D,3/2-G,,3/2-G,,3/2-][A,/2G,/2^F,/2-E,/2-D,/2-G,,/2-G,,/2] [A,/2G,/2^F,/2-E,/2-D,/2-G,,/2-][A,/2G,/2^F,/2-E,/2-D,/2-G,,/2-][A,/2-^F,/2E,/2-D,/2-G,,/2-][A,/2-G,/2-^F,/2-E,/2-D,/2-G,,/2-] [E2A,2-G,2-G,2-^F,2-E,2-D,2-G,,2-]| \
[D2A,2-G,2-G,2^F,2-E,2-D,2-G,,2-] [A,-G,-^F,-E,-D,-C,G,,-][A,/2-G,/2-G,/2^F,/2-E,/2-D,/2-G,,/2-][C/2A,/2-G,/2-^F,/2-E,/2-D,/2-G,,/2-] [EA,-G,-^F,-E,-D,-G,,-][DA,-G,-G,^F,-E,-D,-G,,-] [A,-G,-^F,-E,-D,-G,,-C,,][A,/2-G,/2-^F,/2-E,/2-D,/2-G,,/2-G,,/2][A,/2-G,/2-^F,/2-E,/2-D,/2-C,/2G,,/2-]|
[A,-G,-^F,-E,-E,D,-G,,-][A,-G,-^F,-E,-D,-D,G,,-G,,] [A,-G,-^F,-E,-D,-G,,-C,,][A,/2-G,/2-^F,/2-E,/2-D,/2-G,,/2-G,,/2][A,/2-G,/2-^F,/2-E,/2-D,/2-C,/2G,,/2-] [A,-G,-^F,-E,-E,D,-G,,-][A,-G,-^F,-E,-D,-D,G,,-G,,] [A,-G,-^F,-E,-D,-G,,-C,,][A,/2-G,/2-^F,/2-E,/2-D,/2-G,,/2-G,,/2][A,/2-G,/2-^F,/2-E,/2-D,/2-C,/2G,,/2-]| \
[A,-G,-^F,-E,-E,D,-G,,-][A,-G,-^F,-E,-D,-D,G,,-G,,] [A,3/2-G,3/2-^F,3/2-E,3/2-D,3/2-G,,3/2-C,,3/2][A,/2-G,/2-^F,/2-E,/2-D,/2-G,,/2-G,,/2] [A,/2-G,/2-^F,/2-E,/2-D,/2-C,/2G,,/2-][A,/2-G,/2-^F,/2-E,/2-E,/2D,/2-G,,/2-][A,/2-G,/2-G,/2^F,/2-E,/2-D,/2-G,,/2-][C/2A,/2-G,/2-^F,/2-E,/2-D,/2-G,,/2-] [E/2A,/2-G,/2-^F,/2-E,/2-D,/2-G,,/2-][^A/2=A,/2-G,/2-^F,/2-E,/2-D,/2-G,,/2-][E/2A,/2-G,/2-^F,/2-E,/2-D,/2-G,,/2-][C/2A,/2-G,/2-^F,/2-E,/2-D,/2-G,,/2-]| \
[A,/2-G,/2-G,/2^F,/2-E,/2-D,/2-G,,/2-][A,/2-G,/2-^F,/2-E,/2-E,/2D,/2-G,,/2-][A,/2-G,/2-^F,/2-E,/2-D,/2-C,/2G,,/2-][A,/2-G,/2-^F,/2-E,/2-D,/2-G,,/2-G,,/2] [A,2-G,2-^F,2-E,2-D,2-G,,2-C,,2] 
