Error: Time=17152 Track=0 Note terminated when not on - pitch 83
Error: Time=17408 Track=0 Note terminated when not on - pitch 81
Error: Time=35328 Track=0 Note terminated when not on - pitch 73
Error: Time=35499 Track=0 Note terminated when not on - pitch 75
Error: Time=35584 Track=0 Note terminated when not on - pitch 72
Error in MIDI file - notes still on at end of track!
Error in MIDI file - notes still on at end of track!
X: 1
T: from midi_transposed/C_chpn-p21.mid
M: 3/4
L: 1/8
Q:1/4=85
