Error: Time=24064 Track=0 Note terminated when not on - pitch 72
Error: Time=122197 Track=0 Note terminated when not on - pitch 69
Error: Time=185344 Track=0 Note terminated when not on - pitch 79
Error: Time=185344 Track=0 Note terminated when not on - pitch 81
Error in MIDI file - notes still on at end of track!
Error in MIDI file - notes still on at end of track!
X: 1
T: from midi_transposed/C_clementi_opus36_6_2.mid
M: 6/8
L: 1/8
Q:1/4=119
%beats in anacrusis = 0
K:C % 0 sharps
V:1
% Piano
%%MIDI program 0
%%MIDI program 0
x4x[G/2E/2]x/2| \
[G/2E/2]x/2[G/2E/2]x/2[A2F2][GE]c| \
GE[GD-] [FD][EC][ec]| \
[fd][ge][ge] [f/2d/2]x/2[f/2d/2]x/2[ec]|
[dB][e/2c/2]x/2[d/2B/2]x2x/2[G/2E/2]x/2| \
[G/2E/2]x/2[G/2E/2]x/2[A2F2][GE]c| \
GE[GD-] [FD][EC]g/2f/2| \
e/2d/2c/2B/2A/2x/2 A/2x/2A/2x/2[c/2-B/2]c/2-|
[c/2-A/2]c/2-[c/2-B/2]c/2-[c/2-c/2]c/2- [e/2c/2-][c/2-c/2][e/2c/2-][c/2-c/2][c/2-G/2]c/2-| \
[c/2-G/2E/2]c/2-[c/2-G/2E/2]c/2-[c2-A2F2][c-GE][c/2-c/2][c/2-G/2]| \
[c/2-c/2][c/2-G/2][c/2-E/2]c/2-[c-GD-] [c-FD][c-EC][ec-c]| \
[fdc-][gec-][gec-] [f/2d/2c/2-]c/2-[f/2d/2c/2-]c/2-[ec-c]|
[dc-B][e/2c/2-c/2]c/2-[d/2c/2-B/2]c2-c/2-[c/2-G/2E/2]c/2-| \
[c/2-G/2E/2]c/2-[c/2-G/2E/2]c/2-[c2-A2F2][c-GE][c-c]| \
[c-G][c-E][c-GD-] [c-FD][c-EC][g/2c/2-][f/2c/2-]| \
[e/2c/2-][d/2c/2-][c/2-c/2][c/2-B/2][c/2-A/2]c/2- [c/2-A/2]c/2-[c/2-A/2]c/2[c/2-B/2]c/2-|
[c/2-A/2]c/2-[c/2-B/2]c/2-[c/2-c/2]c/2- [g/2c/2-][f/2c/2-][e/2c/2-][d/2c/2-][c/2-c/2][c/2-B/2]| \
[c/2-A/2][c/2-G/2][c/2-F/2][c/2-E/2][c/2-D/2]c/2- [c/2-D/2]c/2-[c/2-D/2][c/2-G/2-F/2-][c-AG-F-]| \
[c/2-G/2-G/2F/2][c/2-G/2][c-F][c-E] c2-[c/2-c/2][c/2-B/2]| \
[c/2-A/2][c/2-G/2][c/2-F/2][c/2-E/2][c/2-D/2]c/2- [c/2-D/2]c/2-[c/2-D/2][c/2-G/2-F/2-][c-AG-F-]|
[c/2-G/2-G/2F/2][c/2-G/2][c-F][c/2-E/2][c/2-c/2] [c/2-E/2][c/2-c/2][c/2-E/2][c/2-c/2][c/2-E/2][^c/2=c/2-]| \
[c/2-E/2][^c/2=c/2-][c/2-E/2][^c/2=c/2-][c/2-D/2][d/2c/2-] [c/2-D/2][d/2c/2-][c/2-D/2][d/2c/2-][c/2-B/2][g/2c/2-]| \
[c/2-B/2][g/2c/2-][c/2-B/2][g/2c/2-][c/2-c/2]c/2- [g/2c/2-][e/2c/2-][f/2c/2-][d/2c/2-][c/2-c/2]c/2-| \
[g/2c/2-][e/2c/2-][f/2c/2-][d/2c/2-][c/2-c/2]c/2- [c'/2e/2c/2-]c/2-[c'/2e/2c/2-]c/2-[c'/2e/2c/2-]c/2-|
[c'/2e/2c/2-]c/2-[c'/2e/2c/2-]c/2-[c'2e2c2-]c-[e/2c/2-c/2]c/2-| \
[e/2c/2-c/2]c/2-[e/2c/2-c/2]c/2-[d2c2-B2][c-cA][f/2d/2c/2-]c/2-| \
[f/2d/2c/2-]c/2-[f/2d/2c/2-]c/2-[e2c2-c2][dc-B][g/2e/2c/2-]c/2-| \
[g/2e/2c/2-]c/2-[g/2e/2c/2-]c/2-[f2d2c2-][ec-c][c'/2c/2-][d/2c/2-]|
[c'/2c/2-][d/2c/2-][c'/2c/2-][d/2c/2-][b/2c/2-][d/2c/2-] [b/2c/2-][d/2c/2-][b/2c/2-][d/2c/2-][^f/2c/2-][d/2c/2-]| \
[^f/2c/2-][d/2c/2-][^f/2c/2-][d/2c/2-][g/2c/2-][d/2c/2-] [a/2c/2-][d/2c/2-][b/2c/2-][d/2c/2-][c'/2c/2-][d/2c/2-]| \
[c'/2c/2-][d/2c/2-][c'/2c/2-][d/2c/2-][b/2c/2-][d'/2c/2-] [c'/2c/2-][b/2c/2-][a/2c/2-][g/2c/2-][^f/2c/2-][e/2c/2-]| \
[d/2c/2-][c/2-c/2][c/2-B/2][c/2-A/2][c/2-^A/2][c/2-G/2] [c/2-^A/2][c/2-G/2][c/2-^A/2][c/2-G/2][c/2-^A/2][c/2-G/2]|
[c/2-^A/2][c/2-G/2][c/2-^A/2][c/2-G/2][c/2-^A/2][c/2-G/2] [c/2-^A/2][c/2-G/2][c/2-^A/2][c/2-G/2][c/2-^A/2][c/2-G/2]| \
[c/2-^A/2][c/2-G/2][c/2-^A/2][c/2-G/2][c/2-=A/2^F/2]c2-c/2-[d/2c/2-^A/2]c/2-| \
[d/2c/2-^A/2]c/2-[d/2c/2-^A/2]c/2-[c/2-c/2=A/2]c2-c/2-[c/2-^A/2G/2]c/2-| \
[c/2-^A/2G/2]c/2-[c/2-^A/2G/2]c/2-[c/2-=A/2^F/2]c2-c/2-[c/2-G/2^C/2]=c/2-|
[c/2-G/2^C/2]=c/2-[c/2-G/2^C/2]=c/2-[c/2-^F/2D/2]c/2- [c/2-^F/2D/2]c/2-[c/2-^F/2D/2]c/2-[c/2-^C/2G,/2]=c/2-| \
[c/2-^C/2G,/2]=c/2-[c/2-^C/2G,/2]=c/2-[c-^F,] [c-D][c-A,][c-^F]| \
[c-D][c-A][c-^F] [dc-][^c=c-][c-c]| \
[c-B][c-A][c2-G2][c/2-G/2][c/2-A/2-][c-A-G]|
[c-A-^F][c-A-G][c2-B2A2-][c-A-A][dc-A-]| \
[ec-A-][^fc-A-][gc-A-] [dc-A-][c-BA-][c-A-G]| \
[c-A-^F][c-A-G][c2-B2A2-][c-A-A][d'/2c/2-A/2-][c'/2c/2-A/2-]| \
[b/2c/2-A/2-][a/2c/2-A/2-][g/2c/2-A/2-][^f/2c/2-A/2-][g/2c/2-A/2-][a/2c/2-A/2-] [b/2c/2-A/2-][a/2c/2-A/2-][g/2c/2-A/2-][^f/2c/2-A/2-][e/2c/2-A/2-][d/2c/2-A/2-]|
[c/2-c/2A/2-][c/2-B/2A/2-][c/2-A/2-A/2][c/2-A/2-^G/2][c/2-A/2-A/2][c/2-A/2-] [c/2-A/2-A/2][c/2-A/2-][c/2-A/2-A/2][c/2-A/2-][c-A-A]| \
[c-cA-][ec-A-][c2-A2-=G2][d/2c/2-A/2-][c/2-B/2A/2-][c-A-A-]| \
[c-A-A][c/2-c/2A/2-][c/2-A/2-A/2][c2-A2-G2][c/2-B/2A/2-][c/2-A/2-G/2][c/2-A/2-D/2][c/2-A/2-]| \
[c/2-A/2-D/2][c/2-A/2-][c/2-A/2-D/2][c/2-A/2-][c-cA-] [c-A-A][c-A-^F][c-A-D]|
[c-A-E][c-A-^F][c2-A2-G2][c/2-B/2A/2-][c/2-A/2-G/2][c/2-A/2-D/2][c/2-A/2-]| \
[c/2-A/2-D/2][c/2-A/2-][c/2-A/2-D/2][c/2-A/2-][c-cA-] [c-A-A][c-A-^F][c-A-D]| \
[c-A-E][c-A-^F][c/2-A/2-G/2][c/2-B/2A/2-] [d/2c/2-A/2-][c/2-B/2A/2-][d/2c/2-A/2-][c/2-B/2A/2-][c/2-A/2-A/2][c/2-c/2A/2-]| \
[e/2c/2-A/2-][c/2-c/2A/2-][e/2c/2-A/2-][c/2-c/2A/2-][c/2-B/2A/2-][d/2c/2-A/2-] [c/2-B/2A/2-][d/2c/2-A/2-][c/2-A/2-G/2][c/2-B/2A/2-][c/2-A/2-A/2][c/2-c/2A/2-]|
[c/2-A/2-A/2][c/2-c/2A/2-][c/2-A/2-^F/2][c/2-A/2-A/2][c3/2-A3/2-G3/2][c/2-A/2-A/2][c/2-B/2A/2-][c/2-A/2-G/2][c-A-D]| \
[c-BA-][dc-A-][c-cA-] [c-A-A][c-A-^F][c-A-D]| \
[c-A-E][c-A-^F][c3/2-A3/2-G3/2][c/2-A/2-A/2][c/2-B/2A/2-][c/2-A/2-G/2][c-A-D]| \
[c-BA-][dc-A-][c-cA-] [c/2-A/2-A/2][c/2-c/2A/2-][c/2-A/2-^F/2][c/2-A/2-A/2][c-A-D]|
[c-A-E][c-A-^F][c/2-A/2-G/2][c/2-B/2A/2-] [d/2c/2-A/2-][g/2c/2-A/2-][d/2c/2-A/2-][c/2-B/2A/2-][c/2-A/2-A/2][c/2-c/2A/2-]| \
[e/2c/2-A/2-][c/2-c/2A/2-][e/2c/2-A/2-][c/2-c/2A/2-][c/2-B/2A/2-][d/2c/2-A/2-] [c/2-c/2A/2-][c/2-B/2A/2-][c/2-A/2-A/2][c/2-A/2-G/2][c/2-A/2-^F/2][c/2-A/2-E/2]| \
[c/2-A/2-D/2][c/2-A/2-C/2][c/2-A/2-B,/2][c/2-A/2-A,/2][c/2-A/2-G,/2][c/2-A/2-A,/2] [c/2-A/2-G,/2][c/2-A/2-^F,/2][c/2-A/2-G,/2][c/2-A/2-A,/2][c/2-A/2-B,/2][c/2-A/2-C/2]| \
[c/2-A/2-D/2][c/2-A/2-E/2][c/2-A/2-=F/2][c/2-A/2-^F/2][c/2-A/2-G/2][c/2-A/2-A/2] [c/2-A/2-G/2][c/2-A/2-^F/2][c/2-A/2-G/2][c/2-A/2-A/2][c/2-B/2A/2-][c/2-c/2A/2-]|
[d/2c/2-A/2-][e/2c/2-A/2-][=f/2c/2-A/2-][^f/2c/2-A/2-][a/2g/2c/2-A/2-][a/2g/2c/2-A/2-] [g/2c/2-A/2-][a/2g/2c/2-A/2-][a/2g/2c/2-A/2-][a/2g/2c/2-A/2-][g/2c/2-A/2-][a/2g/2c/2-A/2-]| \
[a/2g/2c/2-A/2-][a/2g/2c/2-A/2-][g/2c/2-A/2-][a/2g/2c/2-A/2-][a/2g/2c/2-A/2-][a/2g/2c/2-A/2-] [g/2c/2-A/2-][a/2g/2c/2-A/2-][a/2g/2c/2-A/2-][a/2g/2c/2-A/2-][g/2c/2-A/2-][a/2g/2c/2-A/2-]| \
[a/2g/2c/2-A/2-][a/2g/2c/2-A/2-][g/2c/2-A/2-][a/2g/2c/2-A/2-][a/2g/2c/2-A/2-][a/2g/2c/2-A/2-] [g/2c/2-A/2-][a/2g/2c/2-A/2-][a/2g/2c/2-A/2-][a/2g/2c/2-A/2-][g/2c/2-A/2-][a/2-g/2-c/2-A/2-]| \
[a/2-g/2-g/2c/2-A/2-][a/2-a/2g/2-g/2c/2-A/2-][a/2-g/2-^f/2c/2-A/2-][a/2-g/2-g/2c/2-A/2-][a3-g3-c3-A3-][a/2-g/2-c/2-A/2-G/2E/2][a/2-g/2-c/2-A/2-]|
[a/2-g/2-c/2-A/2-G/2E/2][a/2-g/2-c/2-A/2-][a/2-g/2-c/2-A/2-G/2E/2][a/2-g/2-c/2-A/2-][a2-g2-c2-A2-A2=F2][a-g-c-A-GE][a-g-c-cA-]| \
[a-g-c-A-G][a-g-c-A-E][a-g-c-A-GD-] [a-g-c-A-FD][a-g-c-A-EC][a-g-ec-cA-]| \
[a-g-fdc-A-][a-g-gec-A-][a-g-gec-A-] [a/2-g/2-f/2d/2c/2-A/2-][a/2-g/2-c/2-A/2-][a/2-g/2-f/2d/2c/2-A/2-][a/2-g/2-c/2-A/2-][a-g-ec-cA-]| \
[a-g-dc-BA-][a/2-g/2-e/2c/2-c/2A/2-][a/2-g/2-c/2-A/2-][a/2-g/2-d/2c/2-B/2A/2-][a2-g2-c2-A2-][a/2-g/2-c/2-A/2-][a/2-g/2-c/2-A/2-G/2E/2][a/2-g/2-c/2-A/2-]|
[a/2-g/2-c/2-A/2-G/2E/2][a/2-g/2-c/2-A/2-][a/2-g/2-c/2-A/2-G/2E/2][a/2-g/2-c/2-A/2-][a2-g2-c2-A2-A2F2][a-g-c-A-GE][a-g-c-cA-]| \
[a-g-c-A-G][a-g-c-A-E][a-g-c-A-GD-] [a-g-c-A-FD][a-g-c-A-EC][a/2-g/2-g/2c/2-A/2-][a/2-g/2-f/2c/2-A/2-]| \
[a/2-g/2-e/2c/2-A/2-][a/2-g/2-d/2c/2-A/2-][a/2-g/2-c/2-c/2A/2-][a/2-g/2-c/2-B/2A/2-][a/2-g/2-c/2-A/2-A/2][a/2-g/2-c/2-A/2-] [a/2-g/2-c/2-A/2-A/2][a/2-g/2-c/2-A/2-][a/2-g/2-c/2-A/2-A/2][a/2-g/2-c/2A/2-][a/2-g/2-c/2-B/2A/2-][a/2-g/2-c/2-A/2-]| \
[a/2-g/2-c/2-A/2-A/2][a/2-g/2-c/2-A/2-][a/2-g/2-c/2-B/2A/2-][a/2-g/2-c/2-A/2-][a/2-g/2-c/2-c/2A/2-][a/2-g/2-c/2-A/2-] [a/2-g/2-e/2c/2-A/2-][a/2-g/2-c/2-c/2A/2-][a/2-g/2-e/2c/2-A/2-][a/2-g/2-c/2-c/2A/2-][a/2-g/2-c/2-A/2-G/2][a/2-g/2-c/2-A/2-]|
[a/2-g/2-c/2-A/2-G/2E/2][a/2-g/2-c/2-A/2-][a/2-g/2-c/2-A/2-G/2E/2][a/2-g/2-c/2-A/2-][a2-g2-c2-A2-A2F2][a-g-c-A-GE][a/2-g/2-c/2-c/2A/2-][a/2-g/2-c/2-A/2-G/2]| \
[a/2-g/2-c/2-c/2A/2-][a/2-g/2-c/2-A/2-G/2][a/2-g/2-c/2-A/2-E/2][a/2-g/2-c/2-A/2-][a-g-c-A-GD-] [a-g-c-A-FD][a-g-c-A-EC][a-g-ec-cA-]| \
[a-g-fdc-A-][a-g-gec-A-][a-g-gec-A-] [a/2-g/2-f/2d/2c/2-A/2-][a/2-g/2-c/2-A/2-][a/2-g/2-f/2d/2c/2-A/2-][a/2-g/2-c/2-A/2-][a-g-ec-cA-]| \
[a-g-dc-BA-][a/2-g/2-e/2c/2-c/2A/2-][a/2-g/2-c/2-A/2-][a/2-g/2-d/2c/2-B/2A/2-][a2-g2-c2-A2-][a/2-g/2-c/2-A/2-][a/2-g/2-c/2-A/2-G/2E/2][a/2-g/2-c/2-A/2-]|
[a/2-g/2-c/2-A/2-G/2E/2][a/2-g/2-c/2-A/2-][a/2-g/2-c/2-A/2-G/2E/2][a/2-g/2-c/2-A/2-][a2-g2-c2-A2-A2F2][a-g-c-A-GE][a-g-c-cA-]| \
[a-g-c-A-G][a-g-c-A-E][a-g-c-A-GD-] [a-g-c-A-FD][a-g-c-A-EC][a/2-g/2-g/2c/2-A/2-][a/2-g/2-f/2c/2-A/2-]| \
[a/2-g/2-e/2c/2-A/2-][a/2-g/2-d/2c/2-A/2-][a/2-g/2-c/2-c/2A/2-][a/2-g/2-c/2-B/2A/2-][a/2-g/2-c/2-A/2-A/2][a/2-g/2-c/2-A/2-] [a/2-g/2-c/2-A/2-A/2][a/2-g/2-c/2-A/2-][a/2-g/2-c/2-A/2-A/2][a/2-g/2-c/2A/2-][a/2-g/2-c/2-B/2A/2-][a/2-g/2-c/2-A/2-]| \
[a/2-g/2-c/2-A/2-A/2][a/2-g/2-c/2-A/2-][a/2-g/2-c/2-B/2A/2-][a/2-g/2-c/2-A/2-][a/2-g/2-c/2-c/2A/2-][a/2-g/2-c/2-A/2-] [a/2-g/2-g/2c/2-A/2-][a/2-g/2-f/2c/2-A/2-][a/2-g/2-e/2c/2-A/2-][a/2-g/2-d/2c/2-A/2-][a/2-g/2-c/2-c/2A/2-][a/2-g/2-c/2-B/2A/2-]|
[a/2-g/2-c/2-A/2-A/2][a/2-g/2-c/2-A/2-G/2][a/2-g/2-c/2-A/2-F/2][a/2-g/2-c/2-A/2-E/2][a/2-g/2-c/2-A/2-D/2][a/2-g/2-c/2-A/2-] [a/2-g/2-c/2-A/2-D/2][a/2-g/2-c/2-A/2-][a/2-g/2-c/2-A/2-D/2][a/2-g/2-c/2-A/2-G/2-F/2-][a-g-c-A-AG-F-]| \
[a/2-g/2-c/2-A/2-G/2-G/2F/2][a/2-g/2-c/2-A/2-G/2][a-g-c-A-F][a-g-c-A-E] [a2-g2-c2-A2-][a/2-g/2-c/2-c/2A/2-][a/2-g/2-c/2-B/2A/2-]| \
[a/2-g/2-c/2-A/2-A/2][a/2-g/2-c/2-A/2-G/2][a/2-g/2-c/2-A/2-F/2][a/2-g/2-c/2-A/2-E/2][a/2-g/2-c/2-A/2-D/2][a/2-g/2-c/2-A/2-] [a/2-g/2-c/2-A/2-D/2][a/2-g/2-c/2-A/2-][a/2-g/2-c/2-A/2-D/2][a/2-g/2-c/2-A/2-G/2-F/2-][a-g-c-A-AG-F-]| \
[a/2-g/2-c/2-A/2-G/2-G/2F/2][a/2-g/2-c/2-A/2-G/2][a-g-c-A-F][a/2-g/2-c/2-A/2-E/2][a/2-g/2-c/2-c/2A/2-] [a/2-g/2-c/2-A/2-E/2][a/2-g/2-c/2-c/2A/2-][a/2-g/2-c/2-A/2-E/2][a/2-g/2-c/2-c/2A/2-][a/2-g/2-c/2-A/2-E/2][a/2-g/2-^c/2=c/2-A/2-]|
[a/2-g/2-c/2-A/2-E/2][a/2-g/2-^c/2=c/2-A/2-][a/2-g/2-c/2-A/2-E/2][a/2-g/2-^c/2=c/2-A/2-][a/2-g/2-c/2-A/2-D/2][a/2-g/2-d/2c/2-A/2-] [a/2-g/2-c/2-A/2-D/2][a/2-g/2-d/2c/2-A/2-][a/2-g/2-c/2-A/2-D/2][a/2-g/2-d/2c/2-A/2-][a/2-g/2-c/2-B/2A/2-][a/2-g/2-g/2c/2-A/2-]| \
[a/2-g/2-c/2-B/2A/2-][a/2-g/2-g/2c/2-A/2-][a/2-g/2-c/2-B/2A/2-][a/2-g/2-g/2c/2-A/2-][a/2-g/2-c/2-c/2A/2-][a/2-g/2-c/2-A/2-] [a/2-g/2-g/2c/2-A/2-][a/2-g/2-e/2c/2-A/2-][a/2-g/2-f/2c/2-A/2-][a/2-g/2-d/2c/2-A/2-][a/2-g/2-c/2-c/2A/2-][a/2-g/2-c/2-A/2-]| \
[a/2-g/2-g/2c/2-A/2-][a/2-g/2-e/2c/2-A/2-][a/2-g/2-f/2c/2-A/2-][a/2-g/2-d/2c/2-A/2-][a/2-g/2-c/2-c/2A/2-][a/2-g/2-c/2-A/2-] [c'/2a/2-g/2-e/2c/2-A/2-][a/2-g/2-c/2-A/2-][c'/2a/2-g/2-e/2c/2-A/2-][a/2-g/2-c/2-A/2-][c'/2a/2-g/2-e/2c/2-A/2-][a/2-g/2-c/2-A/2-]| \
[c'/2a/2-g/2-e/2c/2-A/2-][a/2-g/2-c/2-A/2-][c'/2a/2-g/2-e/2c/2-A/2-][a/2-g/2-c/2-A/2-][c'2a2-g2-e2c2-A2-]
V:2
% Piano
%%MIDI program 0
%%MIDI program 0
x6| \
x2
% Piano
%%MIDI program 0
%%MIDI program 0
C,/2x/2 C,/2x/2C,/2x3/2| \
x2C,/2x/2 C,/2x/2C,/2x3/2| \
x2F/2x/2 F/2x/2F/2x/2^F/2x/2|
^F/2x/2^F/2x/2G/2x/2 G/2x/2G/2x3/2| \
x2C,/2x/2 C,/2x/2C,/2x3/2| \
x2C,/2x/2 C,/2x/2C,/2x3/2| \
x2=F/2x/2 F/2x/2F/2x/2[F/2D/2G,/2]x/2|
[F/2D/2G,/2]x/2[F/2D/2G,/2]x/2[E2C2]x2| \
x2C,, C,/2x/2C,/2x3/2| \
x2C,, C,/2x/2C,/2x3/2| \
x2F, F/2x/2F/2x/2^F,|
^F/2x/2^F/2x/2G, G/2x/2G/2x3/2| \
x2C,,/2C,/2 B,,/2C,/2B,,/2C,/2C,,/2x/2| \
x2C,,/2C,/2 B,,/2C,/2B,,/2C,/2C,,/2x/2| \
x2=F,,/2F,/2 D,/2F,/2D,/2F,/2[D,/2G,,/2]F,/2|
[D,/2G,,/2]F,/2[D,/2G,,/2]F,/2[E,C,] x3| \
x2[C/2F,/2]x/2 [C/2F,/2]x/2[C/2F,/2]x/2[B,/2G,/2]x/2| \
[B,/2G,/2]x/2[B,/2G,/2]x/2[C/2A,/2]x/2 [C/2A,/2]x/2[C/2A,/2]x/2[C/2E,/2]x/2| \
[C/2E,/2]x/2[C/2E,/2]x/2[C/2F,/2]x/2 [C/2F,/2]x/2[C/2F,/2]x/2[B,/2G,/2]x/2|
[B,/2G,/2]x/2[B,/2G,/2]x/2[C/2A,/2]x/2 [C/2A,/2]x/2[C/2A,/2]x/2[^A,/2G,/2]x/2| \
[^A,/2G,/2]x/2[^A,/2G,/2]x/2[=A,/2F,/2]x/2 [A,/2F,/2]x/2[A,/2F,/2]x/2[G,/2G,,/2]x/2| \
[G,/2G,,/2]x/2[G,/2G,,/2]x/2[E,/2C,/2]x3/2[G,/2G,,/2]x/2[E,/2C,/2]x/2| \
x[G,/2G,,/2]x/2[E,/2C,/2]x/2 C,/2x/2G,,/2x/2E,,/2x/2|
G,,/2x/2E,,/2x/2C,,2x2| \
x2F/2x/2 F/2x/2F/2x3/2| \
x2G,/2x/2 G,/2x/2G,/2x3/2| \
x2A,,/2x/2 A,,/2x/2A,,/2x/2^F,|
A,D,G, B,D,A,| \
CD,B, A,G,^F,| \
A,D,G, B,D,A,| \
CD,G,, G,/2x/2G,/2x/2=F,,|
F,/2x/2F,/2x/2^D,, ^D,/2x/2^D,/2x/2^C,,| \
^C,/2x/2^C,/2x/2=D,,/2D,/2 ^C,/2D,/2^C,/2D,/2D,,/2D,/2| \
^C,/2D,/2^C,/2D,/2D,,/2D,/2 ^C,/2D,/2^C,/2D,/2D,,/2D,/2| \
^C,/2D,/2^C,/2D,/2D,,/2D,/2 ^C,/2D,/2^C,/2D,/2D,,/2D,/2|
^C,/2D,/2^C,/2D,/2D,,/2D,/2 ^C,/2D,/2^C,/2D,/2D,,/2D,/2| \
^C,/2D,/2^C,/2D,/2[D,4-D,,4-]| \
[D,2D,,2]x4| \
x2[D/2B,/2]x/2 [D/2B,/2]x/2[D/2B,/2]x/2[D/2B,/2]x/2|
[D/2B,/2]x/2[D/2B,/2]x/2[D/2=C/2]x/2 [D/2C/2]x/2[D/2C/2]x/2[D/2C/2]x/2| \
[D/2C/2]x/2[D/2C/2]x/2[D/2B,/2]x/2 [D/2B,/2]x/2[D/2B,/2]x/2[D/2B,/2]x/2| \
[D/2B,/2]x/2[D/2B,/2]x/2[D/2C/2]x/2 [D/2C/2]x/2[D/2C/2]x/2[D/2C/2]x/2| \
[D/2C/2]x/2[D/2C/2]x/2[D/2B,/2]x/2 [D/2B,/2]x/2[D/2B,/2]x/2[D/2B,/2]x/2|
[D/2B,/2]x/2[D/2B,/2]x/2[E2C2]x2| \
x2[B,/2D,/2]x/2 [B,/2D,/2]x/2[B,/2D,/2]x/2[^F,/2D,/2]x/2| \
[^F,/2D,/2]x/2[^F,/2D,/2]x/2G,,- [D,G,,-][G,G,,]G,,-| \
[D,G,,-][G,G,,]G,,- [D,G,,-][G,G,,]G,,-|
[D,G,,-][G,G,,]G,,- [D,G,,-][G,G,,]G,,-| \
[D,G,,-][G,G,,]G,,- [D,G,,-][G,G,,]G,,-| \
[D,G,,-][G,G,,]G,,/2x2x/2[C,/2C,,/2]x/2| \
x2[D,/2D,,/2]x2x/2[D,/2D,,/2]x/2|
x2G,,- [D,G,,-][G,G,,]G,,-| \
[D,G,,-][G,G,,]G,,- [D,G,,-][G,G,,]G,,-| \
[D,G,,-][G,G,,]G,,- [D,G,,-][G,G,,]G,,-| \
[D,G,,-][G,G,,]G,,- [D,G,,-][G,G,,]G,,-|
[D,G,,-][G,G,,]G,, G,/2x/2G,/2x/2C,,| \
C,/2x/2C,/2x/2D,, D,/2x/2D,/2x/2D,,| \
D,/2x/2D,/2x/2[G,,4-G,,,4-]| \
[G,,2G,,,2]x4|
x4x[D/2B,/2]x/2| \
[D/2B,/2]x/2[D/2B,/2]x/2[C2A,2][B,G,][=F/2D/2]x/2| \
[F/2D/2]x/2[F/2D/2]x/2[E3C3][D-B,-]| \
[D2B,2]x4|
x2C,/2x/2 C,/2x/2C,/2x3/2| \
x2C,/2x/2 C,/2x/2C,/2x3/2| \
x2F/2x/2 F/2x/2F/2x/2^F/2x/2| \
^F/2x/2^F/2x/2G/2x/2 G/2x/2G/2x3/2|
x2C,/2x/2 C,/2x/2C,/2x3/2| \
x2C,/2x/2 C,/2x/2C,/2x3/2| \
x2=F/2x/2 F/2x/2F/2x/2[F/2D/2G,/2]x/2| \
[F/2D/2G,/2]x/2[F/2D/2G,/2]x/2[E2C2]x2|
x2C,, C,/2x/2C,/2x3/2| \
x2C,, C,/2x/2C,/2x3/2| \
x2F, F/2x/2F/2x/2^F,| \
^F/2x/2^F/2x/2G, G/2x/2G/2x3/2|
x2C,,/2C,/2 B,,/2C,/2B,,/2C,/2C,,/2x/2| \
x2C,,/2C,/2 B,,/2C,/2B,,/2C,/2C,,/2x/2| \
x2=F,,/2F,/2 D,/2F,/2D,/2F,/2[D,/2G,,/2]F,/2| \
[D,/2G,,/2]F,/2[D,/2G,,/2]F,/2[E,C,] x3|
x2[C/2F,/2]x/2 [C/2F,/2]x/2[C/2F,/2]x/2[B,/2G,/2]x/2| \
[B,/2G,/2]x/2[B,/2G,/2]x/2[C/2A,/2]x/2 [C/2A,/2]x/2[C/2A,/2]x/2[C/2E,/2]x/2| \
[C/2E,/2]x/2[C/2E,/2]x/2[C/2F,/2]x/2 [C/2F,/2]x/2[C/2F,/2]x/2[B,/2G,/2]x/2| \
[B,/2G,/2]x/2[B,/2G,/2]x/2[C/2A,/2]x/2 [C/2A,/2]x/2[C/2A,/2]x/2[^A,/2G,/2]x/2|
[^A,/2G,/2]x/2[^A,/2G,/2]x/2[=A,/2F,/2]x/2 [A,/2F,/2]x/2[A,/2F,/2]x/2[G,/2G,,/2]x/2| \
[G,/2G,,/2]x/2[G,/2G,,/2]x/2[E,/2C,/2]x3/2[G,/2G,,/2]x/2[E,/2C,/2]x/2| \
x[G,/2G,,/2]x/2[E,/2C,/2]x/2 C,/2x/2G,,/2x/2E,,/2x/2| \
G,,/2x/2E,,/2x/2C,,2
