Error: Time=1024 Track=1 Note terminated when not on - pitch 36
Error in MIDI file - notes still on at end of track!
X: 1
T: from midi_transposed/C_debussy_cc_1.mid
M: 4/4
L: 1/8
Q:1/4=123
%beats in anacrusis = 7
K:C % 0 sharps
V:1
% Piano
%%MIDI program 0
%%MIDI program 0
x2x/2G,/2C/2| \
D/2E/2G,/2C/2 E/2D/2F,/2C/2 D/2F/2A,/2B,/2 F/2E/2G,/2C/2| \
E/2G/2B,/2C/2 G/2F/2A,/2C/2 F/2A/2B,/2F/2 A/2G/2C/2E/2| \
G/2c/2E/2G/2 c/2d/2E/2G/2 d/2c/2E/2G/2 c/2B/2E/2G/2| \
B/2A/2E/2G/2 A/2G/2C/2E/2 G/2F/2C/2E/2 F/2E/2-[E/2-B,/2][E/2C/2]|
E/2D/2-[D/2-A,/2][D/2C/2] D/2G/2-[G/2-B,/2][G/2E/2] G/2A/2-[A/2-C/2][A/2E/2] A/2E/2-[E/2-A,/2][E/2C/2]| \
E/2D/2-[D/2-A,/2][D/2C/2] D/2C/2-[C/2-G,/2][C/2A,/2] C/2B,/2-[B,/2-F,/2][B,/2G,/2] B,/2x3/2| \
x8| \
x8|
x8| \
x6 x3/2E,/2| \
^G,/2x^G,/2 B,/2xB,/2 E/2xE/2 ^G/2x3/2| \
x6 xA/2F/2|
D/2x/2F/2D/2 B,/2x/2A/2F/2 D/2x/2F/2D/2 B,/2x/2c/2A/2| \
F/2x/2A/2F/2 D/2x/2F/2D/2 B,/2x/2D/2B,/2 =G,/2x/2A/2F/2| \
D/2x/2F/2D/2 B,/2x/2A/2F/2 D/2x/2F/2D/2 B,/2x/2c/2A/2| \
F/2x/2A/2F/2 D/2x/2F/2D/2 B,/2x/2D/2B,/2 G,/2x/2B,/2^G,/2|
E,/2x/2^C/2^A,/2 ^F,/2x/2B,/2^G,/2 E,/2x/2^C/2^A,/2 ^F,/2x/2B,/2^G,/2| \
E,/2x/2B,/2^G,/2 E,/2x/2B,/2^G,/2 E,/2x/2B,/2^G,/2 E,/2x/2=A,/2=F,/2| \
D,/2x/2=C/2^G,/2 F,/2x/2A,/2F,/2 D,/2x/2C/2^G,/2 F,/2x/2A,/2F,/2| \
D,/2x/2A,/2F,/2 D,/2x/2A,/2F,/2 D,/2x/2A,/2F,/2 D,/2x/2B,/2^G,/2|
D,/2x/2B,/2^G,/2 D,/2x/2B,/2^G,/2 D,/2x/2B,/2^G,/2 D,/2x/2=G,/2C/2| \
D/2E/2G,/2C/2 E/2D/2F,/2C/2 D/2F/2A,/2B,/2 F/2E/2G,/2C/2| \
E/2G/2B,/2C/2 G/2^F/2A,/2D/2 ^F/2A/2C/2^F/2 A/2G/2D/2G/2| \
B/2e/2-[e/2B/2]G/2 D/2x/2E/2G/2 A/2^f/2-[^f/2A/2]G/2 E/2x/2D/2G/2|
B/2e/2-[e/2B/2]G/2 D/2x/2E/2G/2 ^A/2^f/2-[^f/2^A/2]G/2 E/2x/2E/2G/2| \
d/2^f/2-[^f/2-d/2][^f/2-G/2] [^f/2E/2]x/2E/2G/2 ^c/2^f/2-[^f/2-^c/2][^f/2-G/2] [^f/2E/2]x/2E/2G/2| \
=c/2g/2-[g/2-c/2][g/2G/2] E/2^f/2-[^f/2-c/2][^f/2G/2] E/2e/2-[e/2-c/2][e/2G/2] E/2x/2E/2G/2| \
c/2d/2-[d/2c/2][e/2-G/2] [e/2E/2]^f/2-[^f/2-c/2][^f/2-G/2] [^f-E][^f/2-c/2][^f/2-G/2] [^f/2E/2]x/2E/2G/2|
B/2d/2-[d/2B/2][e/2-G/2] [e/2E/2]^f/2-[^f/2-B/2][^f/2-G/2] [^f-E][^f/2-B/2][^f/2-G/2] [^f/2E/2]x/2E/2G/2| \
^A/2d/2-[d/2-^A/2][d/2G/2] E/2e/2-[e/2-^A/2][e/2G/2] E/2c/2-[c/2-^A/2][c/2G/2] E/2d/2^A/2=A/2| \
G/2=F/2E/2D/2 C/2D/2^A,/2=A,/2 G,/2x3x/2| \
x/2D/2-[D/2-^A,/2][D/2-G,/2] [D/2^A,/2]E/2-[E/2-^A,/2][E/2-G,/2] [E/2^A,/2]C/2-[C/2-^A,/2][C/2-G,/2] [C/2^A,/2]xF,/2-|
F,/2^A,CD-[FD]^Acd3/2-| \
d/2x2C^F,-[^A,-^F,-][C-^A,-^F,-][^D3/2-C3/2-^A,3/2-^F,3/2-]| \
[^D8-C8-^A,8-^F,8-]| \
[^D6-C6-^A,6-^F,6-] [^D/2C/2^A,/2^F,/2]x^D,/2-|
^D,/2^G,^A,C^D,^G,C^A,^D,/2-| \
^D,/2^F,^A,^C^D,^F,^Cx^D,/2-| \
^D,/2^G,^A,=C^D,^G,C^A,^D,/2-| \
^D,/2^F,^A,^C^D,^F,^Cx^F,/2-|
^F,/2=C^C^D^F,=C^D^C^F,/2-| \
^F,/2^A,^C=F^F,^A,=F2^F,/2-| \
^F,/2=C^C^D^F,=C^D^C^F,/2-| \
^F,/2^A,^C=F^F,^A,=Fx/2=G,/2=C/2|
=D/2E/2G,/2C/2 E/2D/2F,/2C/2 D/2F/2=A,/2B,/2 F/2E/2G,/2C/2| \
E/2G/2B,/2C/2 G/2F/2A,/2C/2 F/2A/2B,/2F/2 A/2G/2C/2E/2| \
G/2c/2E/2G/2 c/2d/2E/2G/2 d/2c/2E/2G/2 c/2B/2E/2G/2| \
B/2A/2E/2G/2 A/2G/2C/2E/2 G/2F/2C/2E/2 F/2E/2-[E/2-A,/2][E/2C/2]|
E/2D/2-[D/2-A,/2][D/2C/2] D/2G/2-[G/2-B,/2][G/2E/2] G/2A/2-[A/2-C/2][A/2E/2] A/2E/2-[E/2-A,/2][E/2C/2]| \
E/2D/2-[D/2-A,/2][D/2C/2] D/2C/2-[C/2-G,/2][C/2A,/2] C/2B,/2-[B,/2-F,/2][B,/2G,/2] B,/2x3/2| \
x8| \
x8|
x8| \
x6 x3/2E,/2| \
^G,/2x^G,/2 C/2xC/2 E/2xE/2 ^G/2xE/2| \
^G/2x^G/2 c/2xc/2 e/2xe/2 ^g/2x=g/2|
c'/2xg/2 c'/2xg/2 d'/2xg/2 c'/2xc'/2| \
f'/2xc'/2 ^d'/2x^g/2 =d'/2x^g/2 c'/2x=g/2| \
d'/2xg/2 c'/2xe/2 b/2xe/2 a/2xc/2| \
g/2xc/2 f/2x^G/2 e/2x^G/2 d/2x=G/2|
d/2xG/2 c/2xG/2 d/2xG/2 c/2xc/2| \
f/2xc/2 ^d/2x^G/2 =d/2x^G/2 c/2x=G/2| \
d/2xG/2 c/2xE/2 B/2xE/2 A/2xC/2| \
G/2xC/2 F/2x^G,/2 E/2x^G,/2 D/2x/2E,/2=G,/2|
D/2x/2E,/2G,/2 C/2x/2F,/2A,/2 D/2x/2F,/2A,/2 C/2x/2E/2G/2| \
d/2x/2E/2G/2 c/2x/2F/2A/2 d/2x/2F/2A/2 c/2x/2e/2c/2| \
E/2x/2e/2B/2- [B/2E/2]x/2e/2c/2 E/2x/2e/2B/2- [B/2E/2]x/2e/2c/2| \
E/2x/2g/2^d/2 G/2x/2^a/2^f/2 ^A/2x/2b/2g/2 B/2x/2e/2c/2|
E/2x/2e/2B/2- [B/2E/2]x/2e/2c/2 E/2x/2e/2B/2- [B/2E/2]x/2e/2c/2| \
E/2x/2g/2^d/2 G/2x/2^a/2^f/2 ^A/2x/2b/2g/2 B/2x/2e'/2c'/2| \
e/2x/2e'/2c'/2 e/2x/2e/2c/2 E/2x/2e/2c/2 E/2x/2E/2C/2| \
E,/2x/2E/2C/2 E,/2x/2E/2C/2 E,/2x/2E/2C/2 E,/2[E,3/2-C,3/2-]|
[E,8-C,8-]| \
[E,2-C,2-] [E,/2C,/2][=D,4B,,4][E,C,]x/2| \
x6 x/2C,,
V:2
% Piano
%%MIDI program 0
%%MIDI program 0
x2
% Piano
%%MIDI program 0
%%MIDI program 0
[C,3/2-C,,3/2-]| \
[C,8-C,,8-]| \
[C,8C,,8-]| \
C,,/2-[C2-C,,2-][C2-B,2C,,2-][C2-=A,2C,,2-][C3/2-B,3/2-C,,3/2-]| \
[C/2B,/2C,,/2-][C2C,,2-][B,2C,,2-][A,2C,,2-][G,3/2-C,,3/2-]|
[G,/2C,,/2-][=F,2C,,2-][E,2C,,2-][A,2C,,2-][G,3/2-C,,3/2-]| \
[G,/2C,,/2-][F,2C,,2-][E,2C,,2-][D,2C,,2-][F,,/2-C,,/2-][C,/2F,,/2-C,,/2-][D,/2F,,/2-C,,/2-]| \
[E,/2F,,/2-C,,/2-][F,/2F,,/2-C,,/2-][A,/2F,,/2-C,,/2-][C/2F,,/2-C,,/2-] [D/2F,,/2-C,,/2-][E/2F,,/2-C,,/2-][D/2F,,/2-C,,/2-][C/2F,,/2-C,,/2-] [A,/2F,,/2-C,,/2-][F,/2F,,/2-C,,/2-][E,/2F,,/2-C,,/2-][D,/2F,,/2-C,,/2-] [C,/2F,,/2C,,/2-][F,,/2-C,,/2-][C,/2F,,/2-C,,/2-][D,/2F,,/2-C,,/2-]| \
[E,/2F,,/2-C,,/2-][F,/2F,,/2-C,,/2-][A,/2F,,/2-C,,/2-][C/2F,,/2-C,,/2-] [D/2F,,/2-C,,/2-][E/2F,,/2-C,,/2-][D/2F,,/2-C,,/2-][C/2F,,/2-C,,/2-] [B,/2F,,/2-C,,/2-][A,/2F,,/2-C,,/2-][E,/2F,,/2-C,,/2-][D,/2F,,/2-C,,/2-] [C,/2F,,/2C,,/2-][F,,/2-C,,/2-][C,/2F,,/2-C,,/2-][D,/2F,,/2-C,,/2-]|
[E,/2F,,/2-C,,/2-][F,/2F,,/2-C,,/2-][^G,/2F,,/2-C,,/2-][C/2F,,/2-C,,/2-] [D/2F,,/2-C,,/2-][E/2F,,/2-C,,/2-][D/2F,,/2-C,,/2-][C/2F,,/2-C,,/2-] [^G,/2F,,/2-C,,/2-][F,/2F,,/2-C,,/2-][E,/2F,,/2-C,,/2-][D,/2F,,/2-C,,/2-] [C,/2F,,/2C,,/2-][F,,/2-C,,/2-][C,/2F,,/2-C,,/2-][D,/2F,,/2-C,,/2-]| \
[E,/2F,,/2-C,,/2-][F,/2F,,/2-C,,/2-][^G,/2F,,/2-C,,/2-][C/2F,,/2-C,,/2-] [D/2F,,/2-C,,/2-][E/2F,,/2-C,,/2-][D/2F,,/2-C,,/2-][C/2F,,/2-C,,/2-] [^A,/2F,,/2-C,,/2-][^G,/2F,,/2-C,,/2-][E,/2F,,/2-C,,/2-][D,/2F,,/2-C,,/2-] [C,/2F,,/2C,,/2-][E,,/2C,,/2-][B,,/2C,,/2-]C,,/2-| \
C,,/2-[B,,/2C,,/2-][E,/2C,,/2-]C,,-[E,/2C,,/2-][^G,/2C,,/2-]C,,-[^G,/2C,,/2-][B,/2C,,/2-]C,,-[E3/2-C,,3/2-]| \
[E6-C,,6-] [E/2C,,/2-][E/2C,,/2-]C,,-|
C,,/2-[E/2C,,/2-]C,,3/2-[E/2C,,/2-]C,,3/2-[E/2C,,/2-]C,,3/2-[=G/2C,,/2-]C,,-| \
C,,/2-[E/2C,,/2-]C,,3/2-[C/2C,,/2-]C,,3/2-[=A,/2C,,/2-]C,,3/2-[E/2C,,/2-]C,,-| \
C,,/2-[E/2C,,/2-]C,,3/2-[E/2C,,/2-]C,,3/2-[E/2C,,/2-]C,,3/2-[G/2C,,/2-]C,,-| \
C,,/2-[E/2C,,/2-]C,,3/2-[C/2C,,/2-]C,,3/2-[A,/2C,,/2-]C,,3/2-[F,/2C,,/2-]C,,-|
C,,/2-[G,/2C,,/2-]C,,3/2-[F,/2C,,/2-]C,,3/2-[G,/2C,,/2-]C,,3/2-[F,/2C,,/2-]C,,-| \
C,,/2-[F,/2C,,/2-]C,,3/2-[F,/2C,,/2-]C,,3/2-[F,/2C,,/2-]C,,3/2-[E,/2C,,/2-]C,,-| \
C,,/2-[G,/2C,,/2-]C,,3/2-[E,/2C,,/2-]C,,3/2-[G,/2C,,/2-]C,,3/2-[E,/2C,,/2-]C,,-| \
C,,/2-[E,/2C,,/2-]C,,3/2-[E,/2C,,/2-]C,,3/2-[E,/2C,,/2-]C,,3/2-[E,/2C,,/2-]C,,-|
C,,/2-[E,/2C,,/2-]C,,3/2-[E,/2C,,/2-]C,,3/2-[E,/2C,,/2-]C,,3/2[C,3/2-C,,3/2-]| \
[C,8C,,8-]| \
C,,/2-[A,,2C,,2-][D,2C,,2-][B,,2C,,2-][E,3/2-C,,3/2-]| \
[E,2-C,,2-] [E,/2-C,,/2-][^C/2E,/2-=C,,/2-][E,3-C,,3-] [E,/2C,,/2-][E,3/2-C,,3/2-]|
[E,2-C,,2-] [E,/2C,,/2-][^C/2=C,,/2-]C,,3- C,,/2-[B,3/2-C,,3/2-]| \
[B,2-C,,2-] [B,/2C,,/2-][^A,4C,,4-][=A,3/2-C,,3/2-]| \
[A,6-C,,6-] [A,/2C,,/2-][^A,3/2-C,,3/2-]| \
[^A,6-C,,6-] [^A,/2C,,/2-][B,3/2-C,,3/2-]|
[B,6-C,,6-] [B,/2C,,/2-][C3/2-C,,3/2-]| \
[C6-C,,6-] [C/2C,,/2-]C,,3/2-| \
C,,4- C,,/2-[F,/2C,,/2-][E,/2C,,/2-][D,/2C,,/2-] [C,/2C,,/2-][^A,,/2C,,/2-][=A,,/2C,,/2-][G,,/2C,,/2-]| \
[F,,/2C,,/2-][E,,2C,,2-][D,,2C,,2-][C,,2-C,,2][C,,3/2-^A,,,3/2-]|
[C,,6-^A,,,6-] [C,,3/2-^A,,,3/2-][F,/2-C,,/2-^A,,,/2-]| \
[F,/2C,,/2-^A,,,/2-][^A,C,,-^A,,,-][DC,,-^A,,,-][C,,4-^A,,,4][C,,3/2-^A,,,3/2-]| \
[C,,2-^A,,,2-] [C,,/2-^A,,,/2][^D,,2C,,2-][C,,3-^A,,,3-][C,,/2-^A,,,/2-]| \
[C,,/2-^A,,,/2][^D,,4C,,4-][C,,2-^A,,,2][C,,3/2-^G,,,3/2-]|
[C,,8-^G,,,8-]| \
[C,,/2-^G,,,/2-][^A4^F4C,,4-^G,,,4-][^G2=F2C,,2-^G,,,2][C,,3/2-^G,,,3/2-]| \
[C,,2-^G,,,2-] [C,,/2-^G,,,/2-][^F4^D4C,,4-^G,,,4-][C,,3/2-^G,,,3/2-]| \
[C,,/2-^G,,,/2-][^A4^F4C,,4-^G,,,4-][^G2=F2C,,2-^G,,,2][C,,3/2-^G,,,3/2-]|
[C,,8-^G,,,8-]| \
[C,,6-^G,,,6-] [C,,/2-^G,,,/2-][^G3/2-C,,3/2-^G,,,3/2-]| \
[^G6-C,,6-^G,,,6-] [^G/2C,,/2-^G,,,/2-][^D,3/2-C,,3/2-^G,,,3/2-]| \
[^D,2-C,,2-^G,,,2-] [^D,/2C,,/2-^G,,,/2-][^G,,4C,,4-^G,,,4][=G,,3/2-C,,3/2-G,,,3/2-]|
[G,,8-C,,8-G,,,8-]| \
[G,,6-C,,6-G,,,6-] [G,,/2-C,,/2-G,,,/2][G,,3/2-C,,3/2-C,,3/2-]| \
[G,,/2C,,/2-C,,/2][C2-C,,2-][C2-B,2C,,2-][C2-=A,2C,,2-][C3/2-B,3/2-C,,3/2-]| \
[C/2B,/2C,,/2-][C2C,,2-][B,2C,,2-][A,2C,,2-][G,3/2-C,,3/2-]|
[G,/2C,,/2-][F,2C,,2-][E,2C,,2-][A,2C,,2-][G,3/2-C,,3/2-]| \
[G,/2C,,/2-][F,2C,,2-][E,2C,,2-][=D,2C,,2-][F,,/2-C,,/2-][C,/2F,,/2-C,,/2-][D,/2F,,/2-C,,/2-]| \
[E,/2F,,/2-C,,/2-][F,/2F,,/2-C,,/2-][A,/2F,,/2-C,,/2-][C/2F,,/2-C,,/2-] [D/2F,,/2-C,,/2-][E/2F,,/2-C,,/2-][D/2F,,/2-C,,/2-][C/2F,,/2-C,,/2-] [A,/2F,,/2-C,,/2-][F,/2F,,/2-C,,/2-][E,/2F,,/2-C,,/2-][D,/2F,,/2-C,,/2-] [C,/2F,,/2C,,/2-][F,,/2-C,,/2-][C,/2F,,/2-C,,/2-][D,/2F,,/2-C,,/2-]| \
[E,/2F,,/2-C,,/2-][F,/2F,,/2-C,,/2-][A,/2F,,/2-C,,/2-][C/2F,,/2-C,,/2-] [D/2F,,/2-C,,/2-][E/2F,,/2-C,,/2-][D/2F,,/2-C,,/2-][C/2F,,/2-C,,/2-] [B,/2F,,/2-C,,/2-][A,/2F,,/2-C,,/2-][E,/2F,,/2-C,,/2-][D,/2F,,/2-C,,/2-] [C,/2F,,/2C,,/2-][F,,/2-C,,/2-][C,/2F,,/2-C,,/2-][D,/2F,,/2-C,,/2-]|
[E,/2F,,/2-C,,/2-][F,/2F,,/2-C,,/2-][^G,/2F,,/2-C,,/2-][C/2F,,/2-C,,/2-] [D/2F,,/2-C,,/2-][E/2F,,/2-C,,/2-][D/2F,,/2-C,,/2-][C/2F,,/2-C,,/2-] [^G,/2F,,/2-C,,/2-][F,/2F,,/2-C,,/2-][E,/2F,,/2-C,,/2-][D,/2F,,/2-C,,/2-] [C,/2F,,/2C,,/2-][F,,/2-C,,/2-][C,/2F,,/2-C,,/2-][D,/2F,,/2-C,,/2-]| \
[E,/2F,,/2-C,,/2-][F,/2F,,/2-C,,/2-][^G,/2F,,/2-C,,/2-][C/2F,,/2-C,,/2-] [D/2F,,/2-C,,/2-][E/2F,,/2-C,,/2-][D/2F,,/2-C,,/2-][C/2F,,/2-C,,/2-] [^A,/2F,,/2-C,,/2-][^G,/2F,,/2-C,,/2-][E,/2F,,/2-C,,/2-][D,/2F,,/2-C,,/2-] [C,/2F,,/2C,,/2-][E,,/2C,,/2-][C,/2C,,/2-]C,,/2-| \
C,,/2-[C,/2C,,/2-][E,/2C,,/2-]C,,-[E,/2C,,/2-][^G,/2C,,/2-]C,,-[^G,/2C,,/2-][C/2C,,/2-]C,,-[^G,/2C,,/2-][C/2C,,/2-]C,,/2-| \
C,,/2-[C/2C,,/2-][E/2C,,/2-]C,,-[E/2C,,/2-][^G/2C,,/2-]C,,-[^G/2C,,/2-][c/2C,,/2-]C,,-[c/2-C,,/2-][e/2c/2-C,,/2-][c/2-C,,/2-]|
[c/2C,,/2-][c/2-C,,/2-][e/2c/2-C,,/2-][cC,,-][d/2-C,,/2-][e/2d/2-C,,/2-][dC,,-][c/2-C,,/2-][e/2c/2-C,,/2-][cC,,-][f/2-C,,/2-][^g/2f/2-C,,/2-][f/2-C,,/2-]| \
[f/2C,,/2-][^d/2-C,,/2-][^g/2^d/2-C,,/2-][^dC,,-][=d/2-C,,/2-][^d/2=d/2-C,,/2-][dC,,-][c/2-C,,/2-][^d/2c/2-C,,/2-][cC,,-][=d/2-C,,/2-][e/2d/2-C,,/2-][d/2-C,,/2-]| \
[d/2C,,/2-][c/2-C,,/2-][e/2c/2-C,,/2-][cC,,-][B/2-C,,/2-][c/2B/2-C,,/2-][BC,,-][=A/2-C,,/2-][c/2A/2-C,,/2-][AC,,-][=G/2-C,,/2-][A/2G/2-C,,/2-][G/2-C,,/2-]| \
[G/2C,,/2-][F/2-C,,/2-][A/2F/2-C,,/2-][FC,,-][E/2-C,,/2-][F/2E/2-C,,/2-][EC,,-][D/2-C,,/2-][F/2D/2-C,,/2-][DC,,-][D/2-C,,/2-][E/2D/2-C,,/2-][D/2-C,,/2-]|
[D/2C,,/2-][C/2-C,,/2-][E/2C/2-C,,/2-][CC,,-][D/2-C,,/2-][E/2D/2-C,,/2-][DC,,-][C/2-C,,/2-][E/2C/2-C,,/2-][CC,,-][F/2-C,,/2-][^G/2F/2-C,,/2-][F/2-C,,/2-]| \
[F/2C,,/2-][^D/2-C,,/2-][^G/2^D/2-C,,/2-][^DC,,-][=D/2-C,,/2-][^D/2=D/2-C,,/2-][DC,,-][C/2-C,,/2-][^D/2C/2-C,,/2-][CC,,-][=D/2-C,,/2-][E/2D/2-C,,/2-][D/2-C,,/2-]| \
[D/2C,,/2-][C/2-C,,/2-][E/2C/2-C,,/2-][CC,,-][B,/2-C,,/2-][C/2B,/2-C,,/2-][B,C,,-][A,/2-C,,/2-][C/2A,/2-C,,/2-][A,C,,-][=G,/2-C,,/2-][A,/2G,/2-C,,/2-][G,/2-C,,/2-]| \
[G,/2C,,/2-][F,/2-C,,/2-][A,/2F,/2-C,,/2-][F,C,,-][E,/2-C,,/2-][F,/2E,/2-C,,/2-][E,C,,-][D,/2-C,,/2-][F,/2D,/2-C,,/2-][D,C,,-][D,3/2-C,,3/2-]|
[D,/2C,,/2-][C,2C,,2-][D,2F,,2-C,,2-][C,2F,,2C,,2-][D3/2-C,,3/2-]| \
[D/2C,,/2-][C2C,,2-][D2F,2-C,,2-][C2F,2C,,2-][G3/2-C3/2-C,,3/2-]| \
[G/2C/2-C,,/2-][AC-C,,-][CC,,-][G2C2-C,,2-][AC-C,,-][CC,,-][G3/2-C3/2-C,,3/2-]| \
[G/2C/2C,,/2-][^A2^D2C,,2-][^c2^F2=C,,2-][=d2G2C,,2-][G3/2-C3/2-C,,3/2-]|
[G/2C/2-C,,/2-][=AC-C,,-][CC,,-][G2C2-C,,2-][AC-C,,-][CC,,-][G3/2-C3/2-C,,3/2-]| \
[G/2C/2C,,/2-][^A2^D2C,,2-][^c2^F2=C,,2-][=d2G2C,,2-][g3/2-C,,3/2-]| \
[g/2-C,,/2-][g2c2C,,2-][G2-C,,2-][G2C2C,,2-][G,3/2-C,,3/2-]| \
[G,/2C,,/2-][C,2C,,2-][G,,2C,,2-][C,,2-C,,2][=A,,3/2-=F,,3/2-C,,3/2-]|
[A,,8-F,,8-C,,8-]| \
[A,,6-F,,6-C,,6-] [A,,/2F,,/2C,,/2-][G,,C,,-C,,]C,,/2-| \
C,,6- C,,/2-[C,,-C,,,]
