Error: Time=69888 Track=0 Note terminated when not on - pitch 64
Error: Time=69888 Track=0 Note terminated when not on - pitch 67
Error: Time=69888 Track=0 Note terminated when not on - pitch 72
Error: Time=71424 Track=0 Note terminated when not on - pitch 76
Error: Time=73045 Track=0 Note terminated when not on - pitch 81
Error: Time=75776 Track=0 Note terminated when not on - pitch 70
Error: Time=75776 Track=0 Note terminated when not on - pitch 69
Error: Time=80640 Track=0 Note terminated when not on - pitch 71
Error: Time=80896 Track=0 Note terminated when not on - pitch 79
Error: Time=82176 Track=0 Note terminated when not on - pitch 74
Error: Time=82688 Track=0 Note terminated when not on - pitch 84
Error: Time=82688 Track=0 Note terminated when not on - pitch 83
Error: Time=83200 Track=0 Note terminated when not on - pitch 77
Error: Time=87381 Track=0 Note terminated when not on - pitch 75
Error in MIDI file - notes still on at end of track!
Error: Time=69888 Track=1 Note terminated when not on - pitch 55
Error: Time=69888 Track=1 Note terminated when not on - pitch 58
Error: Time=69888 Track=1 Note terminated when not on - pitch 60
Error in MIDI file - notes still on at end of track!
X: 1
T: from midi_transposed/C_elise.mid
M: 3/8
L: 1/16
Q:1/4=69
