X: 1
T: from midi_transposed/C_grieg_brooklet.mid
M: 3/4
L: 1/8
Q:1/4=170
%beats in anacrusis = 0
% Last note suggests minor mode tune
K:C % 0 sharps
V:1
% Piano
%%MIDI program 0
%%MIDI program 0
x2 A/2c/2B/2d/2 c/2e/2d/2f/2| \
[e/2c/2]x3/2 A/2c/2B/2d/2 c/2e/2d/2f/2| \
[e/2c/2]x3/2 f/2a/2e/2g/2 d/2f/2c/2e/2| \
[d/2B/2]x3/2 e/2g/2d/2f/2 c/2e/2B/2d/2|
[c/2A/2]x2c/2B/2d/2 c/2e/2d/2f/2| \
[e/2c/2]x2c/2B/2d/2 c/2e/2d/2f/2| \
[e/2c/2]x3/2 c/2e/2B/2d/2 A/2c/2^G/2B/2| \
A/2c/2B/2d/2 [e2-B2-A2] [e2-B2-^G2-]|
[eB^G]x A/2c/2B/2d/2 c/2e/2d/2f/2| \
[e/2c/2]x3/2 A/2c/2B/2d/2 c/2e/2d/2f/2| \
[e/2c/2]x3/2 f/2a/2e/2=g/2 d/2f/2c/2e/2| \
[d/2B/2]x3/2 e/2g/2d/2f/2 c/2e/2B/2d/2|
[c/2A/2]x2c/2B/2d/2 c/2e/2d/2f/2| \
[e/2c/2]x2c/2B/2d/2 c/2e/2d/2f/2| \
[e/2c/2]x3/2 c/2e/2B/2d/2 A/2c/2^G/2B/2| \
A/2c/2B/2d/2 [e2-B2-A2] [e2-B2-^G2-]|
[eB^G]x =g/2B/2f/2B/2 e/2B/2e/2B/2| \
e/2x3/2 g/2c/2f/2c/2 e/2c/2e/2c/2| \
e/2x3/2 a/2^c/2g/2^c/2 f/2^c/2f/2^c/2| \
f/2x3/2 a/2d/2g/2d/2 f/2d/2f/2d/2|
f/2x3/2 ^a/2d/2^g/2d/2 =g/2d/2g/2d/2| \
g/2x3/2 ^a/2^d/2^g/2^d/2 =g/2^d/2g/2^d/2| \
g/2x3/2 =c'/2e/2^a/2e/2 ^g/2e/2^g/2e/2| \
^g/2x3/2 c'/2f/2^a/2f/2 ^g/2f/2^g/2f/2|
^g/2x3/2 ^a/2f/2^g/2f/2 ^a/2^f/2^g/2^f/2| \
^a/2=f/2^g/2f/2 =g/2B/2f/2B/2 g/2^d/2f/2^d/2| \
g/2=d/2f/2d/2 e/2^G/2e/2^G/2 e/2c/2d/2c/2| \
e/2B/2d/2B/2 e/2^A/2d/2^A/2 e/2=A/2d/2A/2|
e/2A/2d/2A/2 e/2^G/2d/2F/2 c/2F/2B/2D/2| \
A/2D/2^G/2B,/2 F/2B,/2E/2^G,/2 x2| \
x6| \
x6|
x2 A,/2C/2B,/2D/2 C/2E/2D/2F/2| \
[E/2C/2]x3/2 A,/2C/2B,/2D/2 C/2E/2D/2F/2| \
[E/2C/2]x3/2 F/2A/2E/2=G/2 D/2F/2C/2E/2| \
[D/2B,/2]x3/2 E/2G/2D/2F/2 C/2E/2B,/2D/2|
[C/2A,/2]x3/2 F,/2A,/2G,/2B,/2 A,/2C/2B,/2D/2| \
[C/2A,/2]x3/2 ^A,/2D/2C/2E/2 D/2F/2E/2G/2| \
[F/2D/2]x2E/2[D/2^G,/2]E/2 [^C/2^G,/2]E/2[=C/2^G,/2]E/2| \
[B,/2^G,/2]E/2[^A,/2=G,/2]E/2 =A,4-|
A,x g/2B/2f/2B/2 e/2B/2e/2B/2| \
e/2x3/2 g/2c/2f/2c/2 e/2c/2e/2c/2| \
e/2x3/2 a/2^c/2g/2^c/2 f/2^c/2f/2^c/2| \
f/2x3/2 a/2d/2g/2d/2 f/2d/2f/2d/2|
f/2x3/2 ^a/2d/2^g/2d/2 =g/2d/2g/2d/2| \
g/2x3/2 ^a/2^d/2^g/2^d/2 =g/2^d/2g/2^d/2| \
g/2x3/2 =c'/2e/2^a/2e/2 ^g/2e/2^g/2e/2| \
^g/2x3/2 c'/2f/2^a/2f/2 ^g/2f/2^g/2f/2|
^g/2x3/2 ^a/2f/2^g/2f/2 ^a/2^f/2^g/2^f/2| \
^a/2=f/2^g/2f/2 =g/2B/2f/2B/2 g/2^d/2f/2^d/2| \
g/2=d/2f/2d/2 e/2^G/2e/2^G/2 e/2c/2d/2c/2| \
e/2B/2d/2B/2 e/2^A/2d/2^A/2 e/2=A/2d/2A/2|
e/2A/2d/2A/2 e/2^G/2d/2F/2 c/2F/2B/2D/2| \
A/2D/2^G/2B,/2 F/2B,/2E/2^G,/2 x2| \
x6| \
x6|
x2 A,/2C/2B,/2D/2 C/2E/2D/2F/2| \
[E/2C/2]x3/2 A,/2C/2B,/2D/2 C/2E/2D/2F/2| \
[E/2C/2]x3/2 F/2A/2E/2=G/2 D/2F/2C/2E/2| \
[D/2B,/2]x3/2 E/2G/2D/2F/2 C/2E/2B,/2D/2|
[C/2A,/2]x3/2 F,/2A,/2G,/2B,/2 A,/2C/2B,/2D/2| \
[C/2A,/2]x3/2 ^A,/2D/2C/2E/2 D/2F/2E/2G/2| \
[F/2D/2]x2E/2[D/2^G,/2]E/2 [^C/2^G,/2]E/2[=C/2^G,/2]E/2| \
[B,/2^G,/2]E/2[^A,/2=G,/2]E/2 =A,4-|
A,x F,/2A,/2^F,/2^A,/2 G,/2B,/2^G,/2C/2| \
=A,/2^C/2^A,/2D/2 [B,/2^D,/2]x3/2 [=C2-E,2-]| \
[C2E,2] =F,/2=A,/2^F,/2^A,/2 =G,/2B,/2^G,/2C/2| \
=A,/2^C/2^A,/2=D/2 [^D/2B,/2]x3/2 [E2-=C2-]|
[E2C2] 
=F,/2=A,/2^G,/2B,/2 A,/2C/2B,/2=D/2| \
C/2E/2D/2^F/2 E/2^G/2^F/2A/2 =F/2A/2^G/2B/2| \
A/2c/2B/2d/2 c/2e/2d/2^f/2 e/2^g/2^f/2a/2| \
=f/2a/2^g/2b/2 
a/2c'/2b/2d'/2 c'/2e'/2d'/2^f'/2|
e'/2^g'/2^f'/2a'/2 e'/2^g'/2^f'/2a'/2 e'/2^g'/2^f'/2a'/2| \
e'/2^g'/2^f'/2a'/2 e'/2^g'/2^f'/2a'/2 e'/2^g'/2^f'/2a'/2| \
^f'/2e'/2c'/2a/2 ^f/2e/2c/2A/2 ^F/2E/2C/2A,/2| \
^F,/2E,/2A,,/2E,/2 ^F,/2A,/2>C/2[^F/2E/2] c/2x3/2|
x3x/2[=F/2C/2] c/2x3/2| \
x6| \
[A/2C/2]x3/2 [a/2c/2]x3/2 [a'/2c'/2]
V:2
% Piano
%%MIDI program 0
%%MIDI program 0
x2 
% Piano
%%MIDI program 0
%%MIDI program 0
[E/2A,/2-][F/2A,/2-][E/2A,/2-][F/2A,/2-] [E/2A,/2-][F/2A,/2-][E/2A,/2-][F/2A,/2-]| \
[E/2A,/2]x3/2 [E/2A,/2-][F/2A,/2-][E/2A,/2-][F/2A,/2-] [E/2A,/2-][F/2A,/2-][E/2A,/2-][F/2A,/2-]| \
[E/2A,/2]x3/2 [E/2A,/2-][F/2A,/2-][E/2A,/2-][F/2A,/2-] [E/2A,/2-][F/2A,/2-][E/2A,/2-][F/2A,/2-]| \
[E/2A,/2]x3/2 [E/2A,/2-][F/2A,/2-][E/2A,/2-][F/2A,/2-] [E/2A,/2-][F/2A,/2-][E/2A,/2-][F/2A,/2-]|
[E/2A,/2]x3/2 [E/2^G,/2-][F/2^G,/2-][E/2^G,/2-][F/2^G,/2-] [E/2^G,/2-][F/2^G,/2-][E/2^G,/2-][F/2^G,/2-]| \
[E/2^G,/2]x3/2 [E/2=G,/2-][F/2G,/2-][E/2G,/2-][F/2G,/2-] [E/2G,/2-][F/2G,/2-][E/2G,/2-][F/2G,/2-]| \
[E/2G,/2]x3/2 ^F,/2E/2^F,/2E/2 ^F,/2E/2^F,/2E/2| \
=F,/2E/2F,/2E/2 E,/2E/2E,/2E/2 E,/2E/2E,/2E/2|
E,x [E/2A,/2-][F/2A,/2-][E/2A,/2-][F/2A,/2-] [E/2A,/2-][F/2A,/2-][E/2A,/2-][F/2A,/2-]| \
[E/2A,/2]x3/2 [E/2A,/2-][F/2A,/2-][E/2A,/2-][F/2A,/2-] [E/2A,/2-][F/2A,/2-][E/2A,/2-][F/2A,/2-]| \
[E/2A,/2]x3/2 [E/2A,/2-][F/2A,/2-][E/2A,/2-][F/2A,/2-] [E/2A,/2-][F/2A,/2-][E/2A,/2-][F/2A,/2-]| \
[E/2A,/2]x3/2 [E/2A,/2-][F/2A,/2-][E/2A,/2-][F/2A,/2-] [E/2A,/2-][F/2A,/2-][E/2A,/2-][F/2A,/2-]|
[E/2A,/2]x3/2 [E/2^G,/2-][F/2^G,/2-][E/2^G,/2-][F/2^G,/2-] [E/2^G,/2-][F/2^G,/2-][E/2^G,/2-][F/2^G,/2-]| \
[E/2^G,/2]x3/2 [E/2=G,/2-][F/2G,/2-][E/2G,/2-][F/2G,/2-] [E/2G,/2-][F/2G,/2-][E/2G,/2-][F/2G,/2-]| \
[E/2G,/2]x3/2 ^F,/2E/2^F,/2E/2 ^F,/2E/2^F,/2E/2| \
=F,/2E/2F,/2E/2 E,/2E/2E,/2E/2 E,/2E/2E,/2E/2|
E,x D/2[^G/2E/2]D/2[^G/2E/2] D/2[^G/2E/2]D/2[^G/2E/2]| \
D/2x3/2 C/2[A/2E/2]C/2[A/2E/2] C/2[A/2E/2]C/2[A/2E/2]| \
C/2x3/2 ^D/2[A/2F/2]^D/2[A/2F/2] ^D/2[A/2F/2]^D/2[A/2F/2]| \
^D/2x3/2 =D/2[^A/2F/2]D/2[^A/2F/2] D/2[^A/2F/2]D/2[^A/2F/2]|
D/2x3/2 F/2[B/2=G/2]F/2[B/2G/2] F/2[B/2G/2]F/2[B/2G/2]| \
F/2x3/2 ^D/2[c/2G/2]^D/2[c/2G/2] ^D/2[c/2G/2]^D/2[c/2G/2]| \
^D/2x3/2 ^F/2[c/2^G/2]^F/2[c/2^G/2] ^F/2[c/2^G/2]^F/2[c/2^G/2]| \
^F/2x3/2 =F/2[^c/2^G/2]F/2[^c/2^G/2] F/2[^c/2^G/2]F/2[^c/2^G/2]|
F/2x3/2 E/2[B/2^G/2]E/2[B/2^G/2] ^D/2[B/2^G/2]^D/2[B/2^G/2]| \
=D/2[B/2^G/2]D/2[B/2^G/2] ^C/2[^G/2F/2]^C/2[^G/2F/2] =C/2[^G/2F/2]C/2[^G/2F/2]| \
B,/2[^G/2F/2]B,/2[^G/2F/2] ^A,/2[F/2D/2]^A,/2[F/2D/2] =A,/2[F/2D/2]A,/2[F/2D/2]| \
^G,/2[F/2D/2]^G,/2[F/2D/2] =G,/2[F/2D/2]G,/2[F/2D/2] ^F,/2[E/2D/2]^F,/2[E/2D/2]|
=F,/2[E/2D/2]F,/2[E/2D/2] G,x3| \
x4 C/2^G,/2B,/2E,/2| \
A,/2E,/2^G,/2B,,/2 F,/2B,,/2E,/2^G,,/2 ^D,/2=D,/2^C,/2=C,/2| \
B,,/2^A,,/2=A,,/2^G,,/2 =G,,/2^F,,/2=F,,/2 (3E,,^D,,=D,,^C,,/2|
 (3=C,,B,,,^A,,, [E,,/2=A,,,/2-][F,,/2A,,,/2-][E,,/2A,,,/2-][F,,/2A,,,/2-] [E,,/2A,,,/2-][F,,/2A,,,/2-][E,,/2A,,,/2-][F,,/2A,,,/2-]| \
[E,,/2A,,,/2]x3/2 [E,,/2A,,,/2-][F,,/2A,,,/2-][E,,/2A,,,/2-][F,,/2A,,,/2-] [E,,/2A,,,/2-][F,,/2A,,,/2-][E,,/2A,,,/2-][F,,/2A,,,/2-]| \
[E,,/2A,,,/2]x3/2 [E,,/2A,,,/2-][F,,/2A,,,/2-][E,,/2A,,,/2-][F,,/2A,,,/2-] [E,,/2A,,,/2-][F,,/2A,,,/2-][E,,/2A,,,/2-][F,,/2A,,,/2-]| \
[E,,/2A,,,/2]x3/2 [E,,/2A,,,/2-][F,,/2A,,,/2-][E,,/2A,,,/2-][F,,/2A,,,/2-] [E,,/2A,,,/2-][F,,/2A,,,/2-][E,,/2A,,,/2-][F,,/2A,,,/2-]|
[E,,/2A,,,/2]x3/2 F,,/2C,/2F,,/2C,/2 F,,/2C,/2F,,/2C,/2| \
F,,/2x3/2 ^A,,,/2F,,/2^A,,,/2F,,/2 ^A,,,/2F,,/2^A,,,/2F,,/2| \
^A,,,/2x2x/2[E,,/2D,,/2]x/2 [E,,/2^C,,/2]x/2[E,,/2=C,,/2]x/2| \
[E,,/2B,,,/2]x/2[E,,/2^A,,,/2]x/2 =A,,,/2E,,/2A,,,/2E,,/2 A,,,/2E,,/2A,,,/2E,,/2|
A,,,x D/2[^G/2E/2]D/2[^G/2E/2] D/2[^G/2E/2]D/2[^G/2E/2]| \
D/2x3/2 C/2[A/2E/2]C/2[A/2E/2] C/2[A/2E/2]C/2[A/2E/2]| \
C/2x3/2 ^D/2[A/2F/2]^D/2[A/2F/2] ^D/2[A/2F/2]^D/2[A/2F/2]| \
^D/2x3/2 =D/2[^A/2F/2]D/2[^A/2F/2] D/2[^A/2F/2]D/2[^A/2F/2]|
D/2x3/2 F/2[B/2=G/2]F/2[B/2G/2] F/2[B/2G/2]F/2[B/2G/2]| \
F/2x3/2 ^D/2[c/2G/2]^D/2[c/2G/2] ^D/2[c/2G/2]^D/2[c/2G/2]| \
^D/2x3/2 ^F/2[c/2^G/2]^F/2[c/2^G/2] ^F/2[c/2^G/2]^F/2[c/2^G/2]| \
^F/2x3/2 =F/2[^c/2^G/2]F/2[^c/2^G/2] F/2[^c/2^G/2]F/2[^c/2^G/2]|
F/2x3/2 E/2[B/2^G/2]E/2[B/2^G/2] ^D/2[B/2^G/2]^D/2[B/2^G/2]| \
=D/2[B/2^G/2]D/2[B/2^G/2] ^C/2[^G/2F/2]^C/2[^G/2F/2] =C/2[^G/2F/2]C/2[^G/2F/2]| \
B,/2[^G/2F/2]B,/2[^G/2F/2] ^A,/2[F/2D/2]^A,/2[F/2D/2] =A,/2[F/2D/2]A,/2[F/2D/2]| \
^G,/2[F/2D/2]^G,/2[F/2D/2] =G,/2[F/2D/2]G,/2[F/2D/2] ^F,/2[E/2D/2]^F,/2[E/2D/2]|
=F,/2[E/2D/2]F,/2[E/2D/2] G,x3| \
x4 C/2^G,/2B,/2E,/2| \
A,/2E,/2^G,/2B,,/2 F,/2B,,/2E,/2^G,,/2 ^D,/2=D,/2^C,/2=C,/2| \
B,,/2^A,,/2=A,,/2^G,,/2 =G,,/2^F,,/2=F,,/2 (3E,,^D,,=D,,^C,,/2|
 (3=C,,B,,,^A,,, [E,,/2=A,,,/2-][F,,/2A,,,/2-][E,,/2A,,,/2-][F,,/2A,,,/2-] [E,,/2A,,,/2-][F,,/2A,,,/2-][E,,/2A,,,/2-][F,,/2A,,,/2-]| \
[E,,/2A,,,/2]x3/2 [E,,/2A,,,/2-][F,,/2A,,,/2-][E,,/2A,,,/2-][F,,/2A,,,/2-] [E,,/2A,,,/2-][F,,/2A,,,/2-][E,,/2A,,,/2-][F,,/2A,,,/2-]| \
[E,,/2A,,,/2]x3/2 [E,,/2A,,,/2-][F,,/2A,,,/2-][E,,/2A,,,/2-][F,,/2A,,,/2-] [E,,/2A,,,/2-][F,,/2A,,,/2-][E,,/2A,,,/2-][F,,/2A,,,/2-]| \
[E,,/2A,,,/2]x3/2 [E,,/2A,,,/2-][F,,/2A,,,/2-][E,,/2A,,,/2-][F,,/2A,,,/2-] [E,,/2A,,,/2-][F,,/2A,,,/2-][E,,/2A,,,/2-][F,,/2A,,,/2-]|
[E,,/2A,,,/2]x3/2 F,,/2C,/2F,,/2C,/2 F,,/2C,/2F,,/2C,/2| \
F,,/2x3/2 ^A,,,/2F,,/2^A,,,/2F,,/2 ^A,,,/2F,,/2^A,,,/2F,,/2| \
^A,,,/2x2x/2[E,,/2D,,/2]x/2 [E,,/2^C,,/2]x/2[E,,/2=C,,/2]x/2| \
[E,,/2B,,,/2]x/2[E,,/2^A,,,/2]x/2 =A,,,/2E,,/2A,,,/2E,,/2 A,,,/2E,,/2A,,,/2E,,/2|
A,,,/2E,,/2A,,,/2E,,/2 D,,/2A,,/2D,,/2A,,/2 x2| \
x2 A,,,/2E,,/2A,,,/2E,,/2 A,,,/2E,,/2A,,,/2E,,/2| \
A,,,/2E,,/2A,,,/2E,,/2 D,,/2A,,/2D,,/2A,,/2 x2| \
x2 A,,,/2E,,/2A,,,/2E,,/2 A,,,/2E,,/2A,,,/2E,,/2|
M: 2/4
L: 1/8
A,,,/2E,,/2A,,,/2E,,/2 D,,/2A,,/2D,,/2A,,/2| \
x2 A,,/2E,/2A,,/2E,/2| \
x2 D,/2A,/2D,/2A,/2| \
x2 A,/2E/2A,/2E/2|
x2 D/2A/2D/2A/2| \
x2 
M: 3/4
L: 1/8
A/2e/2A/2e/2 x2| \
x6| \
x6|
x6| \
x6| \
x3/2[A,F,A,,]x3x/2| \
x4 [E,/2A,,/2]x3/2|
[E/2A,/2]x3/2 [e/2A/2]
