Error: Time=2816 Track=0 Note terminated when not on - pitch 89
Error: Time=4864 Track=0 Note terminated when not on - pitch 76
Error: Time=11008 Track=0 Note terminated when not on - pitch 77
Error: Time=13056 Track=0 Note terminated when not on - pitch 64
Error: Time=19200 Track=0 Note terminated when not on - pitch 81
Error: Time=27392 Track=0 Note terminated when not on - pitch 69
Error: Time=35584 Track=0 Note terminated when not on - pitch 65
Error in MIDI file - notes still on at end of track!
Error: Time=36608 Track=1 Note terminated when not on - pitch 72
Error: Time=38656 Track=1 Note terminated when not on - pitch 84
Error in MIDI file - notes still on at end of track!
X: 1
T: from midi_transposed/C_grieg_halling.mid
M: 2/4
L: 1/16
Q:1/4=100
