X: 1
T: from midi_transposed/C_grieg_kobold.mid
M: 2/4
L: 1/16
Q:1/4=193
%beats in anacrusis = 0
% Last note suggests Phrygian mode tune
K:C % 0 sharps
V:1
% Piano
%%MIDI program 0
%%MIDI program 0
x8| \
x8| \
x2 AB [ec]B AB| \
[ec]B AB [ec]x [cA]x|
[cA]x [ec]x [^dB]x [B^F]x| \
[B^F]x [^dB]x [^d4-B4-]| \
[^d2B2] =de [a=f]e de| \
[af]e de [af]x [fd]x|
[fd]x [af]x [^ge]x [eB]x| \
[eB]x [^ge]x [^g3e3]x| \
x2 c'd' [=g'e']d' c'd'| \
[g'2e'2] ga [d'b]a ga|
[d'2b2] fg [c'a]g fg| \
[c'2a2] cd [ge]d cd| \
[g2e2] B,C DC B,x| \
CB, A,x B,A, G,x|
A,G, ^F,x4x| \
x4 A,G, =F,x| \
x4 E,B, EE| \
Be eb [e'2b2e2] x2|
x4 [B,4-^G,4-F,4-]| \
[B,6^G,6F,6] x2| \
x2 [FB,^G,]x [FB,^G,]x [EB,^G,]x| \
[EB,^G,]x [^DB,^G,]x [^DB,^G,]x [=DB,^G,]x|
[DB,^G,]x3 [D4-B,4-^G,4-]| \
[D6B,6^G,6] x2| \
x2 [^GDB,]x [^GDB,]x [=GDB,]x| \
[GDB,]x [^FDB,]x [^FDB,]x [=FDB,]x|
[FDB,]x [BFD]x [BFD]x [^AFD]x| \
[^AFD]x [=A^FD]x [A=FD]x [^GFD]x| \
[^GFD]x [d^GF]x [d^GF]x [^c^GF]x| \
[^c^GF]x [=c^GF]x [c^GF]x [B^GF]x|
[B^GF]x [fB^G]x [fB^G]x [eB^G]x| \
[eB^G]x [^gdB]x [^gdB]x [=gdB]x| \
[gdB]x [bfd]x [bfd]x [^afd]x| \
[^afd]x [d'^gf]x [d'^gf]x [^c'^gf]x|
[^c'^gf]x ^f^g [^c'^a]^g ^f^g| \
[^c'^a]^g ^f^g [^c'^a]x [^a^f]x| \
[^a^f]x [^c'^a]x [^d'b]x [^g=f]x| \
[^gf]x [^d'b]x [^d'4-b4-]|
[^d'2b2] ^f^g [^c'^a]x [^a^f]x| \
[^a^f]x [^c'^a]x [^d'b]x [^g=f]x| \
[^gf]x [^d'b]x [^c'^a]x [^a^f]x| \
[^d'b]x [^g=f]x [^c'^a]x [^a^f]x|
[^d'b]x [^g=f]x [^c'^a]x [^a^f]x| \
[=g'^d']x [=c'=a]x [=f'=d']x [d'^a]x| \
[g'^d']x [c'=a]x [f'=d']x [d'^a]x| \
[f'd']x [d'^a]x [f'd']x [d'^a]x|
[f'd']x [d'^a]x E4-| \
E4 [f'd']x [d'^a]x| \
[f'd']x [d'^a]x E4-| \
E4 [f'd']x [d'^a]x|
[f'd']x [d'^a]x E4-| \
E8-| \
E8-| \
E8-|
E8-| \
E8-| \
E8-| \
E8-|
E8| \
x2 =AB [ec]B AB| \
[ec]B AB [ec]x [cA]x| \
[cA]x [ec]x [^dB]x [B^F]x|
[B^F]x [^dB]x [^d4-B4-]| \
[^d2B2] =de [a=f]e de| \
[af]e de [af]x [fd]x| \
[fd]x [af]x [^ge]x [eB]x|
[eB]x [^ge]x [^g3e3]x| \
x2 f'=g' [c''a']g' f'g'| \
[c''2a'2] c'd' [g'e']d' c'd'| \
[g'2e'2] ^ac' [f'd']c' ^ac'|
[f'2d'2] fg [c'=a]g fg| \
[c'2a2] EF GF Ex| \
FE Dx ED Cx| \
DC B,x4x|
x4 DC ^A,x| \
x4 =A,E AA| \
ea ae' [a'2e'2a2] x2| \
x4 [B,4-^G,4-F,4-]|
[B,6^G,6F,6] x2| \
x2 [FB,^G,]x [FB,^G,]x [EB,^G,]x| \
[EB,^G,]x [^DB,^G,]x [^DB,^G,]x [=DB,^G,]x| \
[DB,^G,]x3 [D4-B,4-^G,4-]|
[D6B,6^G,6] x2| \
x2 [^GDB,]x [^GDB,]x [=GDB,]x| \
[GDB,]x [^FDB,]x [^FDB,]x [=FDB,]x| \
[FDB,]x [BFD]x [BFD]x [^AFD]x|
[^AFD]x [=A^FD]x [A=FD]x [^GFD]x| \
[^GFD]x [d^GF]x [d^GF]x [^c^GF]x| \
[^c^GF]x [=c^GF]x [c^GF]x [B^GF]x| \
[B^GF]x [fB^G]x [fB^G]x [eB^G]x|
[eB^G]x [^gdB]x [^gdB]x [=gdB]x| \
[gdB]x [bfd]x [bfd]x [^afd]x| \
[^afd]x [d'^gf]x [d'^gf]x [^c'^gf]x| \
[^c'^gf]x ^f^g [^c'^a]^g ^f^g|
[^c'^a]^g ^f^g [^c'^a]x [^a^f]x| \
[^a^f]x [^c'^a]x [^d'b]x [^g=f]x| \
[^gf]x [^d'b]x [^d'4-b4-]| \
[^d'2b2] ^f^g [^c'^a]x [^a^f]x|
[^a^f]x [^c'^a]x [^d'b]x [^g=f]x| \
[^gf]x [^d'b]x [^c'^a]x [^a^f]x| \
[^d'b]x [^g=f]x [^c'^a]x [^a^f]x| \
[^d'b]x [^g=f]x [^c'^a]x [^a^f]x|
[=g'^d']x [=c'=a]x [=f'=d']x [d'^a]x| \
[g'^d']x [c'=a]x [f'=d']x [d'^a]x| \
[f'd']x [d'^a]x [f'd']x [d'^a]x| \
[f'd']x [d'^a]x E4-|
E4 [f'd']x [d'^a]x| \
[f'd']x [d'^a]x E4-| \
E4 [f'd']x [d'^a]x| \
[f'd']x [d'^a]x E4-|
E8-| \
E8-| \
E8-| \
E8-|
E8-| \
E8-| \
E8-| \
E8|
x2 =AB [ec]B AB| \
[ec]B AB [ec]x [cA]x| \
[cA]x [ec]x [^dB]x [B^F]x| \
[B^F]x [^dB]x [^d4-B4-]|
[^d2B2] =de [a=f]e de| \
[af]e de [af]x [fd]x| \
[fd]x [af]x [^ge]x [eB]x| \
[eB]x [^ge]x [^g3e3]x|
x2 f'=g' [c''a']g' f'g'| \
[c''2a'2] c'd' [g'e']d' c'd'| \
[g'2e'2] ^ac' [f'd']c' ^ac'| \
[f'2d'2] fg [c'=a]g fg|
[c'2a2] EF GF Ex| \
FE Dx ED Cx| \
DC B,x4x| \
x4 DC ^A,x|
x4 =A,E AA| \
ea ae' [a'2e'2a2] 
V:2
% Piano
%%MIDI program 0
%%MIDI program 0
x4 
% Piano
%%MIDI program 0
%%MIDI program 0
A,,x E,x| \
A,,x E,,x A,,x E,x| \
A,,x E,,x A,,x E,x| \
A,,x E,,x A,,x E,x|
A,,x E,,x A,,x E,x| \
A,,x E,,x A,,x E,x| \
A,,x E,,x A,,x E,x| \
A,,x E,,x A,,x E,x|
A,,x E,,x A,,x E,x| \
A,,x E,,x A,,x E,x| \
A,,x3 [g4-c4-]| \
[g2c2] x2 [d4-G4-]|
[d2G2] x2 [c4-F4-]| \
[c2F2] x2 [G4-C4-]| \
[G2C2] B,,C, D,C, B,,x| \
C,B,, A,,x B,,A,, G,,x|
A,,G,, ^F,,x4x| \
x4 A,,G,, =F,,x| \
x4 [B,,4-E,,4-]| \
[B,,4E,,4] [B2E2] x2|
x2 D,,E,, F,,E,, D,,E,,| \
F,,E,, D,,E,, F,,x D,,x| \
D,,x4x E,x| \
E,x F,x F,x3|
x2 F,,G,, ^G,,=G,, F,,G,,| \
^G,,=G,, F,,G,, ^G,,x F,,x| \
F,,x4x =G,x| \
G,x ^G,x ^G,x3|
x6 ^A,x| \
^A,x B,x B,x3| \
x6 ^Cx| \
^Cx Dx Dx3|
x6 Ex| \
Ex4x =Gx| \
Gx4x ^Ax| \
^Ax4x ^cx|
^cx3 [^c^F]x [^c^F]x| \
[^c^F]x [^c^F]x [^c^F]x [^c^F]x| \
[^c^F]x [^c^F]x [^c^F]x [^c^F]x| \
[^c^F]x [^c^F]x [^c^F]x [^c^F]x|
[^c^F]x [^c^F]x [^c^F]x [^c^F]x| \
[^c^F]x [^c^F]x [^c^F]x [^c^F]x| \
[^c^F]x [^c^F]x [^c^F]x [^c^F]x| \
[^c^F]x [^c^F]x [^c^F]x [^c^F]x|
[^c^F]x [^c^F]x [^c^F]x [^c^F]x| \
[=f^A]x [f^A]x [f^A]x [f^A]x| \
[f^A]x [f^A]x [f^A]x [f^A]x| \
[f^A]x [f^A]x [f^A]x [f^A]x|
[f^A]x [f^A]x4x| \
x4 [f^A]x [f^A]x| \
[f^A]x [f^A]x4x| \
x4 [f^A]x [f^A]x|
[f^A]x [f^A]x3 ^Dx| \
=Dx ^Cx =Cx B,x| \
^A,x =A,x3 ^G,x| \
=G,x ^F,x =F,x E,x|
^D,x =D,x4x| \
^C,2 x6| \
=C,2 x6| \
B,,2 x6|
^A,,2 x6| \
x4 =A,,x E,x| \
A,,x E,,x A,,x E,x| \
A,,x E,,x A,,x E,x|
A,,x E,,x A,,x E,x| \
A,,x E,,x A,,x E,x| \
A,,x E,,x A,,x E,x| \
A,,x E,,x A,,x E,x|
A,,x E,,x A,,x E,x| \
A,,x3 [c'4-f4-]| \
[c'2f2] x2 [g4-c4-]| \
[g2c2] x2 [f4-^A4-]|
[f2^A2] x2 [c4-F4-]| \
[c2F2] E,F, G,F, E,x| \
F,E, D,x E,D, C,x| \
D,C, B,,x4x|
x4 D,C, ^A,,x| \
x4 [E,4-=A,,4-]| \
[E,4A,,4] [e2A2] x2| \
x2 D,,E,, F,,E,, D,,E,,|
F,,E,, D,,E,, F,,x D,,x| \
D,,x4x E,x| \
E,x F,x F,x3| \
x2 F,,G,, ^G,,=G,, F,,G,,|
^G,,=G,, F,,G,, ^G,,x F,,x| \
F,,x4x =G,x| \
G,x ^G,x ^G,x3| \
x6 ^A,x|
^A,x B,x B,x3| \
x6 ^Cx| \
^Cx Dx Dx3| \
x6 Ex|
Ex4x =Gx| \
Gx4x ^Ax| \
^Ax4x ^cx| \
^cx3 [^c^F]x [^c^F]x|
[^c^F]x [^c^F]x [^c^F]x [^c^F]x| \
[^c^F]x [^c^F]x [^c^F]x [^c^F]x| \
[^c^F]x [^c^F]x [^c^F]x [^c^F]x| \
[^c^F]x [^c^F]x [^c^F]x [^c^F]x|
[^c^F]x [^c^F]x [^c^F]x [^c^F]x| \
[^c^F]x [^c^F]x [^c^F]x [^c^F]x| \
[^c^F]x [^c^F]x [^c^F]x [^c^F]x| \
[^c^F]x [^c^F]x [^c^F]x [^c^F]x|
[=f^A]x [f^A]x [f^A]x [f^A]x| \
[f^A]x [f^A]x [f^A]x [f^A]x| \
[f^A]x [f^A]x [f^A]x [f^A]x| \
[f^A]x [f^A]x4x|
x4 [f^A]x [f^A]x| \
[f^A]x [f^A]x4x| \
x4 [f^A]x [f^A]x| \
[f^A]x [f^A]x3 ^Dx|
=Dx ^Cx =Cx B,x| \
^A,x =A,x3 ^G,x| \
=G,x ^F,x =F,x E,x| \
^D,x =D,x4x|
^C,2 x6| \
=C,2 x6| \
B,,2 x6| \
^A,,2 x6|
x4 =A,,x E,x| \
A,,x E,,x A,,x E,x| \
A,,x E,,x A,,x E,x| \
A,,x E,,x A,,x E,x|
A,,x E,,x A,,x E,x| \
A,,x E,,x A,,x E,x| \
A,,x E,,x A,,x E,x| \
A,,x E,,x A,,x E,x|
A,,x3 [c'4-f4-]| \
[c'2f2] x2 [g4-c4-]| \
[g2c2] x2 [f4-^A4-]| \
[f2^A2] x2 [c4-F4-]|
[c2F2] E,F, G,F, E,x| \
F,E, D,x E,D, C,x| \
D,C, B,,x4x| \
x4 D,C, ^A,,x|
x4 [E,4-=A,,4-]| \
[E,4A,,4] [e2A2] 
