Error: Time=6656 Track=0 Note terminated when not on - pitch 68
Error: Time=6827 Track=0 Note terminated when not on - pitch 69
Error: Time=6912 Track=0 Note terminated when not on - pitch 71
Error: Time=25344 Track=0 Note terminated when not on - pitch 66
Error: Time=73728 Track=0 Note terminated when not on - pitch 73
Error: Time=122880 Track=0 Note terminated when not on - pitch 74
Error: Time=122880 Track=0 Note terminated when not on - pitch 76
Error: Time=123648 Track=0 Note terminated when not on - pitch 72
Error: Time=252928 Track=0 Note terminated when not on - pitch 62
Error: Time=262144 Track=0 Note terminated when not on - pitch 81
Error: Time=307456 Track=0 Note terminated when not on - pitch 65
Error: Time=307541 Track=0 Note terminated when not on - pitch 64
Error in MIDI file - notes still on at end of track!
Error: Time=200704 Track=1 Note terminated when not on - pitch 57
Error in MIDI file - notes still on at end of track!
X: 1
T: from midi_transposed/C_haydn_33_3.mid
M: 3/4
L: 1/8
Q:1/4=122
