Error: Time=2816 Track=0 Note terminated when not on - pitch 84
Error: Time=3840 Track=0 Note terminated when not on - pitch 79
Error: Time=4864 Track=0 Note terminated when not on - pitch 76
Error: Time=11264 Track=0 Note terminated when not on - pitch 81
Error: Time=13653 Track=0 Note terminated when not on - pitch 77
Error: Time=29184 Track=0 Note terminated when not on - pitch 83
Error: Time=78592 Track=0 Note terminated when not on - pitch 88
Error: Time=81408 Track=0 Note terminated when not on - pitch 82
Error: Time=87040 Track=0 Note terminated when not on - pitch 72
Error: Time=87040 Track=0 Note terminated when not on - pitch 74
Error: Time=115371 Track=0 Note terminated when not on - pitch 86
Error in MIDI file - notes still on at end of track!
Error in MIDI file - notes still on at end of track!
X: 1
T: from midi_transposed/C_haydn_8_1.mid
M: 2/4
L: 1/16
Q:1/4=90
