Error: Time=9728 Track=0 Note terminated when not on - pitch 64
Error: Time=9899 Track=0 Note terminated when not on - pitch 62
Error: Time=23040 Track=0 Note terminated when not on - pitch 67
Error: Time=23211 Track=0 Note terminated when not on - pitch 65
Error: Time=30720 Track=0 Note terminated when not on - pitch 69
Error: Time=31744 Track=0 Note terminated when not on - pitch 71
Error: Time=31744 Track=0 Note terminated when not on - pitch 72
Error: Time=32768 Track=0 Note terminated when not on - pitch 74
Error: Time=36864 Track=0 Note terminated when not on - pitch 79
Error: Time=36864 Track=0 Note terminated when not on - pitch 78
Error: Time=153088 Track=0 Note terminated when not on - pitch 76
Error: Time=202752 Track=0 Note terminated when not on - pitch 60
Error: Time=208896 Track=0 Note terminated when not on - pitch 77
Error in MIDI file - notes still on at end of track!
Error in MIDI file - notes still on at end of track!
X: 1
T: from midi_transposed/C_haydn_9_1.mid
M: 4/4
L: 1/8
Q:1/4=141
