Error: Time=1792 Track=0 Note terminated when not on - pitch 72
Error: Time=1792 Track=0 Note terminated when not on - pitch 69
Error: Time=4864 Track=0 Note terminated when not on - pitch 74
Error: Time=4864 Track=0 Note terminated when not on - pitch 71
Error: Time=13824 Track=0 Note terminated when not on - pitch 62
Error: Time=13995 Track=0 Note terminated when not on - pitch 60
Error: Time=14080 Track=0 Note terminated when not on - pitch 59
Error: Time=14080 Track=0 Note terminated when not on - pitch 57
Error: Time=16896 Track=0 Note terminated when not on - pitch 64
Error: Time=36608 Track=0 Note terminated when not on - pitch 58
Error: Time=42752 Track=0 Note terminated when not on - pitch 67
Error: Time=42752 Track=0 Note terminated when not on - pitch 65
Error in MIDI file - notes still on at end of track!
Error in MIDI file - notes still on at end of track!
X: 1
T: from midi_transposed/C_haydn_33_2.mid
M: 3/4
L: 1/8
Q:1/4=37
