Error: Time=9728 Track=0 Note terminated when not on - pitch 77
Error: Time=9899 Track=0 Note terminated when not on - pitch 79
Error: Time=43776 Track=0 Note terminated when not on - pitch 76
Error: Time=291584 Track=0 Note terminated when not on - pitch 80
Error: Time=291584 Track=0 Note terminated when not on - pitch 69
Error: Time=312832 Track=0 Note terminated when not on - pitch 81
Error: Time=313003 Track=0 Note terminated when not on - pitch 83
Error: Time=536064 Track=0 Note terminated when not on - pitch 65
Error: Time=536235 Track=0 Note terminated when not on - pitch 67
Error in MIDI file - notes still on at end of track!
Error: Time=581632 Track=1 Note terminated when not on - pitch 55
Error in MIDI file - notes still on at end of track!
X: 1
T: from midi_transposed/C_haydn_43_3.mid
M: 2/4
L: 1/16
Q:1/4=135
