Error: Time=11264 Track=0 Note terminated when not on - pitch 95
Error: Time=11520 Track=0 Note terminated when not on - pitch 93
Error: Time=11605 Track=0 Note terminated when not on - pitch 92
Error: Time=11776 Track=0 Note terminated when not on - pitch 89
Error: Time=11947 Track=0 Note terminated when not on - pitch 88
Error: Time=12032 Track=0 Note terminated when not on - pitch 86
Error: Time=12032 Track=0 Note terminated when not on - pitch 84
Error: Time=12288 Track=0 Note terminated when not on - pitch 83
Error: Time=12288 Track=0 Note terminated when not on - pitch 81
Error: Time=12544 Track=0 Note terminated when not on - pitch 80
Error: Time=12629 Track=0 Note terminated when not on - pitch 77
Error: Time=12800 Track=0 Note terminated when not on - pitch 76
Error: Time=12971 Track=0 Note terminated when not on - pitch 74
Error: Time=13056 Track=0 Note terminated when not on - pitch 72
Error: Time=13056 Track=0 Note terminated when not on - pitch 71
Error: Time=13312 Track=0 Note terminated when not on - pitch 69
Error: Time=13312 Track=0 Note terminated when not on - pitch 68
Error: Time=13568 Track=0 Note terminated when not on - pitch 65
Error: Time=13653 Track=0 Note terminated when not on - pitch 64
Error: Time=13824 Track=0 Note terminated when not on - pitch 62
Error: Time=13995 Track=0 Note terminated when not on - pitch 60
Error: Time=14080 Track=0 Note terminated when not on - pitch 59
Error: Time=14080 Track=0 Note terminated when not on - pitch 57
Error: Time=14336 Track=0 Note terminated when not on - pitch 56
Error: Time=14336 Track=0 Note terminated when not on - pitch 53
Error: Time=14592 Track=0 Note terminated when not on - pitch 52
Error: Time=14677 Track=0 Note terminated when not on - pitch 50
Error: Time=14848 Track=0 Note terminated when not on - pitch 48
Error: Time=15019 Track=0 Note terminated when not on - pitch 47
Error: Time=19456 Track=0 Note terminated when not on - pitch 98
Error: Time=19712 Track=0 Note terminated when not on - pitch 96
Error: Time=24576 Track=0 Note terminated when not on - pitch 46
Error: Time=25088 Track=0 Note terminated when not on - pitch 49
Error: Time=25344 Track=0 Note terminated when not on - pitch 51
Error: Time=25600 Track=0 Note terminated when not on - pitch 54
Error: Time=25856 Track=0 Note terminated when not on - pitch 55
Error: Time=26283 Track=0 Note terminated when not on - pitch 58
Error: Time=26624 Track=0 Note terminated when not on - pitch 61
Error: Time=26880 Track=0 Note terminated when not on - pitch 63
Error: Time=27307 Track=0 Note terminated when not on - pitch 66
Error: Time=27392 Track=0 Note terminated when not on - pitch 67
Error: Time=380416 Track=0 Note terminated when not on - pitch 90
Error: Time=380672 Track=0 Note terminated when not on - pitch 85
Error: Time=381269 Track=0 Note terminated when not on - pitch 78
Error: Time=381696 Track=0 Note terminated when not on - pitch 73
Error: Time=388352 Track=0 Note terminated when not on - pitch 97
Error in MIDI file - notes still on at end of track!
Error: Time=197632 Track=1 Note terminated when not on - pitch 79
Error in MIDI file - notes still on at end of track!
Error: Time=2048 Track=2 Note terminated when not on - pitch 36
Error: Time=2048 Track=2 Note terminated when not on - pitch 40
Error: Time=2304 Track=2 Note terminated when not on - pitch 45
Error: Time=5888 Track=2 Note terminated when not on - pitch 44
Error: Time=6144 Track=2 Note terminated when not on - pitch 41
Error: Time=6400 Track=2 Note terminated when not on - pitch 38
Error: Time=6656 Track=2 Note terminated when not on - pitch 35
Error: Time=24576 Track=2 Note terminated when not on - pitch 37
Error: Time=24917 Track=2 Note terminated when not on - pitch 39
Error: Time=25344 Track=2 Note terminated when not on - pitch 42
Error: Time=25344 Track=2 Note terminated when not on - pitch 43
Error in MIDI file - notes still on at end of track!
Error in MIDI file - notes still on at end of track!
X: 1
T: from midi_transposed/C_liz_et1.mid
M: 6/4
L: 1/8
Q:1/4=44
