Error: Time=36864 Track=0 Note terminated when not on - pitch 45
Error: Time=36864 Track=0 Note terminated when not on - pitch 51
Error: Time=36864 Track=0 Note terminated when not on - pitch 48
Error: Time=37120 Track=0 Note terminated when not on - pitch 57
Error: Time=37376 Track=0 Note terminated when not on - pitch 63
Error: Time=37376 Track=0 Note terminated when not on - pitch 60
Error: Time=37547 Track=0 Note terminated when not on - pitch 69
Error: Time=37632 Track=0 Note terminated when not on - pitch 75
Error: Time=37632 Track=0 Note terminated when not on - pitch 72
Error: Time=37888 Track=0 Note terminated when not on - pitch 81
Error: Time=37888 Track=0 Note terminated when not on - pitch 81
Error: Time=38144 Track=0 Note terminated when not on - pitch 87
Error: Time=38144 Track=0 Note terminated when not on - pitch 84
Error: Time=38229 Track=0 Note terminated when not on - pitch 93
Error: Time=38912 Track=0 Note terminated when not on - pitch 69
Error: Time=39936 Track=0 Note terminated when not on - pitch 57
Error: Time=48128 Track=0 Note terminated when not on - pitch 40
Error: Time=48128 Track=0 Note terminated when not on - pitch 47
Error: Time=48128 Track=0 Note terminated when not on - pitch 44
Error: Time=48384 Track=0 Note terminated when not on - pitch 52
Error: Time=48640 Track=0 Note terminated when not on - pitch 59
Error: Time=48640 Track=0 Note terminated when not on - pitch 56
Error: Time=48811 Track=0 Note terminated when not on - pitch 64
Error: Time=48896 Track=0 Note terminated when not on - pitch 71
Error: Time=48896 Track=0 Note terminated when not on - pitch 68
Error: Time=49152 Track=0 Note terminated when not on - pitch 76
Error: Time=49152 Track=0 Note terminated when not on - pitch 76
Error: Time=49408 Track=0 Note terminated when not on - pitch 83
Error: Time=49408 Track=0 Note terminated when not on - pitch 80
Error: Time=49493 Track=0 Note terminated when not on - pitch 88
Error: Time=50176 Track=0 Note terminated when not on - pitch 64
Error: Time=51200 Track=0 Note terminated when not on - pitch 52
Error: Time=196608 Track=0 Note terminated when not on - pitch 61
Error: Time=196608 Track=0 Note terminated when not on - pitch 62
Error: Time=198656 Track=0 Note terminated when not on - pitch 55
Error: Time=198656 Track=0 Note terminated when not on - pitch 54
Error: Time=198912 Track=0 Note terminated when not on - pitch 53
Error: Time=201045 Track=0 Note terminated when not on - pitch 65
Error: Time=205056 Track=0 Note terminated when not on - pitch 66
Error: Time=205141 Track=0 Note terminated when not on - pitch 67
Error: Time=206848 Track=0 Note terminated when not on - pitch 58
Error: Time=208896 Track=0 Note terminated when not on - pitch 70
Error: Time=209408 Track=0 Note terminated when not on - pitch 73
Error: Time=209579 Track=0 Note terminated when not on - pitch 74
Error: Time=209920 Track=0 Note terminated when not on - pitch 77
Error: Time=209920 Track=0 Note terminated when not on - pitch 78
Error: Time=210176 Track=0 Note terminated when not on - pitch 79
Error: Time=216747 Track=0 Note terminated when not on - pitch 82
Error: Time=217088 Track=0 Note terminated when not on - pitch 85
Error: Time=217088 Track=0 Note terminated when not on - pitch 86
Error: Time=217600 Track=0 Note terminated when not on - pitch 89
Error: Time=217771 Track=0 Note terminated when not on - pitch 90
Error: Time=217856 Track=0 Note terminated when not on - pitch 91
Error: Time=217856 Track=0 Note terminated when not on - pitch 92
Error: Time=218112 Track=0 Note terminated when not on - pitch 94
Error: Time=338688 Track=0 Note terminated when not on - pitch 97
Error: Time=371712 Track=0 Note terminated when not on - pitch 96
Error: Time=372395 Track=0 Note terminated when not on - pitch 95
Error: Time=507904 Track=0 Note terminated when not on - pitch 70
Error: Time=508928 Track=0 Note terminated when not on - pitch 63
Error: Time=533504 Track=0 Note terminated when not on - pitch 78
Error: Time=533504 Track=0 Note terminated when not on - pitch 75
Error: Time=537600 Track=0 Note terminated when not on - pitch 49
Error: Time=561152 Track=0 Note terminated when not on - pitch 68
Error: Time=561152 Track=0 Note terminated when not on - pitch 59
Error: Time=562176 Track=0 Note terminated when not on - pitch 73
Error: Time=562176 Track=0 Note terminated when not on - pitch 66
Error: Time=586496 Track=0 Note terminated when not on - pitch 85
Error: Time=592896 Track=0 Note terminated when not on - pitch 95
Error: Time=592896 Track=0 Note terminated when not on - pitch 92
Error: Time=592896 Track=0 Note terminated when not on - pitch 83
Error: Time=599040 Track=0 Note terminated when not on - pitch 80
Error: Time=599040 Track=0 Note terminated when not on - pitch 88
Error: Time=1743189 Track=0 Note terminated when not on - pitch 42
Error: Time=1747285 Track=0 Note terminated when not on - pitch 46
Error in MIDI file - notes still on at end of track!
Error: Time=196608 Track=1 Note terminated when not on - pitch 50
Error: Time=196949 Track=1 Note terminated when not on - pitch 43
Error: Time=198912 Track=1 Note terminated when not on - pitch 41
Error: Time=198997 Track=1 Note terminated when not on - pitch 31
Error: Time=203093 Track=1 Note terminated when not on - pitch 34
Error: Time=207189 Track=1 Note terminated when not on - pitch 35
Error: Time=207189 Track=1 Note terminated when not on - pitch 38
Error: Time=227072 Track=1 Note terminated when not on - pitch 39
Error: Time=227328 Track=1 Note terminated when not on - pitch 37
Error: Time=227328 Track=1 Note terminated when not on - pitch 36
Error: Time=507904 Track=1 Note terminated when not on - pitch 55
Error: Time=507904 Track=1 Note terminated when not on - pitch 61
Error: Time=508928 Track=1 Note terminated when not on - pitch 47
Error: Time=574464 Track=1 Note terminated when not on - pitch 30
Error: Time=602624 Track=1 Note terminated when not on - pitch 33
Error: Time=605696 Track=1 Note terminated when not on - pitch 32
Error: Time=609280 Track=1 Note terminated when not on - pitch 27
Error: Time=750848 Track=1 Note terminated when not on - pitch 28
Error: Time=806144 Track=1 Note terminated when not on - pitch 24
Error: Time=1809408 Track=1 Note terminated when not on - pitch 29
Error in MIDI file - notes still on at end of track!
Error: Time=12288 Track=2 Note terminated when not on - pitch 39
Error: Time=14336 Track=2 Note terminated when not on - pitch 34
Error: Time=28672 Track=2 Note terminated when not on - pitch 37
Error: Time=127744 Track=2 Note terminated when not on - pitch 25
Error: Time=128000 Track=2 Note terminated when not on - pitch 26
Error: Time=138240 Track=2 Note terminated when not on - pitch 35
Error: Time=138240 Track=2 Note terminated when not on - pitch 32
Error: Time=138240 Track=2 Note terminated when not on - pitch 26
Error: Time=138240 Track=2 Note terminated when not on - pitch 29
Error: Time=138240 Track=2 Note terminated when not on - pitch 38
Error: Time=142336 Track=2 Note terminated when not on - pitch 28
Error: Time=142336 Track=2 Note terminated when not on - pitch 40
Error: Time=143104 Track=2 Note terminated when not on - pitch 31
Error in MIDI file - notes still on at end of track!
Error in MIDI file - notes still on at end of track!
X: 1
T: from midi_transposed/C_liz_donjuan.mid
M: 4/4
L: 1/8
Q:1/4=162
