Error: Time=26624 Track=0 Note terminated when not on - pitch 57
Error: Time=27648 Track=0 Note terminated when not on - pitch 69
Error: Time=86784 Track=0 Note terminated when not on - pitch 64
Error: Time=87040 Track=0 Note terminated when not on - pitch 66
Error: Time=147712 Track=0 Note terminated when not on - pitch 78
Error: Time=147797 Track=0 Note terminated when not on - pitch 79
Error: Time=553728 Track=0 Note terminated when not on - pitch 62
Error: Time=631552 Track=0 Note terminated when not on - pitch 44
Error: Time=631552 Track=0 Note terminated when not on - pitch 52
Error: Time=647936 Track=0 Note terminated when not on - pitch 56
Error: Time=738304 Track=0 Note terminated when not on - pitch 59
Error: Time=798976 Track=0 Note terminated when not on - pitch 71
Error: Time=799061 Track=0 Note terminated when not on - pitch 72
Error: Time=885504 Track=0 Note terminated when not on - pitch 48
Error: Time=893696 Track=0 Note terminated when not on - pitch 60
Error: Time=895744 Track=0 Note terminated when not on - pitch 68
Error: Time=1024512 Track=0 Note terminated when not on - pitch 73
Error: Time=1024683 Track=0 Note terminated when not on - pitch 74
Error: Time=1024768 Track=0 Note terminated when not on - pitch 75
Error: Time=1024768 Track=0 Note terminated when not on - pitch 76
Error in MIDI file - notes still on at end of track!
Error in MIDI file - notes still on at end of track!
X: 1
T: from midi_transposed/C_mond_3.mid
M: 4/4
L: 1/8
Q:1/4=167
