Error: Time=49152 Track=0 Note terminated when not on - pitch 78
Error: Time=49408 Track=0 Note terminated when not on - pitch 76
Error: Time=49664 Track=0 Note terminated when not on - pitch 75
Error: Time=50688 Track=0 Note terminated when not on - pitch 79
Error: Time=51200 Track=0 Note terminated when not on - pitch 81
Error: Time=75776 Track=0 Note terminated when not on - pitch 82
Error: Time=76032 Track=0 Note terminated when not on - pitch 80
Error: Time=76544 Track=0 Note terminated when not on - pitch 77
Error: Time=80896 Track=0 Note terminated when not on - pitch 89
Error: Time=81152 Track=0 Note terminated when not on - pitch 88
Error: Time=81408 Track=0 Note terminated when not on - pitch 86
Error: Time=81664 Track=0 Note terminated when not on - pitch 84
Error: Time=104960 Track=0 Note terminated when not on - pitch 72
Error: Time=105216 Track=0 Note terminated when not on - pitch 67
Error: Time=137472 Track=0 Note terminated when not on - pitch 74
Error: Time=137984 Track=0 Note terminated when not on - pitch 70
Error in MIDI file - notes still on at end of track!
Error in MIDI file - notes still on at end of track!
X: 1
T: from midi_transposed/C_muss_3.mid
M: 5/4
L: 1/8
Q:1/4=93
