Error: Time=49920 Track=0 Note terminated when not on - pitch 86
Error: Time=50944 Track=0 Note terminated when not on - pitch 84
Error: Time=51968 Track=0 Note terminated when not on - pitch 83
Error: Time=52992 Track=0 Note terminated when not on - pitch 81
Error: Time=54016 Track=0 Note terminated when not on - pitch 74
Error: Time=55040 Track=0 Note terminated when not on - pitch 72
Error: Time=56064 Track=0 Note terminated when not on - pitch 71
Error: Time=57088 Track=0 Note terminated when not on - pitch 69
Error: Time=58112 Track=0 Note terminated when not on - pitch 62
Error: Time=59136 Track=0 Note terminated when not on - pitch 60
Error: Time=60160 Track=0 Note terminated when not on - pitch 59
Error: Time=61184 Track=0 Note terminated when not on - pitch 57
Error: Time=70400 Track=0 Note terminated when not on - pitch 65
Error: Time=70400 Track=0 Note terminated when not on - pitch 77
Error: Time=78592 Track=0 Note terminated when not on - pitch 78
Error: Time=78592 Track=0 Note terminated when not on - pitch 66
Error in MIDI file - notes still on at end of track!
Error: Time=294229 Track=1 Note terminated when not on - pitch 40
Error in MIDI file - notes still on at end of track!
X: 1
T: from midi_transposed/C_muss_8.mid
M: 2/4
L: 1/16
Q:1/4=167
