Error: Time=146944 Track=0 Note terminated when not on - pitch 72
Error: Time=150784 Track=0 Note terminated when not on - pitch 71
Error: Time=151040 Track=0 Note terminated when not on - pitch 74
Error: Time=151552 Track=0 Note terminated when not on - pitch 77
Error: Time=151808 Track=0 Note terminated when not on - pitch 76
Error: Time=152064 Track=0 Note terminated when not on - pitch 79
Error: Time=152576 Track=0 Note terminated when not on - pitch 80
Error: Time=152832 Track=0 Note terminated when not on - pitch 81
Error: Time=154624 Track=0 Note terminated when not on - pitch 85
Error: Time=157184 Track=0 Note terminated when not on - pitch 84
Error: Time=157696 Track=0 Note terminated when not on - pitch 83
Error: Time=158208 Track=0 Note terminated when not on - pitch 82
Error: Time=162816 Track=0 Note terminated when not on - pitch 92
Error: Time=163072 Track=0 Note terminated when not on - pitch 89
Error: Time=163328 Track=0 Note terminated when not on - pitch 87
Error: Time=165376 Track=0 Note terminated when not on - pitch 75
Error: Time=165632 Track=0 Note terminated when not on - pitch 73
Error: Time=185600 Track=0 Note terminated when not on - pitch 88
Error: Time=185856 Track=0 Note terminated when not on - pitch 91
Error: Time=197632 Track=0 Note terminated when not on - pitch 78
Error: Time=202240 Track=0 Note terminated when not on - pitch 86
Error: Time=285696 Track=0 Note terminated when not on - pitch 69
Error: Time=285696 Track=0 Note terminated when not on - pitch 65
Error: Time=288512 Track=0 Note terminated when not on - pitch 70
Error: Time=294229 Track=0 Note terminated when not on - pitch 68
Error: Time=301824 Track=0 Note terminated when not on - pitch 93
Error: Time=416768 Track=0 Note terminated when not on - pitch 90
Error: Time=424960 Track=0 Note terminated when not on - pitch 67
Error: Time=439296 Track=0 Note terminated when not on - pitch 95
Error in MIDI file - notes still on at end of track!
Error: Time=197632 Track=1 Note terminated when not on - pitch 59
Error: Time=197888 Track=1 Note terminated when not on - pitch 61
Error: Time=198144 Track=1 Note terminated when not on - pitch 62
Error: Time=198400 Track=1 Note terminated when not on - pitch 63
Error: Time=206336 Track=1 Note terminated when not on - pitch 64
Error: Time=239872 Track=1 Note terminated when not on - pitch 66
Error in MIDI file - notes still on at end of track!
X: 1
T: from midi_transposed/C_muss_7.mid
M: 5/4
L: 1/8
Q:1/4=100
