Error: Time=8960 Track=0 Note terminated when not on - pitch 64
Error: Time=11008 Track=0 Note terminated when not on - pitch 70
Error: Time=11008 Track=0 Note terminated when not on - pitch 71
Error: Time=62208 Track=0 Note terminated when not on - pitch 66
Error: Time=62208 Track=0 Note terminated when not on - pitch 67
Error: Time=62464 Track=0 Note terminated when not on - pitch 63
Error: Time=72448 Track=0 Note terminated when not on - pitch 87
Error: Time=73472 Track=0 Note terminated when not on - pitch 89
Error: Time=76544 Track=0 Note terminated when not on - pitch 86
Error: Time=78592 Track=0 Note terminated when not on - pitch 84
Error: Time=79616 Track=0 Note terminated when not on - pitch 85
Error: Time=82688 Track=0 Note terminated when not on - pitch 79
Error: Time=83712 Track=0 Note terminated when not on - pitch 80
Error: Time=109312 Track=0 Note terminated when not on - pitch 82
Error in MIDI file - notes still on at end of track!
Error: Time=8960 Track=1 Note terminated when not on - pitch 52
Error: Time=11008 Track=1 Note terminated when not on - pitch 58
Error: Time=11008 Track=1 Note terminated when not on - pitch 59
Error: Time=62208 Track=1 Note terminated when not on - pitch 54
Error: Time=62208 Track=1 Note terminated when not on - pitch 55
Error: Time=62464 Track=1 Note terminated when not on - pitch 51
Error: Time=218880 Track=1 Note terminated when not on - pitch 46
Error in MIDI file - notes still on at end of track!
X: 1
T: from midi_transposed/C_muss_6.mid
M: 8/4
L: 1/8
Q:1/4=160
