Error: Time=64512 Track=0 Note terminated when not on - pitch 79
Error: Time=88576 Track=0 Note terminated when not on - pitch 81
Error: Time=88747 Track=0 Note terminated when not on - pitch 83
Error: Time=108544 Track=0 Note terminated when not on - pitch 72
Error: Time=108544 Track=0 Note terminated when not on - pitch 74
Error: Time=109312 Track=0 Note terminated when not on - pitch 71
Error: Time=144384 Track=0 Note terminated when not on - pitch 75
Error: Time=155648 Track=0 Note terminated when not on - pitch 69
Error: Time=156416 Track=0 Note terminated when not on - pitch 67
Error: Time=525056 Track=0 Note terminated when not on - pitch 78
Error: Time=533248 Track=0 Note terminated when not on - pitch 80
Error: Time=541440 Track=0 Note terminated when not on - pitch 73
Error: Time=571392 Track=0 Note terminated when not on - pitch 77
Error: Time=572160 Track=0 Note terminated when not on - pitch 76
Error: Time=759808 Track=0 Note terminated when not on - pitch 65
Error: Time=760576 Track=0 Note terminated when not on - pitch 64
Error: Time=873472 Track=0 Note terminated when not on - pitch 88
Error: Time=873472 Track=0 Note terminated when not on - pitch 89
Error: Time=874496 Track=0 Note terminated when not on - pitch 84
Error: Time=874496 Track=0 Note terminated when not on - pitch 86
Error in MIDI file - notes still on at end of track!
Error in MIDI file - notes still on at end of track!
X: 1
T: from midi_transposed/C_mz_333_1.mid
M: 4/4
L: 1/8
Q:1/4=129
