Error: Time=128000 Track=0 Note terminated when not on - pitch 71
Error: Time=129365 Track=0 Note terminated when not on - pitch 79
Error: Time=129707 Track=0 Note terminated when not on - pitch 81
Error: Time=129792 Track=0 Note terminated when not on - pitch 78
Error: Time=130048 Track=0 Note terminated when not on - pitch 72
Error: Time=131755 Track=0 Note terminated when not on - pitch 83
Error: Time=131840 Track=0 Note terminated when not on - pitch 80
Error: Time=137728 Track=0 Note terminated when not on - pitch 84
Error: Time=138240 Track=0 Note terminated when not on - pitch 88
Error: Time=144128 Track=0 Note terminated when not on - pitch 67
Error: Time=144384 Track=0 Note terminated when not on - pitch 69
Error: Time=146432 Track=0 Note terminated when not on - pitch 69
Error: Time=191488 Track=0 Note terminated when not on - pitch 77
Error: Time=191744 Track=0 Note terminated when not on - pitch 75
Error: Time=207872 Track=0 Note terminated when not on - pitch 68
Error: Time=208128 Track=0 Note terminated when not on - pitch 70
Error: Time=208555 Track=0 Note terminated when not on - pitch 73
Error: Time=208640 Track=0 Note terminated when not on - pitch 74
Error: Time=208896 Track=0 Note terminated when not on - pitch 76
Error: Time=209664 Track=0 Note terminated when not on - pitch 82
Error: Time=291840 Track=0 Note terminated when not on - pitch 64
Error: Time=293888 Track=0 Note terminated when not on - pitch 65
Error: Time=308224 Track=0 Note terminated when not on - pitch 76
Error: Time=310272 Track=0 Note terminated when not on - pitch 74
Error in MIDI file - notes still on at end of track!
Error in MIDI file - notes still on at end of track!
X: 1
T: from midi_transposed/C_mz_332_2.mid
M: 4/4
L: 1/8
Q:1/4=75
