Error: Time=2816 Track=0 Note terminated when not on - pitch 47
Error: Time=6912 Track=0 Note terminated when not on - pitch 52
Error: Time=34560 Track=0 Note terminated when not on - pitch 69
Error: Time=34560 Track=0 Note terminated when not on - pitch 64
Error: Time=34560 Track=0 Note terminated when not on - pitch 57
Error: Time=35584 Track=0 Note terminated when not on - pitch 49
Error: Time=35584 Track=0 Note terminated when not on - pitch 50
Error: Time=38656 Track=0 Note terminated when not on - pitch 72
Error: Time=38656 Track=0 Note terminated when not on - pitch 65
Error: Time=38656 Track=0 Note terminated when not on - pitch 60
Error: Time=39680 Track=0 Note terminated when not on - pitch 59
Error: Time=39936 Track=0 Note terminated when not on - pitch 62
Error: Time=41728 Track=0 Note terminated when not on - pitch 67
Error: Time=41984 Track=0 Note terminated when not on - pitch 75
Error: Time=49408 Track=0 Note terminated when not on - pitch 84
Error: Time=49493 Track=0 Note terminated when not on - pitch 83
Error: Time=49664 Track=0 Note terminated when not on - pitch 81
Error: Time=49835 Track=0 Note terminated when not on - pitch 79
Error: Time=49920 Track=0 Note terminated when not on - pitch 78
Error: Time=49920 Track=0 Note terminated when not on - pitch 76
Error: Time=51200 Track=0 Note terminated when not on - pitch 74
Error: Time=51456 Track=0 Note terminated when not on - pitch 71
Error: Time=51883 Track=0 Note terminated when not on - pitch 66
Error: Time=52224 Track=0 Note terminated when not on - pitch 63
Error: Time=53760 Track=0 Note terminated when not on - pitch 55
Error: Time=53931 Track=0 Note terminated when not on - pitch 54
Error: Time=54016 Track=0 Note terminated when not on - pitch 53
Error: Time=54272 Track=0 Note terminated when not on - pitch 51
Error: Time=55296 Track=0 Note terminated when not on - pitch 58
Error: Time=55808 Track=0 Note terminated when not on - pitch 48
Error: Time=56832 Track=0 Note terminated when not on - pitch 46
Error: Time=57856 Track=0 Note terminated when not on - pitch 45
Error: Time=58027 Track=0 Note terminated when not on - pitch 43
Error: Time=58112 Track=0 Note terminated when not on - pitch 42
Error: Time=58112 Track=0 Note terminated when not on - pitch 41
Error: Time=99072 Track=0 Note terminated when not on - pitch 56
Error: Time=99072 Track=0 Note terminated when not on - pitch 44
Error: Time=132096 Track=0 Note terminated when not on - pitch 70
Error: Time=144384 Track=0 Note terminated when not on - pitch 61
Error in MIDI file - notes still on at end of track!
Error: Time=2816 Track=1 Note terminated when not on - pitch 35
Error: Time=2816 Track=1 Note terminated when not on - pitch 23
Error: Time=6912 Track=1 Note terminated when not on - pitch 40
Error: Time=6912 Track=1 Note terminated when not on - pitch 28
Error: Time=35584 Track=1 Note terminated when not on - pitch 37
Error: Time=35584 Track=1 Note terminated when not on - pitch 38
Error: Time=54272 Track=1 Note terminated when not on - pitch 39
Error: Time=55808 Track=1 Note terminated when not on - pitch 36
Error: Time=56832 Track=1 Note terminated when not on - pitch 34
Error: Time=57856 Track=1 Note terminated when not on - pitch 33
Error: Time=58027 Track=1 Note terminated when not on - pitch 31
Error: Time=58112 Track=1 Note terminated when not on - pitch 30
Error: Time=58112 Track=1 Note terminated when not on - pitch 29
Error: Time=149248 Track=1 Note terminated when not on - pitch 57
Error in MIDI file - notes still on at end of track!
Error: Time=144128 Track=2 Note terminated when not on - pitch 52
Error: Time=144128 Track=2 Note terminated when not on - pitch 40
Error: Time=144384 Track=2 Note terminated when not on - pitch 39
Error: Time=144384 Track=2 Note terminated when not on - pitch 51
Error in MIDI file - notes still on at end of track!
X: 1
T: from midi_transposed/C_rac_op33_8.mid
M: 4/4
L: 1/8
Q:1/4=64
