Error: Time=107861 Track=0 Note terminated when not on - pitch 67
Error: Time=108288 Track=0 Note terminated when not on - pitch 72
Error: Time=108800 Track=0 Note terminated when not on - pitch 73
Error: Time=108800 Track=0 Note terminated when not on - pitch 70
Error: Time=109056 Track=0 Note terminated when not on - pitch 77
Error: Time=109312 Track=0 Note terminated when not on - pitch 78
Error: Time=109824 Track=0 Note terminated when not on - pitch 82
Error: Time=110080 Track=0 Note terminated when not on - pitch 84
Error: Time=111616 Track=0 Note terminated when not on - pitch 75
Error: Time=111957 Track=0 Note terminated when not on - pitch 71
Error: Time=112384 Track=0 Note terminated when not on - pitch 76
Error: Time=113152 Track=0 Note terminated when not on - pitch 81
Error: Time=115371 Track=0 Note terminated when not on - pitch 79
Error: Time=115712 Track=0 Note terminated when not on - pitch 80
Error: Time=131840 Track=0 Note terminated when not on - pitch 57
Error: Time=132096 Track=0 Note terminated when not on - pitch 52
Error: Time=132096 Track=0 Note terminated when not on - pitch 53
Error: Time=132096 Track=0 Note terminated when not on - pitch 50
Error: Time=132437 Track=0 Note terminated when not on - pitch 45
Error: Time=132608 Track=0 Note terminated when not on - pitch 47
Error: Time=132779 Track=0 Note terminated when not on - pitch 43
Error: Time=133888 Track=0 Note terminated when not on - pitch 62
Error: Time=134144 Track=0 Note terminated when not on - pitch 59
Error: Time=134144 Track=0 Note terminated when not on - pitch 55
Error: Time=135936 Track=0 Note terminated when not on - pitch 69
Error: Time=135936 Track=0 Note terminated when not on - pitch 64
Error: Time=136192 Track=0 Note terminated when not on - pitch 65
Error: Time=137984 Track=0 Note terminated when not on - pitch 74
Error: Time=142080 Track=0 Note terminated when not on - pitch 86
Error: Time=142336 Track=0 Note terminated when not on - pitch 83
Error: Time=145408 Track=0 Note terminated when not on - pitch 60
Error: Time=146176 Track=0 Note terminated when not on - pitch 41
Error: Time=146176 Track=0 Note terminated when not on - pitch 40
Error: Time=146432 Track=0 Note terminated when not on - pitch 38
Error: Time=208384 Track=0 Note terminated when not on - pitch 100
Error: Time=208555 Track=0 Note terminated when not on - pitch 101
Error: Time=208640 Track=0 Note terminated when not on - pitch 98
Error: Time=208896 Track=0 Note terminated when not on - pitch 105
Error: Time=208896 Track=0 Note terminated when not on - pitch 103
Error: Time=209237 Track=0 Note terminated when not on - pitch 96
Error: Time=209920 Track=0 Note terminated when not on - pitch 93
Error: Time=210261 Track=0 Note terminated when not on - pitch 91
Error: Time=210603 Track=0 Note terminated when not on - pitch 88
Error: Time=211627 Track=0 Note terminated when not on - pitch 85
Error: Time=211712 Track=0 Note terminated when not on - pitch 89
Error: Time=211968 Track=0 Note terminated when not on - pitch 92
Error: Time=212736 Track=0 Note terminated when not on - pitch 90
Error: Time=221696 Track=0 Note terminated when not on - pitch 68
Error: Time=223915 Track=0 Note terminated when not on - pitch 61
Error in MIDI file - notes still on at end of track!
Error: Time=133461 Track=1 Note terminated when not on - pitch 33
Error: Time=133632 Track=1 Note terminated when not on - pitch 35
Error in MIDI file - notes still on at end of track!
X: 1
T: from midi_transposed/C_rac_op23_2.mid
M: 4/4
L: 1/8
Q:1/4=73
