Error: Time=25600 Track=1 Note terminated when not on - pitch 96
Error: Time=26112 Track=1 Note terminated when not on - pitch 84
Error: Time=26624 Track=1 Note terminated when not on - pitch 78
Error: Time=27648 Track=1 Note terminated when not on - pitch 69
Error: Time=69120 Track=1 Note terminated when not on - pitch 93
Error: Time=69376 Track=1 Note terminated when not on - pitch 81
Error: Time=145920 Track=1 Note terminated when not on - pitch 57
Error: Time=145920 Track=1 Note terminated when not on - pitch 60
Error: Time=146091 Track=1 Note terminated when not on - pitch 63
Error: Time=146176 Track=1 Note terminated when not on - pitch 64
Error: Time=146176 Track=1 Note terminated when not on - pitch 68
Error in MIDI file - notes still on at end of track!
X: 1
T: from midi_transposed/C_rac_op33_5.mid
M: 9/8
L: 1/8
Q:1/4=61
%beats in anacrusis = 0
% Last note suggests Phrygian mode tune
K:C % 0 sharps
V:1
% Piano
%%MIDI program 0
%%MIDI program 0
x2[c'3a3]x3[^G-E-]| \
[^G2E2]x [E,6-A,,6-]| \
[E,2A,,2]
E/2[F/2^D/2] E/2[A/2=G/2]^G/2[c/2A/2]^c/2[e/2=d/2] f/2[a/2^g/2]=c'/2[a/2^g/2]b/2[^g/2=g/2]| \
^a/2[g/2^f/2]=a/2[^f/2=f/2]e/2[f/2^d/2] a/2[e/2B/2]c/2[B/2A/2]^G/2[^A/2=G/2] G/2[=A/2^F/2]^F/2[^G/2=F/2]F/2[=G/2E/2]|
^D/2[^F/2=D/2]=F/2[E/2^C/2]=C/2[D/2B,/2] C/2[D/2^A,/2]C/2[D/2=A,/2]C/2[B,/2E,/2] E/2[D/2C/2]^D/2[F/2E/2]B/2[F/2^D/2]| \
E/2[A/2G/2]^G/2[c/2A/2]^c/2[e/2=d/2] f/2[a/2^g/2]=c'/2[a/2^g/2]b/2[^g/2=g/2] ^a/2[g/2^f/2]=a/2[^f/2=f/2]e/2[f/2^d/2]| \
a/2[e/2B/2]c/2[B/2A/2]^G/2[^A/2=G/2] G/2[=A/2^F/2]^F/2[^G/2=F/2]F/2[=G/2E/2] E/2[G/2^D/2]^D/2[^D/2=D/2]E/2[F/2^D/2]| \
E/2[F/2=D/2]E/2[F/2G,/2]C/2[G/2E/2] 
A/2[c/2B/2]d/2[f/2e/2]g/2[b/2a/2] c'/2[^d'/2=d'/2]e'/2[b/2g/2]b/2[d'/2c'/2]|
e'/2[b/2e/2]b/2[d'/2c'/2]e' ^G,/2[E/2D/2]^G/2[e/2d/2][a/2A/2][d/2^c/2] [d/2=c/2][B/2^A/2]=A/2[E/2D/2]^C/2[=C/2B,/2]| \
x/2[^A/2F/2]B/2[=g/2f/2][c'/2c/2][g/2f/2] ^d/2[=d/2^c/2]=c/2[B/2^A/2]x =a''/2[a''/2a'/2]g''/2[g''/2g'/2]a''/2[a''/2a'/2]| \
a'/2x/2g''/2[g''/2g'/2]a''/2[a''/2a'/2] a'/2x/2g''/2[g''/2g'/2]a''/2[a''/2a'/2] a'/2x/2A/2[G/2F/2]E/2[F/2^D/2]| \
E/2[A/2G/2]^G/2[c/2A/2]^c/2[e/2=d/2] f/2[a/2^g/2]=c'/2[a/2^g/2]b/2[^g/2=g/2] ^a/2[g/2^f/2]=a/2[^f/2=f/2]e/2[f/2^d/2]|
a/2[e/2B/2]x[b/2-^c/2][b/2-g/2^f/2] [b/2-=f/2][b/2-g/2^f/2][b/2-^d/2][b/2-g/2e/2][b/2-^c/2][b/2=f/2=d/2] [f'd']a[^g/2-B/2][^g/2-f/2e/2]| \
[^g/2-^d/2][^g/2-f/2e/2][^g/2-^c/2][^g/2-f/2=d/2][^g/2-^A/2][^g/2d/2-B/2] [=a-d][a^d]e/2[=d/2^c/2] ^d/2[f/2e/2]a/2[^g/2=g/2][b/2a/2][e/2^d/2]| \
f/2[g/2^f/2]^c'/2[^g/2=g/2][=d'/2a/2][g/2=f/2] a/2[b/2^a/2][^d'/2=c'/2][c'/2b/2]e'/2[c'/2b/2] [^f'/2^c'/2][^d'/2=d'/2][^g'/2e'/2][d'/2=c'/2-][=a'c']| \
=f'/2[^c'/2^g/2]e'/2[=c'/2=g/2]^d'/2[b/2^f/2] =d'/2[^a/2=f/2]^c'/2[f/2^d/2]=c'/2[g/2c/2] f/2[^c/2^G/2]e/2[=c/2=G/2]^d/2[B/2^F/2]|
=d/2[^A/2=F/2]^c/2[F/2^D/2]=c/2[E/2=A,/2] A^c/2[F/2^D/2]=c/2[E/2A,/2] A^c/2[F/2^D/2]=c/2[E/2A,/2]| \
A-[A-F][A=D] B,/2A,/2^G,/2^F,/2E, ^G,,/2[E,/2D,/2]^G,/2[E/2D/2][A/2A,/2][D/2^C/2]| \
=C/2[B,/2^A,/2]=A,/2[E,/2D,/2]^C,/2[=C,/2B,,/2] x/2[=G,/2=F,/2]B,/2[G/2F/2][c/2C/2][G/2F/2] ^D/2[=D/2^C/2]=C/2[B,/2^A,/2]x/2C/2| \
^C/2[=A/2G/2]^c/2[a/2g/2][d'/2d/2][g/2^f/2] =f/2[e/2^d/2]=d/2[^c/2=c/2]x/2[a/2^d/2] b/2[a'/2^d'/2][^d''/2^d'/2][b'/2a'/2][e''/2e'/2][b'/2a'/2]|
g/2[a'/2^f'/2]e''/2[a''/2^f''/2][e'''e''] e'''/2[e'''/2e''/2]=d'''/2[d'''/2d''/2]e'''/2[e'''/2e''/2] e''/2x/2d'''/2[d'''/2d''/2]e'''/2[e'''/2e''/2]| \
e''/2x/2d'''/2[d'''/2d''/2]e'''/2[e'''/2e''/2] e''/2x/2G/2[^F/2=F/2]E/2[F/2^D/2] E/2[A/2G/2]^G/2[c/2A/2]^c/2[e/2=d/2]| \
f/2[a/2^g/2]=c'/2[a/2^g/2]b/2[^g/2=g/2] ^a/2[g/2^f/2]=a/2[=f/2e/2]^g/2[c'/2a/2] ^c'/2[e'/2d'/2]f'/2[d'/2^c'/2]e'/2[^c'/2=c'/2]| \
^d'/2[c'/2b/2]=d'/2[^a/2=a/2]^c'/2[f'/2d'/2] ^f'/2[a'/2=g'/2]^a'/2[g'/2^f'/2]=a'/2[^f'/2=f'/2] ^g'/2[^g'/2e'/2][=c''/2c'/2][a'/2^g'/2][b'/2b/2][^g'/2=g'/2]|
[^a'/2^a/2][g'/2^f'/2][=a'/2a/2][=f'/2e'/2][^a'/2-^a/2-][^a'/2-g'/2^f'/2^a/2-] [^a'/2-=f'/2^a/2-][^a'/2-e'/2^d'/2^a/2-][^a'/2-=d'/2^a/2-][^a'/2^c'/2=c'/2^a/2][b'/2-b/2-][b'/2^a'/2f'/2b/2-] b/2-[^a''/2f''/2b/2-][b''/2b/2-][f''/2b'/2b/2][^g'/2-^g/2-][^g'/2-f'/2e'/2^g/2-]| \
[^g'/2-^d'/2^g/2-][^g'/2-=d'/2^c'/2^g/2-][^g'/2-=c'/2^g/2-][^g'/2b/2^a/2^g/2][=a'/2-a/2-][a'/2-f'/2c'/2a/2-] 
[a'/2-^f'/2a/2-][=f''/2c''/2a'/2-a/2-][^f''/2a'/2-a/2-][c''/2a'/2^f'/2a/2][e'/2-e/2][e'/2-c'/2e/2] e'/2-[e'/2e/2^d/2]=f/2-[f'/2^a/2f/2]^c'/2-[^c'/2-^a/2^c/2]| \
^c'/2-
[^c'/2^c/2=c/2]=d/2-[d'/2=a/2d/2]x/2[d/2c/2] ^d/2[f/2e/2]a/2[^g/2=g/2][b/2a/2][e/2^d/2] f/2[g/2^f/2]^c'/2[^g/2=g/2][=d'/2a/2][g/2=f/2]| \
a/2[b/2^a/2][^d'/2=c'/2][c'/2b/2]e'/2[c'/2b/2] [^f'/2^c'/2][^d'/2=d'/2][^g'/2e'/2][d'/2=c'/2-][=a'/2-c'/2-][a'/2e'/2c'/2] a'/2[e''/2c''/2]a''/2[^c''/2=c''/2]^g''/2[c''/2b'/2]|
=g''/2[b'/2^a'/2]^f''/2[^a'/2=a'/2]c'/2[e'/2^d'/2] ^g'/2[c''/2a'/2]e''/2[^g'/2=g'/2]^d''/2[g'/2^f'/2] =d''/2[^f'/2=f'/2]^c''/2[f'/2e'/2]^f/2[=c'/2a/2]| \
d'/2[^f'/2^d'/2]a'/2[^c'/2=c'/2]^g'/2[c'/2b/2] =g'/2[b/2^a/2]^f'/2[^a/2=a/2]c/2[e/2^d/2] ^g/2[c'/2a/2]e'/2[^g/2=g/2]^d'/2[g/2^f/2]| \
=d'/2[^f/2=f/2]^c'/2[f/2e/2]=c'/2[a/2e/2] f'/2[^c'/2^g/2]e'/2[=c'/2=g/2]^d'/2[b/2^f/2] =d'/2[^a/2=f/2]^c'/2[f/2^d/2]=c'/2[g/2c/2]| \
f/2[^c/2^G/2]e/2[=c/2=G/2]^d/2[B/2^F/2] =d/2[^A/2=F/2]^c/2[F/2^D/2]=c/2E/2 xc/2[e/2B/2][c/2=A/2E/2][^d/2=d/2]|
e/2[a/2^g/2]c'/2[e'/2b/2][c'/2a/2e/2][^d'/2=d'/2] e'/2[a'/2^g'/2]c''/2[e''/2b'/2]c''/2[d''/2^c''/2] 
^d''/2[f''/2e''/2]^f''/2[^g''/2=g''/2]a''| \
[=c''/2a'/2]x/2[c'/2a/2]x6x/2
E,/2[=F,/2^D,/2]| \
E,xE,/2[F,/2^D,/2] E,x3E,/2[F,/2^D,/2]E,/2[F,/2^D,/2]| \
E,x4E,4-|
E,2
V:2
% Piano
%%MIDI program 0
%%MIDI program 0
x4x
% Piano
%%MIDI program 0
%%MIDI program 0
[^f3^d3]x| \
x2[C6-A,6-][C-A,-]| \
[C2A,2]x6
M: 12/8
L: 1/8
[c'4-c4-]| \
[c'2c2][c4C4] [E,6-E,,6-]|
[E,2E,,2]x6c''- [c''-c'-][c''-c'^f-][c''-c'-^f-]| \
[c''2-c'2-^f2-A2-][c''-c'-^f-cA-C] [c''-c'-^f-A-^D^D,][c''-c'-^f-A-][c''-c'-^f-A-G,G,,] [c''-c'-^f-A-C,C,,][c''2-c'2-^f2-A2-] [c''3-c'3-g3^f3-c3A3-G3]| \
[c''4-c'4-^f4-A4-]
M: 6/8
L: 1/8
[c''-b'^g'c'-^f-A-][e''c''-a'c'-^f-A-]| \
M: 12/8
L: 1/8
[c''-b'^g'c'-^f-A-][e''c''-a'c'-^f-A-][c''-b'^g'c'-^f-A-] [c''2-c'2-^f2-A2-E,,2E,,,2][c''4-c'4-^f4-A4-=F,4F,,4] [c''2-c'2-^f2-A2-=G,2G,,2][c''-c'-^f-A-^G-^G,-]|
[c''2-c'2-^f2-A2-^G2^G,2][c''/2-c'/2-^f/2-A/2-A/2A,/2][c''/2-c'/2-^f/2-A/2-] [c''/2-e'/2^c'/2=c'/2-a/2^f/2-e/2A/2-][c''/2-c'/2-^f/2-A/2-][c''/2-=f'/2=d'/2c'/2-^a/2^f/2-=f/2=A/2-][c''/2-c'/2-^f/2-A/2-][c''/2-c'/2-^f/2-A/2-A/2][c''/2-c'/2-^f/2-A/2-] [c''/2-d'/2c'/2-^a/2=g/2^f/2-d/2=A/2-][c''/2-c'/2-^f/2-A/2-][c''/2-e'/2c'/2-c'/2a/2^f/2-e/2A/2-][c''/2-c'/2-^f/2-A/2-][c''/2-c'/2-^f/2-A/2-A/2][c''/2-c'/2-^f/2-A/2-] [c''/2-c'/2-c'/2a/2^f/2-=f/2c/2A/2-][c''/2-c'/2-^f/2-A/2-][c''/2-d'/2c'/2-^a/2g/2^f/2-d/2=A/2-][c''/2-c'/2-^f/2-A/2-][c''/2-c'/2-^f/2-A/2-A/2][c''/2-c'/2-^f/2-A/2-]| \
[c''/2-c'/2-^a/2^f/2-=f/2d/2^A/2=A/2-][c''/2-c'/2-^f/2-A/2-][c''/2-c'/2-c'/2a/2^f/2-e/2c/2A/2-][c''3/2-c'3/2-^f3/2-A3/2-] [c''-c'-^f-A-C][c''-c'-^f-A-=F,][c''-c'-^f-A-^G,,] [c''-c'-^f-A-C,][c''-c'-^f-A-^D,,][c''-c'-^f-A-A,,-A,,,-] [c''2-c'2-^f2-A2-^D2^D,2A,,2-A,,,2-][c''-c'-^f-c-A-C-A,,-A,,,-]| \
[c''-c'-^f-cA-C-A,,-A,,,-][c''/2-c'/2-^f/2-c/2A/2-C/2-A,,/2-A,,,/2-][c''/2-c'/2-^f/2-A/2-E/2C/2A,/2-A,,/2A,,,/2][c''-c'-^f-A-=FA,-] [c''-c'-^f-A-^FA,-][c''-c'-^f-A-=GA,-][c''-c'-^f-A-^GA,] [c''/2-c'/2-^f/2-A/2-A/2=F/2-][c''/2-c'/2-^f/2-^c/2B/2A/2-=F/2-][=c''/2-c'/2-^f/2-=d/2A/2-=F/2-][c''/2-c'/2-^f/2-=f/2e/2A/2-F/2-][c''-c'-^f-A-=F-DA,-] [c''-c'-^f-A-=FEA,-][c''-c'-^f-A-=FA,-][c''-c'-^f-A-^GA,]| \
[c''/2-c'/2-^f/2-A/2-A/2=F/2-][c''/2-c'/2-^f/2-B/2^A/2=A/2-=F/2-][c''/2-c'/2-^f/2-c/2A/2-=F/2-][c''/2-c'/2-^f/2-^d/2=d/2A/2-=F/2][c''-c'-^f-cA-AE] [c''-c'-^f-A-][c''/2-c'/2-^f/2-^f/2^c/2A/2-A/2][=c''/2-c'/2-^f/2-A/2-][c''/2-c'/2-^f/2-=f/2d/2A/2-A/2E/2][c''3/2-c'3/2-^f3/2-A3/2-][c''/2-c'/2-^f/2-^f/2^c/2^A/2=A/2-][=c''/2-c'/2-^f/2-A/2-][c''/2-c'/2-^f/2-=f/2d/2A/2-A/2E/2][c''3/2-c'3/2-^f3/2-A3/2-][c''/2-c'/2-^f/2-^f/2^d/2A/2-A/2][c''/2-c'/2-^f/2-A/2-][c''/2-c'/2-^f/2-e/2^c/2A/2-A/2E/2][=c''/2-c'/2-^f/2-A/2-]|
[c''/2-c'/2-^f/2-^f/2^d/2A/2-A/2][c''/2-c'/2-^f/2-A/2-][c''/2-c'/2-^f/2-e/2A/2-^G/2E/2][c''/2-c'/2-^f/2-A/2-][c''-c'-a^f-eA-A] [c''/2-a'/2-c'/2-^f/2-A/2-][c''/2-a'/2c'/2-a/2-^f/2-A/2-][c''/2-a'/2-c'/2-a/2^f/2-A/2-][c''/2-a'/2c'/2-a/2-^f/2-A/2-][c''/2-a'/2-c'/2-a/2^f/2-A/2-][c''/2-a'/2c'/2-a/2-^f/2-A/2-] [c''/2-a'/2-c'/2-a/2^f/2-A/2-][c''/2-a'/2c'/2-a/2-^f/2-A/2-][c''/2-a'/2-c'/2-a/2^f/2-A/2-][c''/2-a'/2c'/2-a/2-^f/2-A/2-][c''/2-a'/2-c'/2-a/2^f/2-A/2-][c''/2-a'/2-c'/2-a/2^f/2-A/2-] [c''/2-a'/2-c'/2-a/2-^f/2-A/2][c''/2-a'/2-c'/2-a/2^f/2-A/2-][c''/2-a'/2-c'/2-a/2-^f/2-A/2][c''/2-a'/2-c'/2-a/2^f/2-A/2-][c''/2-a'/2-c'/2-a/2-^f/2-A/2][c''/2-a'/2-c'/2-a/2^f/2-A/2-]| \
[c''/2-a'/2-c'/2-a/2-^f/2-A/2][c''/2-a'/2-c'/2-a/2^f/2-A/2-][c''/2-a'/2-c'/2-a/2-^f/2-A/2][c''/2-a'/2-c'/2-a/2^f/2-A/2-][c''/2-a'/2-c'/2-a/2-^f/2-A/2][c''3/2-a'3/2-c'3/2-a3/2^f3/2-A3/2-][c''/2-a'/2-c'/2-a/2-^f/2-A/2][c''/2-a'/2-c'/2-a/2^f/2-A/2-][c''/2-a'/2-c'/2-a/2-^f/2-A/2][c''3/2-a'3/2-c'3/2-a3/2^f3/2-A3/2-][c''/2-a'/2-c'/2-a/2-^f/2-A/2][c''/2-a'/2-c'/2-a/2^f/2-A/2-][c''/2-a'/2-c'/2-a/2-^f/2-A/2][c''/2-a'/2-c'/2-a/2-^f/2-A/2-] [c''-a'-c'-a-^f-A-A,A,,][c''-a'-c'-a-^f-A-=F,F,,][c''-a'-c'-a-^f-A-=D,D,,]| \
[c''/2-a'/2-c'/2-a/2-^f/2-A/2-B,,/2B,,,/2][c''/2-a'/2-c'/2-a/2-^f/2-A/2-A,,/2A,,,/2][c''/2-a'/2-c'/2-a/2-^f/2-A/2-^G,,/2^G,,,/2][c''/2-a'/2-c'/2-a/2-^f/2-A/2-^F,,/2^F,,,/2][c''3-a'3-c'3-a3-^f3-A3-E,,3E,,,3][c''-a'-c'-a-^f-A-=F,-D,A,,-F,,-] [c''-a'-c'-a-^f-A-=F,-^C,A,,-F,,-][=c''-a'-c'-a-^f-A-=F,C,A,,F,,][c''3-a'3-c'3-a3-^f3-A3-=G,,3G,,,3][c''-a'-c'-a-^f-A-^G,-=F,C,-^G,,-]| \
[c''-a'-c'-a-^f-A-^G,-^D,C,-^G,,-][c''-a'-c'-a-^f-A-^G,=D,C,^G,,][c''2-a'2-c'2-a2-^f2-A2-A,2^C,2-A,,2-][=c''-a'-c'-a-^f-A-A^C^C,A,,][=c''-a'-c'-a-^f-^A-=A-=G-D^A,-] [c''-=a'-c'-a-^f-^A-=A-G-^D^A,-][c''-=a'-c'-a-^f-^A=A-GE^A,][c''2-=a'2-c'2-a2-^f2-B2A2-A2^F2^D2B,2][c''-a'-c'-ba-a^f-^f^dBA-][c''-a'-c'-c'-a-a-^f-^f-e-c-A-]|
[c''2-a'2-c'2-c'2a2-a2^f2-^f2e2c2A2-][c''-a'-c'-a-^f-eA-E] [c''/2-a'/2-c'/2-b/2a/2-^g/2^f/2-e/2B/2A/2-][c''/2-a'/2-c'/2-a/2-^f/2-A/2-][c''/2-a'/2-c'/2-c'/2a/2-a/2^f/2-=f/2c/2A/2-][c''/2-a'/2-c'/2-a/2-^f/2-A/2-][c''/2-a'/2-c'/2-a/2-^f/2-A/2-E/2][c''/2-a'/2-c'/2-a/2-^f/2-A/2-] [c''/2-a'/2-c'/2-a/2-a/2^f/2-=f/2=d/2A/2-A/2][c''/2-a'/2-c'/2-a/2-^f/2-A/2-][c''/2-a'/2-c'/2-b/2a/2-=g/2^f/2-e/2B/2A/2-][c''/2-a'/2-c'/2-a/2-^f/2-A/2-][c''/2-a'/2-c'/2-a/2-^f/2-A/2-E/2][c''/2-a'/2-c'/2-a/2-^f/2-A/2-] [c''/2-a'/2-c'/2-a/2-g/2^f/2-e/2c/2A/2-G/2][c''/2-a'/2-c'/2-a/2-^f/2-A/2-][c''/2-a'/2-c'/2-a/2-a/2^f/2-=f/2d/2A/2-A/2][c''/2-a'/2-c'/2-a/2-^f/2-A/2-][c''/2-a'/2-c'/2-a/2-^f/2-A/2-E/2][c''/2-a'/2-c'/2-a/2-^f/2-A/2-]| \
[c''/2-a'/2-c'/2-a/2-^f/2-=f/2c/2A/2-A/2F/2][c''/2-a'/2-c'/2-a/2-^f/2-A/2-][c''/2-a'/2-c'/2-a/2-g/2^f/2-e/2B/2A/2-][c''2-a'2-c'2-a2-^f2-A2-][c''/2-a'/2-c'/2-a/2-^f/2-A/2-][c''-a'-c'-a-^f-A-^G,=F,][c''-a'-c'-a-^f-A-A,E,] [c''-a'-c'-a-^f-A-B,^D,][c''-a'-c'-a-^f-A-C-E,-][c''-a'-c'-a-^f-A-CE,A,,-A,,,-] [c''-a'-c'-a-^f-A-=D^A,=A,,-A,,,-][c''-a'-c'-a-^f-A-^DA,A,,A,,,][c''-a'-c'-a-^f-A-E^G,]| \
[c''-a'-c'-a-^f-A-=FB,=G,][c''-a'-c'-a-^f-A-G^C=F,][=c''-a'-c'-a-^f-A-^G-=D-E,-] [c''-a'-c'-a-^f-A-^GDE,A,,-A,,,-][c''-a'-c'-a-^f-A-A=FA,,-A,,,-][c''-a'-c'-a-^f-^A=A-=GEA,,A,,,] [c''-a'-c'-a-^f-BA-^F^D][c''-a'-c'-a-^f-cA-=F=D][c''-a'-c'-a-^f-^cA-E-^C] [=c''-a'-c'-a-^f-dA-EC][c''-a'-c'-a-^f-^dA-A^F^DB,][c''-a'-c'-a-^f-A-A,,-A,,,-]| \
[c''-a'-c'-a-^f-A-A,,-A,,,-][c''-a'-c'-a-^f-eA-AECA,,A,,,][c''3-a'3-c'3-a3-^f3-=f3^c3^A3=A3-G3F3][=c''-a'-c'-a-^f-A-^G-=F-=D-B,-^G,-] [c''2-a'2-c'2-a2-^f2-A2-^G2=F2D2B,2^G,2A,,2A,,,2][c''3-a'3-c'3-a3-^f3-c3A3-^G3=F3D3C3][c''-a'-c'-a-^f-A-^D-C-A,-^F,-^D,-]|
M: 6/8
L: 1/8
[c''2-a'2-c'2-a2-^f2-A2-^D2C2A,2^F,2^D,2A,,2A,,,2][c''-a'-c'-a-^f-A-ACA,] [c''-a'-c'-a-^f-A-^GB,^G,][c''-a'-c'-a-^f-A-=G^A,G,][c''-=a'-c'-a-^f-A-^F-^A,^F,-]| \
M: 12/8
L: 1/8
[c''-=a'-c'-a-^f-A-^FA,-^F,][c''-a'-c'-a-^f-A-=FA,F,][c''-a'-c'-a-^f-A-ECA,E,] [c''-a'-c'-a-^f-A-][c''/2-a'/2-c'/2-a/2-^f/2-^f/2^c/2A/2-A/2][=c''/2-a'/2-c'/2-a/2-^f/2-A/2-][c''/2-a'/2-c'/2-a/2-^f/2-=f/2=d/2A/2-A/2E/2][c''3/2-a'3/2-c'3/2-a3/2-^f3/2-A3/2-][c''/2-a'/2-c'/2-a/2-^f/2-^f/2^c/2^A/2=A/2-][=c''/2-a'/2-c'/2-a/2-^f/2-A/2-][c''/2-a'/2-c'/2-a/2-^f/2-=f/2d/2A/2-A/2E/2][c''3/2-a'3/2-c'3/2-a3/2-^f3/2-A3/2-][c''/2-a'/2-c'/2-a/2-^f/2-^f/2^d/2A/2-A/2][c''/2-a'/2-c'/2-a/2-^f/2-A/2-][c''/2-a'/2-c'/2-a/2-^f/2-e/2^c/2A/2-A/2E/2][=c''/2-a'/2-c'/2-a/2-^f/2-A/2-]| \
[c''/2-a'/2-c'/2-a/2-^f/2-^f/2^d/2A/2-A/2][c''/2-a'/2-c'/2-a/2-^f/2-A/2-][c''/2-a'/2-c'/2-a/2-^f/2-e/2A/2-^G/2E/2][c''/2-a'/2-c'/2-a/2-^f/2-A/2-][c''-a'-c'-a-a^f-eA-A] [c''-a'-c'-a-^f-A-A,,-A,,,-][c''-a'-c'-a-^f-A-=D,A,,-A,,,][c''2-a'2-c'2-a2-^f2-A2-^D,2A,,2-][c''-a'-c'-a-^f-A-E,A,,-][c''-a'-c'-a-^f-A-^F,-A,,] [c''-a'-c'-a-^f-A-^F,A,,A,,,-][c''-a'-c'-a-^f-A-^G,A,,,][c''-a'-c'-a-^f-A-A,-]| \
[c''-a'-c'-a-^f-A-A,][c''-a'-c'-a-^f-A-B,][c''-a'-c'-a-^f-A-C^F,^D,] [c''-a'-c'-a-^f-A-A,,-A,,,-][c''-a'-c'-a-^f-A-=DB,A,,A,,,][c''2-a'2-c'2-a2-^f2-A2-^D2A,2^F,2][c''-a'-c'-a-^f-A-EC-][c''-a'-c'-a-^f-A-^F-C-A,-] [c''-a'-c'-a-^f-A-^FCA,A,,-][c''-a'-c'-a-^f-A-^GEA,,][c''-a'-c'-a-^f-A-A-^D-C-]|
[c''-a'-c'-a-^f-A-A^DC][c''-a'-c'-a-^f-BA-^G][c''-a'c'-a-^f-cA-AE] [c''/2-a'/2-c'/2-a/2^f/2-A/2-][c''/2-a'/2c'/2-a/2-^f/2-A/2-][c''/2-a'/2-c'/2-a/2^f/2-A/2-][c''/2-a'/2c'/2-a/2-^f/2-A/2-][c''/2-a'/2-c'/2-a/2^f/2-A/2-][c''/2-a'/2c'/2-a/2-^f/2-A/2-] [c''/2-a'/2-c'/2-a/2^f/2-A/2-][c''/2-a'/2c'/2-a/2-^f/2-A/2-][c''/2-a'/2-c'/2-a/2^f/2-A/2-][c''/2-a'/2c'/2-a/2-^f/2-A/2-][c''/2-a'/2-c'/2-a/2^f/2-A/2-][c''/2-a'/2-c'/2-a/2^f/2-A/2-] [c''/2-a'/2-c'/2-a/2-^f/2-A/2][c''/2-a'/2-c'/2-a/2^f/2-A/2-][c''/2-a'/2-c'/2-a/2-^f/2-A/2][c''/2-a'/2-c'/2-a/2^f/2-A/2-][c''/2-a'/2-c'/2-a/2-^f/2-A/2][c''/2-a'/2-c'/2-a/2^f/2-A/2-]| \
[c''/2-a'/2-c'/2-a/2-^f/2-A/2][c''/2-a'/2-c'/2-a/2^f/2-A/2-][c''/2-a'/2-c'/2-a/2-^f/2-A/2][c''/2-a'/2-c'/2-a/2^f/2-A/2-][c''/2-a'/2-c'/2-a/2-^f/2-A/2-][c''/2-a'/2-c'/2-a/2-^f/2-A/2-E,/2A,,/2] [c''/2-a'/2-c'/2-a/2-^f/2-A/2-C/2-A,/2-][c''/2-a'/2-c'/2-a/2-^f/2-A/2^G/2-E/2-^D/2-C/2-A,/2-][c''6-a'6-c'6-a6-^f6-A6-^G6-E6-^D6-C6-A,6-][c''-a'-c'-a-^f-A-^G-E-^D-C-A,-][c''-a'-a'e'c'-a-^f-A-^G-E-^D-C-A,-]| \
M: 6/8
L: 1/8
[^c''=c''-^a'=a'-c'-a-^f-A-^G-E-^D-C-A,-][=d''c''-b'a'-c'-a-^f-A-^G-E-^D-C-A,-][e''c''-c''a'-a'c'-a-^f-A-^G-E-^D-C-A,-] [c''2-a'2-c'2-a2-^f2-A2-^G2-E2-^D2-C2-A,2-][c''/2-a'/2-c'/2-a/2-^f/2-^f/2^d/2A/2-^G/2-E/2-^D/2-C/2-A,/2-][c''/2-a'/2-c'/2-a/2-^f/2-A/2-^G/2-E/2-^D/2-C/2-A,/2-]| \
M: 12/8
L: 1/8
[c''/2-a'/2-c'/2-a/2-^f/2-A/2-^G/2-^F/2E/2-^D/2-^D/2C/2-A,/2-][c''/2-a'/2-c'/2-a/2-^f/2-A/2-^G/2-E/2-^D/2-C/2-A,/2-][c''/2-a'/2-c'/2-a/2-^f/2-A/2-^G/2-E/2-^D/2-C/2-A,/2-^G,/2E,/2][c''/2-a'/2-c'/2-a/2-^f/2-A/2-^G/2-E/2-^D/2-C/2-A,/2-][c''-a'-c'-a-^f-A-^G-E-^D-C-A,-C,-A,,-] [c''8-a'8-c'8-a8-^f8-A8-^G8-E8-^D8-C8-A,8-C,8-A,,8-A,,,8-][c''-a'-c'-a-^f-A-^G-E-^D-C-A,-C,-A,,-A,,,-]|
[c''12-a'12-c'12-a12-^f12-A12-^G12-E12-^D12-C12-A,12-C,12-A,,12-A,,,12-]|[c''-a'-c'-a-^f-A-^G-E-^D-C-A,-C,-A,,-A,,,]
