Error: Time=148224 Track=0 Note terminated when not on - pitch 65
Error: Time=164608 Track=0 Note terminated when not on - pitch 61
Error in MIDI file - notes still on at end of track!
Error in MIDI file - notes still on at end of track!
X: 1
T: from midi_transposed/C_rac_op23_7.mid
M: 4/4
L: 1/8
Q:1/4=180
