Error: Time=15104 Track=0 Note terminated when not on - pitch 56
Error: Time=15104 Track=0 Note terminated when not on - pitch 55
Error: Time=72448 Track=0 Note terminated when not on - pitch 68
Error: Time=72448 Track=0 Note terminated when not on - pitch 67
Error: Time=76544 Track=0 Note terminated when not on - pitch 61
Error: Time=76544 Track=0 Note terminated when not on - pitch 60
Error: Time=78592 Track=0 Note terminated when not on - pitch 58
Error: Time=80640 Track=0 Note terminated when not on - pitch 53
Error: Time=82688 Track=0 Note terminated when not on - pitch 51
Error: Time=82688 Track=0 Note terminated when not on - pitch 49
Error: Time=137984 Track=0 Note terminated when not on - pitch 72
Error: Time=137984 Track=0 Note terminated when not on - pitch 71
Error: Time=183040 Track=0 Note terminated when not on - pitch 65
Error: Time=183040 Track=0 Note terminated when not on - pitch 64
Error: Time=203520 Track=0 Note terminated when not on - pitch 63
Error: Time=205568 Track=0 Note terminated when not on - pitch 62
Error: Time=208640 Track=0 Note terminated when not on - pitch 69
Error: Time=209664 Track=0 Note terminated when not on - pitch 74
Error: Time=209664 Track=0 Note terminated when not on - pitch 76
Error: Time=211968 Track=0 Note terminated when not on - pitch 77
Error: Time=211968 Track=0 Note terminated when not on - pitch 79
Error: Time=214784 Track=0 Note terminated when not on - pitch 75
Error: Time=216832 Track=0 Note terminated when not on - pitch 73
Error: Time=232448 Track=0 Note terminated when not on - pitch 80
Error: Time=232448 Track=0 Note terminated when not on - pitch 82
Error: Time=235264 Track=0 Note terminated when not on - pitch 78
Error in MIDI file - notes still on at end of track!
Error: Time=15104 Track=1 Note terminated when not on - pitch 44
Error: Time=15104 Track=1 Note terminated when not on - pitch 43
Error: Time=76544 Track=1 Note terminated when not on - pitch 48
Error: Time=78592 Track=1 Note terminated when not on - pitch 46
Error: Time=80640 Track=1 Note terminated when not on - pitch 41
Error: Time=82688 Track=1 Note terminated when not on - pitch 39
Error: Time=82688 Track=1 Note terminated when not on - pitch 37
Error: Time=96256 Track=1 Note terminated when not on - pitch 39
Error: Time=205568 Track=1 Note terminated when not on - pitch 50
Error in MIDI file - notes still on at end of track!
X: 1
T: from midi_transposed/C_schu_143_2.mid
M: 4/4
L: 1/8
Q:1/4=70
