Error: Time=135680 Track=0 Note terminated when not on - pitch 74
Error: Time=135851 Track=0 Note terminated when not on - pitch 72
Error: Time=135936 Track=0 Note terminated when not on - pitch 71
Error in MIDI file - notes still on at end of track!
Error in MIDI file - notes still on at end of track!
X: 1
T: from midi_transposed/C_schubert_d935_2.mid
M: 3/4
L: 1/8
Q:1/4=100
%beats in anacrusis = 4
% Last note suggests Mixolydian mode tune
K:F % 1 flats
V:1
% Piano
%%MIDI program 0
%%MIDI program 0
x2| \
x4 G2| \
[c2G2E2] [c3G3-E3-][dGE]| \
[c2G2F2] [=B3G3-F3-][dGF]| \
d2 [c2G2] [d2G2F2]|
[e4G4E4] G2| \
[e2G2E2] [e3G3E3][fGF]| \
[e2G2E2] [d3G3D3][eGE]| \
[d2G2D2] [c2G2C2] [g3/2d3/2-G3/2-][f/2d/2G/2]|
[e4c4G4] g2| \
[c'2g2e2] [c'3g3-e3-][d'ge]| \
[c'2g2f2] [=b3g3-f3-][d'gf]| \
d'2 [c'2g2] [d'2g2f2]|
[e'4g4e4] g2| \
[e'2g2e2] [e'3g3-e3-][f'ge]| \
[e'2_a2e2] [d'3_a3-e3-][e'_ae]| \
[d'2=a2e2] [c'/2a/2-e/2-][d'/2a/2-e/2-][c'/2a/2-e/2-][c'/2=b/2a/2e/2] [e'3/2=b3/2-f3/2-][d'/2=b/2f/2]|
[c'4e4] G2| \
[c2G2E2] [c3G3-E3-][dGE]| \
[c2G2F2] [=B3G3-F3-][dGF]| \
d2 [c2G2] [d2G2F2]|
[e4G4E4] G2| \
[e2G2E2] [e3G3E3][fGF]| \
[e2G2E2] [d3G3D3][eGE]| \
[d2G2D2] [c2G2C2] [g3/2d3/2-G3/2-][f/2d/2G/2]|
[e4c4G4] g2| \
[c'2g2e2] [c'3g3-e3-][d'ge]| \
[c'2g2f2] [=b3g3-f3-][d'gf]| \
d'2 [c'2g2] [d'2g2f2]|
[e'4g4e4] g2| \
[e'2g2e2] [e'3g3-e3-][f'ge]| \
[e'2_a2e2] [d'3_a3-e3-][e'_ae]| \
[d'2=a2e2] [c'/2a/2-e/2-][d'/2a/2-e/2-][c'/2a/2-e/2-][c'/2=b/2a/2e/2] [e'3/2=b3/2-f3/2-][d'/2=b/2f/2]|
[c'4e4] x[gcG]| \
[g2c2G2] [g3c3G3][eGE]| \
[e2G2E2] [e3G3E3][cAE]| \
[c3/2A3/2E3/2]x/2 [d3/2G3/2F3/2]x/2 [f3/2d3/2=B3/2G3/2F3/2]x/2|
[e4-c4-G4-E4-] [ecGE][acA]| \
[a2c2A2] [a3c3A3][fcA]| \
[f2c2A2] [f3c3A3][cA]| \
[c3/2A3/2]x/2 [f3/2_d3/2_B3/2]x/2 [b3/2f3/2_d3/2B3/2]x/2|
[a4-f4-c4-A4] [afc][bfB]| \
[b6f6B6]| \
[_a2f2-=B2-] [g2f2=B2-] [f=B][c/2F/2]x/2| \
[c4-F4-] [cF-][=d/2-F/2-][d/2-c/2-=B/2-F/2]|
[d/2-c/2-c/2-=B/2-][_e3/2d3/2-c3/2-c3/2-=B3/2-_G3/2-] [d2-d2c2-c2=B2-_G2-] [d2-c2-=B2-_G2]| \
[d2-c2-=B2-=G2=E2-C2-] [d4-c4-=B4-G4E4C4]| \
[d2-c2-=B2-G2F2-D2-=B,2-] [d2-c2-=B2-G2F2D2=B,2] [d2-c2-=B2-G2]| \
[d2-c2-c2=B2-G2E2] [d3-c3-c3=B3-G3-E3-][d-dc-=B-GE]|
[d2-c2-c2=B2-G2F2] [d3-c3-=B3-=B3G3-F3-][d-dc-=B-GF]| \
[d2-d2c2-=B2-] [d2-c2-c2=B2-G2] [d2-d2c2-=B2-G2F2]| \
[e4d4-c4-=B4-G4E4] [d2-c2-=B2-G2]| \
[e2d2-c2-=B2-G2E2] [e3d3-c3-=B3-G3E3][d-dc-=B-FD]|
[d2-d2c2-=B2-F2D2] [d3-_d3c3-=B3-E3_D3][=d-dc-=B-FD]| \
[d2-d2c2-=B2-F2D2] [d2-c2-c2=B2-E2C2] [d2-c2-=B2-=B2D2=B,2]| \
[d4-c4-c4=B4-E4C4] [g2d2-c2-=B2-]| \
[c'2g2e2d2-c2-=B2-] [c'3g3-e3-d3-c3-=B3-][d'ged-c-=B-]|
[c'2g2f2d2-c2-=B2-] [=b3g3-f3-d3-c3-=B3-][d'gfd-c-=B-]| \
[d'2d2-c2-=B2-] [c'2g2d2-c2-=B2-] [d'2g2f2d2-c2-=B2-]| \
[e'4g4e4d4-c4-=B4-] [g2d2-c2-=B2-]| \
[e'2g2e2d2-c2-=B2-] [e'3g3e3d3-c3-=B3-][d'fd-dc-=B-]|
[d'2f2d2-d2c2-=B2-] [_d'3e3=d3-_d3c3-=B3-][=d'fd-dc-=B-]| \
[d'2f2d2-d2c2-=B2-] [c'2e2d2-c2-c2=B2-] [=b2d2-d2c2-=B2-=B2]| \
[c'4e4d4-c4-c4=B4-] [d-c-=B-][gd-c-c=B-G]| \
[g2d2-c2-c2=B2-G2] [g3d3-c3-c3=B3-G3][ed-c-=B-GE]|
[e2d2-c2-=B2-G2E2] [e3d3-c3-=B3-G3E3][d-c-c=B-=AE]| \
[d3/2-c3/2-c3/2=B3/2-A3/2E3/2][d/2-c/2-=B/2-] [d3/2-d3/2c3/2-=B3/2-G3/2F3/2][d/2-c/2-=B/2-] [f3/2d3/2-d3/2c3/2-=B3/2-=B3/2G3/2F3/2][d/2-c/2-=B/2-]| \
[e4-d4-c4-c4-=B4-G4-E4-] [ed-c-c=B-GE][ad-c-c=B-A]| \
[a2d2-c2-c2=B2-A2] [a3d3-c3-c3=B3-A3][fd-c-c=B-A]|
[f2d2-c2-c2=B2-A2] [f3d3-c3-c3=B3-A3][d-c-c=B-A]| \
[d3/2-c3/2-c3/2=B3/2-A3/2][d/2-c/2-=B/2-] [f3/2d3/2-_d3/2c3/2-=B3/2-_B3/2][=d/2-c/2-=B/2-] [_b3/2f3/2d3/2-_d3/2c3/2-=B3/2-_B3/2][=d/2-c/2-=B/2-]| \
[a4-f4-d4-c4-c4-=B4-A4-] [afd-c-c=B-A][_bfd-c-=B-_B]| \
[b6f6d6-c6-=B6-_B6]|
[_a2f2-d2-c2-=B2-=B2-] [g2f2d2-c2-=B2-=B2-] [fd-c-=B-=B][d/2-c/2-c/2=B/2-F/2][d/2-c/2-=B/2-]| \
[d4-c4-c4-=B4-F4-] [dc-c=B-F-][d/2-c/2=B/2F/2-][d/2-c/2-=B/2-F/2]| \
[d/2-c/2-c/2-=B/2-][_e3/2d3/2-c3/2-c3/2-=B3/2-_G3/2-] [d2-d2c2-c2=B2-_G2-] [d2-c2-=B2-_G2]| \
[d2-c2-=B2-=G2=E2-C2-] [d4-c4-=B4-G4E4C4]|
[d2-c2-=B2-G2F2-D2-=B,2-] [d2-c2-=B2-G2F2D2=B,2] [d2-c2-=B2-G2]| \
[d2-c2-c2=B2-G2E2] [d3-c3-c3=B3-G3-E3-][d-dc-=B-GE]| \
[d2-c2-c2=B2-G2F2] [d3-c3-=B3-=B3G3-F3-][d-dc-=B-GF]| \
[d2-d2c2-=B2-] [d2-c2-c2=B2-G2] [d2-d2c2-=B2-G2F2]|
[e4d4-c4-=B4-G4E4] [d2-c2-=B2-G2]| \
[e2d2-c2-=B2-G2E2] [e3d3-c3-=B3-G3E3][d-dc-=B-FD]| \
[d2-d2c2-=B2-F2D2] [d3-_d3c3-=B3-E3_D3][=d-dc-=B-FD]| \
[d2-d2c2-=B2-F2D2] [d2-c2-c2=B2-E2C2] [d2-c2-=B2-=B2D2=B,2]|
[d4-c4-c4=B4-E4C4] [g2d2-c2-=B2-]| \
[c'2g2e2d2-c2-=B2-] [c'3g3-e3-d3-c3-=B3-][d'ged-c-=B-]| \
[c'2g2f2d2-c2-=B2-] [=b3g3-f3-d3-c3-=B3-][d'gfd-c-=B-]| \
[d'2d2-c2-=B2-] [c'2g2d2-c2-=B2-] [d'2g2f2d2-c2-=B2-]|
[e'4g4e4d4-c4-=B4-] [g2d2-c2-=B2-]| \
[e'2g2e2d2-c2-=B2-] [e'3g3e3d3-c3-=B3-][d'fd-dc-=B-]| \
[d'2f2d2-d2c2-=B2-] [_d'3e3=d3-_d3c3-=B3-][=d'fd-dc-=B-]| \
[d'2f2d2-d2c2-=B2-] [c'2e2d2-c2-c2=B2-] [=b2d2-d2c2-=B2-=B2]|
[c'4e4d4-c4-c4=B4-] [d2-c2-=B2-C2]| \
[d/2-c/2-=B/2-=A,/2][d/2-c/2-=B/2-C/2][d/2-c/2-=B/2-][d/2-c/2-=B/2-F/2] [d/2-c/2-=B/2-A/2][d/2-c/2-=B/2-F/2][d/2-c/2-=B/2-][d/2-c/2-=B/2-C/2] [d/2-c/2-=B/2-A,/2][d/2-c/2-=B/2-C/2][d/2-c/2-=B/2-][d/2-c/2-=B/2-F/2]| \
[d/2-c/2-=B/2-C/2][d/2-c/2-=B/2-F/2][d/2-c/2-=B/2-][d/2-c/2-=B/2-A/2] [d/2-c/2-c/2=B/2-][d/2-c/2-=B/2-A/2][d/2-c/2-=B/2-][d/2-c/2-=B/2-F/2] [d/2-c/2-=B/2-C/2][d/2-c/2-=B/2-F/2][d/2-c/2-=B/2-][d/2-c/2-=B/2-A/2]| \
[d/2-c/2-=B/2-_G/2][d/2-c/2-=B/2-A/2][d/2-c/2-=B/2-][d/2-c/2-c/2=B/2-] [d/2-c/2-=B/2-=G/2][d/2-c/2-=B/2-_B/2][d/2-c/2-=B/2-][d/2-c/2-c/2=B/2-] [d/2-c/2-=B/2-G/2][d/2-c/2-=B/2-_B/2][d/2-c/2-=B/2-][d/2-_d/2c/2-=B/2-]|
[=d/2-c/2-=B/2-E/2][d/2-c/2-=B/2-_B/2][d/2-c/2-=B/2-][d/2-d/2c/2-=B/2-] [d/2-c/2-=B/2-E/2][d/2-c/2-=B/2-A/2][d/2-c/2-=B/2-][d/2-c/2-c/2=B/2-] [d/2-c/2-=B/2-E/2][d/2-c/2-=B/2-G/2][d/2-c/2-=B/2-][d/2-c/2-=B/2-_B/2]| \
[d/2-c/2-=B/2-A/2][d-c-c=B-][f/2d/2-c/2-=B/2-] [a/2d/2-c/2-=B/2-][f/2d/2-c/2-=B/2-][d/2-c/2-=B/2-][d/2-c/2-c/2=B/2-] [d/2-c/2-=B/2-A/2][d-c-c=B-][f/2d/2-c/2-=B/2-]| \
[d/2-c/2-c/2=B/2-][f/2d/2-c/2-=B/2-][d/2-c/2-=B/2-][a/2d/2-c/2-=B/2-] [c'/2d/2-c/2-=B/2-][a/2d/2-c/2-=B/2-][d/2-c/2-=B/2-][f/2d/2-c/2-=B/2-] [d/2-c/2-c/2=B/2-][f/2d/2-c/2-=B/2-][d/2-c/2-=B/2-][a/2d/2-c/2-=B/2-]| \
[_g/2d/2-c/2-=B/2-][a/2d/2-c/2-=B/2-][d/2-c/2-=B/2-][c'/2d/2-c/2-=B/2-] [=g/2d/2-c/2-=B/2-][_b/2d/2-c/2-=B/2-][d/2-c/2-=B/2-][c'/2d/2-c/2-=B/2-] [g/2d/2-c/2-=B/2-][_b/2d/2-c/2-=B/2-][d/2-c/2-=B/2-][_d'/2=d/2-c/2-=B/2-]|
[e/2d/2-c/2-=B/2-][_b/2d/2-c/2-=B/2-][d/2-c/2-=B/2-][d'/2d/2-c/2-=B/2-] [e/2d/2-c/2-=B/2-][a/2d/2-c/2-=B/2-][d/2-c/2-=B/2-][c'/2d/2-c/2-=B/2-] [e/2d/2-c/2-=B/2-][g/2d/2-c/2-=B/2-][d/2-c/2-=B/2-][_b/2d/2-c/2-=B/2-]| \
[e/2d/2-c/2-=B/2-][g/2d/2-c/2-=B/2-][d/2-c/2-=B/2-][a/2d/2-c/2-=B/2-] [d/2-d/2-c/2-=B/2-][f/2d/2-d/2c/2-=B/2-][d/2-c/2-=B/2-][a/2d/2-c/2-=B/2-] [d/2-c/2-c/2=B/2-][e/2d/2-c/2-=B/2-][d/2-c/2-=B/2-][a/2d/2-c/2-=B/2-]| \
[d/2-c/2-c/2=B/2-][d-dc-=B-][a/2d/2-c/2-=B/2-] [d/2-c/2-=B/2-_B/2][d/2-d/2c/2-=B/2-][d/2-c/2-=B/2-][g/2d/2-c/2-=B/2-] [d/2-c/2-=B/2-A/2][d/2-d/2c/2-=B/2-][d/2-c/2-=B/2-][f/2d/2-c/2-=B/2-]| \
[d/2-c/2-=B/2-G/2][d-c-c=B-][e/2d/2-c/2-=B/2-] [d/2-c/2-=B/2-A/2][d/2-c/2-c/2=B/2-][d/2-c/2-=B/2-][f/2d/2-c/2-=B/2-] [d/2-c/2-=B/2-_B/2][d/2-c/2-c/2=B/2-][d/2-c/2-=B/2-][g/2d/2-c/2-=B/2-]|
[d/2-c/2-=B/2-A/2][d/2-c/2-c/2=B/2-][d/2-c/2-=B/2-][f/2d/2-c/2-=B/2-] [d/2-c/2-c/2=B/2-][d/2-c/2-=B/2-A/2][d/2-c/2-=B/2-][d/2-c/2-=B/2-F/2] [d/2-c/2-=B/2-A/2][d/2-c/2-=B/2-F/2][d/2-c/2-=B/2-][d/2-c/2-=B/2-C/2]| \
[d/2-c/2-=B/2-A,/2][d/2-c/2-=B/2-C/2][d/2-c/2-=B/2-][d/2-c/2-=B/2-F/2] [d/2-c/2-=B/2-A/2][d/2-c/2-=B/2-F/2][d/2-c/2-=B/2-][d/2-c/2-=B/2-C/2] [d/2-c/2-=B/2-A,/2][d/2-c/2-=B/2-C/2][d/2-c/2-=B/2-][d/2-c/2-=B/2-F/2]| \
[d/2-c/2-=B/2-C/2][d/2-c/2-=B/2-F/2][d/2-c/2-=B/2-][d/2-c/2-=B/2-A/2] [d/2-c/2-c/2=B/2-][d/2-c/2-=B/2-A/2][d/2-c/2-=B/2-][d/2-c/2-=B/2-F/2] [d/2-c/2-=B/2-C/2][d/2-c/2-=B/2-F/2][d/2-c/2-=B/2-][d/2-c/2-=B/2-A/2]| \
[d/2-c/2-=B/2-_G/2][d/2-c/2-=B/2-A/2][d/2-c/2-=B/2-][d/2-c/2-c/2=B/2-] [d/2-c/2-=B/2-=G/2][d/2-c/2-=B/2-_B/2][d/2-c/2-=B/2-][d/2-c/2-c/2=B/2-] [d/2-c/2-=B/2-G/2][d/2-c/2-=B/2-_B/2][d/2-c/2-=B/2-][d/2-_d/2c/2-=B/2-]|
[=d/2-c/2-=B/2-E/2][d/2-c/2-=B/2-_B/2][d/2-c/2-=B/2-][d/2-d/2c/2-=B/2-] [d/2-c/2-=B/2-E/2][d/2-c/2-=B/2-A/2][d/2-c/2-=B/2-][d/2-c/2-c/2=B/2-] [d/2-c/2-=B/2-E/2][d/2-c/2-=B/2-G/2][d/2-c/2-=B/2-][d/2-c/2-=B/2-_B/2]| \
[d/2-c/2-=B/2-A/2][d-c-c=B-][f/2d/2-c/2-=B/2-] [a/2d/2-c/2-=B/2-][f/2d/2-c/2-=B/2-][d/2-c/2-=B/2-][d/2-c/2-c/2=B/2-] [d/2-c/2-=B/2-A/2][d-c-c=B-][f/2d/2-c/2-=B/2-]| \
[d/2-c/2-c/2=B/2-][f/2d/2-c/2-=B/2-][d/2-c/2-=B/2-][a/2d/2-c/2-=B/2-] [c'/2d/2-c/2-=B/2-][a/2d/2-c/2-=B/2-][d/2-c/2-=B/2-][f/2d/2-c/2-=B/2-] [d/2-c/2-c/2=B/2-][f/2d/2-c/2-=B/2-][d/2-c/2-=B/2-][a/2d/2-c/2-=B/2-]| \
[_g/2d/2-c/2-=B/2-][a/2d/2-c/2-=B/2-][d/2-c/2-=B/2-][c'/2d/2-c/2-=B/2-] [=g/2d/2-c/2-=B/2-][_b/2d/2-c/2-=B/2-][d/2-c/2-=B/2-][c'/2d/2-c/2-=B/2-] [g/2d/2-c/2-=B/2-][_b/2d/2-c/2-=B/2-][d/2-c/2-=B/2-][_d'/2=d/2-c/2-=B/2-]|
[e/2d/2-c/2-=B/2-][_b/2d/2-c/2-=B/2-][d/2-c/2-=B/2-][d'/2d/2-c/2-=B/2-] [e/2d/2-c/2-=B/2-][a/2d/2-c/2-=B/2-][d/2-c/2-=B/2-][c'/2d/2-c/2-=B/2-] [e/2d/2-c/2-=B/2-][g/2d/2-c/2-=B/2-][d/2-c/2-=B/2-][_b/2d/2-c/2-=B/2-]| \
[e/2d/2-c/2-=B/2-][g/2d/2-c/2-=B/2-][d/2-c/2-=B/2-][a/2d/2-c/2-=B/2-] [d/2-d/2-c/2-=B/2-][f/2d/2-d/2c/2-=B/2-][d/2-c/2-=B/2-][a/2d/2-c/2-=B/2-] [d/2-c/2-c/2=B/2-][e/2d/2-c/2-=B/2-][d/2-c/2-=B/2-][a/2d/2-c/2-=B/2-]| \
[d/2-c/2-c/2=B/2-][d-dc-=B-][a/2d/2-c/2-=B/2-] [d/2-c/2-=B/2-_B/2][d/2-d/2c/2-=B/2-][d/2-c/2-=B/2-][g/2d/2-c/2-=B/2-] [d/2-c/2-=B/2-A/2][d/2-d/2c/2-=B/2-][d/2-c/2-=B/2-][f/2d/2-c/2-=B/2-]| \
[d/2-c/2-=B/2-G/2][d-c-c=B-][e/2d/2-c/2-=B/2-] [d/2-c/2-=B/2-A/2][d/2-c/2-c/2=B/2-][d/2-c/2-=B/2-][f/2d/2-c/2-=B/2-] [d/2-c/2-=B/2-_B/2][d/2-c/2-c/2=B/2-][d/2-c/2-=B/2-][g/2d/2-c/2-=B/2-]|
[d/2-c/2-=B/2-A/2][d/2-c/2-c/2=B/2-][d/2-c/2-=B/2-][f/2d/2-c/2-=B/2-] [d/2-c/2-c/2=B/2-][d/2-c/2-=B/2-A/2][d/2-c/2-=B/2-][d/2-c/2-=B/2-F/2] [d/2-c/2-=B/2-A/2][d/2-c/2-=B/2-F/2][d/2-c/2-=B/2-][d/2-c/2-=B/2-C/2]| \
[d/2-c/2-=B/2-_A,/2][d/2-c/2-=B/2-C/2][d/2-c/2-=B/2-][d/2-c/2-=B/2-F/2] [d/2-c/2-=B/2-_A/2][d/2-c/2-=B/2-F/2][d/2-c/2-=B/2-][d/2-c/2-=B/2-C/2] [d/2-c/2-=B/2-_A,/2][d/2-c/2-=B/2-C/2][d/2-c/2-=B/2-][d/2-c/2-=B/2-F/2]| \
[d/2-c/2-=B/2-C/2][d/2-c/2-=B/2-F/2][d/2-c/2-=B/2-][d/2-c/2-=B/2-_A/2] [d/2-c/2-c/2=B/2-][d/2-c/2-=B/2-_A/2][d/2-c/2-=B/2-][d/2-c/2-=B/2-F/2] [d/2-c/2-=B/2-C/2][d/2-c/2-=B/2-F/2][d/2-c/2-=B/2-][d/2-c/2-=B/2-_A/2]| \
[d/2-c/2-=B/2-_G/2][d/2-c/2-=B/2-=A/2][d/2-c/2-=B/2-][d/2-c/2-c/2=B/2-] [d/2-c/2-=B/2-=G/2][d/2-c/2-=B/2-_B/2][d/2-c/2-=B/2-][d/2-c/2-c/2=B/2-] [d/2-c/2-=B/2-_G/2][d/2-c/2-=B/2-A/2][d/2-c/2-=B/2-][d/2-c/2-c/2=B/2-]|
[d/2-c/2-=B/2-=G/2][d/2-c/2-=B/2-_B/2][d/2-c/2-=B/2-][d/2-_d/2c/2-=B/2-] [=d/2-c/2-=B/2-E/2][d/2-c/2-=B/2-_A/2][d/2-c/2-=B/2-][d/2-c/2-c/2=B/2-] [d/2-c/2-=B/2-E/2][d/2-c/2-=B/2-G/2][d/2-c/2-=B/2-][d/2-c/2-=B/2-_B/2]| \
[d/2-c/2-=B/2-_A/2][d-c-c=B-][f/2d/2-c/2-=B/2-] [_a/2d/2-c/2-=B/2-][f/2d/2-c/2-=B/2-][d/2-c/2-=B/2-][d/2-c/2-c/2=B/2-] [d/2-c/2-=B/2-_A/2][d-c-c=B-][f/2d/2-c/2-=B/2-]| \
[d/2-c/2-c/2=B/2-][f/2d/2-c/2-=B/2-][d/2-c/2-=B/2-][_a/2d/2-c/2-=B/2-] [c'/2d/2-c/2-=B/2-][_a/2d/2-c/2-=B/2-][d/2-c/2-=B/2-][f/2d/2-c/2-=B/2-] [d/2-c/2-c/2=B/2-][f/2d/2-c/2-=B/2-][d/2-c/2-=B/2-][_a/2d/2-c/2-=B/2-]| \
[g/2d/2-c/2-=B/2-][_b/2d/2-c/2-=B/2-][d/2-c/2-=B/2-][c'/2d/2-c/2-=B/2-] [g/2d/2-c/2-=B/2-][_b/2d/2-c/2-=B/2-][d/2-c/2-=B/2-][d'/2d/2-c/2-=B/2-] [g/2d/2-c/2-=B/2-][_b/2d/2-c/2-=B/2-][d/2-c/2-=B/2-][e'/2d/2-c/2-=B/2-]|
[f/2d/2-c/2-=B/2-][_a/2d/2-c/2-=B/2-][d/2-c/2-=B/2-][f'/2d/2-c/2-=B/2-] [g/2d/2-c/2-=B/2-][_b/2d/2-c/2-=B/2-][d/2-c/2-=B/2-][g'/2d/2-c/2-=B/2-] [_a/2d/2-c/2-=B/2-][c'/2d/2-c/2-=B/2-][d/2-c/2-=B/2-][_a'/2d/2-c/2-=B/2-]| \
[_b/2d/2-c/2-=B/2-][_d'/2=d/2-c/2-=B/2-][d/2-c/2-=B/2-][_b'/2d/2-c/2-=B/2-] [c'/2d/2-c/2-=B/2-][_e'/2d/2-c/2-=B/2-][d/2-c/2-=B/2-][c''/2d/2-c/2-=B/2-] [_d'/2=d/2-c/2-=B/2-][f'/2d/2-c/2-=B/2-][d/2-c/2-=B/2-][_d''/2=d/2-c/2-=B/2-]| \
[c'/2d/2-c/2-=B/2-][_a'/2d/2-c/2-=B/2-][d/2-c/2-=B/2-][c''/2d/2-c/2-=B/2-] [_d'/2=d/2-c/2-=B/2-][_b'/2d/2-c/2-=B/2-][d/2-c/2-=B/2-][_d''/2=d/2-c/2-=B/2-] [_e'/2d/2-c/2-=B/2-][c''/2d/2-c/2-=B/2-][d/2-c/2-=B/2-][_e''/2d/2-c/2-=B/2-]| \
[f'/2d/2-c/2-=B/2-][_a'/2d/2-c/2-=B/2-][d/2-c/2-=B/2-][_d''/2=d/2-c/2-=B/2-] [f''/2d/2-c/2-=B/2-][_d''/2=d/2-c/2-=B/2-][d/2-c/2-=B/2-][_a'/2d/2-c/2-=B/2-] [_d''/2=d/2-c/2-=B/2-][_a'/2d/2-c/2-=B/2-][d/2-c/2-=B/2-][f'/2d/2-c/2-=B/2-]|
[_d'/2=d/2-c/2-=B/2-][f'/2d/2-c/2-=B/2-][d/2-c/2-=B/2-][_a'/2d/2-c/2-=B/2-] [_d''/2=d/2-c/2-=B/2-][_a'/2d/2-c/2-=B/2-][d/2-c/2-=B/2-][f'/2d/2-c/2-=B/2-] [_a'/2d/2-c/2-=B/2-][f'/2d/2-c/2-=B/2-][d/2-c/2-=B/2-][_d'/2=d/2-c/2-=B/2-]| \
[f/2d/2-c/2-=B/2-][_a/2d/2-c/2-=B/2-][d/2-c/2-=B/2-][_d'/2=d/2-c/2-=B/2-] [f'/2d/2-c/2-=B/2-][_d'/2=d/2-c/2-=B/2-][d/2-c/2-=B/2-][_a/2d/2-c/2-=B/2-] [_d'/2=d/2-c/2-=B/2-][_a/2d/2-c/2-=B/2-][d/2-c/2-=B/2-][f/2d/2-c/2-=B/2-]| \
[d/2-_d/2c/2-=B/2-][f/2=d/2-c/2-=B/2-][d/2-c/2-=B/2-][_a/2d/2-c/2-=B/2-] [_d'/2=d/2-c/2-=B/2-][_a/2d/2-c/2-=B/2-][d/2-c/2-=B/2-][f/2d/2-c/2-=B/2-] [_a/2d/2-c/2-=B/2-][f/2d/2-c/2-=B/2-][d/2-c/2-=B/2-][d/2-_d/2c/2-=B/2-]| \
[_a/2=d/2-c/2-=B/2-][f/2d/2-c/2-=B/2-][d/2-c/2-=B/2-][d/2-_d/2c/2-=B/2-] [f/2=d/2-c/2-=B/2-][d/2-_d/2c/2-=B/2-][=d/2-c/2-=B/2-][d/2-c/2-=B/2-_A/2] [d/2-_d/2c/2-=B/2-][=d/2-c/2-=B/2-_A/2][d/2-c/2-=B/2-][d/2-c/2-=B/2-F/2]|
[d/2-_d/2c/2-=B/2-][=d/2-c/2-=B/2-_A/2][d/2-c/2-=B/2-][d/2-c/2-=B/2-F/2] [d/2-c/2-=B/2-_A/2][d/2-c/2-=B/2-F/2][d/2-c/2-=B/2-][d/2-c/2-=B/2-_D/2] [=d/2-c/2-=B/2-F/2][d/2-c/2-=B/2-_D/2][=d/2-c/2-=B/2-][d/2-c/2-=B/2-_A,/2]| \
[d/2-c/2-=B/2-F,/2][d/2-c/2-=B/2-_A,/2][d/2-c/2-=B/2-][d/2-c/2-=B/2-_D/2] [=d/2-c/2-=B/2-F/2][d/2-c/2-=B/2-_D/2][=d/2-c/2-=B/2-][d/2-c/2-=B/2-_A,/2] [d/2-c/2-=B/2-F,/2][d/2-c/2-=B/2-_A,/2][d/2-c/2-=B/2-][d/2-c/2-=B/2-_D/2]| \
[=d/2-c/2-=B/2-F,/2][d/2-c/2-=B/2-_B,/2][d/2-c/2-=B/2-][d/2-c/2-=B/2-_D/2] [=d/2-c/2-=B/2-F/2][d/2-c/2-=B/2-_D/2][=d/2-c/2-=B/2-][d/2-c/2-=B/2-_B,/2] [d/2-c/2-=B/2-F,/2][d/2-c/2-=B/2-_B,/2][d/2-c/2-=B/2-][d/2-c/2-=B/2-_D/2]| \
[=d/2-c/2-=B/2-F,/2][d/2-c/2-=B/2-=A,/2][d/2-c/2-=B/2-][d/2-c/2-=B/2-C/2] [d/2-c/2-=B/2-F/2][d/2-c/2-=B/2-C/2][d/2-c/2-=B/2-][d/2-c/2-=B/2-A,/2] [d/2-c/2-=B/2-F,/2][d/2-c/2-=B/2-A,/2][d/2-c/2-=B/2-][d/2-c/2-=B/2-C/2]|
[d/2-c/2-=B/2-G,/2][d/2-c/2-=B/2-_B,/2][d/2-c/2-=B/2-][d/2-c/2-=B/2-C/2] [d/2-c/2-=B/2-=E/2][d/2-c/2-=B/2-C/2][d/2-c/2-=B/2-][d/2-c/2-=B/2-_B,/2] [d/2-c/2-=B/2-G,/2][d/2-c/2-=B/2-_B,/2][d/2-c/2-=B/2-][d/2-c/2-=B/2-C/2]| \
[d/2-c/2-=B/2-A,/2][d/2-c/2-=B/2-C/2][d/2-c/2-=B/2-][d/2-c/2-=B/2-F/2] [d/2-c/2-=B/2-A/2][d/2-c/2-=B/2-F/2][d/2-c/2-=B/2-][d/2-c/2-=B/2-C/2] [d/2-c/2-=B/2-A,/2][d/2-c/2-=B/2-C/2][d/2-c/2-=B/2-][d/2-c/2-=B/2-F/2]| \
[d/2-c/2-=B/2-C/2][d/2-c/2-=B/2-F/2][d/2-c/2-=B/2-][d/2-c/2-=B/2-A/2] [d/2-c/2-c/2=B/2-][d/2-c/2-=B/2-A/2][d/2-c/2-=B/2-][d/2-c/2-=B/2-F/2] [d/2-c/2-=B/2-C/2][d/2-c/2-=B/2-F/2][d/2-c/2-=B/2-][d/2-c/2-=B/2-A/2]| \
[d/2-c/2-=B/2-_G/2][d/2-c/2-=B/2-A/2][d/2-c/2-=B/2-][d/2-c/2-c/2=B/2-] [d/2-c/2-=B/2-=G/2][d/2-c/2-=B/2-_B/2][d/2-c/2-=B/2-][d/2-c/2-c/2=B/2-] [d/2-c/2-=B/2-G/2][d/2-c/2-=B/2-_B/2][d/2-c/2-=B/2-][d/2-_d/2c/2-=B/2-]|
[=d/2-c/2-=B/2-E/2][d/2-c/2-=B/2-_B/2][d/2-c/2-=B/2-][d/2-d/2c/2-=B/2-] [d/2-c/2-=B/2-E/2][d/2-c/2-=B/2-A/2][d/2-c/2-=B/2-][d/2-c/2-c/2=B/2-] [d/2-c/2-=B/2-E/2][d/2-c/2-=B/2-G/2][d/2-c/2-=B/2-][d/2-c/2-=B/2-_B/2]| \
[d/2-c/2-=B/2-A/2][d-c-c=B-][f/2d/2-c/2-=B/2-] [a/2d/2-c/2-=B/2-][f/2d/2-c/2-=B/2-][d/2-c/2-=B/2-][d/2-c/2-c/2=B/2-] [d/2-c/2-=B/2-A/2][d-c-c=B-][f/2d/2-c/2-=B/2-]| \
[d/2-c/2-c/2=B/2-][f/2d/2-c/2-=B/2-][d/2-c/2-=B/2-][a/2d/2-c/2-=B/2-] [c'/2d/2-c/2-=B/2-][a/2d/2-c/2-=B/2-][d/2-c/2-=B/2-][f/2d/2-c/2-=B/2-] [d/2-c/2-c/2=B/2-][f/2d/2-c/2-=B/2-][d/2-c/2-=B/2-][a/2d/2-c/2-=B/2-]| \
[_g/2d/2-c/2-=B/2-][a/2d/2-c/2-=B/2-][d/2-c/2-=B/2-][c'/2d/2-c/2-=B/2-] [=g/2d/2-c/2-=B/2-][_b/2d/2-c/2-=B/2-][d/2-c/2-=B/2-][c'/2d/2-c/2-=B/2-] [g/2d/2-c/2-=B/2-][_b/2d/2-c/2-=B/2-][d/2-c/2-=B/2-][_d'/2=d/2-c/2-=B/2-]|
[e/2d/2-c/2-=B/2-][_b/2d/2-c/2-=B/2-][d/2-c/2-=B/2-][d'/2d/2-c/2-=B/2-] [e/2d/2-c/2-=B/2-][a/2d/2-c/2-=B/2-][d/2-c/2-=B/2-][c'/2d/2-c/2-=B/2-] [e/2d/2-c/2-=B/2-][g/2d/2-c/2-=B/2-][d/2-c/2-=B/2-][_b/2d/2-c/2-=B/2-]| \
[e/2d/2-c/2-=B/2-][g/2d/2-c/2-=B/2-][d/2-c/2-=B/2-][a/2d/2-c/2-=B/2-] [d/2-d/2-c/2-=B/2-][f/2d/2-d/2c/2-=B/2-][d/2-c/2-=B/2-][a/2d/2-c/2-=B/2-] [d/2-c/2-c/2=B/2-][e/2d/2-c/2-=B/2-][d/2-c/2-=B/2-][a/2d/2-c/2-=B/2-]| \
[d/2-c/2-c/2=B/2-][d-dc-=B-][a/2d/2-c/2-=B/2-] [d/2-c/2-=B/2-_B/2][d/2-d/2c/2-=B/2-][d/2-c/2-=B/2-][g/2d/2-c/2-=B/2-] [d/2-c/2-=B/2-A/2][d/2-d/2c/2-=B/2-][d/2-c/2-=B/2-][f/2d/2-c/2-=B/2-]| \
[d/2-c/2-=B/2-G/2][d-c-c=B-][e/2d/2-c/2-=B/2-] [d/2-c/2-=B/2-A/2][d/2-c/2-c/2=B/2-][d/2-c/2-=B/2-][f/2d/2-c/2-=B/2-] [d/2-c/2-=B/2-_B/2][d/2-c/2-c/2=B/2-][d/2-c/2-=B/2-][g/2d/2-c/2-=B/2-]|
[d/2-c/2-=B/2-A/2][d/2-c/2-c/2=B/2-][d/2-c/2-=B/2-][f/2d/2-c/2-=B/2-] [d/2-c/2-c/2=B/2-][d/2-c/2-=B/2-A/2][d/2-c/2-=B/2-][d/2-c/2-=B/2-F/2] [d/2-c/2-=B/2-A/2][d/2-c/2-=B/2-F/2][d/2-c/2-=B/2-][d/2-c/2-=B/2-C/2]| \
[d/2-c/2-=B/2-_A,/2][d/2-c/2-=B/2-C/2][d/2-c/2-=B/2-][d/2-c/2-=B/2-F/2] [d/2-c/2-=B/2-_A/2][d/2-c/2-=B/2-F/2][d/2-c/2-=B/2-][d/2-c/2-=B/2-C/2] [d/2-c/2-=B/2-_A,/2][d/2-c/2-=B/2-C/2][d/2-c/2-=B/2-][d/2-c/2-=B/2-F/2]| \
[d/2-c/2-=B/2-C/2][d/2-c/2-=B/2-F/2][d/2-c/2-=B/2-][d/2-c/2-=B/2-_A/2] [d/2-c/2-c/2=B/2-][d/2-c/2-=B/2-_A/2][d/2-c/2-=B/2-][d/2-c/2-=B/2-F/2] [d/2-c/2-=B/2-C/2][d/2-c/2-=B/2-F/2][d/2-c/2-=B/2-][d/2-c/2-=B/2-_A/2]| \
[d/2-c/2-=B/2-_G/2][d/2-c/2-=B/2-=A/2][d/2-c/2-=B/2-][d/2-c/2-c/2=B/2-] [d/2-c/2-=B/2-=G/2][d/2-c/2-=B/2-_B/2][d/2-c/2-=B/2-][d/2-c/2-c/2=B/2-] [d/2-c/2-=B/2-_G/2][d/2-c/2-=B/2-A/2][d/2-c/2-=B/2-][d/2-c/2-c/2=B/2-]|
[d/2-c/2-=B/2-=G/2][d/2-c/2-=B/2-_B/2][d/2-c/2-=B/2-][d/2-_d/2c/2-=B/2-] [=d/2-c/2-=B/2-E/2][d/2-c/2-=B/2-_A/2][d/2-c/2-=B/2-][d/2-c/2-c/2=B/2-] [d/2-c/2-=B/2-E/2][d/2-c/2-=B/2-G/2][d/2-c/2-=B/2-][d/2-c/2-=B/2-_B/2]| \
[d/2-c/2-=B/2-_A/2][d-c-c=B-][f/2d/2-c/2-=B/2-] [_a/2d/2-c/2-=B/2-][f/2d/2-c/2-=B/2-][d/2-c/2-=B/2-][d/2-c/2-c/2=B/2-] [d/2-c/2-=B/2-_A/2][d-c-c=B-][f/2d/2-c/2-=B/2-]| \
[d/2-c/2-c/2=B/2-][f/2d/2-c/2-=B/2-][d/2-c/2-=B/2-][_a/2d/2-c/2-=B/2-] [c'/2d/2-c/2-=B/2-][_a/2d/2-c/2-=B/2-][d/2-c/2-=B/2-][f/2d/2-c/2-=B/2-] [d/2-c/2-c/2=B/2-][f/2d/2-c/2-=B/2-][d/2-c/2-=B/2-][_a/2d/2-c/2-=B/2-]| \
[g/2d/2-c/2-=B/2-][_b/2d/2-c/2-=B/2-][d/2-c/2-=B/2-][c'/2d/2-c/2-=B/2-] [g/2d/2-c/2-=B/2-][_b/2d/2-c/2-=B/2-][d/2-c/2-=B/2-][d'/2d/2-c/2-=B/2-] [g/2d/2-c/2-=B/2-][_b/2d/2-c/2-=B/2-][d/2-c/2-=B/2-][e'/2d/2-c/2-=B/2-]|
[f/2d/2-c/2-=B/2-][_a/2d/2-c/2-=B/2-][d/2-c/2-=B/2-][f'/2d/2-c/2-=B/2-] [g/2d/2-c/2-=B/2-][_b/2d/2-c/2-=B/2-][d/2-c/2-=B/2-][g'/2d/2-c/2-=B/2-] [_a/2d/2-c/2-=B/2-][c'/2d/2-c/2-=B/2-][d/2-c/2-=B/2-][_a'/2d/2-c/2-=B/2-]| \
[_b/2d/2-c/2-=B/2-][_d'/2=d/2-c/2-=B/2-][d/2-c/2-=B/2-][_b'/2d/2-c/2-=B/2-] [c'/2d/2-c/2-=B/2-][_e'/2d/2-c/2-=B/2-][d/2-c/2-=B/2-][c''/2d/2-c/2-=B/2-] [_d'/2=d/2-c/2-=B/2-][f'/2d/2-c/2-=B/2-][d/2-c/2-=B/2-][_d''/2=d/2-c/2-=B/2-]| \
[c'/2d/2-c/2-=B/2-][_a'/2d/2-c/2-=B/2-][d/2-c/2-=B/2-][c''/2d/2-c/2-=B/2-] [_d'/2=d/2-c/2-=B/2-][_b'/2d/2-c/2-=B/2-][d/2-c/2-=B/2-][_d''/2=d/2-c/2-=B/2-] [_e'/2d/2-c/2-=B/2-][c''/2d/2-c/2-=B/2-][d/2-c/2-=B/2-][_e''/2d/2-c/2-=B/2-]| \
[f'/2d/2-c/2-=B/2-][_a'/2d/2-c/2-=B/2-][d/2-c/2-=B/2-][_d''/2=d/2-c/2-=B/2-] [f''/2d/2-c/2-=B/2-][_d''/2=d/2-c/2-=B/2-][d/2-c/2-=B/2-][_a'/2d/2-c/2-=B/2-] [_d''/2=d/2-c/2-=B/2-][_a'/2d/2-c/2-=B/2-][d/2-c/2-=B/2-][f'/2d/2-c/2-=B/2-]|
[_d'/2=d/2-c/2-=B/2-][f'/2d/2-c/2-=B/2-][d/2-c/2-=B/2-][_a'/2d/2-c/2-=B/2-] [_d''/2=d/2-c/2-=B/2-][_a'/2d/2-c/2-=B/2-][d/2-c/2-=B/2-][f'/2d/2-c/2-=B/2-] [_a'/2d/2-c/2-=B/2-][f'/2d/2-c/2-=B/2-][d/2-c/2-=B/2-][_d'/2=d/2-c/2-=B/2-]| \
[f/2d/2-c/2-=B/2-][_a/2d/2-c/2-=B/2-][d/2-c/2-=B/2-][_d'/2=d/2-c/2-=B/2-] [f'/2d/2-c/2-=B/2-][_d'/2=d/2-c/2-=B/2-][d/2-c/2-=B/2-][_a/2d/2-c/2-=B/2-] [_d'/2=d/2-c/2-=B/2-][_a/2d/2-c/2-=B/2-][d/2-c/2-=B/2-][f/2d/2-c/2-=B/2-]| \
[d/2-_d/2c/2-=B/2-][f/2=d/2-c/2-=B/2-][d/2-c/2-=B/2-][_a/2d/2-c/2-=B/2-] [_d'/2=d/2-c/2-=B/2-][_a/2d/2-c/2-=B/2-][d/2-c/2-=B/2-][f/2d/2-c/2-=B/2-] [_a/2d/2-c/2-=B/2-][f/2d/2-c/2-=B/2-][d/2-c/2-=B/2-][d/2-_d/2c/2-=B/2-]| \
[_a/2=d/2-c/2-=B/2-][f/2d/2-c/2-=B/2-][d/2-c/2-=B/2-][d/2-_d/2c/2-=B/2-] [f/2=d/2-c/2-=B/2-][d/2-_d/2c/2-=B/2-][=d/2-c/2-=B/2-][d/2-c/2-=B/2-_A/2] [d/2-_d/2c/2-=B/2-][=d/2-c/2-=B/2-_A/2][d/2-c/2-=B/2-][d/2-c/2-=B/2-F/2]|
[d/2-_d/2c/2-=B/2-][=d/2-c/2-=B/2-_A/2][d/2-c/2-=B/2-][d/2-c/2-=B/2-F/2] [d/2-c/2-=B/2-_A/2][d/2-c/2-=B/2-F/2][d/2-c/2-=B/2-][d/2-c/2-=B/2-_D/2] [=d/2-c/2-=B/2-F/2][d/2-c/2-=B/2-_D/2][=d/2-c/2-=B/2-][d/2-c/2-=B/2-_A,/2]| \
[d/2-c/2-=B/2-F,/2][d/2-c/2-=B/2-_A,/2][d/2-c/2-=B/2-][d/2-c/2-=B/2-_D/2] [=d/2-c/2-=B/2-F/2][d/2-c/2-=B/2-_D/2][=d/2-c/2-=B/2-][d/2-c/2-=B/2-_A,/2] [d/2-c/2-=B/2-F,/2][d/2-c/2-=B/2-_A,/2][d/2-c/2-=B/2-][d/2-c/2-=B/2-_D/2]| \
[=d/2-c/2-=B/2-F,/2][d/2-c/2-=B/2-_B,/2][d/2-c/2-=B/2-][d/2-c/2-=B/2-_D/2] [=d/2-c/2-=B/2-F/2][d/2-c/2-=B/2-_D/2][=d/2-c/2-=B/2-][d/2-c/2-=B/2-_B,/2] [d/2-c/2-=B/2-F,/2][d/2-c/2-=B/2-_B,/2][d/2-c/2-=B/2-][d/2-c/2-=B/2-_D/2]| \
[=d/2-c/2-=B/2-F,/2][d/2-c/2-=B/2-=A,/2][d/2-c/2-=B/2-][d/2-c/2-=B/2-C/2] [d/2-c/2-=B/2-F/2][d/2-c/2-=B/2-C/2][d/2-c/2-=B/2-][d/2-c/2-=B/2-A,/2] [d/2-c/2-=B/2-F,/2][d/2-c/2-=B/2-A,/2][d/2-c/2-=B/2-][d/2-c/2-=B/2-C/2]|
[d/2-c/2-=B/2-G,/2][d/2-c/2-=B/2-_B,/2][d/2-c/2-=B/2-][d/2-c/2-=B/2-C/2] [d/2-c/2-=B/2-=E/2][d/2-c/2-=B/2-C/2][d/2-c/2-=B/2-][d/2-c/2-=B/2-_B,/2] [d/2-c/2-=B/2-G,/2][d/2-c/2-=B/2-_B,/2][d/2-c/2-=B/2-][d/2-c/2-=B/2-C/2]| \
[d/2-c/2-=B/2-A,/2][d/2-c/2-=B/2-C/2][d/2-c/2-=B/2-][d/2-c/2-=B/2-F/2] [d/2-c/2-=B/2-A/2][d/2-c/2-=B/2-F/2][d/2-c/2-=B/2-][d/2-c/2-=B/2-C/2] [d/2-c/2-=B/2-A,/2][d/2-c/2-=B/2-C/2][d/2-c/2-=B/2-][d/2-c/2-=B/2-F/2]| \
[d/2-c/2-=B/2-C/2][d/2-c/2-=B/2-F/2][d/2-c/2-=B/2-][d/2-c/2-=B/2-A/2] [d/2-c/2-c/2=B/2-][d/2-c/2-=B/2-A/2][d/2-c/2-=B/2-][d/2-c/2-=B/2-F/2] [d/2-c/2-=B/2-C/2][d/2-c/2-=B/2-F/2][d/2-c/2-=B/2-][d/2-c/2-=B/2-A/2]| \
[d/2-c/2-=B/2-_G/2][d/2-c/2-=B/2-A/2][d/2-c/2-=B/2-][d/2-c/2-c/2=B/2-] [d/2-c/2-=B/2-=G/2][d/2-c/2-=B/2-_B/2][d/2-c/2-=B/2-][d/2-c/2-c/2=B/2-] [d/2-c/2-=B/2-G/2][d/2-c/2-=B/2-_B/2][d/2-c/2-=B/2-][d/2-_d/2c/2-=B/2-]|
[=d/2-c/2-=B/2-E/2][d/2-c/2-=B/2-_B/2][d/2-c/2-=B/2-][d/2-d/2c/2-=B/2-] [d/2-c/2-=B/2-E/2][d/2-c/2-=B/2-A/2][d/2-c/2-=B/2-][d/2-c/2-c/2=B/2-] [d/2-c/2-=B/2-E/2][d/2-c/2-=B/2-G/2][d/2-c/2-=B/2-][d/2-c/2-=B/2-_B/2]| \
[d/2-c/2-=B/2-A/2][d-c-c=B-][f/2d/2-c/2-=B/2-] [a/2d/2-c/2-=B/2-][f/2d/2-c/2-=B/2-][d/2-c/2-=B/2-][d/2-c/2-c/2=B/2-] [d/2-c/2-=B/2-A/2][d-c-c=B-][f/2d/2-c/2-=B/2-]| \
[d/2-c/2-c/2=B/2-][f/2d/2-c/2-=B/2-][d/2-c/2-=B/2-][a/2d/2-c/2-=B/2-] [c'/2d/2-c/2-=B/2-][a/2d/2-c/2-=B/2-][d/2-c/2-=B/2-][f/2d/2-c/2-=B/2-] [d/2-c/2-c/2=B/2-][f/2d/2-c/2-=B/2-][d/2-c/2-=B/2-][a/2d/2-c/2-=B/2-]| \
[_g/2d/2-c/2-=B/2-][a/2d/2-c/2-=B/2-][d/2-c/2-=B/2-][c'/2d/2-c/2-=B/2-] [=g/2d/2-c/2-=B/2-][_b/2d/2-c/2-=B/2-][d/2-c/2-=B/2-][c'/2d/2-c/2-=B/2-] [g/2d/2-c/2-=B/2-][_b/2d/2-c/2-=B/2-][d/2-c/2-=B/2-][_d'/2=d/2-c/2-=B/2-]|
[e/2d/2-c/2-=B/2-][_b/2d/2-c/2-=B/2-][d/2-c/2-=B/2-][d'/2d/2-c/2-=B/2-] [e/2d/2-c/2-=B/2-][a/2d/2-c/2-=B/2-][d/2-c/2-=B/2-][c'/2d/2-c/2-=B/2-] [e/2d/2-c/2-=B/2-][g/2d/2-c/2-=B/2-][d/2-c/2-=B/2-][_b/2d/2-c/2-=B/2-]| \
[e/2d/2-c/2-=B/2-][g/2d/2-c/2-=B/2-][d/2-c/2-=B/2-][a/2d/2-c/2-=B/2-] [d/2-d/2-c/2-=B/2-][f/2d/2-d/2c/2-=B/2-][d/2-c/2-=B/2-][a/2d/2-c/2-=B/2-] [d/2-c/2-c/2=B/2-][e/2d/2-c/2-=B/2-][d/2-c/2-=B/2-][a/2d/2-c/2-=B/2-]| \
[d/2-c/2-c/2=B/2-][d-dc-=B-][a/2d/2-c/2-=B/2-] [d/2-c/2-=B/2-_B/2][d/2-d/2c/2-=B/2-][d/2-c/2-=B/2-][g/2d/2-c/2-=B/2-] [d/2-c/2-=B/2-A/2][d/2-d/2c/2-=B/2-][d/2-c/2-=B/2-][f/2d/2-c/2-=B/2-]| \
[d/2-c/2-=B/2-G/2][d-c-c=B-][e/2d/2-c/2-=B/2-] [d/2-c/2-=B/2-A/2][d/2-c/2-c/2=B/2-][d/2-c/2-=B/2-][f/2d/2-c/2-=B/2-] [d/2-c/2-=B/2-_B/2][d/2-c/2-c/2=B/2-][d/2-c/2-=B/2-][g/2d/2-c/2-=B/2-]|
[d/2-c/2-=B/2-A/2][d/2-c/2-c/2=B/2-][d/2-c/2-=B/2-][f/2d/2-c/2-=B/2-] [d/2-c/2-c/2=B/2-][d/2-c/2-=B/2-A/2][d/2-c/2-=B/2-][d/2-c/2-=B/2-F/2] [d/2-c/2-=B/2-A/2][d/2-c/2-=B/2-F/2][d/2-c/2-=B/2-][d/2-c/2-=B/2-C/2]| \
[d/2-c/2-=B/2-A,/2][d/2-c/2-=B/2-C/2][d/2-c/2-=B/2-][d/2-c/2-=B/2-F/2] [d/2-c/2-=B/2-A/2][d/2-c/2-=B/2-F/2][d/2-c/2-=B/2-][d/2-c/2-=B/2-C/2] [d/2-c/2-=B/2-A,/2][d/2-c/2-=B/2-C/2][d/2-c/2-=B/2-][d/2-c/2-=B/2-F/2]| \
[d/2-c/2-=B/2-A,/2][d/2-c/2-=B/2-C/2][d/2-c/2-=B/2-][d/2-c/2-=B/2-F/2] [d/2-c/2-=B/2-A/2][d/2-c/2-=B/2-F/2][d/2-c/2-=B/2-][d/2-c/2-=B/2-C/2] [d/2-c/2-=B/2-A,/2][d/2-c/2-=B/2-C/2][d/2-c/2-=B/2-][d/2-c/2-=B/2-F/2]| \
[d/2-c/2-=B/2-_A,/2][d/2-c/2-=B/2-C/2][d/2-c/2-=B/2-][d/2-c/2-=B/2-F/2] [d/2-c/2-=B/2-_A/2][d/2-c/2-=B/2-F/2][d/2-c/2-=B/2-][d/2-c/2-=B/2-C/2] [d/2-c/2-=B/2-_A,/2][d/2-c/2-=B/2-C/2][d/2-c/2-=B/2-][d/2-c/2-=B/2-F/2]|
[d/2-c/2-=B/2-_A,/2][d/2-c/2-=B/2-D/2][d/2-c/2-=B/2-][d/2-c/2-=B/2-F/2] [d/2-c/2-=B/2-_A/2][d/2-c/2-=B/2-F/2][d/2-c/2-=B/2-][d/2-c/2-=B/2-D/2] [d/2-c/2-=B/2-_A,/2][d/2-c/2-=B/2-D/2][d/2-c/2-=B/2-][d/2-c/2-=B/2-F/2]| \
[d/2-c/2-=B/2-G,/2][d/2-c/2-=B/2-D/2][d/2-c/2-=B/2-][d/2-c/2-=B/2-F/2] [d/2-c/2-=B/2-G/2][d/2-c/2-=B/2-F/2][d/2-c/2-=B/2-][d/2-c/2-=B/2-D/2] [d/2-c/2-=B/2-G,/2][d/2-c/2-=B/2-D/2][d/2-c/2-=B/2-][d/2-c/2-=B/2-F/2]| \
[d/2-c/2-=B/2-G,/2][d/2-c/2-=B/2-D/2][d/2-c/2-=B/2-][d/2-c/2-=B/2-F/2] [d/2-c/2-=B/2-G/2][d/2-c/2-=B/2-F/2][d/2-c/2-=B/2-][d/2-c/2-=B/2-D/2] [d/2-c/2-=B/2-G,/2][d/2-c/2-=B/2-D/2][d/2-c/2-=B/2-][d/2-c/2-=B/2-F/2]| \
[d2-c2-=B2-G2] [d2-c2-=B2-G2] [d2-c2-=B2-G2]|
[d2-c2-=B2-G2] [d2-c2-=B2-G2] [d2-c2-=B2-G2]| \
[d2-c2-c2=B2-G2E2] [d3-c3-c3=B3-G3-E3-][d-dc-=B-GE]| \
[d2-c2-c2=B2-G2F2] [d3-c3-=B3-=B3G3-F3-][d-dc-=B-GF]| \
[d2-d2c2-=B2-] [d2-c2-c2=B2-G2] [d2-d2c2-=B2-G2F2]|
[e4d4-c4-=B4-G4E4] [d2-c2-=B2-G2]| \
[e2d2-c2-=B2-G2E2] [e3d3-c3-=B3-G3E3][fd-c-=B-GF]| \
[e2d2-c2-=B2-G2E2] [d3-d3c3-=B3-G3D3][ed-c-=B-GE]| \
[d2-d2c2-=B2-G2D2] [d2-c2-c2=B2-G2C2] [g3/2d3/2-d3/2-c3/2-=B3/2-G3/2-][f/2d/2-d/2c/2-=B/2-G/2]|
[e4d4-c4-c4=B4-G4] [g2d2-c2-=B2-]| \
[c'2g2e2d2-c2-=B2-] [c'3g3-e3-d3-c3-=B3-][d'ged-c-=B-]| \
[c'2g2f2d2-c2-=B2-] [=b3g3-f3-d3-c3-=B3-][d'gfd-c-=B-]| \
[d'2d2-c2-=B2-] [c'2g2d2-c2-=B2-] [d'2g2f2d2-c2-=B2-]|
[e'4g4e4d4-c4-=B4-] [g2d2-c2-=B2-]| \
[e'2g2e2d2-c2-=B2-] [e'3g3-e3-d3-c3-=B3-][f'ged-c-=B-]| \
[e'2_a2e2d2-c2-=B2-] [d'3_a3-e3-d3-c3-=B3-][e'_aed-c-=B-]| \
[d'2=a2e2d2-c2-=B2-] [c'/2a/2-e/2-d/2-c/2-=B/2-][d'/2a/2-e/2-d/2-c/2-=B/2-][c'/2a/2-e/2-d/2-c/2-=B/2-][c'/2=b/2a/2e/2d/2-c/2-=B/2-] [e'3/2=b3/2-f3/2-d3/2-c3/2-=B3/2-][d'/2=b/2f/2d/2-c/2-=B/2-]|
[c'4e4d4-c4-=B4-] [d-c-=B-][gd-c-c=B-G]| \
[g2d2-c2-c2=B2-G2] [g3d3-c3-c3=B3-G3][ed-c-=B-GE]| \
[e2d2-c2-=B2-G2E2] [e3d3-c3-=B3-G3E3][d-c-c=B-AE]| \
[d3/2-c3/2-c3/2=B3/2-A3/2E3/2][d/2-c/2-=B/2-] [d3/2-d3/2c3/2-=B3/2-G3/2F3/2][d/2-c/2-=B/2-] [f3/2d3/2-d3/2c3/2-=B3/2-=B3/2G3/2F3/2][d/2-c/2-=B/2-]|
[e4-d4-c4-c4-=B4-G4-E4-] [ed-c-c=B-GE][ad-c-c=B-A]| \
[a2d2-c2-c2=B2-A2] [a3d3-c3-c3=B3-A3][fd-c-c=B-A]| \
[f2d2-c2-c2=B2-A2] [f3d3-c3-c3=B3-A3][d-c-c=B-A]| \
[d3/2-c3/2-c3/2=B3/2-A3/2][d/2-c/2-=B/2-] [f3/2d3/2-_d3/2c3/2-=B3/2-_B3/2][=d/2-c/2-=B/2-] [_b3/2f3/2d3/2-_d3/2c3/2-=B3/2-_B3/2][=d/2-c/2-=B/2-]|
[a4-f4-d4-c4-c4-=B4-A4-] [afd-c-c=B-A][_bfd-c-=B-_B]| \
[b6f6d6-c6-=B6-_B6]| \
[_a2f2-d2-c2-=B2-=B2-] [g2f2d2-c2-=B2-=B2-] [fd-c-=B-=B][d/2-c/2-c/2=B/2-F/2][d/2-c/2-=B/2-]| \
[d4-c4-c4-=B4-F4-] [dc-c=B-F-][d/2-c/2=B/2F/2-][d/2-c/2-=B/2-F/2]|
[d/2-c/2-c/2-=B/2-][_e3/2d3/2-c3/2-c3/2-=B3/2-_G3/2-] [d2-d2c2-c2=B2-_G2-] [d2-c2-=B2-_G2]| \
[d2-c2-=B2-=G2=E2-C2-] [d4-c4-=B4-G4E4C4]| \
[d2-c2-=B2-G2F2-D2-=B,2-] [d2-c2-=B2-G2F2D2=B,2] [d2-c2-=B2-G2]| \
[d2-c2-c2=B2-G2E2] [d3-c3-c3=B3-G3-E3-][d-dc-=B-GE]|
[d2-c2-c2=B2-G2F2] [d3-c3-=B3-=B3G3-F3-][d-dc-=B-GF]| \
[d2-d2c2-=B2-] [d2-c2-c2=B2-G2] [d2-d2c2-=B2-G2F2]| \
[e4d4-c4-=B4-G4E4] [d2-c2-=B2-G2]| \
[e2d2-c2-=B2-G2E2] [e3d3-c3-=B3-G3E3][d-dc-=B-FD]|
[d2-d2c2-=B2-F2D2] [d3-_d3c3-=B3-E3_D3][=d-dc-=B-FD]| \
[d2-d2c2-=B2-F2D2] [d2-c2-c2=B2-E2C2] [d2-c2-=B2-=B2D2=B,2]| \
[d4-c4-c4=B4-E4C4] [g2d2-c2-=B2-]| \
[c'2g2e2d2-c2-=B2-] [c'3g3-e3-d3-c3-=B3-][d'ged-c-=B-]|
[c'2g2f2d2-c2-=B2-] [=b3g3-f3-d3-c3-=B3-][d'gfd-c-=B-]| \
[d'2d2-c2-=B2-] [c'2g2d2-c2-=B2-] [d'2g2f2d2-c2-=B2-]| \
[e'4g4e4d4-c4-=B4-] [g2d2-c2-=B2-]| \
[e'2g2e2d2-c2-=B2-] [e'3g3e3d3-c3-=B3-][d'fd-dc-=B-]|
[d'2f2d2-d2c2-=B2-] [_d'3e3=d3-_d3c3-=B3-][=d'fd-dc-=B-]| \
[d'2f2d2-d2c2-=B2-] [c'2e2d2-c2-c2=B2-] [=b2d2-d2c2-=B2-=B2]| \
[c'4e4d4-c4-c4=B4-] [d-c-=B-][d-dc-=B-FD]| \
[d2-d2c2-=B2-F2D2] [d2-c2-c2=B2-E2C2] [d2-c2-=B2-=B2D2=B,2]|
[d4-c4-c4-=B4-E4-C4-] [d-c-c=B-EC][fd-dc-=B-F]| \
[f2d2-d2c2-=B2-F2] [e2d2-c2-c2=B2-E2] [d2-d2c2-=B2-=B2D2]| \
[d4-c4-c4=B4-C4] [d2-c2-=B2-]|[d6-c6-=B6-]|
[d6-c6-=B6-]|[d6-c6-=B6-]|[d6-c6-=B6-]|[d6-c6-=B6-]|
[d6-c6-=B6-]|[d6-c6-=B6-]|[d6-c6-=B6-]|[d6-c6-=B6-]|
[d6-c6-=B6-]|[d6-c6-=B6-]|[d6-c6-=B6-]|[d6-c6-=B6-]|
[d6-c6-=B6-]|[d6-c6-=B6-]|[d6-c6-=B6-]|[d6-c6-=B6-]|
[d6-c6-=B6-]|[d6-c6-=B6-]|[d6-c6-=B6-]|[d6-c6-=B6-]|
[d6-c6-=B6-]|[d6-c6-=B6-]|[d6-c6-=B6-]|[d6-c6-=B6-]|
[d6-c6-=B6-]|[d6-c6-=B6-]|[d6-c6-=B6-]|[d6-c6-=B6-]|
[d6-c6-=B6-]|[d6-c6-=B6-]|[d6-c6-=B6-]|[d6-c6-=B6-]|
[d6-c6-=B6-]|[d6-c6-=B6-]|[d6-c6-=B6-]|[d6-c6-=B6-]|
[d6-c6-=B6-]|[d6-c6-=B6-]|[d6-c6-=B6-]|[d6-c6-=B6-]|
[d6-c6-=B6-]|[d6-c6-=B6-]|[d6-c6-=B6-]|[d6-c6-=B6-]|
[d6-c6-=B6-]|[d6-c6-=B6-]|[d6-c6-=B6-]|[d6-c6-=B6-]|
[d6-c6-=B6-]|[d6-c6-=B6-]|[d6-c6-=B6-]|[d6-c6-=B6-]|
[d6-c6-=B6-]|[d6-c6-=B6-]|[d6-c6-=B6-]|[d6-c6-=B6-]|
[d6-c6-=B6-]|[d6-c6-=B6-]|[d6-c6-=B6-]|[d6-c6-=B6-]|
[d6-c6-=B6-]|[d6-c6-=B6-]|[d6-c6-=B6-]|[d6-c6-=B6-]|
[d6-c6-=B6-]|[d6-c6-=B6-]|[d6-c6-=B6-]|[d6-c6-=B6-]|
[d6-c6-=B6-]|[d6-c6-=B6-]|[d6-c6-=B6-]|[d6-c6-=B6-]|
[d6-c6-=B6-]|[d6-c6-=B6-]|[d6-c6-=B6-]|[d6-c6-=B6-]|
[d6-c6-=B6-]|[d6-c6-=B6-]|[d6-c6-=B6-]|[d6-c6-=B6-]|
[d6-c6-=B6-]|[d6-c6-=B6-]|[d6-c6-=B6-]|[d6-c6-=B6-]|
[d6-c6-=B6-]|[d6-c6-=B6-]|[d6-c6-=B6-]|[d6-c6-=B6-]|
[d6-c6-=B6-]|[d6-c6-=B6-]|[d6-c6-=B6-]|[d6-c6-=B6-]|
[d6-c6-=B6-]|[d6-c6-=B6-]|[d6-c6-=B6-]|[d6-c6-=B6-]|
[d6-c6-=B6-]|[d6-c6-=B6-]|[d6-c6-=B6-]|[d6-c6-=B6-]|
[d6-c6-=B6-]|[d6-c6-=B6-]|[d6-c6-=B6-]|[d6-c6-=B6-]|
[d6-c6-=B6-]|[d6-c6-=B6-]|[d6-c6-=B6-]|[d6-c6-=B6-]|
[d6-c6-=B6-]|[d6-c6-=B6-]|[d6-c6-=B6-]|[d6-c6-=B6-]|
[d6-c6-=B6-]|[d6-c6-=B6-]|[d6-c6-=B6-]|[d6-c6-=B6-]|
[d6-c6-=B6-]|[d6-c6-=B6-]|[d6-c6-=B6-]|[d6-c6-=B6-]|
[d6-c6-=B6-]|[d6-c6-=B6-]|[d6-c6-=B6-]|[d6-c6-=B6-]|
[d6-c6-=B6-]|[d6-c6-=B6-]|[d6-c6-=B6-]|[d6-c6-=B6-]|
[d6-c6-=B6-]|[d6-c6-=B6-]|[d6-c6-=B6-]|[d6-c6-=B6-]|
[d6-c6-=B6-]|[d6-c6-=B6-]|[d6-c6-=B6-]|[d6-c6-=B6-]|
[d6-c6-=B6-]|[d6-c6-=B6-]|[d6-c6-=B6-]|[d6-c6-=B6-]|
[d6-c6-=B6-]|[d6-c6-=B6-]|[d6-c6-=B6-]|[d6-c6-=B6-]|
[d6-c6-=B6-]|[d6-c6-=B6-]|[d6-c6-=B6-]|[d6-c6-=B6-]|
[d6-c6-=B6-]|[d6-c6-=B6-]|[d6-c6-=B6-]|[d6-c6-=B6-]|
[d6-c6-=B6-]|[d6-c6-=B6-]|[d6-c6-=B6-]|[d6-c6-=B6-]|
[d6-c6-=B6-]|[d6-c6-=B6-]|[d6-c6-=B6-]|[d6-c6-=B6-]|
[d6-c6-=B6-]|[d6-c6-=B6-]|[d6-c6-=B6-]|[d6-c6-=B6-]|
[d6-c6-=B6-]|[d6-c6-=B6-]|[d6-c6-=B6-]|[d6-c6-=B6-]|
[d6-c6-=B6-]|[d6-c6-=B6-]|[d6-c6-=B6-]|[d6-c6-=B6-]|
[d6-c6-=B6-]|[d6-c6-=B6-]|[d6-c6-=B6-]|[d6-c6-=B6-]|
[d6-c6-=B6-]|[d6-c6-=B6-]|[d6-c6-=B6-]|[d6-c6-=B6-]|
[d6-c6-=B6-]|[d6-c6-=B6-]|[d6-c6-=B6-]|[d6-c6-=B6-]|
[d6-c6-=B6-]|[d6-c6-=B6-]|[d6-c6-=B6-]|[d6-c6-=B6-]|
[d6-c6-=B6-]|[d6-c6-=B6-]|[d6-c6-=B6-]|[d6-c6-=B6-]|
[d6-c6-=B6-]|[d6-c6-=B6-]|[d6-c6-=B6-]|[d6-c6-=B6-]|
[d6-c6-=B6-]|[d6-c6-=B6-]|[d6-c6-=B6-]|[d6-c6-=B6-]|
[d6-c6-=B6-]|[d6-c6-=B6-]|[d6-c6-=B6-]|[d6-c6-=B6-]|
[d6-c6-=B6-]|[d6-c6-=B6-]|[d6-c6-=B6-]|[d6-c6-=B6-]|
[d6-c6-=B6-]|[d6-c6-=B6-]|[d6-c6-=B6-]|[d6-c6-=B6-]|
[d6-c6-=B6-]|[d6-c6-=B6-]|[d6-c6-=B6-]|[d6-c6-=B6-]|
[d6-c6-=B6-]|[d6-c6-=B6-]|[d6-c6-=B6-]|[d6-c6-=B6-]|
[d6-c6-=B6-]|[d6-c6-=B6-]|[d6-c6-=B6-]|[d6-c6-=B6-]|
[d6-c6-=B6-]|[d6-c6-=B6-]|[d6-c6-=B6-]|[d6-c6-=B6-]|
[d6-c6-=B6-]|[d6-c6-=B6-]|[d6-c6-=B6-]|[d6-c6-=B6-]|
[d6-c6-=B6-]|[d6-c6-=B6-]|[d6-c6-=B6-]|[d4c4-=B4] c2-|
c2 
V:2
% Piano
%%MIDI program 0
%%MIDI program 0
x2| \
x4 
% Piano
%%MIDI program 0
%%MIDI program 0
G,2| \
[G,2C,2-] [G,4C,4]| \
[G,2D,2-] [G,4D,4]| \
[G,2E,2-] [G,2E,2] [G,2=B,,2]|
[G,4C,4] G,2| \
[G,2C,2-] [G,4C,4]| \
[G,2F,2-] [G,4F,4]| \
[G,2E,2-] [G,2E,2] [G,2=B,,2]|
[G,4C,4] G,2| \
[G,2C,2-] [G,4C,4]| \
[G,2D,2-] [G,4D,4]| \
[G,2E,2-] [G,2E,2] [G,2=B,,2]|
[G,4C,4] G,2| \
[G,2C,2-] [G,4C,4]| \
[E,2=B,,2-] [E,4=B,,4]| \
[E,2=A,,2-] [E,2A,,2] [G,2G,,2]|
[G,4C,4] G,2| \
[G,2C,2-] [G,4C,4]| \
[G,2D,2-] [G,4D,4]| \
[G,2E,2-] [G,2E,2] [G,2=B,,2]|
[G,4C,4] G,2| \
[G,2C,2-] [G,4C,4]| \
[G,2F,2-] [G,4F,4]| \
[G,2E,2-] [G,2E,2] [G,2=B,,2]|
[G,4C,4] G,2| \
[G,2C,2-] [G,4C,4]| \
[G,2D,2-] [G,4D,4]| \
[G,2E,2-] [G,2E,2] [G,2=B,,2]|
[G,4C,4] G,2| \
[G,2C,2-] [G,4C,4]| \
[E,2=B,,2-] [E,4=B,,4]| \
[E,2A,,2-] [E,2A,,2] [G,2G,,2]|
[G,4C,4] x[ECE,]| \
[E2C2E,2] [E3C3E,3][CG,C,]| \
[C2G,2C,2] [C3G,3C,3][A,A,,]| \
[A,3/2A,,3/2]x/2 [=B,3/2=B,,3/2]x/2 [G,3/2G,,3/2]x/2|
[C4-G,4-C,4-] [CG,C,][F,C,F,,]| \
[F,2C,2F,,2] [F,3C,3F,,3][F,C,F,,]| \
[F,2C,2F,,2] [F,3C,3F,,3][F,F,,]| \
[F,3/2F,,3/2]x/2 [_D,3/2_D,,3/2]x/2 [_B,,3/2B,,,3/2]x/2|
[F,4-F,,4-] [F,F,,][_D,_D,,]| \
[_D,6-_D,,6-]| \
[_D,4-_D,,4-] [_D,_D,,][_A,/2_A,,/2]x/2| \
[_A,6-_A,,6-]|
[_A,6_A,,6]| \
[G,2G,,2-] [G,4G,,4]| \
[G,2G,,2-] [G,2G,,2] G,2| \
[G,2C,2-] [G,4C,4]|
[G,2=D,2-] [G,4D,4]| \
[G,2E,2-] [G,2E,2] [G,2=B,,2]| \
[G,4C,4] G,2| \
[G,2_B,,2-] [G,4B,,4]|
[G,2=A,,2-] [G,3A,,3][F,_A,,]| \
[F,2_A,,2] [G,2G,,2] [G,2F,2G,,2]| \
[G,4E,4C,4] G,2| \
[G,2C,2-] [G,4C,4]|
[G,2D,2-] [G,4D,4]| \
[G,2E,2-] [G,2E,2] [G,2=B,,2]| \
[G,4C,4] G,2| \
[G,2_B,,2-] [G,4B,,4]|
[G,2=A,,2-] [G,3A,,3][F,_A,,]| \
[F,2_A,,2] [G,2G,,2] [G,2F,2G,,2]| \
[G,4E,4C,4] x[ECE,]| \
[E2C2E,2] [E3C3E,3][CG,C,]|
[C2G,2C,2] [C3G,3C,3][=A,A,,]| \
[A,3/2A,,3/2]x/2 [=B,3/2=B,,3/2]x/2 [G,3/2G,,3/2]x/2| \
[C4-G,4-C,4-] [CG,C,][F,C,F,,]| \
[F,2C,2F,,2] [F,3C,3F,,3][F,C,F,,]|
[F,2C,2F,,2] [F,3C,3F,,3][F,F,,]| \
[F,3/2F,,3/2]x/2 [_D,3/2_D,,3/2]x/2 [_B,,3/2B,,,3/2]x/2| \
[F,4-F,,4-] [F,F,,][_D,_D,,]| \
[_D,6-_D,,6-]|
[_D,4-_D,,4-] [_D,_D,,][_A,/2_A,,/2]x/2| \
[_A,6-_A,,6-]| \
[_A,6_A,,6]| \
[G,2G,,2-] [G,4G,,4]|
[G,2G,,2-] [G,2G,,2] G,2| \
[G,2C,2-] [G,4C,4]| \
[G,2=D,2-] [G,4D,4]| \
[G,2E,2-] [G,2E,2] [G,2=B,,2]|
[G,4C,4] G,2| \
[G,2_B,,2-] [G,4B,,4]| \
[G,2=A,,2-] [G,3A,,3][F,_A,,]| \
[F,2_A,,2] [G,2G,,2] [G,2F,2G,,2]|
[G,4E,4C,4] G,2| \
[G,2C,2-] [G,4C,4]| \
[G,2D,2-] [G,4D,4]| \
[G,2E,2-] [G,2E,2] [G,2=B,,2]|
[G,4C,4] G,2| \
[G,2_B,,2-] [G,4B,,4]| \
[G,2=A,,2-] [G,3A,,3][F,_A,,]| \
[F,2_A,,2] [G,2G,,2] [G,2F,2G,,2]|
[G,4E,4C,4] C,2| \
F,,2- [C,4-F,,4]| \
[C,2=A,,2-] [C,4-A,,4]| \
[C,2E,,2-] [C,4-E,,4]|
[C,2C,,2-] [C,4-C,,4]| \
[C,2F,,2-] [C,4-F,,4]| \
[C,2A,,2-] [C,4-A,,4]| \
[C,2E,,2-] [C,4-E,,4]|
[C,2C,,2-] [C,4C,,4]| \
D,,2- [D,4D,,4]| \
G,,2- [G,2G,,2] [B,2B,,2]| \
C,2- [C4-C,4]|
[C4F,4] x2| \
F,,2- [C,4-F,,4]| \
[C,2A,,2-] [C,4-A,,4]| \
[C,2E,,2-] [C,4-E,,4]|
[C,2C,,2-] [C,4-C,,4]| \
[C,2F,,2-] [C,4-F,,4]| \
[C,2A,,2-] [C,4-A,,4]| \
[C,2E,,2-] [C,4-E,,4]|
[C,2C,,2-] [C,4C,,4]| \
D,,2- [D,4D,,4]| \
G,,2- [G,2G,,2] [B,2B,,2]| \
C,2- [C4-C,4]|
[C4F,4] x2| \
F,,2- [C,4-F,,4]| \
[C,2_A,,2-] [C,4-_A,,4]| \
[C,2E,,2-] [C,4-E,,4]|
[C,2C,,2-] [C,4-C,,4]| \
[C,2F,,2-] [C,4-F,,4]| \
[C,2_A,,2-] [C,4-_A,,4]| \
[C,2C,,2-] [C,4-C,,4]|
[C,2F,,2-] [C,4F,,4]| \
B,,,2- [B,,4B,,,4]| \
_A,,2- [_A,4_A,,4]| \
[_D,_A,,_D,,]x [_D,4_A,,4_D,,4]|
[_D,_A,,_D,,]x [_D,4_A,,4_D,,4]| \
[_D,_A,,_D,,]x [_D,4_A,,4_D,,4]| \
[_D,_A,,_D,,]x [_D,4-_A,,4-_D,,4-]| \
[_D,2_A,,2_D,,2] [_D,2_A,,2_D,,2] [_D,2_A,,2_D,,2]|
[_D,2_A,,2_D,,2] [_D,2_A,,2_D,,2] [_D,2_A,,2_D,,2]| \
_D,,6| \
B,,,/2[C,,/2B,,,/2]C,,/2[C,,/2B,,,/2] B,,,/2[C,,/2B,,,/2]C,,/2[C,,/2B,,,/2] B,,,/2[C,,/2B,,,/2]x/2[B,,,/2=A,,,/2]| \
C,,6-|
C,,6| \
F,,2- [C,4-F,,4]| \
[C,2A,,2-] [C,4-A,,4]| \
[C,2E,,2-] [C,4-E,,4]|
[C,2C,,2-] [C,4-C,,4]| \
[C,2F,,2-] [C,4-F,,4]| \
[C,2A,,2-] [C,4-A,,4]| \
[C,2E,,2-] [C,4-E,,4]|
[C,2C,,2-] [C,4C,,4]| \
=D,,2- [D,4D,,4]| \
G,,2- [G,2G,,2] [B,2B,,2]| \
C,2- [C4-C,4]|
[C4F,4] x2| \
F,,2- [C,4-F,,4]| \
[C,2_A,,2-] [C,4-_A,,4]| \
[C,2E,,2-] [C,4-E,,4]|
[C,2C,,2-] [C,4-C,,4]| \
[C,2F,,2-] [C,4-F,,4]| \
[C,2_A,,2-] [C,4-_A,,4]| \
[C,2C,,2-] [C,4-C,,4]|
[C,2F,,2-] [C,4F,,4]| \
B,,,2- [B,,4B,,,4]| \
_A,,2- [_A,4_A,,4]| \
[_D,_A,,_D,,]x [_D,4_A,,4_D,,4]|
[_D,_A,,_D,,]x [_D,4_A,,4_D,,4]| \
[_D,_A,,_D,,]x [_D,4_A,,4_D,,4]| \
[_D,_A,,_D,,]x [_D,4-_A,,4-_D,,4-]| \
[_D,2_A,,2_D,,2] [_D,2_A,,2_D,,2] [_D,2_A,,2_D,,2]|
[_D,2_A,,2_D,,2] [_D,2_A,,2_D,,2] [_D,2_A,,2_D,,2]| \
_D,,6| \
B,,,/2[C,,/2B,,,/2]C,,/2[C,,/2B,,,/2] B,,,/2[C,,/2B,,,/2]C,,/2[C,,/2B,,,/2] B,,,/2[C,,/2B,,,/2]x/2[B,,,/2=A,,,/2]| \
C,,6-|
C,,6| \
F,,2- [C,4-F,,4]| \
[C,2A,,2-] [C,4-A,,4]| \
[C,2E,,2-] [C,4-E,,4]|
[C,2C,,2-] [C,4-C,,4]| \
[C,2F,,2-] [C,4-F,,4]| \
[C,2A,,2-] [C,4-A,,4]| \
[C,2E,,2-] [C,4-E,,4]|
[C,2C,,2-] [C,4C,,4]| \
=D,,2- [D,4D,,4]| \
G,,2- [G,2G,,2] [B,2B,,2]| \
C,2- [C4-C,4]|
[C4F,4] x2| \
[F,6-C,6-F,,6-]| \
[F,6C,6F,,6]| \
[F,6F,,6]|
[D,6D,,6]| \
[=B,,6G,,6=B,,,6]| \
[=B,,6G,,6=B,,,6]| \
[F4D4G,4=B,,4G,,4=B,,,4] G,2|
G,2 G,2 G,2| \
[G,2C,2-] [G,4C,4]| \
[G,2D,2-] [G,4D,4]| \
[G,2E,2-] [G,2E,2] [G,2=B,,2]|
[G,4C,4] G,2| \
[G,2C,2-] [G,4C,4]| \
[G,2F,2-] [G,4F,4]| \
[G,2E,2-] [G,2E,2] [G,2=B,,2]|
[G,4C,4] G,2| \
[G,2C,2-] [G,4C,4]| \
[G,2D,2-] [G,2D,2-] D,2| \
[G,2E,2-] [G,2E,2] [G,2=B,,2]|
[G,4C,4] G,2| \
[G,2C,2-] [G,4C,4]| \
[E,2=B,,2-] [E,4=B,,4]| \
[E,2A,,2-] [E,2A,,2] [G,2G,,2]|
[G,4C,4] x[ECE,]| \
[E2C2E,2] [E3C3E,3][CG,C,]| \
[C2G,2C,2] [C3G,3C,3][A,A,,]| \
[A,3/2A,,3/2]x/2 [=B,3/2=B,,3/2]x/2 [G,3/2G,,3/2]x/2|
[C4-G,4-C,4-] [CG,C,][F,C,F,,]| \
[F,2C,2F,,2] [F,3C,3F,,3][F,C,F,,]| \
[F,2C,2F,,2] [F,3C,3F,,3][F,F,,]| \
[F,3/2F,,3/2]x/2 [_D,3/2_D,,3/2]x/2 [_B,,3/2B,,,3/2]x/2|
[F,4-F,,4-] [F,F,,][_D,_D,,]| \
[_D,6-_D,,6-]| \
[_D,4-_D,,4-] [_D,_D,,][_A,/2_A,,/2]x/2| \
[_A,6-_A,,6-]|
[_A,6_A,,6]| \
[G,2G,,2-] [G,4G,,4]| \
[G,2G,,2-] [G,2G,,2] G,2| \
[G,2C,2-] [G,4C,4]|
[G,2=D,2-] [G,4D,4]| \
[G,2E,2-] [G,2E,2] [G,2=B,,2]| \
[G,4C,4] G,2| \
[G,2_B,,2-] [G,4B,,4]|
[G,2=A,,2-] [G,3A,,3][F,_A,,]| \
[F,2_A,,2] [G,2G,,2] [G,2F,2G,,2]| \
[G,4E,4C,4] G,2| \
[G,2C,2-] [G,4C,4]|
[G,2D,2-] [G,4D,4]| \
[G,2E,2-] [G,2E,2] [G,2=B,,2]| \
[G,4C,4] G,2| \
[G,2_B,,2-] [G,4B,,4]|
[G,2=A,,2-] [G,3A,,3][F,_A,,]| \
[F,2_A,,2] [G,2G,,2] [G,2F,2G,,2]| \
[G,4E,4C,4] x[F,_A,,]| \
[F,2_A,,2] [G,2G,,2] [G,2F,2G,,2]|
[G,4-E,4-C,4-] [G,E,C,][F,D,_A,,]| \
[F,2D,2_A,,2] [G,2E,2G,,2] [G,2F,2G,,2]| \
[G,4E,4C,4] 
