Error: Time=1024 Track=0 Note terminated when not on - pitch 77
Error: Time=1024 Track=0 Note terminated when not on - pitch 76
Error: Time=4096 Track=0 Note terminated when not on - pitch 75
Error: Time=7680 Track=0 Note terminated when not on - pitch 71
Error: Time=13312 Track=0 Note terminated when not on - pitch 88
Error: Time=14848 Track=0 Note terminated when not on - pitch 89
Error: Time=19968 Track=0 Note terminated when not on - pitch 83
Error: Time=26112 Track=0 Note terminated when not on - pitch 64
Error: Time=28672 Track=0 Note terminated when not on - pitch 74
Error: Time=33792 Track=0 Note terminated when not on - pitch 65
Error: Time=40960 Track=0 Note terminated when not on - pitch 86
Error: Time=86016 Track=0 Note terminated when not on - pitch 95
Error: Time=86016 Track=0 Note terminated when not on - pitch 96
Error: Time=87808 Track=0 Note terminated when not on - pitch 94
Error: Time=89088 Track=0 Note terminated when not on - pitch 84
Error: Time=90880 Track=0 Note terminated when not on - pitch 82
Error: Time=93525 Track=0 Note terminated when not on - pitch 98
Error: Time=93696 Track=0 Note terminated when not on - pitch 100
Error: Time=93867 Track=0 Note terminated when not on - pitch 101
Error: Time=93952 Track=0 Note terminated when not on - pitch 104
Error: Time=93952 Track=0 Note terminated when not on - pitch 105
Error: Time=96939 Track=0 Note terminated when not on - pitch 92
Error: Time=96939 Track=0 Note terminated when not on - pitch 93
Error: Time=97621 Track=0 Note terminated when not on - pitch 81
Error: Time=97792 Track=0 Note terminated when not on - pitch 80
Error: Time=98304 Track=0 Note terminated when not on - pitch 72
Error: Time=98560 Track=0 Note terminated when not on - pitch 70
Error: Time=98816 Track=0 Note terminated when not on - pitch 73
Error: Time=124416 Track=0 Note terminated when not on - pitch 79
Error: Time=125440 Track=0 Note terminated when not on - pitch 85
Error: Time=127488 Track=0 Note terminated when not on - pitch 78
Error: Time=128000 Track=0 Note terminated when not on - pitch 90
Error: Time=140288 Track=0 Note terminated when not on - pitch 87
Error: Time=249344 Track=0 Note terminated when not on - pitch 91
Error: Time=301568 Track=0 Note terminated when not on - pitch 97
Error: Time=307712 Track=0 Note terminated when not on - pitch 99
Error: Time=332117 Track=0 Note terminated when not on - pitch 69
Error: Time=332288 Track=0 Note terminated when not on - pitch 67
Error: Time=332544 Track=0 Note terminated when not on - pitch 62
Error: Time=749568 Track=0 Note terminated when not on - pitch 66
Error: Time=752640 Track=0 Note terminated when not on - pitch 59
Error: Time=754176 Track=0 Note terminated when not on - pitch 60
Error: Time=760320 Track=0 Note terminated when not on - pitch 68
Error in MIDI file - notes still on at end of track!
Error: Time=1024 Track=1 Note terminated when not on - pitch 57
Error: Time=4608 Track=1 Note terminated when not on - pitch 63
Error: Time=5632 Track=1 Note terminated when not on - pitch 52
Error: Time=6144 Track=1 Note terminated when not on - pitch 56
Error: Time=8704 Track=1 Note terminated when not on - pitch 53
Error: Time=25600 Track=1 Note terminated when not on - pitch 40
Error: Time=34304 Track=1 Note terminated when not on - pitch 41
Error: Time=40960 Track=1 Note terminated when not on - pitch 51
Error: Time=120832 Track=1 Note terminated when not on - pitch 54
Error: Time=122368 Track=1 Note terminated when not on - pitch 55
Error: Time=126976 Track=1 Note terminated when not on - pitch 50
Error: Time=130560 Track=1 Note terminated when not on - pitch 61
Error: Time=130560 Track=1 Note terminated when not on - pitch 58
Error: Time=140288 Track=1 Note terminated when not on - pitch 48
Error: Time=141312 Track=1 Note terminated when not on - pitch 47
Error: Time=146432 Track=1 Note terminated when not on - pitch 38
Error: Time=783872 Track=1 Note terminated when not on - pitch 45
Error: Time=799232 Track=1 Note terminated when not on - pitch 36
Error: Time=800768 Track=1 Note terminated when not on - pitch 43
Error in MIDI file - notes still on at end of track!
X: 1
T: from midi_transposed/C_schubert_d935_4.mid
M: 3/8
L: 1/16
Q:1/4=133
