X: 1
T: from midi_transposed/C_schuim-2.mid
M: 3/4
L: 1/8
Q:1/4=200
%beats in anacrusis = 0
% Last note suggests minor mode tune
K:C % 0 sharps
V:1
% Piano
%%MIDI program 0
%%MIDI program 0
x6| \
e'2  (3^c'e'd'  (3^c'ba| \
 (3^g^fe  (3d^cB  (3A^G^F| \
E/2-[^F/2E/2-]E/2-[^G/2E/2]  (3A^GA  (3^A=A^A|
 (3B^AB  (3=cBc  (3^c=c^c| \
 (3d^cd  (3^ced  (3^cde| \
 (3^f^g=a  (3b^f'e'  (3d'^c'b| \
 (3a^g^f  (3eba  (3^g^fe|
 (3d^cB  (3AB^c  (3de^f| \
 (3^gab  (3^c'e'd'  (3^c'ba| \
 (3^g^fe  (3d^cB  (3A^G^F| \
E/2-[^F/2E/2-]E/2-[^G/2E/2]  (3A^GA  (3^A=A^A|
 (3B^AB  (3=cBc  (3^c=c^c| \
 (3d^cd  (3^ced  (3^cde| \
 (3^f^g=a  (3b^f'e'  (3d'^c'b| \
 (3a^g^f  (3eba  (3^gab|
 (3^c'd'e'  (3ab^c'  (3d'e'^f'| \
 (3^g'a'b'  (3^c''e''d''  (3^c''b'a'| \
 (3^g'^f'e'  (3d'^c'b  (3a^g^f| \
 (3e^f^g  (3a^ga  (3^a=a^a|
 (3b^ab  (3=c'bc'  (3^c'=c'^c'| \
 (3d'^c'd'  (3^c'e'd'  (3^c'd'e'| \
 (3^f'^g'=a'  (3b'^f''e''  (3d''^c''b'| \
 (3a'^g'^f'  (3e'b'a'  (3^g'^f'e'|
 (3d'^c'b  (3a^c'b  (3a^g^f| \
 (3edB  (3=ced  (3cBA| \
 (3=G=FE  (3FAd f/2-[f/2-A/2]f/2-[f/2-d/2]| \
[f/2-c/2][f/2-A/2]f/2-[f/2c/2]  (3Bfe  (3dcB|
 (3AGF  (3EGc e/2-[e/2-G/2]e/2-[e/2-c/2]| \
[e/2-B/2][e/2-G/2]e/2-[e/2B/2]  (3Aed  (3cBA| \
 (3GFE  (3DFB d/2-[d/2-F/2]d/2-[d/2-B/2]| \
[d/2-A/2][d/2-F/2]d/2-[d/2A/2]  (3^Gdc  (3BA^G|
 (3FED  (3CEA c/2-[c/2-E/2]c/2-[c/2-A/2]| \
[c/2-=G/2][c/2-E/2]c/2-[c/2G/2]  (3FAd f/2-[f/2-A/2]f/2-[f/2-d/2]| \
[f/2-c/2][f/2-A/2]f/2-[f/2c/2] f/2-[f/2-B/2]f/2-[f/2^G/2] e/2-[e/2-B/2]e/2-[e/2^G/2]| \
^g/2-[^g/2-d/2]^g/2-[^g/2B/2]  (3ac'b  (3a=gf|
 (3edB  (3ced  (3cBA| \
 (3GFE  (3F^GB f/2-[f/2-B/2]f/2-[f/2-^G/2]| \
[f/2-B/2][f/2-=G/2]f/2-[f/2F/2]  (3Eed  (3cBA| \
 (3GFE  (3F^GB f/2-[f/2-B/2]f/2-[f/2-^G/2]|
[f/2-B/2][f/2-=G/2]f/2-[f/2F/2]  (3Gce g/2-[g/2-e/2]g/2-[g/2-c/2]| \
[g/2-B/2][g/2-c/2]g/2-[g/2^A/2]  (3=Adf a/2-[a/2-f/2]a/2-[a/2-d/2]| \
[a/2-^c/2][a/2-d/2]a/2-[a/2=c/2]  (3Bc^c  (3def| \
 (3gab  (3=c'e'd'  (3c'ba|
 (3gfe  (3dfe  (3dcB| \
 (3A^GB  (3dfe  (3dcB| \
 (3A^GB  (3dfe  (3dcB| \
 (3A^GB  (3df^g  (3f^gb|
 (3^gbc'  (3d'f'e'  (3d'c'b| \
 (3a^gb  (3d'f'e'  (3d'c'b| \
 (3a^gb  (3d'f'd'  (3f'd'f'| \
 (3d'f'd'  (3e'd'e'  (3d'e'd'|
 (3e'd'e'  (3^c'e'd'  (3^c'ba| \
 (3^g^fe  (3d^cB  (3A^G^F| \
E/2-[^F/2E/2-]E/2-[^G/2E/2]  (3A^GA  (3^A=A^A| \
 (3B^AB  (3=cBc  (3^c=c^c|
 (3d^cd  (3^ced  (3^cde| \
 (3^f^g=a  (3b^f'e'  (3d'^c'b| \
 (3a^g^f  (3^gba  (3^gab| \
 (3^c'd'e'  (3ab^c'  (3d'e'^f'|
 (3^g'a'b'  (3^c''e''d''  (3^c''b'a'| \
 (3^g'^f'e'  (3d'^c'b  (3a^g^f| \
 (3e^f^g  (3a^ga  (3^a=a^a| \
 (3b^ab  (3=c'bc'  (3^c'=c'^c'|
 (3d'^c'd'  (3^c'=c'^c'  (3d'^c'd'| \
 (3e'd'e'  (3d'^c'd'  (3e'd'e'| \
 (3^f'=f'^f'  (3^g'=g'^g'  (3^a'^g'^a'| \
 (3=c''^a'c''  (3^c''=c''^c''  (3^d''^c''^d''|
 (3=f''^d''f''  (3^f''=f''^f''  (3^g''^f''^g''| \
 (3^a''^g''^a''  (3b''=a''=g''  (3^f''e''=d''| \
 (3^c''b'a'  (3^g'^f'e'  (3^d'e'^f'| \
 (3^g'a'b'  (3=c''e''=d''  (3c''b'a'|
 (3=g'=f'e'  (3f'a'g'  (3f'e'd'| \
 (3c'ba  (3^gba  (3^gfe| \
 (3dcB  (3c'e'd'  (3c'ba| \
 (3=gfe  (3fag  (3fed|
 (3cBA  (3^GBA  (3^GFE| \
 (3DCB,  (3A,B,C  (3DFE| \
 (3DCB,  (3A,B,C  (3DFE| \
 (3DCB,  (3A,B,C  (3DFE|
 (3DCB,  (3A,B,C  (3DE^F| \
 (3^GAB c4| \
x2 [e4c4=G4E4]| \
x2 =f2- [f/2-F/2][f/2-^G/2]f/2-[f/2-c/2]|
[f2F2] f2- [f/2-F/2][f/2-=G/2]f/2-[f/2-^c/2]| \
[f2F2] f-[f=c^G] =g-[gc^A]| \
^g-[^gc^G] =g2- [g/2-G/2][g/2-c/2]g/2-[g/2-e/2]| \
[g2G2] c'2- [c'/2-c/2][c'/2-e/2]c'/2-[c'/2-g/2]|
[c'2c2] ^g2- [^g/2-^G/2][^g/2-c/2]^g/2-[^g/2-f/2]| \
[^g2^G2] [=g-f][g^A] [^a-f][^a^A]| \
[g-f][g^A] ^g2- [^g/2-^G/2][^g/2-c/2]^g/2-[^g/2-f/2]| \
[^g-^G]^g f2- [f/2-F/2][f/2-^G/2]f/2-[f/2-c/2]|
[f2F2] f2- [f/2-F/2][f/2-=G/2]f/2-[f/2-^c/2]| \
[f2F2] f-[f=c^G] =g-[gc^A]| \
^g-[^gc^G] =g2- [g/2-G/2][g/2-c/2]g/2-[g/2-e/2]| \
[g2G2] c'2- [c'/2-c/2][c'/2-e/2]c'/2-[c'/2-g/2]|
[c'2c2] ^g2- [^g/2-^G/2][^g/2-c/2]^g/2-[^g/2-f/2]| \
[^g2^G2] f-[fdc] ^g-[^gdc]| \
f-[fdc] =g2- [g/2-G/2][g/2-B/2]g/2-[g/2-d/2]| \
[g2G2] ^d2- [^d/2-^D/2][^d/2-G/2]^d/2-[^d/2-c/2]|
[^d2^D2] ^c2- [^c/2-^C/2][^c/2-F/2]^c/2-[^c/2-^G/2]| \
[^c2^C2] [B-=G][B=D] [d-G][dD]| \
[B-G][BD] =c2- [c/2-C/2][c/2-^D/2]c/2-[c/2-G/2]| \
[c2C2] c2- [c/2-C/2][c/2-F/2]c/2-[c/2-^G/2]|
[c2C2] c2- [c/2-C/2][c/2-^D/2]c/2-[c/2-=G/2]| \
[c2C2] [B/2-=D/2][B/2-^D/2]B/2-[B/2-F/2] [B/2-G/2][B/2-^G/2]B/2-[B/2-=G/2]| \
[B/2-F/2][B/2-^D/2]B/2-[B/2=D/2] c2- [c/2-C/2][c/2-^D/2]c/2-[c/2-G/2]| \
[c2C2] c2- [c/2-C/2][c/2-F/2]c/2-[c/2-^G/2]|
[c2C2] c2- [c/2-C/2][c/2-^D/2]c/2-[c/2-=G/2]| \
[c2C2] [B/2-=D/2][B/2-^D/2]B/2-[B/2-F/2] [B/2-G/2][B/2-^G/2]B/2-[B/2-=G/2]| \
[B/2-F/2][B/2-^D/2]B/2-[B/2=D/2] c2- [c/2-C/2][c/2-^D/2]c/2-[c/2-G/2]| \
[c2C2] g2- [g/2-G/2][g/2-B/2]g/2-[g/2-=d/2]|
[g2G2] e2- [e/2-E/2][e/2-G/2]e/2-[e/2-^c/2]| \
[e2E2] f-[f=c^G] =g-[gc^A]| \
^g-[^gc^G] =g2- [g/2-G/2][g/2-c/2]g/2-[g/2-e/2]| \
[g2G2] c'2- [c'/2-c/2][c'/2-e/2]c'/2-[c'/2-g/2]|
[c'2c2] =a2- [a/2-A/2][a/2-c/2]a/2-[a/2-^f/2]| \
[a2A2] ^a-[^a=f^c] =c'-[c'f^d]| \
^c'-[^c'f^c] =c'2- [c'/2-c/2][c'/2-f/2]c'/2-[c'/2-^g/2]| \
[c'2c2] ^g-[^g=dc] =g-[gdc]|
f-[fdc] g2- [g/2-G/2][g/2-B/2]g/2-[g/2-d/2]| \
[g2G2] ^d-[^d=AG] =d-[dAG]| \
c-[cAG] d2- [d/2-D/2][d/2-^F/2]d/2-[d/2-A/2]| \
[d2D2] B4-|
B2 c4-| \
c2 x4| \
x6| \
x2 =f2- [f/2-F/2][f/2-^G/2]f/2-[f/2-c/2]|
[f2F2] f2- [f/2-F/2][f/2-=G/2]f/2-[f/2-^c/2]| \
[f2F2] f-[f=c^G] =g-[gc^A]| \
^g-[^gc^G] =g2- [g/2-G/2][g/2-c/2]g/2-[g/2-e/2]| \
[g2G2] c'2- [c'/2-c/2][c'/2-e/2]c'/2-[c'/2-g/2]|
[c'2c2] ^g2- [^g/2-^G/2][^g/2-c/2]^g/2-[^g/2-f/2]| \
[^g2^G2] [=g-f][g^A] [^a-f][^a^A]| \
[g-f][g^A] ^g2- [^g/2-^G/2][^g/2-c/2]^g/2-[^g/2-f/2]| \
[^g2^G2] ^a2- [^a/2-^A/2][^a/2-^c/2]^a/2-[^a/2-f/2]|
[^a2^A2] ^a2- [^a/2-^A/2][^a/2-=c/2]^a/2-[^a/2-^f/2]| \
[^a2^A2] ^a-[^a=f^c] =c'-[c'f^d]| \
^c'-[^c'f^c] =c'2- [c'/2-c/2][c'/2-f/2]c'/2-[c'/2-=a/2]| \
[c'2c2] f'2- [f'/2-f/2][f'/2-a/2]f'/2-[f'/2-c'/2]|
[f'2f2] ^c'2- [^c'/2-^c/2][^c'/2-f/2]^c'/2-[^c'/2-^a/2]| \
[^c'2^c2] ^a-[^af^d] ^c'-[^c'=gf]| \
^a-[^agf] =c'2- [c'/2-c/2][c'/2-e/2]c'/2-[c'/2-g/2]| \
[c'2c2] ^g2- [^g/2-^G/2][^g/2-c/2]^g/2-[^g/2-f/2]|
[^g2^G2] ^f2- [^f/2-^F/2][^f/2-^A/2]^f/2-[^f/2-^c/2]| \
[^f2^F2] [e-=c][e=G] [g-c][gG]| \
[e-c][eG] =f2- [f/2-F/2][f/2-^G/2]f/2-[f/2-c/2]| \
[f2F2] f2- [f/2-F/2][f/2-^A/2]f/2-[f/2-^c/2]|
[f2F2] f2- [f/2-F/2][f/2-^G/2]f/2-[f/2-=c/2]| \
[f2F2] [e/2-=G/2][e/2-^G/2]e/2-[e/2-^A/2] [e/2-c/2][e/2-^c/2]e/2-[e/2-=c/2]| \
[e/2-^A/2][e/2-^G/2]e/2-[e/2=G/2] f2- [f/2-F/2][f/2-^G/2]f/2-[f/2-c/2]| \
[f2F2] f2- [f/2-F/2][f/2-^A/2]f/2-[f/2-^c/2]|
[f2F2] f2- [f/2-F/2][f/2-^G/2]f/2-[f/2-=c/2]| \
[f2F2] [e/2-=G/2][e/2-^G/2]e/2-[e/2-^A/2] [e/2-c/2][e/2-^c/2]e/2-[e/2-=c/2]| \
[e/2-^A/2][e/2-^G/2]e/2-[e/2=G/2] f2- [f/2-F/2][f/2-^G/2]f/2-[f/2-c/2]| \
[f2F2] f2- [f/2-F/2][f/2-^G/2]f/2-[f/2-c/2]|
[f2F2] f2- [f/2-F/2][f/2-^G/2]f/2-[f/2-c/2]| \
[f2F2]  (3^Gcf F2| \
 (3^Gcf F2  (3^Gcf| \
^G2 e2- [e/2-E/2][e/2-=A/2]e/2-[e/2-c/2]|
[e2E2] e2- [e/2-E/2][e/2-A/2]e/2-[e/2-c/2]| \
[e2E2]  (3Ace E2| \
 (3Ace E2  (3Ace| \
E2 [a4A4]|
[a'4a4] [f'2-f2-]| \
[f'2f2]  (3=d'f'd'  (3f'd'f'| \
 (3d'f'd'  (3f'd'f'  (3d'f'd'| \
 (3f'd'f'  (3d'e'd'  (3e'd'e'|
 (3d'e'd'  (3e'd'e'  (3d'e'd'| \
 (3e'd'e'  (3^c'e'd'  (3^c'ba| \
 (3^g^fe  (3d^cB  (3A^G^F| \
E/2-[^F/2E/2-]E/2-[^G/2E/2]  (3A^GA  (3^A=A^A|
 (3B^AB  (3=cBc  (3^c=c^c| \
 (3d^cd  (3^ced  (3^cde| \
 (3^f^g=a  (3b^f'e'  (3d'^c'b| \
 (3a^g^f  (3eba  (3^g^fe|
 (3d^cB  (3AB^c  (3de^f| \
 (3^gab  (3^c'e'd'  (3^c'ba| \
 (3^g^fe  (3d^cB  (3A^G^F| \
E/2-[^F/2E/2-]E/2-[^G/2E/2]  (3A^GA  (3^A=A^A|
 (3B^AB  (3=cBc  (3^c=c^c| \
 (3d^cd  (3^ced  (3^cde| \
 (3^f^g=a  (3b^f'e'  (3d'^c'b| \
 (3a^g^f  (3eba  (3^gab|
 (3^c'd'e'  (3ab^c'  (3d'e'^f'| \
 (3^g'a'b'  (3^c''e''d''  (3^c''b'a'| \
 (3^g'^f'e'  (3d'^c'b  (3a^g^f| \
 (3e^f^g  (3a^ga  (3^a=a^a|
 (3b^ab  (3=c'bc'  (3^c'=c'^c'| \
 (3d'^c'd'  (3^c'e'd'  (3^c'd'e'| \
 (3^f'^g'=a'  (3b'^f''e''  (3d''^c''b'| \
 (3a'^g'^f'  (3e'b'a'  (3^g'^f'e'|
 (3d'^c'b  (3a^c'b  (3a^g^f| \
 (3edB  (3=ced  (3cBA| \
 (3=G=FE  (3FAd f/2-[f/2-A/2]f/2-[f/2-d/2]| \
[f/2-c/2][f/2-A/2]f/2-[f/2c/2]  (3Bfe  (3dcB|
 (3AGF  (3EGc e/2-[e/2-G/2]e/2-[e/2-c/2]| \
[e/2-B/2][e/2-G/2]e/2-[e/2B/2]  (3Aed  (3cBA| \
 (3GFE  (3DFB d/2-[d/2-F/2]d/2-[d/2-B/2]| \
[d/2-A/2][d/2-F/2]d/2-[d/2A/2]  (3^Gdc  (3BA^G|
 (3FED  (3CEA c/2-[c/2-E/2]c/2-[c/2-A/2]| \
[c/2-=G/2][c/2-E/2]c/2-[c/2G/2]  (3FAd f/2-[f/2-A/2]f/2-[f/2-d/2]| \
[f/2-c/2][f/2-A/2]f/2-[f/2c/2] f/2-[f/2-B/2]f/2-[f/2^G/2] e/2-[e/2-B/2]e/2-[e/2^G/2]| \
^g/2-[^g/2-d/2]^g/2-[^g/2B/2]  (3ac'b  (3a=gf|
 (3edB  (3ced  (3cBA| \
 (3GFE  (3F^GB f/2-[f/2-B/2]f/2-[f/2-^G/2]| \
[f/2-B/2][f/2-=G/2]f/2-[f/2F/2]  (3Eed  (3cBA| \
 (3GFE  (3F^GB f/2-[f/2-B/2]f/2-[f/2-^G/2]|
[f/2-B/2][f/2-=G/2]f/2-[f/2F/2]  (3Gce g/2-[g/2-e/2]g/2-[g/2-c/2]| \
[g/2-B/2][g/2-c/2]g/2-[g/2^A/2]  (3=Adf a/2-[a/2-f/2]a/2-[a/2-d/2]| \
[a/2-^c/2][a/2-d/2]a/2-[a/2=c/2]  (3Bc^c  (3def| \
 (3gab  (3=c'e'd'  (3c'ba|
 (3gfe  (3dfe  (3dcB| \
 (3A^GB  (3dfe  (3dcB| \
 (3A^GB  (3dfe  (3dcB| \
 (3A^GB  (3df^g  (3f^gb|
 (3^gbc'  (3d'f'e'  (3d'c'b| \
 (3a^gb  (3d'f'e'  (3d'c'b| \
 (3a^gb  (3d'f'd'  (3f'd'f'| \
 (3d'f'd'  (3e'd'e'  (3d'e'd'|
 (3e'd'e'  (3^c'e'd'  (3^c'ba| \
 (3^g^fe  (3d^cB  (3A^G^F| \
E/2-[^F/2E/2-]E/2-[^G/2E/2]  (3A^GA  (3^A=A^A| \
 (3B^AB  (3=cBc  (3^c=c^c|
 (3d^cd  (3^ced  (3^cde| \
 (3^f^g=a  (3b^f'e'  (3d'^c'b| \
 (3a^g^f  (3^gba  (3^gab| \
 (3^c'd'e'  (3ab^c'  (3d'e'^f'|
 (3^g'a'b'  (3^c''e''d''  (3^c''b'a'| \
 (3^g'^f'e'  (3d'^c'b  (3a^g^f| \
 (3e^f^g  (3a^ga  (3^a=a^a| \
 (3b^ab  (3=c'bc'  (3^c'=c'^c'|
 (3d'^c'd'  (3^c'=c'^c'  (3d'^c'd'| \
 (3e'd'e'  (3d'^c'd'  (3e'd'e'| \
 (3^f'=f'^f'  (3^g'=g'^g'  (3^a'^g'^a'| \
 (3=c''^a'c''  (3^c''=c''^c''  (3^d''^c''^d''|
 (3=f''^d''f''  (3^f''=f''^f''  (3^g''^f''^g''| \
 (3^a''^g''^a''  (3b''=a''=g''  (3^f''e''=d''| \
 (3^c''b'a'  (3^g'^f'e'  (3^d'e'^f'| \
 (3^g'a'b'  (3=c''e''=d''  (3c''b'a'|
 (3=g'=f'e'  (3f'a'g'  (3f'e'd'| \
 (3c'ba  (3^gba  (3^gfe| \
 (3dcB  (3c'e'd'  (3c'ba| \
 (3=gfe  (3fag  (3fed|
 (3cBA  (3^GBA  (3^GFE| \
 (3DCB,  (3A,B,C  (3DFE| \
 (3DCB,  (3A,B,C  (3DFE| \
 (3DCB,  (3A,B,C  (3DFE|
 (3DCB,  (3A,B,C  (3DE^F| \
 (3^GAB c4| \
x2 [e4c4=G4E4]| \
x2 =f2- [f/2-F/2][f/2-^G/2]f/2-[f/2-c/2]|
[f2F2] f2- [f/2-F/2][f/2-=G/2]f/2-[f/2-^c/2]| \
[f2F2] f-[f=c^G] =g-[gc^A]| \
^g-[^gc^G] =g2- [g/2-G/2][g/2-c/2]g/2-[g/2-e/2]| \
[g2G2] ^g2- [^g/2-^G/2][^g/2-B/2]^g/2-[^g/2-e/2]|
[^g2^G2] =a2- [a/2-A/2][a/2-c/2]a/2-[a/2-e/2]| \
[a2A2] Bb cc'| \
Bb a2- [a/2-A/2][a/2-c/2]a/2-[a/2-e/2]| \
[a2A2] f'2- [f'/2-f/2][f'/2-^g/2]f'/2-[f'/2-c'/2]|
[f'2f2] f'2- [f'/2-f/2][f'/2-=g/2]f'/2-[f'/2-^c'/2]| \
[f'2f2] f'-[f'=c'^g] =g'-[g'c'^a]| \
^g'-[^g'c'^g] =g'2- [g'/2-g/2][g'/2-c'/2]g'/2-[g'/2-e'/2]| \
[g'2g2] ^g'2- [^g'/2-^g/2][^g'/2-b/2]^g'/2-[^g'/2-e'/2]|
[^g'2^g2] =a'2- [a'/2-a/2][a'/2-c'/2]a'/2-[a'/2-e'/2]| \
[a'2a2] [^g'e'b]b' [^g'e'c']c''| \
[^g'e'b]b' a'2- [a'/2-a/2][a'/2-c'/2]a'/2-[a'/2-e'/2]| \
[a'2a2] e''2- [e''/2-e'/2][e''/2-b'/2]e''/2-[e''/2-d''/2]|
[e''2e'2] e''2- [e''/2-e'/2][e''/2-a'/2]e''/2-[e''/2-c''/2]| \
[e''2e'2] [b'd']d'' [a'c']c''| \
[^g'b]b' a'2- [a'/2-a/2][a'/2-c'/2]a'/2-[a'/2-e'/2]| \
[a'2a2] e''2- [e''/2-e'/2][e''/2-b'/2]e''/2-[e''/2-d''/2]|
[e''2e'2] e''2- [e''/2-e'/2][e''/2-a'/2]e''/2-[e''/2-c''/2]| \
[e''2e'2] [b'd']d'' [a'c']c''| \
[^g'b]b' a'2- [a'/2-a/2][a'/2-c'/2]a'/2-[a'/2-e'/2]| \
[a'2a2] [d''f']f'' [c''e']e''|
[b'^g']^g''  (3a''f''e''  (3d''c''b'| \
a'x  (3a'f'e'  (3d'c'b| \
ax  (3afe  (3dcB| \
Ax  (3AFE  (3DCB,|
A,/2x3/2 Ax Ax| \
Ax Ax Ax| \
Ax [^g2e2B2^G2] x2| \
x2 [a2e2c2A2] 
V:2
% Piano
%%MIDI program 0
%%MIDI program 0
x6| \
x2 
% Piano
%%MIDI program 0
%%MIDI program 0
A,2- [E2-A,2-]| \
[E2A,2] B,2- [E2B,2-]| \
B,2 ^C2- [E2-^C2-]|
[E2^C2] ^G,2- [E2-^G,2-]| \
[E2^G,2] A,2- [E2-A,2-]| \
[E2A,2] D,2 [^F2-D2-]| \
[^F2D2] E,2 [^G2-E2-D2-]|
[^G2E2D2] A,2 [A2-E2-^C2-]| \
[A2E2^C2] A,2- [E2-A,2-]| \
[E2A,2] B,2- [E2B,2-]| \
B,2 ^C2- [E2-^C2-]|
[E2^C2] ^G,2- [E2-^G,2-]| \
[E2^G,2] A,2- [E2-A,2-]| \
[E2A,2] D,2 [^F2-D2-]| \
[^F2D2] E,2 [^G2-E2-D2-]|
[^G2E2D2] A,2 [A2-E2-^C2-]| \
[A2E2^C2] A,2- [E2-A,2-]| \
[E2A,2] B,2- [E2-B,2-]| \
[E2B,2] ^C2- [E2-^C2-]|
[E2^C2] ^G,2- [E2-^G,2-]| \
[E2^G,2] A,2- [E2-A,2-]| \
[E2A,2] D,2 [^F2-D2-]| \
[^F2D2] E,2 [^G2-E2-D2-]|
[^G2E2D2] A,2 [A2-E2-^C2-]| \
[A2E2^C2] A,,2- [A,2-A,,2-]| \
[A,2A,,2] D,2- [D2-D,2-]| \
[D2D,2] =G,,2- [G,2-G,,2-]|
[G,2G,,2] =C,2- [C2-C,2-]| \
[C2C,2] =F,,2- [F,2-F,,2-]| \
[F,2F,,2] B,,2- [B,2-B,,2-]| \
[B,2B,,2] E,,2- [E,2-E,,2-]|
[E,2E,,2] A,,2- [A,2-A,,2-]| \
[A,2A,,2] D,2- [D2-D,2-]| \
[D2D,2] E,2- [E2-E,2-]| \
[E2-E,2] [E4-A,4-]|
[E2A,2] C,2- [G,2-C,2-]| \
[G,2C,2] D,2- [^G,2D,2-]| \
[=G,2D,2] C,2- [G,2-C,2-]| \
[G,2C,2] D,2- [^G,2D,2-]|
[=G,2D,2] C,2- [C2-C,2-]| \
[C2-C,2] [C2F,2-] [D2-F,2-]| \
[D2-F,2] [D2G,2-] [F2-G,2-]| \
[F2G,2] [E4C4]|
x2 E,2- [F2-D2-B,2-E,2-]| \
[F2D2B,2E,2] E,2- [F2-D2-B,2-E,2-]| \
[F2D2B,2E,2] E,2- [F2-D2-B,2-E,2-]| \
[F6-D6-B,6-E,6-]|
[F2D2B,2E,2] E2- [f2-d2-B2-E2-]| \
[f2d2B2E2] E2- [f2-d2-B2-E2-]| \
[f6-d6-B6-E6-]| \
[f2d2-B2-E2-] [e4-d4-B4-E4-]|
[e2d2B2E2] A,2- [E2-A,2-]| \
[E2A,2] B,2- [E2B,2-]| \
B,2 ^C2- [E2-^C2-]| \
[E2^C2] ^G,2- [E2-^G,2-]|
[E2^G,2] A,2- [E2-A,2-]| \
[E2A,2] D,2 [^F2-D2-]| \
[^F2D2] E,2 [B2-E2-D2-]| \
[B2E2D2] A,2 [A2-E2-^C2-]|
[A2E2^C2] A,2- [E2-A,2-]| \
[E2A,2] B,2- [E2-B,2-]| \
[E2B,2] ^C2- [E2-^C2-]| \
[E2^C2] ^G,2- [E2-^G,2-]|
[E2^G,2] =G,2- [E2-A,2-G,2-]| \
[E2A,2G,2] ^F,2- [D2-A,2-^F,2-]| \
[D2A,2^F,2] ^F,2- [^D2-^G,2-^F,2-]| \
[^D2^G,2^F,2] =F,2- [^C2-^G,2-F,2-]|
[^C2^G,2F,2] E,2- [^C2-^F,2-E,2-]| \
[^C2^F,2E,2] =D,2- [B,2-^F,2-D,2-]| \
[B,2^F,2D,2] E,2- [D2-B,2-E,2-]| \
[D2B,2E,2] A,2- [A2-A,2-]|
[A2A,2] D,2- [D2-D,2-]| \
[D2D,2] E,2- [E2-E,2-]| \
[E2E,2] A,,2- [A,2-A,,2-]| \
[A,2A,,2] D,,2- [D,2-D,,2-]|
[D,2D,,2] E,,2- [E,2-E,,2-]| \
[E,2E,,2] A,,2 [^G,2-E,2-]| \
[^G,2E,2] A,,x [^G,2-E,2-]| \
[^G,2E,2] A,,x [^G,2-E,2-]|
[^G,2E,2]  (3A,,B,,=C,  (3D,E,^F,| \
 (3^G,A,B, C4| \
x2 [C4C,4]| \
x2 =F,,x [C2-^G,2-F,2-]|
[C2^G,2F,2] F,,x [^C2-^A,2-=G,2-F,2-]| \
[^C2^A,2G,2F,2] ^G,-[F=C^G,] =G,-[ECG,]| \
F,-[FCF,] C,2 [E2-C2-]| \
[E2C2] C,2 [G2-E2-C2-]|
[G2E2C2] F,2 [F2-C2-]| \
[F2C2] ^C,^C ^A,,^A,| \
^C,^C F,2 [F2-=C2-]| \
[F2C2] F,,x [C2-^G,2-F,2-]|
[C2^G,2F,2] F,,x [^C2-^A,2-=G,2-F,2-]| \
[^C2^A,2G,2F,2] ^G,-[F=C^G,] =G,-[ECG,]| \
F,-[FCF,] C,2 [E2-C2-]| \
[E2C2] C,2 [G2-E2-C2-]|
[G2E2C2] F,2 [F2-C2-]| \
[F2C2] ^G,,^G, F,,F,| \
^G,,^G, =G,,2 [D2-B,2-G,2-]| \
[D2B,2G,2] C,x C2-|
C2 F,,x [^G,2-F,2-]| \
[^G,2F,2] =G,,2 [B,2G,2]| \
G,,2 C,2 [G,2-^D,2-]| \
[G,2^D,2] F,,2 [B,2-^G,2-F,2-]|
[B,2^G,2F,2] C,,2 [=G,2-^D,2-]| \
[G,2^D,2] G,,2 G,2-| \
G,2 C,,2 [G,2-^D,2-C,2-]| \
[G,2^D,2C,2] F,,2 [B,2-^G,2-F,2-]|
[B,2^G,2F,2] C,,2 [=G,2-^D,2-]| \
[G,2^D,2] G,,2 G,2-| \
G,2 C,,2 [G,2-^D,2-C,2-]| \
[G,2^D,2C,2] B,,2 [=D2-B,2-]|
[D2B,2] ^A,,2 [^C2-^A,2-]| \
[^C2^A,2] ^G,-[F=C^G,] =G,-[ECG,]| \
F,-[FCF,] C,2 [E2-C2-]| \
[E2C2] E,2 [G2-E2-]|
[G2E2] ^D,2 [^F2-^D2-]| \
[^F2^D2] ^C-[^A=F^C] =C-[=AFC]| \
^A,-[^AF^A,] F,2 [^G2-F2-]| \
[^G2F2] F,,F, =G,,G,|
^G,,^G, =G,,2 [=D2-B,2-G,2-]| \
[D2B,2G,2] C,,C, D,,D,| \
^D,,^D, =D,,2 [=A,2-^F,2-D,2-]| \
[A,2^F,2D,2] G,,2 [B,/2G,/2-][D/2G,/2-]G,/2-[G/2G,/2-]|
[B,2G,2] ^D,,2 [C/2^D,/2-][^D/2^D,/2-]^D,/2-[G/2^D,/2-]| \
[C2^D,2] [=F^CF,,][^GF,] [^D=C=G,,][GG,]| \
[=DB,G,,][GG,] [C/2C,/2-][^G,/2C,/2-]C,/2-[=G,/2C,/2]  (3F,^D,=D,| \
C,x F,,2 [C2-^G,2-F,2-]|
[C2^G,2F,2] F,,2 [^C2-^A,2-=G,2-F,2-]| \
[^C2^A,2G,2F,2] ^G,-[F=C^G,] =G,-[ECG,]| \
F,-[FCF,] C,2 [E2-C2-]| \
[E2C2] C,2 [G2-E2-C2-]|
[G2E2C2] F,2 [F2-C2-]| \
[F2C2] ^C,^C ^A,,^A,| \
^C,^C F,2 [F2-=C2-]| \
[F2C2] ^A,,x [F2-^C2-^A,2-]|
[F2^C2^A,2] ^A,,2 [^F2-^D2-=C2-^A,2-]| \
[^F2^D2C2^A,2] ^C-[^A=F^C] =C-[=AFC]| \
^A,-[^AF^A,] F,2 [=A2-F2-]| \
[A2F2] F,2 [c2-A2-F2-]|
[c2A2F2] ^A,2 [^A2-F2-]| \
[^A2F2] ^C,^C ^A,,^A,| \
^C,^C =C,2 [G2-E2-C2-]| \
[G2E2C2] F,2 [F2-C2-]|
[F2C2] ^A,,2 [^C2-^A,2-]| \
[^C2^A,2] =C,2 [E2C2]| \
C,2 F,,2 [C2-^G,2-F,2-]| \
[C2^G,2F,2] ^A,,x [E2-^C2-^A,2-]|
[E2^C2^A,2] F,,2 [=C2-^G,2-]| \
[C2^G,2] C,2 C2-| \
C2 F,,2 [C2-^G,2-F,2-]| \
[C2^G,2F,2] ^A,,x [E2-^C2-^A,2-]|
[E2^C2^A,2] F,,2 [=C2-^G,2-]| \
[C2^G,2] C,2 C2-| \
C2 F,,2 [C2-^G,2-F,2-]| \
[C2^G,2F,2] F,,2 [C2-^G,2-F,2-]|
[C2^G,2F,2] F,,2 [C2-^G,2-F,2-]| \
[C2^G,2F,2] F,,2 [C2^G,2F,2]| \
F,,2 [C2^G,2F,2] F,,2| \
[C2^G,2F,2] E,,2 [C2-=A,2-E,2-]|
[C2A,2E,2] E,,2 [C2-A,2-E,2-]| \
[C2A,2E,2] E,,2 [C2A,2E,2]| \
E,,2 [C2A,2E,2] E,,2| \
[C2A,2E,2] [=D,2D,,2] [B,2-A,2-F,2-D,2-]|
[B,2A,2F,2D,2] [C4A,4F,4D,4]| \
[C2A,2F,2D,2] [F4-D4-B,4-E,4-]| \
[F6-D6-B,6-E,6-]| \
[F2D2B,2E,2] [E4-D4-B,4-E,4-]|
[E6-D6-B,6-E,6-]| \
[E2D2B,2E,2] A,2- [E2-A,2-]| \
[E2A,2] B,2- [E2B,2-]| \
B,2 ^C2- [E2-^C2-]|
[E2^C2] ^G,2- [E2-^G,2-]| \
[E2^G,2] A,2- [E2-A,2-]| \
[E2A,2] D,2 [^F2-D2-]| \
[^F2D2] E,2 [^G2-E2-D2-]|
[^G2E2D2] A,2 [A2-E2-^C2-]| \
[A2E2^C2] A,2- [E2-A,2-]| \
[E2A,2] B,2- [E2B,2-]| \
B,2 ^C2- [E2-^C2-]|
[E2^C2] ^G,2- [E2-^G,2-]| \
[E2^G,2] A,2- [E2-A,2-]| \
[E2A,2] D,2 [^F2-D2-]| \
[^F2D2] E,2 [^G2-E2-D2-]|
[^G2E2D2] A,2 [A2-E2-^C2-]| \
[A2E2^C2] A,2- [E2-A,2-]| \
[E2A,2] B,2- [E2-B,2-]| \
[E2B,2] ^C2- [E2-^C2-]|
[E2^C2] ^G,2- [E2-^G,2-]| \
[E2^G,2] A,2- [E2-A,2-]| \
[E2A,2] D,2 [^F2-D2-]| \
[^F2D2] E,2 [^G2-E2-D2-]|
[^G2E2D2] A,2 [A2-E2-^C2-]| \
[A2E2^C2] A,,2- [A,2-A,,2-]| \
[A,2A,,2] D,2- [D2-D,2-]| \
[D2D,2] =G,,2- [G,2-G,,2-]|
[G,2G,,2] =C,2- [C2-C,2-]| \
[C2C,2] =F,,2- [F,2-F,,2-]| \
[F,2F,,2] B,,2- [B,2-B,,2-]| \
[B,2B,,2] E,,2- [E,2-E,,2-]|
[E,2E,,2] A,,2- [A,2-A,,2-]| \
[A,2A,,2] D,2- [D2-D,2-]| \
[D2D,2] E,2- [E2-E,2-]| \
[E2-E,2] [E4-A,4-]|
[E2A,2] C,2- [G,2-C,2-]| \
[G,2C,2] D,2- [^G,2D,2-]| \
[=G,2D,2] C,2- [G,2-C,2-]| \
[G,2C,2] D,2- [^G,2D,2-]|
[=G,2D,2] E,2- [C2-E,2-]| \
[C2-E,2] [C2F,2-] [D2-F,2-]| \
[D2-F,2] [D2G,2-] [F2-G,2-]| \
[F2G,2] [E4C4]|
x2 E,2- [F2-D2-B,2-E,2-]| \
[F2D2B,2E,2] E,2- [F2-D2-B,2-E,2-]| \
[F2D2B,2E,2] E,2- [F2-D2-B,2-E,2-]| \
[F6-D6-B,6-E,6-]|
[F2D2B,2E,2] E2- [f2-d2-B2-E2-]| \
[f2d2B2E2] E2- [f2-d2-B2-E2-]| \
[f6-d6-B6-E6-]| \
[f2d2-B2-E2-] [e4-d4-B4-E4-]|
[e2d2B2E2] A,2- [E2-A,2-]| \
[E2A,2] B,2- [E2B,2-]| \
B,2 ^C2- [E2-^C2-]| \
[E2^C2] ^G,2- [E2-^G,2-]|
[E2^G,2] A,2- [E2-A,2-]| \
[E2A,2] D,2 [^F2-D2-]| \
[^F2D2] E,2 [B2-E2-D2-]| \
[B2E2D2] A,2 [A2-E2-^C2-]|
[A2E2^C2] A,2- [E2-A,2-]| \
[E2A,2] B,2- [E2-B,2-]| \
[E2B,2] ^C2- [E2-^C2-]| \
[E2^C2] ^G,2- [E2-^G,2-]|
[E2^G,2] =G,2- [E2-A,2-G,2-]| \
[E2A,2G,2] ^F,2- [D2-A,2-^F,2-]| \
[D2A,2^F,2] ^F,2- [^D2-^G,2-^F,2-]| \
[^D2^G,2^F,2] =F,2- [^C2-^G,2-F,2-]|
[^C2^G,2F,2] E,2- [^C2-^F,2-E,2-]| \
[^C2^F,2E,2] =D,2- [B,2-^F,2-D,2-]| \
[B,2^F,2D,2] E,2- [D2-B,2-E,2-]| \
[D2B,2E,2] A,2- [A2-A,2-]|
[A2A,2] D,2- [D2-D,2-]| \
[D2D,2] E,2- [E2-E,2-]| \
[E2E,2] A,,2- [A,2-A,,2-]| \
[A,2A,,2] D,,2- [D,2-D,,2-]|
[D,2D,,2] E,,2- [E,2-E,,2-]| \
[E,2E,,2] A,,2 [^G,2-E,2-]| \
[^G,2E,2] A,,x [^G,2-E,2-]| \
[^G,2E,2] A,,x [^G,2-E,2-]|
[^G,2E,2]  (3A,,B,,=C,  (3D,E,^F,| \
 (3^G,A,B, C4| \
x2 [C4C,4]| \
x2 =F,,x [C2-^G,2-F,2-]|
[C2^G,2F,2] F,,x [^C2-^A,2-=G,2-F,2-]| \
[^C2^A,2G,2F,2] ^G,-[F=C^G,] =G,-[ECG,]| \
F,-[FCF,] C,2 [E2-C2-]| \
[E2C2] E,2 [E2-D2-B,2-]|
[E2D2B,2] =A,,2 [E2-C2-A,2-]| \
[E2C2A,2] E,2 [^G2E2D2]| \
E,2 A,2 [E2-C2-]| \
[E2C2] F,,2 [C2-^G,2-F,2-]|
[C2^G,2F,2] F,,2 [^C2-^A,2-=G,2-F,2-]| \
[^C2^A,2G,2F,2] ^G,-[F=C^G,] =G,-[ECG,]| \
F,-[FCF,] C,2 [E2-C2-]| \
[E2C2] E,2 [E2-D2-B,2-]|
[E2D2B,2] =A,,2 [E2-C2-A,2-]| \
[E2C2A,2] E,2 [^G2E2D2]| \
E,2 A,2 [A2-E2-C2-]| \
[A2E2C2] E,2 [d2-B2-^G2-E2-]|
[d2B2^G2E2] A,2 [c2-A2-E2-]| \
[c2A2E2] [B2F2D2] [c2A2E2]| \
[d2B2E2] A,2 [c2-A2-E2-]| \
[c2A2E2] E,2 [d2-B2-^G2-E2-]|
[d2B2^G2E2] A,2 [c2-A2-E2-]| \
[c2A2E2] [B2F2D2] [c2A2E2]| \
[d2B2E2] A,2 [c2-A2-E2-]| \
[c2A2E2] [B2F2D2] [c2A2E2]|
[d2B2E2] [A4E4C4A,4]| \
[AFDA,]x [A4E4C4A,4]| \
[AFDA,]x [A,4E,4C,4A,,4]| \
[A,F,D,A,,]x [A,4E,4C,4A,,4]|
[F,D,A,,]x [ECA,E,C,A,,]x [FDA,F,D,A,,]x| \
[ECA,E,C,A,,]x [FDA,F,D,A,,]x [ECA,E,C,A,,]x| \
[FDA,F,D,A,,]x [E,2E,,2] x2| \
x2 [A,2E,2A,,2] 
