Error: Time=2304 Track=0 Note terminated when not on - pitch 79
Error: Time=2560 Track=0 Note terminated when not on - pitch 81
Error: Time=2816 Track=0 Note terminated when not on - pitch 83
Error: Time=3072 Track=0 Note terminated when not on - pitch 86
Error: Time=3328 Track=0 Note terminated when not on - pitch 84
Error: Time=6912 Track=0 Note terminated when not on - pitch 88
Error: Time=7168 Track=0 Note terminated when not on - pitch 91
Error: Time=7424 Track=0 Note terminated when not on - pitch 90
Error: Time=7936 Track=0 Note terminated when not on - pitch 87
Error: Time=8704 Track=0 Note terminated when not on - pitch 76
Error: Time=8960 Track=0 Note terminated when not on - pitch 71
Error: Time=18944 Track=0 Note terminated when not on - pitch 78
Error: Time=20224 Track=0 Note terminated when not on - pitch 77
Error: Time=20736 Track=0 Note terminated when not on - pitch 74
Error: Time=20992 Track=0 Note terminated when not on - pitch 72
Error: Time=25088 Track=0 Note terminated when not on - pitch 69
Error: Time=25344 Track=0 Note terminated when not on - pitch 68
Error in MIDI file - notes still on at end of track!
Error: Time=1024 Track=1 Note terminated when not on - pitch 52
Error: Time=1536 Track=1 Note terminated when not on - pitch 64
Error: Time=1792 Track=1 Note terminated when not on - pitch 59
Error: Time=2560 Track=1 Note terminated when not on - pitch 67
Error: Time=3072 Track=1 Note terminated when not on - pitch 57
Error: Time=7680 Track=1 Note terminated when not on - pitch 75
Error: Time=19456 Track=1 Note terminated when not on - pitch 62
Error: Time=19968 Track=1 Note terminated when not on - pitch 65
Error: Time=20480 Track=1 Note terminated when not on - pitch 55
Error: Time=22016 Track=1 Note terminated when not on - pitch 60
Error: Time=23552 Track=1 Note terminated when not on - pitch 50
Error in MIDI file - notes still on at end of track!
X: 1
T: from midi_transposed/C_scn15_3.mid
M: 2/4
L: 1/16
Q:1/4=115
