Error: Time=12032 Track=0 Note terminated when not on - pitch 67
Error: Time=12032 Track=0 Note terminated when not on - pitch 69
Error: Time=12288 Track=0 Note terminated when not on - pitch 71
Error: Time=62805 Track=0 Note terminated when not on - pitch 70
Error: Time=114432 Track=0 Note terminated when not on - pitch 60
Error: Time=125696 Track=0 Note terminated when not on - pitch 79
Error: Time=125696 Track=0 Note terminated when not on - pitch 81
Error: Time=125952 Track=0 Note terminated when not on - pitch 83
Error: Time=140800 Track=0 Note terminated when not on - pitch 77
Error: Time=140971 Track=0 Note terminated when not on - pitch 75
Error: Time=141056 Track=0 Note terminated when not on - pitch 74
Error: Time=289536 Track=0 Note terminated when not on - pitch 78
Error: Time=306944 Track=0 Note terminated when not on - pitch 88
Error: Time=306944 Track=0 Note terminated when not on - pitch 91
Error: Time=307541 Track=0 Note terminated when not on - pitch 90
Error: Time=308907 Track=0 Note terminated when not on - pitch 84
Error: Time=308992 Track=0 Note terminated when not on - pitch 86
Error: Time=308992 Track=0 Note terminated when not on - pitch 87
Error: Time=310016 Track=0 Note terminated when not on - pitch 96
Error: Time=310016 Track=0 Note terminated when not on - pitch 100
Error: Time=310613 Track=0 Note terminated when not on - pitch 98
Error: Time=311979 Track=0 Note terminated when not on - pitch 93
Error: Time=312064 Track=0 Note terminated when not on - pitch 94
Error: Time=312064 Track=0 Note terminated when not on - pitch 95
Error: Time=357120 Track=0 Note terminated when not on - pitch 72
Error: Time=357120 Track=0 Note terminated when not on - pitch 72
Error: Time=360448 Track=0 Note terminated when not on - pitch 76
Error: Time=369408 Track=0 Note terminated when not on - pitch 59
Error: Time=369408 Track=0 Note terminated when not on - pitch 59
Error: Time=372480 Track=0 Note terminated when not on - pitch 60
Error: Time=375552 Track=0 Note terminated when not on - pitch 62
Error: Time=375552 Track=0 Note terminated when not on - pitch 62
Error: Time=426667 Track=0 Note terminated when not on - pitch 82
Error in MIDI file - notes still on at end of track!
Error: Time=315136 Track=1 Note terminated when not on - pitch 64
Error: Time=318208 Track=1 Note terminated when not on - pitch 73
Error: Time=362496 Track=1 Note terminated when not on - pitch 65
Error: Time=369408 Track=1 Note terminated when not on - pitch 47
Error: Time=369408 Track=1 Note terminated when not on - pitch 47
Error: Time=372480 Track=1 Note terminated when not on - pitch 48
Error: Time=372480 Track=1 Note terminated when not on - pitch 48
Error: Time=375552 Track=1 Note terminated when not on - pitch 50
Error: Time=375552 Track=1 Note terminated when not on - pitch 50
Error: Time=620288 Track=1 Note terminated when not on - pitch 43
Error: Time=627456 Track=1 Note terminated when not on - pitch 38
Error in MIDI file - notes still on at end of track!
X: 1
T: from midi_transposed/C_schubert_D850_2.mid
M: 3/4
L: 1/8
Q:1/4=70
