Error: Time=3413 Track=0 Note terminated when not on - pitch 74
Error: Time=6912 Track=0 Note terminated when not on - pitch 65
Error: Time=9557 Track=0 Note terminated when not on - pitch 55
Error: Time=12544 Track=0 Note terminated when not on - pitch 50
Error: Time=12544 Track=0 Note terminated when not on - pitch 48
Error: Time=12629 Track=0 Note terminated when not on - pitch 47
Error: Time=13056 Track=0 Note terminated when not on - pitch 46
Error: Time=15360 Track=0 Note terminated when not on - pitch 68
Error: Time=15701 Track=0 Note terminated when not on - pitch 76
Error: Time=23296 Track=0 Note terminated when not on - pitch 60
Error: Time=23296 Track=0 Note terminated when not on - pitch 69
Error: Time=106752 Track=0 Note terminated when not on - pitch 53
Error: Time=106837 Track=0 Note terminated when not on - pitch 52
Error in MIDI file - notes still on at end of track!
Error: Time=9557 Track=1 Note terminated when not on - pitch 40
Error: Time=12544 Track=1 Note terminated when not on - pitch 34
Error: Time=12544 Track=1 Note terminated when not on - pitch 45
Error: Time=12544 Track=1 Note terminated when not on - pitch 33
Error: Time=12629 Track=1 Note terminated when not on - pitch 32
Error: Time=12629 Track=1 Note terminated when not on - pitch 44
Error: Time=13056 Track=1 Note terminated when not on - pitch 43
Error: Time=13056 Track=1 Note terminated when not on - pitch 31
Error: Time=40960 Track=1 Note terminated when not on - pitch 41
Error: Time=41301 Track=1 Note terminated when not on - pitch 38
Error in MIDI file - notes still on at end of track!
X: 1
T: from midi_transposed/C_scn16_4.mid
M: 4/4
L: 1/8
Q:1/4=30
