Error: Time=75264 Track=1 Note terminated when not on - pitch 38
Error: Time=75520 Track=1 Note terminated when not on - pitch 40
Error: Time=77568 Track=1 Note terminated when not on - pitch 36
Error in MIDI file - notes still on at end of track!
X: 1
T: from midi_transposed/C_schumm-4.mid
M: 2/4
L: 1/16
Q:1/4=102
%beats in anacrusis = 4
% Last note suggests Phrygian mode tune
K:C % 0 sharps
V:1
% Piano
%%MIDI program 0
%%MIDI program 0
x2| \
x8| \
E2 CA, CE CA,| \
CF B,^G, B,F B,^G,| \
B,E EC Ec EC|
EA FE DA ^GD| \
E^G AC EA cE| \
ce cF ce ^Ad| \
=Ac ^GB Ac Bd|
^GB cA =GF ED| \
CB, CA, CE CA,| \
CF B,G, B,F B,G,| \
B,E EA, EA DB,|
DA EC EA EC| \
EG ^DC ^D^F c^F| \
c^d B^d B=d =Fc| \
FB Fd Ec CA|
A,F G,E CG G,F| \
B,G F-[F-B,] [FG,]F EC| \
EF GE Ge Gd| \
^Gc AC Ac =GB|
FA EG, EG C^F,| \
CA D=F, DG DF,| \
DG CE, CE x2| \
x2 B,F, B,G x2|
x2 CE, CE EG| \
ce e-[eE] c-[cE] B-[BE]| \
^A-[^AE] =AA, FA x2| \
x2 E^A, Ec x2|
x2 F=A, FA Ac| \
fa aA fA ec| \
dB [cEC]E DE CE| \
B,E CA, CE CA,|
CF B,^G, B,F B,^G,| \
B,E EC Ec EC| \
EA FE DA ^GB,| \
E^G AE Ac cE|
ce cF ce ^Ad| \
=Ac ^GB Ac Bd| \
^GB cA =GF ED| \
CB, CA, CE CA,|
CF B,G, B,F B,G,| \
B,E EA, EA DB,| \
DA EC EA EC| \
EG ^DC ^D^F c^F|
c^d B^d B=d =Fc| \
FB Fd Ec CA| \
A,F G,E CG G,F| \
B,G F-[F-B,] [FG,]F EG,|
CD EC Ec EB| \
EA FA, FA EG| \
DF CE, CE A,^D,| \
A,F B,=D, B,E B,D,|
B,E A,C, A,C x2| \
x2 A,C, A,C x2| \
x2 ^A,F, ^A,D DF| \
^Ad f-[f^A] [d-F][dG] [c-=A][cE]|
[B-^G][BE] AC Ac x2| \
x2 AC Ac x2| \
x2 ^AF ^Ad fd| \
^AF Ec C=A DB|
B,^G CA [CA,]E [DB,]E| \
[B,^G,]E x6| \
x2 ^CE [^F4D4]| \
[E3/2^C3/2]x/2 ^CE [A4^F4D4]|
[E3/2^C3/2]x/2 [E^C]^A, [D4B,4]| \
[B2D2] [^cE][BD] [=A4^C4]| \
[E3/2^C3/2]x/2 ^CE [^F4D4]| \
[E3/2^C3/2]x/2 ^CE [A4^F4D4]|
[E3/2^C3/2]x/2 [E^C]^A, [D3B,3][BD]| \
[^cE][BD] [=A^C][BD] [A4-^C4-]| \
[A2^C2] E,^G, [A,4E,4=C,4]| \
[^G,2E,2B,,2] E,^G, [C4A,4E,4]|
[B,2^G,2E,2] [B,^G,]=F [E4C4A,4]| \
[E2B,2^G,2] [FB,-=G,-][GB,G,] [E4-C4-G,4-]| \
[E2C2G,2] ^CE [^F4D4]| \
[E3/2^C3/2]x/2 ^CE [A4^F4D4]|
[E3/2^C3/2]x/2 [E^C]^A, [D4B,4]| \
[B2D2] [^cE][BD] [=A4^C4]| \
[E3/2^C3/2]x/2 ^CE [^F4D4]| \
[E3/2^C3/2]x/2 ^CE [A4^F4D4]|
[E3/2^C3/2]x/2 [E^C]^A, [D3B,3][BD]| \
[^cE][BD] [=A^C][BD] [A4-^C4-]| \
[A2^C2] E,^G, [A,4E,4=C,4]| \
[^G,2E,2B,,2] E,^G, [C4A,4E,4]|
[B,2^G,2E,2] [B,^G,]=F [E4C4A,4]| \
[E2B,2^G,2] [FB,-=G,-][GB,G,] [E4-C4-G,4-]| \
[E2C2G,2] [EC-G,-][FCG,] [D4B,4G,4]| \
[E2C2G,2] [EC-G,-][FCG,] [D4B,4G,4]|
[E2C2G,2] [DB,-G,-][EB,G,] [C4A,4E,4]| \
[D2A,2F,2] [B,F,-][DF,] [C4E,4]| \
[c2E2] [cF-][eF] [d4F4]| \
[F2D2] [EC][FD] [G4E4]|
[c2E2] [cF-][eF] [d4F4]| \
[B2F2] [cE][AF] [G4E4]| \
[E2C2G,2] [EC-G,-][FCG,] [D4B,4G,4]| \
[E2C2G,2] [EC-G,-][FCG,] [D4B,4G,4]|
[E2C2G,2] [DB,-G,-][EB,G,] [C4A,4E,4]| \
B,A, ^G,B, A,4| \
[A2^C2] [^AD-][^cD] [B4D4]| \
[D2B,2] ^C[DB,] [E4^C4]|
[=A2^C2] [^AD-][^cD] [B4D4]| \
[^c2=G2] [^c^G-][e^G] [d4-^G4-]| \
[d2^G2] ^CE [^F4D4]| \
[E3/2^C3/2]x/2 ^CE [=A4^F4D4]|
[E3/2^C3/2]x/2 [E^C]^A, [D4B,4]| \
[B2D2] [^cE][BD] [=A4^C4]| \
[E3/2^C3/2]x/2 ^CE [^F4D4]| \
[E3/2^C3/2]x/2 ^CE [A4^F4D4]|
[E3/2^C3/2]x/2 [E^C]^A, [D3B,3][BD]| \
[^cE][BD] [=A^C][BD] [A4-^C4-]| \
[A2^C2] x6| \
x8|
x2 [^G,=F,]D [^C4A,4^F,4]| \
[^C2^G,2=F,2] [D^G,-E,-][E^G,E,] [^C4-A,4-E,4-]| \
[E2^C2=C2A,2=G,2E,2] [EC-][FC] [D4B,4G,4]| \
[E2C2G,2] [EC-G,-][FCG,] [D4B,4G,4]|
[E2C2G,2] [DB,-G,-][EB,G,] [C4A,4E,4]| \
[D2A,2F,2] [B,F,-][DF,] [C4E,4]| \
[c2E2] [cF-][eF] [d4F4]| \
[F2D2] E[FD] [G4E4]|
[c2E2] [cF-][eF] [d4F4]| \
[B2F2] [cE][AF] [G4E4]| \
[E2C2G,2] [EC-G,-][FCG,] [D4B,4G,4]| \
[E2C2G,2] [EC-G,-][FCG,] [D4B,4G,4]|
[E2C2G,2] [DB,-G,-][EB,G,] [C4A,4E,4]| \
B,A, ^G,B, A,4| \
[A2^C2] [^AD-][^cD] [B4D4]| \
[D2B,2] ^C[DB,] [E4^C4]|
[=A2^C2] [^AD-][^cD] [B4D4]| \
[^c2=G2] [^c^G-][e^G] [d4-^G4-]| \
[d2^G2] ^CE [^F4D4]| \
[E3/2^C3/2]x/2 ^CE [=A4^F4D4]|
[E3/2^C3/2]x/2 [E^C]^A, [D4B,4]| \
[B2D2] [^cE][BD] [=A4^C4]| \
[E3/2^C3/2]x/2 ^CE [^F4D4]| \
[E3/2^C3/2]x/2 ^CE [A4^F4D4]|
[E3/2^C3/2]x/2 [E^C]^A, [D3B,3][BD]| \
[^cE][BD] [=A^C][BD] [A4-^C4-]| \
[A2^C2] x6| \
x8|
x2 [^G,=F,]D [^C4A,4^F,4]| \
[^C2^G,2=F,2] [D^G,-E,-][E^G,E,] [^C4-A,4-E,4-]| \
[E2^C2A,2E,2] =CA, CE CA,| \
CF B,^G, B,F B,^G,|
B,E EC Ec EC| \
EA FE DA ^GD| \
E^G AC EA cE| \
ce cF ce ^Ad|
=Ac ^GB Ac Bd| \
^GB cA =GF ED| \
CB, CA, CE CA,| \
CF B,G, B,F B,G,|
B,E EA, EA DB,| \
DA EC EA EC| \
EG ^DC ^D^F c^F| \
c^d B^d B=d =Fc|
FB Fd Ec CA| \
A,F G,E CG G,F| \
B,G F-[F-B,] [FG,]F EC| \
EF GE Ge Gd|
^Gc AC Ac =GB| \
FA EG, EG C^F,| \
CA D=F, DG DF,| \
DG CE, CE x2|
x2 B,F, B,G x2| \
x2 CE, CE EG| \
ce e-[eE] c-[cE] B-[BE]| \
^A-[^AE] =AA, FA x2|
x2 E^A, Ec x2| \
x2 F=A, FA Ac| \
fa aA fA ec| \
dB [cEC]E DE CE|
B,E CA, CE CA,| \
CF B,^G, B,F B,^G,| \
B,E EC Ec EC| \
EA FE DA ^GB,|
E^G AE Ac cE| \
ce cF ce ^Ad| \
=Ac ^GB Ac Bd| \
^GB cA =GF ED|
CB, CA, CE CA,| \
CF B,G, B,F B,G,| \
B,E EA, EA DB,| \
DA EC EA EC|
EG ^DC ^D^F c^F| \
c^d B^d B=d =Fc| \
FB Fd Ec CA| \
A,F G,E CG G,F|
B,G F-[F-B,] [FG,]F EG,| \
CD EC Ec EB| \
EA FA, FA EG| \
DF CE, CE A,^D,|
A,F B,=D, B,E B,D,| \
B,E A,C, A,C x2| \
x2 A,C, A,C x2| \
x2 ^A,F, ^A,D DF|
^Ad f-[f^A] [d-F][dG] [c-=A][cE]| \
[B-^G][BE] AC Ac x2| \
x2 AC Ac x2| \
x2 ^AF ^Ad fd|
^AF Ec C=A DB| \
B,^G CA [CA,]E [DB,]E| \
[B,^G,]E x6| \
x2 ^CE [^F4D4]|
[E2^C2] ^CE [A4^F4D4]| \
[E2^C2] [E4^C4] 
V:2
% Piano
%%MIDI program 0
%%MIDI program 0
x2| \
x8| \
x2 
% Piano
%%MIDI program 0
%%MIDI program 0
A,,x E,x A,,x| \
=F,x ^G,,x F,x ^G,,x| \
E,x A,,x E,x =C,x|
E,x B,,x F,x B,,x| \
E,x A,,x A,x A,,x| \
=G,x D,x F,x D,x| \
F,x F,,x D,x E,,x|
E,x A,,x B,,x C,x| \
E,x A,,x E,x A,,x| \
F,x G,,x F,x G,,x| \
E,x C,x E,x F,,x|
F,x E,,x G,x E,x| \
G,x A,,x C,x ^G,,x| \
^F,x =G,,x G,x ^G,,x| \
D,x A,,x C,x =F,,x|
D,x =G,,x E,x G,,x| \
F,x G,,x D,x C,x| \
D,x E,x G,x E,x| \
Cx F,x F,,x G,,x|
A,,x G,,x C,x G,,x| \
^D,x G,,x C,x G,,x| \
B,,x C,2 x2 G,,C,,| \
G,,C, x4 G,,C,,|
G,,=D, x4 C,E,| \
G,C C2 A,2 ^G,2| \
=G,2 F,2 x2 C,F,,| \
C,F, x4 C,F,,|
C,G, x4 F,A,| \
CF F2 D2 G2| \
[F2G,2] x2 [E,2-D,2] [E,2-C,2]| \
[E,2B,,2] A,,x ^G,,x A,,x|
C,x ^G,,x B,,x E,x| \
^G,,x A,,x B,,x C,x| \
A,,x B,,x F,x E,x| \
D,x C,x B,,x A,,x|
=G,,x F,,x D,,-[E,,-D,,-] [F,,E,,-D,,-][E,,-D,,-]| \
[E,,-D,,-D,,][E,,-D,,-] [E,,-E,,D,,-][E,,-D,,] [E,,-D,,-][E,,-D,,-C,,-] [E,,-D,,-C,,-B,,,][E,,-D,,-C,,-]| \
[E,,-E,,D,,-C,,-][E,,-D,,-C,,-] [E,,-D,,-C,,-A,,,][E,,-D,,-C,,-] [E,,2-E,,2D,,2-C,,2-] [^F,,2E,,2-D,,2-C,,2-]| \
[^G,,2E,,2-D,,2-C,,2-] [A,,2E,,2-D,,2-C,,2-] [C,2E,,2-D,,2-C,,2-] [B,,2E,,2-D,,2-C,,2-]|
[A,,2E,,2-D,,2-C,,2-] [=G,,2E,,2-D,,2-C,,2-] [B,,2E,,2-D,,2-C,,2-] [E,2E,,2-D,,2-C,,2-]| \
[G,,2E,,2-D,,2-C,,2-] [=F,,2E,,2-D,,2-C,,2-] [A,,2E,,2-D,,2-C,,2-] [G,,2E,,2-D,,2-C,,2-]| \
[F,,2E,,2-D,,2-C,,2-] [E,,2-E,,2D,,2-C,,2-] [G,,2E,,2-D,,2-C,,2-] [C,2E,,2-D,,2-C,,2-]| \
[E,,2-E,,2D,,2-C,,2-] [E,,2-D,,2-C,,2-C,,2] [C,E,,-D,,-C,,-][B,,E,,-D,,-C,,-] [A,,2E,,2-D,,2-C,,2-]|
[^G,,2E,,2-D,,2-C,,2-] [=G,,2E,,2-D,,2-C,,2-] [D,2E,,2-D,,2-C,,2-] [G,2E,,2-D,,2-C,,2-]| \
[G,,2E,,2-D,,2-C,,2-] [^G,,2E,,2-D,,2-C,,2-] [A,,2E,,2-D,,2-C,,2-] [E,,2-E,,2D,,2-C,,2-]| \
[F,,2E,,2-D,,2-C,,2-] [=G,,2E,,2-D,,2-C,,2-] [E,2E,,2-D,,2-C,,2-] [G,,2E,,2-D,,2-C,,2-]| \
[F,2E,,2-D,,2-C,,2-] [G,,2E,,2-D,,2-C,,2-] [D,2E,,2-D,,2-C,,2-] [C,2E,,2-D,,2-C,,2-]|
[A,,E,,-D,,-C,,-][B,,E,,-D,,-C,,-] [C,2E,,2-D,,2-C,,2-] [E,2E,,2-D,,2-C,,2-] [^C,2E,,2-D,,2-=C,,2-]| \
[A,2E,,2-D,,2-C,,2-] [D,2E,,2-D,,2-C,,2-] [E,,2-D,,2-D,,2C,,2-] [E,,2-E,,2D,,2-C,,2-]| \
[F,,2E,,2-D,,2-C,,2-] [E,,2-E,,2D,,2-C,,2-] [A,,2E,,2-D,,2-C,,2-] [E,,2-E,,2D,,2-C,,2-]| \
[C,2E,,2-D,,2-C,,2-] [E,,2-E,,2D,,2-C,,2-] [A,,2E,,2-D,,2-C,,2-] [E,,2-E,,2D,,2-C,,2-]|
[^G,,2E,,2-D,,2-C,,2-] [A,,2E,,2-D,,2-C,,2-] [E,,2-D,,2-C,,2-] [E,,-E,,D,,-C,,-][E,,-D,,-C,,-A,,,]| \
[E,,-E,,D,,-C,,-][A,,E,,-D,,-C,,-] [F,,2E,,2-D,,2-C,,2-] [E,,2-D,,2-C,,2-] [E,,-D,,-C,,-C,,][E,,-D,,-C,,-F,,,]| \
[E,,-D,,-C,,-C,,][F,,E,,-D,,-C,,-] [E,,2-D,,2-D,,2C,,2-] [E,,2-D,,2-C,,2-] [^A,,E,,-D,,-C,,-][D,E,,-D,,-C,,-]| \
[F,E,,-D,,-C,,-][^A,E,,-D,,-C,,-] [D2E,,2-D,,2-C,,2-] [^A,2D,2E,,2-D,,2-C,,2-] [C2E,2E,,2-D,,2-C,,2-]|
[D2E,2E,,2-D,,2-C,,2-] [C=A,-E,,-D,,-C,,-][A,E,,-D,,-C,,-] [E,,2-D,,2-C,,2-] [E,E,,-D,,-C,,-][A,,E,,-D,,-C,,-]| \
[E,E,,-D,,-C,,-][A,E,,-D,,-C,,-] [F,2E,,2-D,,2-C,,2-] [E,,2-D,,2-C,,2-] [C,E,,-D,,-C,,-][F,,E,,-D,,-C,,-]| \
[C,E,,-D,,-C,,-][F,E,,-D,,-C,,-] [D,2E,,2-D,,2-C,,2-] [F,E,,-D,,-C,,-][^A,E,,-D,,-C,,-] [DE,,-D,,-C,,-][^A,E,,-D,,-C,,-]| \
[F,E,,-D,,-C,,-][D,E,,-D,,-C,,-] [E,2E,,2-D,,2-C,,2-] [E,2E,,2-D,,2-C,,2-] [E,2E,,2-D,,2-C,,2-]|
[E,2E,,2-D,,2-C,,2-] [E,2E,,2-D,,2-C,,2-] [E,,2-E,,2D,,2-C,,2-] [E,,2-E,,2D,,2-C,,2-]| \
[E,,2-E,,2D,,2-C,,2-] [E,,6-D,,6-C,,6-]| \
[E,,2-D,,2-C,,2-] [=A,2E,2A,,2E,,2-D,,2-C,,2-] [A,4E,4A,,4E,,4-D,,4-C,,4-]| \
[A,3/2E,3/2A,,3/2E,,3/2-D,,3/2-C,,3/2-][E,,/2-D,,/2-C,,/2-] [A,2E,2A,,2E,,2-D,,2-C,,2-] [A,4E,4A,,4E,,4-D,,4-C,,4-]|
[A,3/2E,3/2A,,3/2E,,3/2-D,,3/2-C,,3/2-][E,,/2-D,,/2-C,,/2-] [^G,2E,2E,,2-D,,2-C,,2-] [^G,4E,4E,,4-D,,4-C,,4-]| \
[^G,2E,2E,,2-D,,2-C,,2-] [A,2E,2A,,2E,,2-D,,2-C,,2-] [A,4E,4A,,4E,,4-D,,4-C,,4-]| \
[A,3/2E,3/2A,,3/2E,,3/2-D,,3/2-C,,3/2-][E,,/2-D,,/2-C,,/2-] [A,2E,2A,,2E,,2-D,,2-C,,2-] [A,4E,4A,,4E,,4-D,,4-C,,4-]| \
[A,3/2E,3/2A,,3/2E,,3/2-D,,3/2-C,,3/2-][E,,/2-D,,/2-C,,/2-] [A,2E,2A,,2E,,2-D,,2-C,,2-] [A,4E,4A,,4E,,4-D,,4-C,,4-]|
[A,3/2E,3/2A,,3/2E,,3/2-D,,3/2-C,,3/2-][E,,/2-D,,/2-C,,/2-] [^G,2E,2E,,2-D,,2-C,,2-] [^G,4E,4E,,4-D,,4-C,,4-]| \
[^G,2E,2E,,2-D,,2-C,,2-] [A,2E,2A,,2E,,2-D,,2-C,,2-] [A,4-E,4-A,,4-E,,4-D,,4-C,,4-]| \
[A,2E,2A,,2E,,2-D,,2-C,,2-] [E,,2-E,,2D,,2-C,,2-E,,,2] [E,,4-E,,4D,,4-C,,4-A,,,4]| \
[E,,2-E,,2D,,2-C,,2-E,,,2] [E,,2-E,,2D,,2-C,,2-E,,,2] [E,,4-E,,4D,,4-C,,4-A,,,4]|
[E,,2-E,,2D,,2-C,,2-E,,,2] [E,,2-E,,2D,,2-C,,2-E,,,2] [E,,4-E,,4D,,4-C,,4-A,,,4]| \
[E,,2-E,,2D,,2-C,,2-E,,,2] [=G,,2E,,2-D,,2-D,,2C,,2-] [G,,4-E,,4-D,,4-C,,4-C,,4-]| \
[G,,2E,,2-D,,2-C,,2-C,,2] [A,2E,2A,,2E,,2-D,,2-C,,2-] [A,4E,4A,,4E,,4-D,,4-C,,4-]| \
[A,3/2E,3/2A,,3/2E,,3/2-D,,3/2-C,,3/2-][E,,/2-D,,/2-C,,/2-] [A,2E,2A,,2E,,2-D,,2-C,,2-] [A,4E,4A,,4E,,4-D,,4-C,,4-]|
[A,3/2E,3/2A,,3/2E,,3/2-D,,3/2-C,,3/2-][E,,/2-D,,/2-C,,/2-] [^G,2E,2E,,2-D,,2-C,,2-] [^G,4E,4E,,4-D,,4-C,,4-]| \
[^G,2E,2E,,2-D,,2-C,,2-] [A,2E,2A,,2E,,2-D,,2-C,,2-] [A,4E,4A,,4E,,4-D,,4-C,,4-]| \
[A,3/2E,3/2A,,3/2E,,3/2-D,,3/2-C,,3/2-][E,,/2-D,,/2-C,,/2-] [A,2E,2A,,2E,,2-D,,2-C,,2-] [A,4E,4A,,4E,,4-D,,4-C,,4-]| \
[A,3/2E,3/2A,,3/2E,,3/2-D,,3/2-C,,3/2-][E,,/2-D,,/2-C,,/2-] [A,2E,2A,,2E,,2-D,,2-C,,2-] [A,4E,4A,,4E,,4-D,,4-C,,4-]|
[A,3/2E,3/2A,,3/2E,,3/2-D,,3/2-C,,3/2-][E,,/2-D,,/2-C,,/2-] [^G,2E,2E,,2-D,,2-C,,2-] [^G,4E,4E,,4-D,,4-C,,4-]| \
[^G,2E,2E,,2-D,,2-C,,2-] [A,2E,2A,,2E,,2-D,,2-C,,2-] [A,4-E,4-A,,4-E,,4-D,,4-C,,4-]| \
[A,2E,2A,,2E,,2-D,,2-C,,2-] [E,,2-E,,2D,,2-C,,2-E,,,2] [E,,4-E,,4D,,4-C,,4-A,,,4]| \
[E,,2-E,,2D,,2-C,,2-E,,,2] [E,,2-E,,2D,,2-C,,2-E,,,2] [E,,4-E,,4D,,4-C,,4-A,,,4]|
[E,,2-E,,2D,,2-C,,2-E,,,2] [E,,2-E,,2D,,2-C,,2-E,,,2] [E,,4-E,,4D,,4-C,,4-A,,,4]| \
[E,,2-E,,2D,,2-C,,2-E,,,2] [=G,,2E,,2-D,,2-D,,2C,,2-] [G,,4-E,,4-D,,4-C,,4-C,,4-]| \
[G,,2E,,2-D,,2-C,,2-C,,2] [C,2E,,2-D,,2-C,,2-C,,2] [G,,4E,,4-D,,4-C,,4-G,,,4]| \
[C,2E,,2-D,,2-C,,2-C,,2] [C,2E,,2-D,,2-C,,2-C,,2] [G,,4E,,4-D,,4-C,,4-G,,,4]|
[C,2E,,2-D,,2-C,,2-C,,2] [G,,2E,,2-D,,2-C,,2-G,,,2] [A,,4E,,4-D,,4-C,,4-A,,,4]| \
[F,,2E,,2-D,,2-C,,2-F,,,2] [G,,2E,,2-D,,2-C,,2-G,,,2] [G,,4E,,4-D,,4-C,,4-C,,4]| \
[G,2E,,2-D,,2-C,,2-] [B,2G,2E,,2-D,,2-C,,2-] [B,4G,4E,,4-D,,4-C,,4-]| \
[B,2G,2E,,2-D,,2-C,,2-] [C2G,2E,,2-D,,2-C,,2-] [C4G,4E,,4-D,,4-C,,4-]|
[C2G,2E,,2-D,,2-C,,2-] [B,2G,2E,,2-D,,2-C,,2-] [B,4G,4E,,4-D,,4-C,,4-]| \
[D2G,2E,,2-D,,2-C,,2-] [C2G,2C,2E,,2-D,,2-C,,2-] [C4G,4C,4E,,4-D,,4-C,,4-]| \
[C,2E,,2-D,,2-C,,2-C,,2] [C,2E,,2-D,,2-C,,2-C,,2] [G,,4E,,4-D,,4-C,,4-G,,,4]| \
[C,2E,,2-D,,2-C,,2-C,,2] [C,2E,,2-D,,2-C,,2-C,,2] [G,,4E,,4-D,,4-C,,4-G,,,4]|
[C,2E,,2-D,,2-C,,2-C,,2] [G,,2E,,2-D,,2-C,,2-G,,,2] [A,,4E,,4-D,,4-C,,4-A,,,4]| \
[F,2D,2E,,2-D,,2-D,,2C,,2-D,,,2] [D,2E,,2-E,,2D,,2-C,,2-E,,,2] [^C,4E,,4-E,,4D,,4-=C,,4-A,,,4]| \
[A,2E,2E,,2-D,,2-C,,2-] [^G,2E,2E,,2-D,,2-C,,2-] [^G,4E,4E,,4-D,,4-C,,4-]| \
[^G,2E,2E,,2-D,,2-C,,2-] [A,2E,2E,,2-D,,2-C,,2-] [A,4E,4E,,4-D,,4-C,,4-]|
[A,2E,2E,,2-D,,2-C,,2-] [^G,2E,2E,,2-D,,2-C,,2-] [^G,4E,4E,,4-D,,4-C,,4-]| \
[^A,2E,2E,,2-D,,2-C,,2-] [B,2E,2E,,2-D,,2-C,,2-] [B,4-E,4-E,,4-D,,4-C,,4-]| \
[B,2E,2E,,2-D,,2-C,,2-] [=A,2E,2A,,2E,,2-D,,2-C,,2-] [A,4E,4A,,4E,,4-D,,4-C,,4-]| \
[A,3/2E,3/2A,,3/2E,,3/2-D,,3/2-C,,3/2-][E,,/2-D,,/2-C,,/2-] [A,2E,2A,,2E,,2-D,,2-C,,2-] [A,4E,4A,,4E,,4-D,,4-C,,4-]|
[A,3/2E,3/2A,,3/2E,,3/2-D,,3/2-C,,3/2-][E,,/2-D,,/2-C,,/2-] [^G,2E,2E,,2-D,,2-C,,2-] [^G,4E,4E,,4-D,,4-C,,4-]| \
[^G,2E,2E,,2-D,,2-C,,2-] [A,2E,2A,,2E,,2-D,,2-C,,2-] [A,4E,4A,,4E,,4-D,,4-C,,4-]| \
[A,3/2E,3/2A,,3/2E,,3/2-D,,3/2-C,,3/2-][E,,/2-D,,/2-C,,/2-] [A,2E,2A,,2E,,2-D,,2-C,,2-] [A,4E,4A,,4E,,4-D,,4-C,,4-]| \
[A,3/2E,3/2A,,3/2E,,3/2-D,,3/2-C,,3/2-][E,,/2-D,,/2-C,,/2-] [A,2E,2A,,2E,,2-D,,2-C,,2-] [A,4E,4A,,4E,,4-D,,4-C,,4-]|
[A,3/2E,3/2A,,3/2E,,3/2-D,,3/2-C,,3/2-][E,,/2-D,,/2-C,,/2-] [^G,2E,2E,,2-D,,2-C,,2-] [^G,4E,4E,,4-D,,4-C,,4-]| \
[^G,2E,2E,,2-D,,2-C,,2-] [A,2E,2A,,2E,,2-D,,2-C,,2-] [A,4-E,4-A,,4-E,,4-D,,4-C,,4-]| \
[A,2E,2A,,2E,,2-D,,2-C,,2-] [^C,E,,-D,,-^C,,-=C,,-^C,,,-][F,E,,-D,,-^C,,=C,,-^C,,,] [^F,4^C,4A,,4E,,4-D,,4-^C,,4=C,,4-^F,,,4]| \
[=F,2^C,2^G,,2E,,2-D,,2-^C,,2=C,,2-^C,,,2] [^C,E,,-D,,-^C,,-=C,,-^C,,,-][F,E,,-D,,-^C,,=C,,-^C,,,] [A,4^F,4^C,4E,,4-D,,4-^C,,4=C,,4-^F,,,4]|
[^G,2=F,2^C,2E,,2-D,,2-^C,,2=C,,2-^C,,,2] [E,,2-D,,2-^C,,2=C,,2-^C,,,2] [E,,4-D,,4-^C,,4=C,,4-^F,,,4]| \
[E,,2-D,,2-^C,,2=C,,2-^C,,,2] [E,,2-E,,2D,,2-=C,,2-B,,,2] [E,,4-E,,4-D,,4-C,,4-A,,,4-]| \
[C,2E,,2-E,,2D,,2-C,,2-C,,2A,,,2] [C,2E,,2-D,,2-C,,2-C,,2] [=G,,4E,,4-D,,4-C,,4-G,,,4]| \
[C,2E,,2-D,,2-C,,2-C,,2] [C,2E,,2-D,,2-C,,2-C,,2] [G,,4E,,4-D,,4-C,,4-G,,,4]|
[C,2E,,2-D,,2-C,,2-C,,2] [G,,2E,,2-D,,2-C,,2-G,,,2] [A,,4E,,4-D,,4-C,,4-A,,,4]| \
[=F,,2E,,2-D,,2-C,,2-F,,,2] [G,,2E,,2-D,,2-C,,2-G,,,2] [G,,4E,,4-D,,4-C,,4-C,,4]| \
[G,2E,,2-D,,2-C,,2-] [B,2G,2E,,2-D,,2-C,,2-] [B,4G,4E,,4-D,,4-C,,4-]| \
[B,2G,2E,,2-D,,2-C,,2-] [C2G,2E,,2-D,,2-C,,2-] [C4G,4E,,4-D,,4-C,,4-]|
[C2G,2E,,2-D,,2-C,,2-] [B,2G,2E,,2-D,,2-C,,2-] [B,4G,4E,,4-D,,4-C,,4-]| \
[D2G,2E,,2-D,,2-C,,2-] [C2G,2C,2E,,2-D,,2-C,,2-] [C4G,4C,4E,,4-D,,4-C,,4-]| \
[C,2E,,2-D,,2-C,,2-C,,2] [C,2E,,2-D,,2-C,,2-C,,2] [G,,4E,,4-D,,4-C,,4-G,,,4]| \
[C,2E,,2-D,,2-C,,2-C,,2] [C,2E,,2-D,,2-C,,2-C,,2] [G,,4E,,4-D,,4-C,,4-G,,,4]|
[C,2E,,2-D,,2-C,,2-C,,2] [G,,2E,,2-D,,2-C,,2-G,,,2] [A,,4E,,4-D,,4-C,,4-A,,,4]| \
[F,2D,2E,,2-D,,2-D,,2C,,2-D,,,2] [D,2E,,2-E,,2D,,2-C,,2-E,,,2] [^C,4E,,4-E,,4D,,4-=C,,4-A,,,4]| \
[A,2E,2E,,2-D,,2-C,,2-] [^G,2E,2E,,2-D,,2-C,,2-] [^G,4E,4E,,4-D,,4-C,,4-]| \
[^G,2E,2E,,2-D,,2-C,,2-] [A,2E,2E,,2-D,,2-C,,2-] [A,4E,4E,,4-D,,4-C,,4-]|
[A,2E,2E,,2-D,,2-C,,2-] [^G,2E,2E,,2-D,,2-C,,2-] [^G,4E,4E,,4-D,,4-C,,4-]| \
[^A,2E,2E,,2-D,,2-C,,2-] [B,2E,2E,,2-D,,2-C,,2-] [B,4-E,4-E,,4-D,,4-C,,4-]| \
[B,2E,2E,,2-D,,2-C,,2-] [=A,2E,2A,,2E,,2-D,,2-C,,2-] [A,4E,4A,,4E,,4-D,,4-C,,4-]| \
[A,3/2E,3/2A,,3/2E,,3/2-D,,3/2-C,,3/2-][E,,/2-D,,/2-C,,/2-] [A,2E,2A,,2E,,2-D,,2-C,,2-] [A,4E,4A,,4E,,4-D,,4-C,,4-]|
[A,3/2E,3/2A,,3/2E,,3/2-D,,3/2-C,,3/2-][E,,/2-D,,/2-C,,/2-] [^G,2E,2E,,2-D,,2-C,,2-] [^G,4E,4E,,4-D,,4-C,,4-]| \
[^G,2E,2E,,2-D,,2-C,,2-] [A,2E,2A,,2E,,2-D,,2-C,,2-] [A,4E,4A,,4E,,4-D,,4-C,,4-]| \
[A,3/2E,3/2A,,3/2E,,3/2-D,,3/2-C,,3/2-][E,,/2-D,,/2-C,,/2-] [A,2E,2A,,2E,,2-D,,2-C,,2-] [A,4E,4A,,4E,,4-D,,4-C,,4-]| \
[A,3/2E,3/2A,,3/2E,,3/2-D,,3/2-C,,3/2-][E,,/2-D,,/2-C,,/2-] [A,2E,2A,,2E,,2-D,,2-C,,2-] [A,4E,4A,,4E,,4-D,,4-C,,4-]|
[A,3/2E,3/2A,,3/2E,,3/2-D,,3/2-C,,3/2-][E,,/2-D,,/2-C,,/2-] [^G,2E,2E,,2-D,,2-C,,2-] [^G,4E,4E,,4-D,,4-C,,4-]| \
[^G,2E,2E,,2-D,,2-C,,2-] [A,2E,2A,,2E,,2-D,,2-C,,2-] [A,4-E,4-A,,4-E,,4-D,,4-C,,4-]| \
[A,2E,2A,,2E,,2-D,,2-C,,2-] [^C,E,,-D,,-^C,,-=C,,-^C,,,-][F,E,,-D,,-^C,,=C,,-^C,,,] [^F,4^C,4A,,4E,,4-D,,4-^C,,4=C,,4-^F,,,4]| \
[=F,2^C,2^G,,2E,,2-D,,2-^C,,2=C,,2-^C,,,2] [^C,E,,-D,,-^C,,-=C,,-^C,,,-][F,E,,-D,,-^C,,=C,,-^C,,,] [A,4^F,4^C,4E,,4-D,,4-^C,,4=C,,4-^F,,,4]|
[^G,2=F,2^C,2E,,2-D,,2-^C,,2=C,,2-^C,,,2] [E,,2-D,,2-^C,,2=C,,2-^C,,,2] [E,,4-D,,4-^C,,4=C,,4-^F,,,4]| \
[E,,2-D,,2-^C,,2=C,,2-^C,,,2] [E,,2-E,,2D,,2-=C,,2-B,,,2] [E,,4-E,,4-D,,4-C,,4-A,,,4-]| \
[E,,2-E,,2D,,2-C,,2-A,,,2] [A,,E,,-D,,-C,,-][E,,-D,,-C,,-] [E,E,,-D,,-C,,-][E,,-D,,-C,,-] [A,,E,,-D,,-C,,-][E,,-D,,-C,,-]| \
[=F,E,,-D,,-C,,-][E,,-D,,-C,,-] [^G,,E,,-D,,-C,,-][E,,-D,,-C,,-] [F,E,,-D,,-C,,-][E,,-D,,-C,,-] [^G,,E,,-D,,-C,,-][E,,-D,,-C,,-]|
[E,E,,-D,,-C,,-][E,,-D,,-C,,-] [A,,E,,-D,,-C,,-][E,,-D,,-C,,-] [E,E,,-D,,-C,,-][E,,-D,,-C,,-] [C,E,,-D,,-C,,-][E,,-D,,-C,,-]| \
[E,E,,-D,,-C,,-][E,,-D,,-C,,-] [B,,E,,-D,,-C,,-][E,,-D,,-C,,-] [F,E,,-D,,-C,,-][E,,-D,,-C,,-] [B,,E,,-D,,-C,,-][E,,-D,,-C,,-]| \
[E,E,,-D,,-C,,-][E,,-D,,-C,,-] [A,,E,,-D,,-C,,-][E,,-D,,-C,,-] [A,E,,-D,,-C,,-][E,,-D,,-C,,-] [A,,E,,-D,,-C,,-][E,,-D,,-C,,-]| \
[=G,E,,-D,,-C,,-][E,,-D,,-C,,-] [D,E,,-D,,-C,,-][E,,-D,,-C,,-] [F,E,,-D,,-C,,-][E,,-D,,-C,,-] [D,E,,-D,,-C,,-][E,,-D,,-C,,-]|
[F,E,,-D,,-C,,-][E,,-D,,-C,,-] [F,,E,,-D,,-C,,-][E,,-D,,-C,,-] [D,E,,-D,,-C,,-][E,,-D,,-C,,-] [E,,-E,,D,,-C,,-][E,,-D,,-C,,-]| \
[E,E,,-D,,-C,,-][E,,-D,,-C,,-] [A,,E,,-D,,-C,,-][E,,-D,,-C,,-] [B,,E,,-D,,-C,,-][E,,-D,,-C,,-] [C,E,,-D,,-C,,-][E,,-D,,-C,,-]| \
[E,E,,-D,,-C,,-][E,,-D,,-C,,-] [A,,E,,-D,,-C,,-][E,,-D,,-C,,-] [E,E,,-D,,-C,,-][E,,-D,,-C,,-] [A,,E,,-D,,-C,,-][E,,-D,,-C,,-]| \
[F,E,,-D,,-C,,-][E,,-D,,-C,,-] [G,,E,,-D,,-C,,-][E,,-D,,-C,,-] [F,E,,-D,,-C,,-][E,,-D,,-C,,-] [G,,E,,-D,,-C,,-][E,,-D,,-C,,-]|
[E,E,,-D,,-C,,-][E,,-D,,-C,,-] [C,E,,-D,,-C,,-][E,,-D,,-C,,-] [E,E,,-D,,-C,,-][E,,-D,,-C,,-] [F,,E,,-D,,-C,,-][E,,-D,,-C,,-]| \
[F,E,,-D,,-C,,-][E,,-D,,-C,,-] [E,,-E,,D,,-C,,-][E,,-D,,-C,,-] [G,E,,-D,,-C,,-][E,,-D,,-C,,-] [E,E,,-D,,-C,,-][E,,-D,,-C,,-]| \
[G,E,,-D,,-C,,-][E,,-D,,-C,,-] [A,,E,,-D,,-C,,-][E,,-D,,-C,,-] [C,E,,-D,,-C,,-][E,,-D,,-C,,-] [^G,,E,,-D,,-C,,-][E,,-D,,-C,,-]| \
[^F,E,,-D,,-C,,-][E,,-D,,-C,,-] [=G,,E,,-D,,-C,,-][E,,-D,,-C,,-] [G,E,,-D,,-C,,-][E,,-D,,-C,,-] [^G,,E,,-D,,-C,,-][E,,-D,,-C,,-]|
[D,E,,-D,,-C,,-][E,,-D,,-C,,-] [A,,E,,-D,,-C,,-][E,,-D,,-C,,-] [C,E,,-D,,-C,,-][E,,-D,,-C,,-] [=F,,E,,-D,,-C,,-][E,,-D,,-C,,-]| \
[D,E,,-D,,-C,,-][E,,-D,,-C,,-] [=G,,E,,-D,,-C,,-][E,,-D,,-C,,-] [E,E,,-D,,-C,,-][E,,-D,,-C,,-] [G,,E,,-D,,-C,,-][E,,-D,,-C,,-]| \
[F,E,,-D,,-C,,-][E,,-D,,-C,,-] [G,,E,,-D,,-C,,-][E,,-D,,-C,,-] [D,E,,-D,,-C,,-][E,,-D,,-C,,-] [C,E,,-D,,-C,,-][E,,-D,,-C,,-]| \
[D,E,,-D,,-C,,-][E,,-D,,-C,,-] [E,E,,-D,,-C,,-][E,,-D,,-C,,-] [G,E,,-D,,-C,,-][E,,-D,,-C,,-] [E,E,,-D,,-C,,-][E,,-D,,-C,,-]|
[CE,,-D,,-C,,-][E,,-D,,-C,,-] [F,E,,-D,,-C,,-][E,,-D,,-C,,-] [F,,E,,-D,,-C,,-][E,,-D,,-C,,-] [G,,E,,-D,,-C,,-][E,,-D,,-C,,-]| \
[A,,E,,-D,,-C,,-][E,,-D,,-C,,-] [G,,E,,-D,,-C,,-][E,,-D,,-C,,-] [C,E,,-D,,-C,,-][E,,-D,,-C,,-] [G,,E,,-D,,-C,,-][E,,-D,,-C,,-]| \
[^D,E,,-=D,,-C,,-][E,,-D,,-C,,-] [G,,E,,-D,,-C,,-][E,,-D,,-C,,-] [C,E,,-D,,-C,,-][E,,-D,,-C,,-] [G,,E,,-D,,-C,,-][E,,-D,,-C,,-]| \
[B,,E,,-D,,-C,,-][E,,-D,,-C,,-] [C,2E,,2-D,,2-C,,2-] [E,,2-D,,2-C,,2-] [G,,E,,-D,,-C,,-][E,,-D,,-C,,-C,,]|
[G,,E,,-D,,-C,,-][C,E,,-D,,-C,,-] [E,,4-D,,4-C,,4-] [G,,E,,-D,,-C,,-][E,,-D,,-C,,-C,,]| \
[G,,E,,-D,,-C,,-][D,E,,-D,,-C,,-] [E,,4-D,,4-C,,4-] [C,E,,-D,,-C,,-][E,E,,-D,,-C,,-]| \
[G,E,,-D,,-C,,-][CE,,-D,,-C,,-] [C2E,,2-D,,2-C,,2-] [A,2E,,2-D,,2-C,,2-] [^G,2E,,2-D,,2-C,,2-]| \
[=G,2E,,2-D,,2-C,,2-] [F,2E,,2-D,,2-C,,2-] [E,,2-D,,2-C,,2-] [C,E,,-D,,-C,,-][F,,E,,-D,,-C,,-]|
[C,E,,-D,,-C,,-][F,E,,-D,,-C,,-] [E,,4-D,,4-C,,4-] [C,E,,-D,,-C,,-][F,,E,,-D,,-C,,-]| \
[C,E,,-D,,-C,,-][G,E,,-D,,-C,,-] [E,,4-D,,4-C,,4-] [F,E,,-D,,-C,,-][A,E,,-D,,-C,,-]| \
[CE,,-D,,-C,,-][FE,,-D,,-C,,-] [F2E,,2-D,,2-C,,2-] [D2E,,2-D,,2-C,,2-] [G2E,,2-D,,2-C,,2-]| \
[F2G,2E,,2-D,,2-C,,2-] [E,,2-D,,2-C,,2-] [E,2-D,2E,,2-D,,2-C,,2-] [E,2-C,2E,,2-D,,2-C,,2-]|
[E,2B,,2E,,2-D,,2-C,,2-] [A,,E,,-D,,-C,,-][E,,-D,,-C,,-] [^G,,E,,-D,,-C,,-][E,,-D,,-C,,-] [A,,E,,-D,,-C,,-][E,,-D,,-C,,-]| \
[C,E,,-D,,-C,,-][E,,-D,,-C,,-] [^G,,E,,-D,,-C,,-][E,,-D,,-C,,-] [B,,E,,-D,,-C,,-][E,,-D,,-C,,-] [E,E,,-D,,-C,,-][E,,-D,,-C,,-]| \
[^G,,E,,-D,,-C,,-][E,,-D,,-C,,-] [A,,E,,-D,,-C,,-][E,,-D,,-C,,-] [B,,E,,-D,,-C,,-][E,,-D,,-C,,-] [C,E,,-D,,-C,,-][E,,-D,,-C,,-]| \
[A,,E,,-D,,-C,,-][E,,-D,,-C,,-] [B,,E,,-D,,-C,,-][E,,-D,,-C,,-] [F,E,,-D,,-C,,-][E,,-D,,-C,,-] [E,E,,-D,,-C,,-][E,,-D,,-C,,-]|
[D,E,,-D,,-C,,-][E,,-D,,-C,,-] [C,E,,-D,,-C,,-][E,,-D,,-C,,-] [B,,E,,-D,,-C,,-][E,,-D,,-C,,-] [A,,E,,-D,,-C,,-][E,,-D,,-C,,-]| \
[=G,,E,,-D,,-C,,-][E,,-D,,-C,,-] [F,,E,,-D,,-C,,-][E,,-D,,C,,-] [E,,D,,-C,,-][E,,-D,,-C,,-] [F,,E,,-D,,-C,,-][E,,-D,,-C,,-]| \
[E,,-D,,-D,,C,,-][E,,-D,,-C,,-] [E,,-E,,D,,-C,,-][E,,-D,,C,,-] [E,,-D,,-C,,][E,,-D,,-C,,-] [E,,-D,,-C,,-B,,,][E,,-D,,-C,,-]| \
[E,,-E,,D,,-C,,-][E,,-D,,-C,,-] [E,,-D,,-C,,-A,,,][E,,-D,,-C,,-] [E,,2-E,,2D,,2-C,,2-] [^F,,2E,,2-D,,2-C,,2-]|
[^G,,2E,,2-D,,2-C,,2-] [A,,2E,,2-D,,2-C,,2-] [C,2E,,2-D,,2-C,,2-] [B,,2E,,2-D,,2-C,,2-]| \
[A,,2E,,2-D,,2-C,,2-] [=G,,2E,,2-D,,2-C,,2-] [B,,2E,,2-D,,2-C,,2-] [E,2E,,2-D,,2-C,,2-]| \
[G,,2E,,2-D,,2-C,,2-] [=F,,2E,,2-D,,2-C,,2-] [A,,2E,,2-D,,2-C,,2-] [G,,2E,,2-D,,2-C,,2-]| \
[F,,2E,,2-D,,2-C,,2-] [E,,2-E,,2D,,2-C,,2-] [G,,2E,,2-D,,2-C,,2-] [C,2E,,2-D,,2-C,,2-]|
[E,,2-E,,2D,,2-C,,2-] [E,,2-D,,2-C,,2-C,,2] [C,E,,-D,,-C,,-][B,,E,,-D,,-C,,-] [A,,2E,,2-D,,2-C,,2-]| \
[^G,,2E,,2-D,,2-C,,2-] [=G,,2E,,2-D,,2-C,,2-] [D,2E,,2-D,,2-C,,2-] [G,2E,,2-D,,2-C,,2-]| \
[G,,2E,,2-D,,2-C,,2-] [^G,,2E,,2-D,,2-C,,2-] [A,,2E,,2-D,,2-C,,2-] [E,,2-E,,2D,,2-C,,2-]| \
[F,,2E,,2-D,,2-C,,2-] [=G,,2E,,2-D,,2-C,,2-] [E,2E,,2-D,,2-C,,2-] [G,,2E,,2-D,,2-C,,2-]|
[F,2E,,2-D,,2-C,,2-] [G,,2E,,2-D,,2-C,,2-] [D,2E,,2-D,,2-C,,2-] [C,2E,,2-D,,2-C,,2-]| \
[A,,E,,-D,,-C,,-][B,,E,,-D,,-C,,-] [C,2E,,2-D,,2-C,,2-] [E,2E,,2-D,,2-C,,2-] [^C,2E,,2-D,,2-=C,,2-]| \
[A,2E,,2-D,,2-C,,2-] [D,2E,,2-D,,2-C,,2-] [E,,2-D,,2-D,,2C,,2-] [E,,2-E,,2D,,2-C,,2-]| \
[F,,2E,,2-D,,2-C,,2-] [E,,2-E,,2D,,2-C,,2-] [A,,2E,,2-D,,2-C,,2-] [E,,2-E,,2D,,2-C,,2-]|
[C,2E,,2-D,,2-C,,2-] [E,,2-E,,2D,,2-C,,2-] [A,,2E,,2-D,,2-C,,2-] [E,,2-E,,2D,,2-C,,2-]| \
[^G,,2E,,2-D,,2-C,,2-] [A,,2E,,2-D,,2-C,,2-] [E,,2-D,,2-C,,2-] [E,,-E,,D,,-C,,-][E,,-D,,-C,,-A,,,]| \
[E,,-E,,D,,-C,,-][A,,E,,-D,,-C,,-] [F,,2E,,2-D,,2-C,,2-] [E,,2-D,,2-C,,2-] [E,,-D,,-C,,-C,,][E,,-D,,-C,,-F,,,]| \
[E,,-D,,-C,,-C,,][F,,E,,-D,,-C,,-] [E,,2-D,,2-D,,2C,,2-] [E,,2-D,,2-C,,2-] [^A,,E,,-D,,-C,,-][D,E,,-D,,-C,,-]|
[F,E,,-D,,-C,,-][^A,E,,-D,,-C,,-] [D2E,,2-D,,2-C,,2-] [^A,2D,2E,,2-D,,2-C,,2-] [C2E,2E,,2-D,,2-C,,2-]| \
[D2E,2E,,2-D,,2-C,,2-] [C=A,-E,,-D,,-C,,-][A,E,,-D,,-C,,-] [E,,2-D,,2-C,,2-] [E,E,,-D,,-C,,-][A,,E,,-D,,-C,,-]| \
[E,E,,-D,,-C,,-][A,E,,-D,,-C,,-] [F,2E,,2-D,,2-C,,2-] [E,,2-D,,2-C,,2-] [C,E,,-D,,-C,,-][F,,E,,-D,,-C,,-]| \
[C,E,,-D,,-C,,-][F,E,,-D,,-C,,-] [D,2E,,2-D,,2-C,,2-] [F,E,,-D,,-C,,-][^A,E,,-D,,-C,,-] [DE,,-D,,-C,,-][^A,E,,-D,,-C,,-]|
[F,E,,-D,,-C,,-][D,E,,-D,,-C,,-] [E,2E,,2-D,,2-C,,2-] [E,2E,,2-D,,2-C,,2-] [E,2E,,2-D,,2-C,,2-]| \
[E,2E,,2-D,,2-C,,2-] [E,2-E,,2-D,,2-C,,2-] [E,2E,,2-E,,2D,,2-C,,2-] [E,,2-E,,2D,,2-C,,2-]| \
[E,,2-E,,2D,,2-C,,2-] [E,,6-D,,6-C,,6-]| \
[E,,2-D,,2-C,,2-] [=A,2E,2A,,2E,,2-D,,2-C,,2-] [A,4E,4A,,4E,,4-D,,4-C,,4-]|
[A,2E,2A,,2E,,2-D,,2-C,,2-] [A,2E,2A,,2E,,2-D,,2-C,,2-] [A,4E,4A,,4E,,4-D,,4-C,,4-]| \
[A,2E,2A,,2E,,2-D,,2-C,,2-] [A,4E,4A,,4E,,4-D,,4-C,,4-] [D,E,,-E,,-D,,-C,,-][B,E,,-E,,D,,-C,,-]| \
[B,,E,,-E,,-D,,-C,,-][^G,E,,-E,,D,,-C,,-] [C,E,,-E,,-D,,-C,,-][A,E,,-E,,D,,-C,,-] [E,E,,-E,,-D,,-C,,-][CE,,-E,,D,,-C,,-] [D,E,,-E,,-D,,-C,,-][B,E,,-E,,D,,-C,,-]| \
[B,,E,,-E,,-D,,-C,,-][^G,E,,-E,,D,,-C,,-] [A,6-E,6-C,6-A,,6-E,,6-E,,6-D,,6-C,,6-A,,,6-]|
[A,2E,2C,2A,,2E,,2-E,,2D,,2-C,,2-A,,,2] 
