Error: Time=6656 Track=0 Note terminated when not on - pitch 67
Error: Time=7424 Track=0 Note terminated when not on - pitch 59
Error: Time=7424 Track=0 Note terminated when not on - pitch 62
Error: Time=39424 Track=0 Note terminated when not on - pitch 70
Error: Time=40192 Track=0 Note terminated when not on - pitch 65
Error in MIDI file - notes still on at end of track!
Error: Time=7424 Track=1 Note terminated when not on - pitch 53
Error: Time=7424 Track=1 Note terminated when not on - pitch 55
Error: Time=40192 Track=1 Note terminated when not on - pitch 56
Error: Time=40192 Track=1 Note terminated when not on - pitch 60
Error in MIDI file - notes still on at end of track!
X: 1
T: from midi_transposed/C_scn15_5.mid
M: 2/4
L: 1/16
Q:1/4=80
%beats in anacrusis = 0
% Last note suggests Mixolydian mode tune
K:C % 0 sharps
V:1
% Piano
%%MIDI program 0
%%MIDI program 0
x8| \
x2 ^F-[^F=FD] G-[GFD] B-[BGF]| \
e-[eGF] d-[dGF] c-[cEC] G-[GEC]| \
x[EC] G-[G-EC] [G-G][G-D-B,-] [G-D-DB,-B,-][G-ED-B,-B,]|
[G-F-D-B,-][G-FD-DB,-B,] [A-G-D-B,-][AG-FD-B,-A,] [G-G-D-B,-][G-GED-B,-G,] [G-E-D-B,-][G-ED-CB,-G,]| \
[G-D-D-B,-][G-D-DB,-B,G,] [G-^F-D-B,-][G-^F=FD-DB,-] [G-G-D-B,-][G-G-FD-DB,-] [G-G-D-B,-][G-GD-B,-G,F,]| \
[G-D-B,-][G-D-B,-G,F,] [G-D-B,-B,-][G-D-B,-B,G,F,] [G-D-C-B,-][G-D-CB,-G,E,] [G-E-D-B,-][G-ED-CB,-G,]| \
[A-G-D-B,-][AG-ED-CB,-] [G-G-D-B,-][G-GED-CB,-] [G-F-D-B,-][G-FD-CB,-F,] [A-G-D-B,-][AG-FD-CB,-]|
[d-G-D-B,-][dG-FD-DB,-] [c-G-D-B,-][cG-FD-CB,-] [B-G-D-B,-][BG-FD-B,-B,] [A-G-D-B,-][AG-FD-CB,-]| \
[G-G-D-B,-][G-GFD-^CB,-] [G-^F-D-B,-][G-^F=FD-DB,-] [G-G-D-B,-][G-GFD-DB,-] [B-G-D-B,-][BG-GFD-B,-]| \
[e-G-D-B,-][eG-GFD-B,-] [d-G-D-B,-][dG-GFD-B,-] [=c-G-D-B,-][cG-ED-CB,-] [G-G-D-B,-][G-GED-CB,-]| \
[G-D-B,-][GED-CB,-] [G-D-B,-][G-ED-CB,-] [G-GDB,][G-D-B,-] [G-D-DB,-B,-][G-ED-B,-B,]|
[G-F-D-B,-][G-FD-DB,-B,] [A-G-D-B,-][AG-FD-B,-A,] [G-G-D-B,-][G-GED-B,-G,] [G-E-D-B,-][G-ED-CB,-G,]| \
[G-D-D-B,-][G-D-DB,-B,G,] [G-^F-D-B,-][G-^F=FD-DB,-] [G-G-D-B,-][G-G-FD-DB,-] [G-G-D-B,-][G-GD-B,-G,F,]| \
[G-D-B,-][G-D-B,-G,F,] [G-D-B,-B,-][G-D-B,-B,G,F,] [G-D-C-B,-][G-D-CB,-G,E,] [G-E-D-B,-][G-ED-CB,-G,]| \
[A-G-D-B,-][AG-ED-CB,-] [G-G-D-B,-][G-GED-CB,-] [G-F-D-B,-][G-FD-CB,-F,] [A-G-D-B,-][AG-FD-CB,-]|
[d-G-D-B,-][dG-FD-DB,-] [c-G-D-B,-][cG-FD-CB,-] [B-G-D-B,-][BG-FD-B,-B,] [A-G-D-B,-][AG-FD-CB,-]| \
[G-G-D-B,-][G-GFD-^CB,-] [G-G-D-B,-][G-GFD-DB,-] [^G-=G-D-B,-][^G=G-FD-DB,-] [d-G-D-B,-][d^G=G-FD-B,-]| \
[g-G-D-B,-][g^G=G-FD-B,-] [f-G-D-B,-][f^G=G-FD-B,-] [^d-G-=D-B,-][^dG-G^D=D-B,-] [^A-G-D-B,-][^AG-G^D=D-B,-]| \
[G-D-B,-][G-G^D=D-B,-] [^A-G-D-B,-][^A-G-G^D=D-B,-] [^A-^AG-DB,-][^A-G-F-D-B,-] [^A-G-F-FD-D-B,-][^A-G-GF-D-DB,-]|
[^A-^G-=G-F-D-B,-][^A-^G=G-F-FD-DB,-] [=c-^A-G-F-D-B,-][c^A-^G=G-F-D-B,-^A,] [^A-^A-G-F-D-B,-][^A-^AG-GF-D-B,-^A,] [^A-G-G-F-D-B,-][^A-G-GF-^D=D-B,-^A,]| \
[^A-G-F-F-D-B,-][^A-G-F-FD-B,-^A,] [^A-G-G-F-D-B,-][^A-G-GF-FD-DB,-] [^A-^G-=G-F-D-B,-][^A-^G=G-F-FD-DB,-] [d-^A-G-F-D-B,-][d^A-^G=G-F-FD-B,-]| \
[g-^A-G-F-D-B,-][g^A-^G=G-F-FD-B,-] [f-^A-G-F-D-B,-][f^A-^G=G-F-FD-B,-] [e-^A-G-F-D-B,-][e^A-G-GF-ED-B,-] [B-^A-G-F-D-B,-][B^A-G-GF-FD-B,-]| \
[d-^A-G-F-D-B,-][d^A-G-GF-D-DB,-] [c-^A-G-F-D-B,-][c^A-G-GF-D-CB,-] [^A-=A-G-F-D-B,-][^A-=AG-F-FD-CB,-] [^A-G-F-E-D-B,-][^A-G-F-ED-CB,-^A,]|
[^A-G-G-F-D-B,-][^A-G-GF-D-CB,-G,] [^A-G-F-F-D-B,-][^A-G-F-FD-CB,-F,] [^A-G-F-E-D-B,-][^A-G-F-ED-CB,-G,] [^A-G-F-D-D-B,-][^A-G-F-D-DB,-B,F,]| \
[^A-G-F-D-C-B,-][^A-G-F-D-CB,-G,-E,-] [^A/2-G/2-^F/2-=F/2-D/2-B,/2-G,/2E,/2][^A/2-G/2-^F/2-=F/2-D/2-B,/2-][^A-G-^F=F-FD-DB,-] [^A-G-G-F-D-B,-][^A-G-GF-FD-DB,-] [B-^A-G-F-D-B,-][B^A-G-GF-FD-B,-]| \
[e-^A-G-F-D-B,-][e^A-G-GF-FD-B,-] [d-^A-G-F-D-B,-][d^A-G-GF-FD-B,-] [c-^A-G-F-D-B,-][c^A-G-F-ED-CB,-] [^A-G-G-F-D-B,-][^A-G-GF-ED-CB,-]| \
[^A-G-F-D-B,-][^A-GF-ED-CB,-] [^A-G-F-D-B,-][^A-G-F-ED-CB,-] [^A-G-GF-DB,][^A-G-F-D-B,-] [^A-G-F-D-DB,-B,-][^A-G-F-ED-B,-B,]|
[^A-G-F-F-D-B,-][^A-G-F-FD-DB,-B,] [^A-=A-G-F-D-B,-][^A-=AG-F-FD-B,-A,] [^A-G-G-F-D-B,-][^A-G-GF-ED-B,-G,] [^A-G-F-E-D-B,-][^A-G-F-ED-CB,-G,]| \
[^A-G-F-D-D-B,-][^A-G-F-D-DB,-B,G,] [^A-G-^F-=F-D-B,-][^A-G-^F=F-FD-DB,-] [^A-G-G-F-D-B,-][^A-G-G-F-FD-DB,-] [^A-G-G-F-D-B,-][^A-G-GF-D-B,-G,F,]| \
[^A-G-F-D-B,-][^A-G-F-D-B,-G,F,] [^A-G-F-D-B,-B,-][^A-G-F-D-B,-B,G,F,] [^A-G-F-D-C-B,-][^A-G-F-D-CB,-G,E,] [^A-G-F-E-D-B,-][^A-G-F-ED-CB,-G,]| \
[^A-=A-G-F-D-B,-][^A-=AG-F-ED-CB,-] [^A-G-G-F-D-B,-][^A-G-GF-ED-CB,-] [^A-G-F-F-D-B,-][^A-G-F-FD-CB,-F,] [^A-=A-G-F-D-B,-][^A-=AG-F-FD-CB,-]|
[d-^A-G-F-D-B,-][d^A-G-F-FD-DB,-] [c-^A-G-F-D-B,-][c^A-G-F-FD-CB,-] [B-^A-G-F-D-B,-][B^A-G-F-FD-B,-B,] [^A-=A-G-F-D-B,-][^A-=AG-F-FD-CB,-]| \
[^A-G-G-F-D-B,-][^A-G-GF-FD-^CB,-] [^A-G-G-F-D-B,-][^A-G-GF-FD-DB,-] [^A-^G-=G-F-D-B,-][^A-^G=G-F-FD-DB,-] [d-^A-G-F-D-B,-][d^A-^G=G-F-FD-B,-]| \
[g-^A-G-F-D-B,-][g^A-^G=G-F-FD-B,-] [f-^A-G-F-D-B,-][f^A-^G=G-F-FD-B,-] [^d-^A-G-F-=D-B,-][^d^A-G-GF-^D=D-B,-] [^A-^A-G-F-D-B,-][^A-^AG-GF-^D=D-B,-]| \
[^A-G-F-D-B,-][^AG-GF-^D=D-B,-] [^A-G-F-D-B,-][^A-G-GF-^D=D-B,-] [^A-^AG-FDB,-][^A-G-F-D-B,-] [^A-G-F-FD-D-B,-][^A-G-GF-D-DB,-]|
[^A-^G-=G-F-D-B,-][^A-^G=G-F-FD-DB,-] [=c-^A-G-F-D-B,-][c^A-^G=G-F-D-B,-^A,] [^A-^A-G-F-D-B,-][^A-^AG-GF-D-B,-^A,] [^A-G-G-F-D-B,-][^A-G-GF-^D=D-B,-^A,]| \
[^A-G-F-F-D-B,-][^A-G-F-FD-B,-^A,] [^A-G-G-F-D-B,-][^A-G-GF-FD-DB,-] [^A-^G-=G-F-D-B,-][^A-^G=G-F-FD-DB,-] [d-^A-G-F-D-B,-][d^A-^G=G-F-FD-B,-]| \
[g-^A-G-F-D-B,-][g^A-^G=G-F-FD-B,-] [f-^A-G-F-D-B,-][f^A-^G=G-F-FD-B,-] [e-^A-G-F-D-B,-][e^A-G-GF-ED-B,-] [B-^A-G-F-D-B,-][B^A-G-GF-FD-B,-]| \
[d-^A-G-F-D-B,-][d^A-G-GF-D-DB,-] [c-^A-G-F-D-B,-][c^A-G-GF-D-CB,-] [^A-=A-G-F-D-B,-][^A-=AG-F-FD-CB,-] [^A-G-F-E-D-B,-][^A-G-F-ED-CB,-^A,]|
[^A-G-G-F-D-B,-][^A-G-GF-D-CB,-G,] [^A-G-F-F-D-B,-][^A-G-F-FD-CB,-F,] [^A-G-F-E-D-B,-][^A-G-F-ED-CB,-G,] [^A-G-F-D-D-B,-][^A-G-F-D-DB,-B,F,]| \
[^A-G-F-D-C-B,-][^A3-G3-F3-D3-C3B,3-G,3E,3] 
V:2
% Piano
%%MIDI program 0
%%MIDI program 0
x8| \
x4 
% Piano
%%MIDI program 0
%%MIDI program 0
[G,,G,,,]x3| \
x2 B,,2 [C,2G,,2-] [E,2G,,2-]| \
[=A,2G,,2-] [G,2G,,2] G,,[G,-F,-] [G,-G,-F,-F,][G,-G,-F,-E,]|
[G,2-G,2F,2-D,2] [G,2-F,2-G,,2-G,,,2] [G,2-F,2-G,,2-C,,2] [G,2-F,2-G,,2E,,2]| \
[G,3-F,3-][G,-F,-G,,,] [G,2-F,2-G,,2-] [G,2-F,2-B,,2G,,2-]| \
[G,2-F,2-E,2G,,2-] [G,2-F,2-D,2G,,2] [G,4-F,4-C,4-C,,4-]| \
[G,2-F,2-C,2C,,2] [G,2-F,2-^A,,2^A,,,2] [G,4-F,4-=A,,4-A,,,4-]|
[G,2-F,2-A,,2A,,,2] [G,2-F,2-^G,,2^G,,,2] [=G,2-F,2-G,,2G,,,2] [G,2-F,2-A,,2A,,,2]| \
[G,2-F,2-^A,,2^A,,,2] [G,4-F,4-B,,4B,,,4] [G,2-F,2-G,,,2]| \
[G,2-F,2-] [G,2-F,2-B,,2] [G,2-F,2-C,2G,,2-] [G,2-F,2-E,2G,,2-]| \
[=A,2G,2-F,2-G,,2-] [G,2-G,2F,2-G,,2] [G,F,G,,][G,-F,-] [G,-G,-F,-F,][G,-G,-F,-E,]|
[G,2-G,2F,2-D,2] [G,2-F,2-G,,2-G,,,2] [G,2-F,2-G,,2-C,,2] [G,2-F,2-G,,2E,,2]| \
[G,3-F,3-][G,-F,-G,,,] [G,2-F,2-G,,2-] [G,2-F,2-B,,2G,,2-]| \
[G,2-F,2-E,2G,,2-] [G,2-F,2-D,2G,,2] [G,4-F,4-C,4-C,,4-]| \
[G,2-F,2-C,2C,,2] [G,2-F,2-^A,,2^A,,,2] [G,4-F,4-=A,,4-A,,,4-]|
[G,2-F,2-A,,2A,,,2] [G,2-F,2-^G,,2^G,,,2] [=G,2-F,2-G,,2G,,,2] [G,2-F,2-A,,2A,,,2]| \
[G,2-F,2-B,,2B,,,2] [G,6-F,6-^A,,6-^A,,,6-]| \
[G,2-F,2-^A,,2^A,,,2] [G,2-F,2-D,2] [G,2-F,2-^D,2^A,,2-] [G,2-G,2F,2-^A,,2-]| \
[C2G,2-F,2-^A,,2-] [^A,2G,2-F,2-^A,,2] [G,-F,-^A,,][C-^G,-=G,-F,-] [C-C-^G,-^G,=G,-F,-][C-C-^G,-=G,-G,F,-]|
[C2-C2^G,2-=G,2-F,2-F,2] [C2-^G,2-=G,2-F,2-=D,2^A,,,2] [C2-^G,2-=G,2-F,2-^D,2-^D,,2] [C2-^G,2-=G,2-F,2-^D,2G,,2]| \
[C4-^G,4-=G,4-F,4-=D,4^A,,4] [C4-^G,4-=G,4-F,4-^A,,4-^A,,,4-]| \
[C2-^G,2-=G,2-F,2-^A,,2^A,,,2] [C2-^G,2-=G,2-F,2-B,,2B,,,2] [C2-^G,2-=G,2-F,2-C,2C,,2] [C2-^G,2-=G,2-F,2-D,2D,,2]| \
[C2-^G,2-=G,2-F,2-^D,2^D,,2] [C2-^G,2-=G,2-F,2-E,2E,,2] [C2-^G,2-=G,2-F,2-F,2F,,2] [C2-^G,2-=G,2-G,2F,2-G,,2]|
[C2-^G,2-^G,2=G,2-F,2-^G,,2] [C2-=A,2^G,2-=G,2-F,2-A,,2] [C2-^G,2-=G,2-F,2-G,,2-] [C2-^G,2-=G,2-F,2-G,,2-G,,,2]| \
[C2-^G,2-=G,2-F,2-G,,2-C,,2] [C2-^G,2-=G,2-F,2-G,,2] [C-^G,-=G,-F,-G,,G,,,][C3-^G,3-=G,3-F,3-]| \
[C2-^G,2-=G,2-F,2-] [C2-^G,2-=G,2-F,2-B,,2] [C2-^G,2-=G,2-F,2-C,2G,,2-] [C2-^G,2-=G,2-F,2-E,2G,,2-]| \
[C2-A,2^G,2-=G,2-F,2-G,,2-] [C2-^G,2-=G,2-G,2F,2-G,,2] [C-^G,-=G,F,G,,][C-^G,-=G,-F,-] [C-^G,-=G,-G,-F,-F,][C-^G,-=G,-G,-F,-E,]|
[C2-^G,2-=G,2-G,2F,2-=D,2] [C2-^G,2-=G,2-F,2-G,,2-G,,,2] [C2-^G,2-=G,2-F,2-G,,2-C,,2] [C2-^G,2-=G,2-F,2-G,,2E,,2]| \
[C3-^G,3-=G,3-F,3-][C-^G,-=G,-F,-G,,,] [C2-^G,2-=G,2-F,2-G,,2-] [C2-^G,2-=G,2-F,2-B,,2G,,2-]| \
[C2-^G,2-=G,2-F,2-E,2G,,2-] [C2-^G,2-=G,2-F,2-D,2G,,2] [C4-^G,4-=G,4-F,4-C,4-C,,4-]| \
[C2-^G,2-=G,2-F,2-C,2C,,2] [C2-^G,2-=G,2-F,2-^A,,2^A,,,2] [C4-^G,4-=G,4-F,4-=A,,4-A,,,4-]|
[C2-^G,2-=G,2-F,2-A,,2A,,,2] [C2-^G,2-=G,2-F,2-^G,,2^G,,,2] [C2-^G,2-=G,2-F,2-G,,2G,,,2] [C2-^G,2-=G,2-F,2-A,,2A,,,2]| \
[C2-^G,2-=G,2-F,2-B,,2B,,,2] [C6-^G,6-=G,6-F,6-^A,,6-^A,,,6-]| \
[C2-^G,2-=G,2-F,2-^A,,2^A,,,2] [C2-^G,2-=G,2-F,2-D,2] [C2-^G,2-=G,2-F,2-^D,2^A,,2-] [C2-^G,2-=G,2-G,2F,2-^A,,2-]| \
[C2-C2^G,2-=G,2-F,2-^A,,2-] [C2-^A,2^G,2-=G,2-F,2-^A,,2] [C^G,=G,-F,-^A,,][C-^G,-=G,-F,-] [C-C-^G,-^G,=G,-F,-][C-C-^G,-=G,-G,F,-]|
[C2-C2^G,2-=G,2-F,2-F,2] [C2-^G,2-=G,2-F,2-=D,2^A,,,2] [C2-^G,2-=G,2-F,2-^D,2-^D,,2] [C2-^G,2-=G,2-F,2-^D,2G,,2]| \
[C4-^G,4-=G,4-F,4-=D,4^A,,4] [C4-^G,4-=G,4-F,4-^A,,4-^A,,,4-]| \
[C2-^G,2-=G,2-F,2-^A,,2^A,,,2] [C2-^G,2-=G,2-F,2-B,,2B,,,2] [C2-^G,2-=G,2-F,2-C,2C,,2] [C2-^G,2-=G,2-F,2-D,2D,,2]| \
[C2-^G,2-=G,2-F,2-^D,2^D,,2] [C2-^G,2-=G,2-F,2-E,2E,,2] [C2-^G,2-=G,2-F,2-F,2F,,2] [C2-^G,2-=G,2-G,2F,2-G,,2]|
[C2-^G,2-^G,2=G,2-F,2-^G,,2] [C2-=A,2^G,2-=G,2-F,2-A,,2] [C2-^G,2-=G,2-F,2-G,,2-] [C2-^G,2-=G,2-F,2-G,,2-G,,,2]| \
[C4-^G,4-=G,4-F,4-G,,4C,,4] 
