Error: Time=21248 Track=0 Note terminated when not on - pitch 60
Error: Time=21248 Track=0 Note terminated when not on - pitch 64
Error: Time=21248 Track=0 Note terminated when not on - pitch 69
Error: Time=25344 Track=0 Note terminated when not on - pitch 62
Error: Time=25344 Track=0 Note terminated when not on - pitch 71
Error: Time=29440 Track=0 Note terminated when not on - pitch 65
Error: Time=31488 Track=0 Note terminated when not on - pitch 59
Error: Time=31488 Track=0 Note terminated when not on - pitch 68
Error: Time=54016 Track=0 Note terminated when not on - pitch 67
Error: Time=54016 Track=0 Note terminated when not on - pitch 72
Error: Time=60160 Track=0 Note terminated when not on - pitch 74
Error: Time=160768 Track=0 Note terminated when not on - pitch 70
Error in MIDI file - notes still on at end of track!
Error: Time=21248 Track=1 Note terminated when not on - pitch 52
Error: Time=27392 Track=1 Note terminated when not on - pitch 56
Error: Time=29440 Track=1 Note terminated when not on - pitch 50
Error: Time=33536 Track=1 Note terminated when not on - pitch 40
Error: Time=54016 Track=1 Note terminated when not on - pitch 55
Error: Time=94976 Track=1 Note terminated when not on - pitch 38
Error: Time=99072 Track=1 Note terminated when not on - pitch 28
Error: Time=119552 Track=1 Note terminated when not on - pitch 43
Error: Time=119552 Track=1 Note terminated when not on - pitch 31
Error: Time=146176 Track=1 Note terminated when not on - pitch 41
Error: Time=146176 Track=1 Note terminated when not on - pitch 53
Error in MIDI file - notes still on at end of track!
X: 1
T: from midi_transposed/C_schuim-1.mid
M: 4/4
L: 1/8
Q:1/4=79
