Error: Time=1158566 Track=0 Note terminated when not on - pitch 57
Error: Time=1164710 Track=0 Note terminated when not on - pitch 61
Error: Time=1170854 Track=0 Note terminated when not on - pitch 71
Error: Time=1186641 Track=0 Note terminated when not on - pitch 58
Error: Time=1192785 Track=0 Note terminated when not on - pitch 62
Error: Time=1198502 Track=0 Note terminated when not on - pitch 70
Error: Time=1198502 Track=0 Note terminated when not on - pitch 70
Error: Time=1198673 Track=0 Note terminated when not on - pitch 69
Error: Time=1198844 Track=0 Note terminated when not on - pitch 68
Error: Time=1198929 Track=0 Note terminated when not on - pitch 72
Error: Time=1223078 Track=0 Note terminated when not on - pitch 77
Error: Time=1228881 Track=0 Note terminated when not on - pitch 89
Error: Time=1229222 Track=0 Note terminated when not on - pitch 74
Error: Time=1229393 Track=0 Note terminated when not on - pitch 86
Error: Time=1229905 Track=0 Note terminated when not on - pitch 83
Error: Time=1230246 Track=0 Note terminated when not on - pitch 65
Error: Time=1231270 Track=0 Note terminated when not on - pitch 59
Error: Time=1231697 Track=0 Note terminated when not on - pitch 53
Error: Time=1232294 Track=0 Note terminated when not on - pitch 50
Error: Time=1232721 Track=0 Note terminated when not on - pitch 47
Error in MIDI file - notes still on at end of track!
Error: Time=31668 Track=1 Note terminated when not on - pitch 43
Error: Time=31668 Track=1 Note terminated when not on - pitch 41
Error: Time=53087 Track=1 Note terminated when not on - pitch 45
Error: Time=53172 Track=1 Note terminated when not on - pitch 48
Error: Time=59231 Track=1 Note terminated when not on - pitch 52
Error: Time=59316 Track=1 Note terminated when not on - pitch 55
Error: Time=63924 Track=1 Note terminated when not on - pitch 56
Error: Time=73396 Track=1 Note terminated when not on - pitch 44
Error: Time=77663 Track=1 Note terminated when not on - pitch 38
Error: Time=77748 Track=1 Note terminated when not on - pitch 35
Error in MIDI file - notes still on at end of track!
X: 1
T: from midi_transposed/C_waldstein_2.mid
M: 6/8
L: 1/8
Q:1/4=18
