{
  "i": 3000,
  "val_loss_history": [
    1.0346916492643,
    0.97022425100721,
    0.93520648623335
  ],
  "val_loss_history_it": [
    1000,
    2000,
    3000
  ],
  "forward_backward_times": {},
  "opt": {
    "max_epochs": 50,
    "checkpoint_every": 1000,
    "batch_size": 50,
    "memory_benchmark": 0,
    "init_from": "",
    "grad_clip": 5,
    "model_type": "lstm",
    "lr_decay_every": 5,
    "print_every": 1,
    "wordvec_size": 64,
    "seq_length": 50,
    "input_json": "data\/input.json",
    "num_layers": 3,
    "input_h5": "data\/input.h5",
    "reset_iterations": 1,
    "rnn_size": 128,
    "dropout": 0,
    "checkpoint_name": "cv\/checkpoint",
    "batchnorm": 0,
    "learning_rate": 0.002,
    "speed_benchmark": 0,
    "gpu_backend": "cuda",
    "lr_decay_factor": 0.5,
    "gpu": -1
  },
  "train_loss_history": [
    3.6767129898071,
    3.5704820156097,
    3.4333391189575,
    3.2723343372345,
    3.158262014389,
    3.0753681659698,
    3.0129606723785,
    2.9658510684967,
    2.9815697669983,
    2.8920676708221,
    2.8689293861389,
    2.8526103496552,
    2.8571524620056,
    2.8157773017883,
    2.8299922943115,
    2.8567991256714,
    2.8495717048645,
    2.8059895038605,
    2.7674906253815,
    2.8183414936066,
    2.7546889781952,
    2.7763595581055,
    2.765969991684,
    2.7314100265503,
    2.7193334102631,
    2.7355544567108,
    2.7359726428986,
    2.7129807472229,
    2.7225444316864,
    2.7537653446198,
    2.7374446392059,
    2.7039685249329,
    2.664571762085,
    2.6757926940918,
    2.6785662174225,
    2.6778373718262,
    2.6534080505371,
    2.6779692173004,
    2.6981358528137,
    2.6643254756927,
    2.6432580947876,
    2.6676170825958,
    2.6713218688965,
    2.6864516735077,
    2.6878395080566,
    2.7080698013306,
    2.7392435073853,
    2.7150819301605,
    2.6933500766754,
    2.695121049881,
    2.715532541275,
    2.6886348724365,
    2.6624851226807,
    2.6391563415527,
    2.670419216156,
    2.6762340068817,
    2.6026816368103,
    2.5658962726593,
    2.5924060344696,
    2.5831983089447,
    2.6134412288666,
    2.5462062358856,
    2.5819158554077,
    2.5404295921326,
    2.5255568027496,
    2.5579624176025,
    2.4892358779907,
    2.4522786140442,
    2.4850838184357,
    2.5039567947388,
    2.5345735549927,
    2.4968452453613,
    2.4104082584381,
    2.4057056903839,
    2.3548276424408,
    2.3495242595673,
    2.3416872024536,
    2.262274980545,
    2.2733693122864,
    2.2390198707581,
    2.2470016479492,
    2.1399118900299,
    2.1494264602661,
    2.1360440254211,
    2.1219282150269,
    2.1080708503723,
    2.0362639427185,
    1.9792009592056,
    2.037017583847,
    1.9878002405167,
    1.966591835022,
    1.9159556627274,
    1.9219230413437,
    1.9152089357376,
    1.9076610803604,
    1.8425599336624,
    1.8562474250793,
    1.7793097496033,
    1.7722097635269,
    1.7325879335403,
    1.7940171957016,
    1.8027995824814,
    1.7126865386963,
    1.672966837883,
    1.615953207016,
    1.6663004159927,
    1.5230994224548,
    1.5677574872971,
    1.6299829483032,
    1.5711073875427,
    1.5751912593842,
    1.6104643344879,
    1.5210438966751,
    1.5206857919693,
    1.5219610929489,
    1.4626412391663,
    1.4812159538269,
    1.5162196159363,
    1.4792617559433,
    1.4983930587769,
    1.5276017189026,
    1.5132827758789,
    1.4963300228119,
    1.5036405324936,
    1.4736284017563,
    1.5613470077515,
    1.4418860673904,
    1.4120880365372,
    1.367525935173,
    1.4190746545792,
    1.3631881475449,
    1.4099580049515,
    1.380063533783,
    1.4151767492294,
    1.4550875425339,
    1.3995693922043,
    1.4595303535461,
    1.4303855895996,
    1.3611793518066,
    1.3460772037506,
    1.2998323440552,
    1.2896661758423,
    1.4045485258102,
    1.3780379295349,
    1.4244747161865,
    1.3934885263443,
    1.3664929866791,
    1.3529201745987,
    1.3366545438766,
    1.3353868722916,
    1.3155709505081,
    1.3382894992828,
    1.3471252918243,
    1.3705613613129,
    1.3102633953094,
    1.2823649644852,
    1.3457390069962,
    1.315817117691,
    1.3694440126419,
    1.3072884082794,
    1.3208560943604,
    1.3461023569107,
    1.295827627182,
    1.3413616418839,
    1.3164739608765,
    1.3196039199829,
    1.2979142665863,
    1.2338091135025,
    1.2402439117432,
    1.2559739351273,
    1.2916169166565,
    1.2170658111572,
    1.2512775659561,
    1.2110965251923,
    1.2375988960266,
    1.2317540645599,
    1.2371252775192,
    1.1934901475906,
    1.1394537687302,
    1.179699420929,
    1.1351320743561,
    1.1997607946396,
    1.2619751691818,
    1.2446928024292,
    1.2807269096375,
    1.2658644914627,
    1.2359390258789,
    1.280410528183,
    1.3222465515137,
    1.2756671905518,
    1.2241634130478,
    1.2579894065857,
    1.2706036567688,
    1.2114624977112,
    1.188046336174,
    1.1617666482925,
    1.1806886196136,
    1.2338168621063,
    1.2489156723022,
    1.2157020568848,
    1.2100523710251,
    1.165107011795,
    1.1959145069122,
    1.2714817523956,
    1.297492146492,
    1.2589184045792,
    1.2815579175949,
    1.2502098083496,
    1.2750327587128,
    1.2830539941788,
    1.2866297960281,
    1.230979681015,
    1.2140336036682,
    1.185244679451,
    1.1826120615005,
    1.1620979309082,
    1.1958278417587,
    1.175600528717,
    1.1348439455032,
    1.1226981878281,
    1.1394739151001,
    1.1255288124084,
    1.172701716423,
    1.1649562120438,
    1.2143810987473,
    1.2282214164734,
    1.1824235916138,
    1.1533231735229,
    1.138746380806,
    1.1060421466827,
    1.0737751722336,
    1.1573295593262,
    1.1098304986954,
    1.0600745677948,
    1.0769245624542,
    1.0999132394791,
    1.1218430995941,
    1.1039471626282,
    1.1170799732208,
    1.1421601772308,
    1.1496673822403,
    1.0898441076279,
    1.1193187236786,
    1.0979529619217,
    1.0931161642075,
    1.0577268600464,
    1.0739809274673,
    1.0697274208069,
    1.1233812570572,
    1.068029999733,
    1.138247013092,
    1.1488980054855,
    1.1659580469131,
    1.087792634964,
    1.1186573505402,
    1.1401737928391,
    1.1195480823517,
    1.0861732959747,
    1.1172629594803,
    1.1295243501663,
    1.149934053421,
    1.1319323778152,
    1.1502069234848,
    1.1772652864456,
    1.190669298172,
    1.1673640012741,
    1.1700121164322,
    1.1459277868271,
    1.0880392789841,
    1.0885751247406,
    1.130172252655,
    1.1420584917068,
    1.119234919548,
    1.1013098955154,
    1.0613938570023,
    1.0657485723495,
    1.0734533071518,
    1.1325953006744,
    1.0970585346222,
    1.0686106681824,
    1.0157920122147,
    1.0742756128311,
    1.0412217378616,
    1.0308932065964,
    1.0305259227753,
    1.0671284198761,
    1.0602042675018,
    1.0330337285995,
    1.033486366272,
    1.0205397605896,
    1.0445119142532,
    1.0608587265015,
    1.0533944368362,
    1.0404020547867,
    1.0343848466873,
    1.0455237627029,
    1.0083495378494,
    1.0804096460342,
    1.0765428543091,
    1.0192677974701,
    1.0416368246078,
    1.0159538984299,
    1.027957201004,
    1.0636545419693,
    0.9875191450119,
    1.0202804803848,
    1.0128126144409,
    1.018444776535,
    1.0416197776794,
    1.0377615690231,
    1.0261298418045,
    1.0736123323441,
    1.0527691841125,
    1.0455330610275,
    1.0280448198318,
    1.0110055208206,
    1.0204932689667,
    1.0165439844131,
    1.0113959312439,
    1.0401899814606,
    1.0393975973129,
    1.0460426807404,
    0.96611893177032,
    1.0015190839767,
    0.9828794002533,
    0.99158132076263,
    0.98562294244766,
    0.96370339393616,
    0.98547518253326,
    1.0319381952286,
    0.93082892894745,
    0.99082726240158,
    0.9768488407135,
    0.94383478164673,
    0.94811004400253,
    0.98057687282562,
    0.92721670866013,
    0.91912990808487,
    0.88363337516785,
    0.90876638889313,
    0.90413475036621,
    0.90134656429291,
    0.94449639320374,
    0.91763603687286,
    0.9011949300766,
    0.87597286701202,
    0.92468523979187,
    0.86979949474335,
    0.91017371416092,
    0.88248008489609,
    0.90290558338165,
    0.87026453018188,
    0.88201105594635,
    0.85910242795944,
    0.86844581365585,
    0.8690710067749,
    0.91422206163406,
    0.93836337327957,
    0.93282961845398,
    0.87895458936691,
    0.88100284337997,
    0.92760813236237,
    0.91385251283646,
    0.89237922430038,
    0.89545583724976,
    0.94868147373199,
    0.92866456508636,
    0.92077666521072,
    0.95552551746368,
    0.90356063842773,
    0.91744989156723,
    0.9354659318924,
    1.0019760131836,
    0.92772489786148,
    0.95101964473724,
    0.94034522771835,
    0.96970641613007,
    0.98105549812317,
    0.97266757488251,
    0.97485440969467,
    1.03875207901,
    1.0126091241837,
    0.98432803153992,
    0.95037287473679,
    0.97984558343887,
    0.93495243787766,
    0.9619979262352,
    0.98780488967896,
    0.92962491512299,
    0.97380119562149,
    0.9196560382843,
    0.92436563968658,
    0.92390549182892,
    0.94652599096298,
    0.89413738250732,
    0.89681971073151,
    0.89747393131256,
    0.99136084318161,
    0.98008996248245,
    0.91355401277542,
    0.95228183269501,
    0.9337385892868,
    0.88076865673065,
    0.85581630468369,
    0.88594609498978,
    0.92190146446228,
    0.89301466941833,
    0.865114569664,
    0.88686043024063,
    0.87286651134491,
    0.86876171827316,
    0.88002216815948,
    0.84433966875076,
    0.95655202865601,
    0.9447106719017,
    0.88579940795898,
    0.92883545160294,
    0.89303231239319,
    0.88779783248901,
    0.89233046770096,
    0.95009881258011,
    0.94261640310287,
    0.97005712985992,
    0.99334073066711,
    0.9959409236908,
    0.97932511568069,
    0.91916328668594,
    0.9247944355011,
    0.91927522420883,
    0.95209413766861,
    0.92629355192184,
    0.9647501707077,
    0.94855642318726,
    0.92291623353958,
    0.95960235595703,
    0.91522282361984,
    0.89100480079651,
    0.93396884202957,
    0.94720274209976,
    0.94996923208237,
    0.91345381736755,
    0.88781356811523,
    0.89175683259964,
    0.89035683870316,
    0.91195195913315,
    0.80713778734207,
    0.86521738767624,
    0.84653425216675,
    0.87163758277893,
    0.87734186649323,
    0.87711435556412,
    0.91575634479523,
    0.88773947954178,
    0.91878134012222,
    0.93449890613556,
    0.87746727466583,
    0.94419723749161,
    0.91930401325226,
    0.83436679840088,
    0.89562547206879,
    0.83256852626801,
    0.87074989080429,
    0.85252344608307,
    0.88891112804413,
    0.83655887842178,
    0.79926139116287,
    0.8402470946312,
    0.76913958787918,
    0.79197388887405,
    1.083061337471,
    1.4450081586838,
    0.94882214069366,
    0.93473982810974,
    0.89886647462845,
    0.9513013958931,
    0.93921995162964,
    0.93690627813339,
    0.88861560821533,
    0.93768537044525,
    0.96885007619858,
    0.90959024429321,
    0.91541594266891,
    0.88235175609589,
    0.87967264652252,
    0.91663712263107,
    0.90437811613083,
    0.89990955591202,
    0.85421794652939,
    0.8546090722084,
    0.95455187559128,
    0.87882304191589,
    0.92841017246246,
    0.93268954753876,
    0.91924571990967,
    0.86895656585693,
    0.8588320016861,
    0.87094169855118,
    0.84316086769104,
    0.8496390581131,
    0.88640213012695,
    0.8882155418396,
    0.84651982784271,
    0.8257297873497,
    0.8511871099472,
    0.80343371629715,
    0.85036998987198,
    0.83291667699814,
    0.84957754611969,
    0.86397057771683,
    0.84146565198898,
    0.83907127380371,
    0.82558614015579,
    0.84560412168503,
    0.83050632476807,
    0.8817076086998,
    0.8977809548378,
    0.93835574388504,
    0.94200587272644,
    0.86494463682175,
    0.90634733438492,
    0.85486173629761,
    0.89150547981262,
    0.86602813005447,
    0.83910489082336,
    0.83765196800232,
    0.84122782945633,
    0.82353818416595,
    0.79210543632507,
    0.81591629981995,
    0.81437784433365,
    0.82051622867584,
    0.79639136791229,
    0.81719475984573,
    0.77467203140259,
    0.84696406126022,
    0.86061435937881,
    0.82540154457092,
    0.8050622344017,
    0.84151071310043,
    0.82395732402802,
    0.86460947990417,
    0.87122011184692,
    0.77884864807129,
    0.83066648244858,
    0.82969802618027,
    0.80235642194748,
    0.82109570503235,
    0.80041772127151,
    0.80560237169266,
    0.76689881086349,
    0.80949473381042,
    0.80054551362991,
    0.78304839134216,
    0.83724540472031,
    0.84094482660294,
    0.81003993749619,
    0.75569063425064,
    0.74043309688568,
    0.78353518247604,
    0.84684884548187,
    0.83702117204666,
    0.79262012243271,
    0.83772683143616,
    0.83819025754929,
    0.81662195920944,
    0.79606848955154,
    0.80739188194275,
    0.78129076957703,
    0.7481095790863,
    0.77658182382584,
    0.78318512439728,
    0.81418162584305,
    0.80205774307251,
    0.78466999530792,
    0.77367162704468,
    0.80845075845718,
    0.71862351894379,
    0.7531830072403,
    0.80368363857269,
    0.7690207362175,
    0.79946732521057,
    0.80806684494019,
    0.75234925746918,
    0.7436900138855,
    0.75884687900543,
    0.73622351884842,
    0.7654185295105,
    0.81349587440491,
    0.79222786426544,
    0.74805480241776,
    0.77437019348145,
    0.79109460115433,
    0.78328561782837,
    0.78528088331223,
    0.78208523988724,
    0.83745867013931,
    0.76986783742905,
    0.78117287158966,
    0.72552263736725,
    0.79741579294205,
    0.72587990760803,
    0.77345621585846,
    0.77198195457458,
    0.76657253503799,
    0.81436800956726,
    0.7779369354248,
    0.84259277582169,
    0.81527423858643,
    0.7900505065918,
    0.8002205491066,
    0.74087297916412,
    0.7485123872757,
    0.80863386392593,
    0.81961560249329,
    0.8200609087944,
    0.82095575332642,
    0.82575315237045,
    0.8133887052536,
    0.81198567152023,
    0.79719489812851,
    0.80305051803589,
    0.79901838302612,
    0.78996104001999,
    0.79617935419083,
    0.78789281845093,
    0.78350710868835,
    0.78455770015717,
    0.80604243278503,
    0.84209734201431,
    0.77796852588654,
    0.80920022726059,
    0.81661981344223,
    0.77418118715286,
    0.81756067276001,
    0.8064438700676,
    0.79793983697891,
    0.80885452032089,
    0.75952672958374,
    0.77311456203461,
    0.79030990600586,
    0.78944855928421,
    0.74633347988129,
    0.7848442196846,
    0.75583064556122,
    0.78887963294983,
    0.79162085056305,
    0.79334408044815,
    0.77338469028473,
    0.70223623514175,
    0.72701585292816,
    0.69128406047821,
    0.77041667699814,
    0.80793273448944,
    0.79234933853149,
    0.82544738054276,
    0.81970995664597,
    0.81112587451935,
    0.83697521686554,
    0.852459192276,
    0.83220684528351,
    0.83083057403564,
    0.83823561668396,
    0.83564990758896,
    0.79913890361786,
    0.78906124830246,
    0.74087601900101,
    0.78039640188217,
    0.80897265672684,
    0.82207441329956,
    0.80085021257401,
    0.77680891752243,
    0.7890077829361,
    0.80852317810059,
    0.83625036478043,
    0.86517345905304,
    0.82844132184982,
    0.84829396009445,
    0.81767678260803,
    0.84645193815231,
    0.88202899694443,
    0.84725242853165,
    0.82747930288315,
    0.81251972913742,
    0.78933084011078,
    0.79371285438538,
    0.76232641935349,
    0.82117009162903,
    0.75619924068451,
    0.76912665367126,
    0.74784219264984,
    0.77650183439255,
    0.77961891889572,
    0.81610405445099,
    0.79147529602051,
    0.83267307281494,
    0.87623053789139,
    0.79144549369812,
    0.79102897644043,
    0.77811199426651,
    0.76141619682312,
    0.75254619121552,
    0.80928069353104,
    0.79045915603638,
    0.74410891532898,
    0.75452071428299,
    0.76682883501053,
    0.7842333316803,
    0.76741200685501,
    0.79129326343536,
    0.81460243463516,
    0.79535365104675,
    0.75298994779587,
    0.77560490369797,
    0.76561802625656,
    0.74687427282333,
    0.72099906206131,
    0.75543129444122,
    0.7469357252121,
    0.77955508232117,
    0.75570154190063,
    0.81351053714752,
    0.82700431346893,
    0.82280266284943,
    0.75361412763596,
    0.77824771404266,
    0.78712248802185,
    0.8005199432373,
    0.77347433567047,
    0.79405361413956,
    0.80459213256836,
    0.83001220226288,
    0.83769744634628,
    0.79851198196411,
    0.79797041416168,
    0.83422178030014,
    0.83476120233536,
    0.85061746835709,
    0.82561755180359,
    0.78168034553528,
    0.77636754512787,
    0.79026341438293,
    0.81984609365463,
    0.81077998876572,
    0.79033780097961,
    0.77486330270767,
    0.76061105728149,
    0.768041908741,
    0.82395905256271,
    0.79392170906067,
    0.80219334363937,
    0.74957537651062,
    0.76553112268448,
    0.7422206401825,
    0.73572832345963,
    0.73112052679062,
    0.77143454551697,
    0.78944408893585,
    0.73991471529007,
    0.75935000181198,
    0.75175100564957,
    0.76098430156708,
    0.77090847492218,
    0.74534571170807,
    0.75438761711121,
    0.74513190984726,
    0.7655975818634,
    0.7202957868576,
    0.78158557415009,
    0.77766239643097,
    0.76211577653885,
    0.77259612083435,
    0.71832221746445,
    0.74258089065552,
    0.77312749624252,
    0.69709157943726,
    0.72727340459824,
    0.72684913873672,
    0.72687345743179,
    0.74882829189301,
    0.74399679899216,
    0.72830808162689,
    0.77638798952103,
    0.75722306966782,
    0.76623827219009,
    0.74913191795349,
    0.73039883375168,
    0.74725407361984,
    0.73781901597977,
    0.71697503328323,
    0.75972461700439,
    0.78603404760361,
    0.78775495290756,
    0.68423229455948,
    0.73125720024109,
    0.72666418552399,
    0.72071677446365,
    0.7314532995224,
    0.72863620519638,
    0.72167634963989,
    0.76122760772705,
    0.67055809497833,
    0.7091600894928,
    0.72180181741714,
    0.69751209020615,
    0.72427386045456,
    0.74895507097244,
    0.69622725248337,
    0.69424587488174,
    0.67256700992584,
    0.68867635726929,
    0.68346208333969,
    0.67447423934937,
    0.7193421125412,
    0.68750303983688,
    0.68365234136581,
    0.6335101723671,
    0.68581283092499,
    0.62665349245071,
    0.67150604724884,
    0.65286105871201,
    0.68068879842758,
    0.64860546588898,
    0.68078517913818,
    0.64279592037201,
    0.64750111103058,
    0.67263388633728,
    0.67653447389603,
    0.69730257987976,
    0.70313131809235,
    0.65326905250549,
    0.65376436710358,
    0.6908997297287,
    0.69400012493134,
    0.67988437414169,
    0.68533766269684,
    0.7292532324791,
    0.71941775083542,
    0.70430213212967,
    0.73835897445679,
    0.71004909276962,
    0.71520566940308,
    0.72313630580902,
    0.78076940774918,
    0.70037394762039,
    0.7492441534996,
    0.72694802284241,
    0.74955850839615,
    0.74362951517105,
    0.74424564838409,
    0.77318221330643,
    0.83307009935379,
    0.7914565205574,
    0.75744485855103,
    0.75007224082947,
    0.75115555524826,
    0.71935158967972,
    0.75361663103104,
    0.78418630361557,
    0.71878123283386,
    0.75812637805939,
    0.71874248981476,
    0.73349606990814,
    0.72183585166931,
    0.72317963838577,
    0.70009207725525,
    0.71614962816238,
    0.70456850528717,
    0.77245110273361,
    0.77025902271271,
    0.7408355474472,
    0.76109087467194,
    0.75396209955215,
    0.7105079293251,
    0.67179399728775,
    0.69779777526855,
    0.72290658950806,
    0.70526331663132,
    0.66982167959213,
    0.70125830173492,
    0.68020021915436,
    0.68334478139877,
    0.70908260345459,
    0.66579455137253,
    0.75700229406357,
    0.76072710752487,
    0.70870929956436,
    0.73002791404724,
    0.70638954639435,
    0.69138163328171,
    0.69945895671844,
    0.75513499975204,
    0.75696951150894,
    0.76649630069733,
    0.79639559984207,
    0.8048592209816,
    0.79422736167908,
    0.74648952484131,
    0.73997062444687,
    0.73456633090973,
    0.74925845861435,
    0.7502099275589,
    0.76771277189255,
    0.76713496446609,
    0.73575335741043,
    0.77181267738342,
    0.71739584207535,
    0.72088396549225,
    0.76679146289825,
    0.77083444595337,
    0.7667281627655,
    0.7207555770874,
    0.70189702510834,
    0.70469284057617,
    0.70870679616928,
    0.72455018758774,
    0.62933933734894,
    0.67028659582138,
    0.67125523090363,
    0.70293968915939,
    0.70604646205902,
    0.70584172010422,
    0.7063775062561,
    0.69740664958954,
    0.72945541143417,
    0.73898327350616,
    0.70182204246521,
    0.75212234258652,
    0.74102157354355,
    0.67034727334976,
    0.73698902130127,
    0.68810951709747,
    0.71731382608414,
    0.70421642065048,
    0.74118888378143,
    0.68642556667328,
    0.66927123069763,
    0.66747915744781,
    0.60075378417969,
    0.64708578586578,
    0.97019708156586,
    1.327228307724,
    0.77380937337875,
    0.75693988800049,
    0.73169392347336,
    0.77979022264481,
    0.77752184867859,
    0.7611255645752,
    0.72954845428467,
    0.76384001970291,
    0.8151450753212,
    0.72592216730118,
    0.73466241359711,
    0.7368643283844,
    0.73174196481705,
    0.75141710042953,
    0.71987116336823,
    0.72077435255051,
    0.70325666666031,
    0.71194237470627,
    0.79085373878479,
    0.73201495409012,
    0.75659269094467,
    0.76370638608932,
    0.76544654369354,
    0.70438396930695,
    0.70767420530319,
    0.71348166465759,
    0.68109494447708,
    0.6841344833374,
    0.72381085157394,
    0.71457839012146,
    0.69186121225357,
    0.6730552315712,
    0.70164775848389,
    0.66432577371597,
    0.69006431102753,
    0.67048645019531,
    0.70418351888657,
    0.70098513364792,
    0.69893085956573,
    0.69063055515289,
    0.68722116947174,
    0.69861149787903,
    0.6977881193161,
    0.7406245470047,
    0.7470708489418,
    0.76313990354538,
    0.77437818050385,
    0.72041410207748,
    0.75892794132233,
    0.71868491172791,
    0.75433623790741,
    0.7308474779129,
    0.68619644641876,
    0.69999879598618,
    0.69972079992294,
    0.68245482444763,
    0.65545552968979,
    0.6548587679863,
    0.68477404117584,
    0.97234392166138,
    0.66809672117233,
    0.68020057678223,
    0.62702858448029,
    0.69125598669052,
    0.71470236778259,
    0.67451936006546,
    0.67156147956848,
    0.68847244977951,
    0.6830980181694,
    0.70618343353271,
    0.70246344804764,
    0.62753731012344,
    0.64739030599594,
    0.67701101303101,
    0.64893251657486,
    0.66573518514633,
    0.65337067842484,
    0.65120244026184,
    0.62939357757568,
    0.66352719068527,
    0.65965324640274,
    0.64498120546341,
    0.68671059608459,
    0.69375950098038,
    0.66811311244965,
    0.61732661724091,
    0.59657096862793,
    0.63926762342453,
    0.69275736808777,
    0.70027190446854,
    0.65256667137146,
    0.6927769780159,
    0.69066751003265,
    0.66616588830948,
    0.64314025640488,
    0.67059689760208,
    0.61678689718246,
    0.59397780895233,
    0.62719714641571,
    0.63588154315948,
    0.65015774965286,
    0.64384216070175,
    0.64066517353058,
    0.61514037847519,
    0.6504282951355,
    0.5841925740242,
    0.63785398006439,
    0.67513847351074,
    0.64687275886536,
    0.67094475030899,
    0.67914658784866,
    0.62820154428482,
    0.63058996200562,
    0.63461291790009,
    0.61314421892166,
    0.64585971832275,
    0.67704087495804,
    0.66112607717514,
    0.60734164714813,
    0.64841115474701,
    0.65399783849716,
    0.63923811912537,
    0.64022415876389,
    0.64609080553055,
    0.6949759721756,
    0.64195120334625,
    0.653235912323,
    0.61049938201904,
    0.67185562849045,
    0.61847817897797,
    0.64446526765823,
    0.63789504766464,
    0.64099937677383,
    0.66910475492477,
    0.64068132638931,
    0.71790075302124,
    0.6933661699295,
    0.65971058607101,
    0.66333299875259,
    0.60713577270508,
    0.62784171104431,
    0.67905306816101,
    0.6921438574791,
    0.6925675868988,
    0.69920063018799,
    0.73228394985199,
    0.68557184934616,
    0.69130963087082,
    0.68323516845703,
    0.6885614991188,
    0.68629312515259,
    0.67690801620483,
    0.67525410652161,
    0.67455387115479,
    0.67965078353882,
    0.67459410429001,
    0.68834942579269,
    0.7125791311264,
    0.6573029756546,
    0.68031656742096,
    0.69292694330215,
    0.65166610479355,
    0.7060152888298,
    0.69205731153488,
    0.6963649392128,
    0.71050661802292,
    0.6589942574501,
    0.66001296043396,
    0.65794867277145,
    0.68006581068039,
    0.65092092752457,
    0.67605757713318,
    0.65389996767044,
    0.67617404460907,
    0.67592096328735,
    0.69327467679977,
    0.66511708498001,
    0.60581505298615,
    0.62644523382187,
    0.59365081787109,
    0.6506758928299,
    0.68999344110489,
    0.66725844144821,
    0.7132031917572,
    0.71120363473892,
    0.67854660749435,
    0.71655529737473,
    0.7158961892128,
    0.70363986492157,
    0.69826990365982,
    0.7066108584404,
    0.70180004835129,
    0.69317919015884,
    0.67628926038742,
    0.63057136535645,
    0.66399312019348,
    0.70047652721405,
    0.69513761997223,
    0.67574405670166,
    0.67236125469208,
    0.66623318195343,
    0.69095951318741,
    0.70795583724976,
    0.73862951993942,
    0.69919216632843,
    0.7322273850441,
    0.71231263875961,
    0.73239904642105,
    0.7618368268013,
    0.7210687994957,
    0.70165920257568,
    0.69117558002472,
    0.6828847527504,
    0.67814618349075,
    0.66080522537231,
    0.69797307252884,
    0.65241813659668,
    0.65966248512268,
    0.62447619438171,
    0.67619150876999,
    0.67019695043564,
    0.711485683918,
    0.68330436944962,
    0.71051847934723,
    0.76718020439148,
    0.6971971988678,
    0.69734370708466,
    0.66392493247986,
    0.63974744081497,
    0.64377492666245,
    0.70980107784271,
    0.6849747300148,
    0.63324064016342,
    0.6453275680542,
    0.64684224128723,
    0.65408283472061,
    0.64806437492371,
    0.66629630327225,
    0.69258320331573,
    0.66762310266495,
    0.64574438333511,
    0.67660212516785,
    0.65730690956116,
    0.64323949813843,
    0.63111621141434,
    0.66482841968536,
    0.65248340368271,
    0.67871284484863,
    0.65872597694397,
    0.72582960128784,
    0.71659499406815,
    0.71458005905151,
    0.65684938430786,
    0.69189447164536,
    0.68953400850296,
    0.69217604398727,
    0.68004924058914,
    0.69527244567871,
    0.70146423578262,
    0.7239825129509,
    0.72045397758484,
    0.68420767784119,
    0.67919081449509,
    0.7146213054657,
    0.70768028497696,
    0.72866225242615,
    0.72054815292358,
    0.67797648906708,
    0.66937464475632,
    0.69713002443314,
    0.71542423963547,
    0.70553374290466,
    0.68562167882919,
    0.68017411231995,
    0.65049576759338,
    0.64920383691788,
    0.70616638660431,
    0.68951904773712,
    0.70727252960205,
    0.6509712934494,
    0.63460999727249,
    0.61460065841675,
    0.61892020702362,
    0.62274700403214,
    0.64617645740509,
    0.67359060049057,
    0.63528269529343,
    0.65719211101532,
    0.64355725049973,
    0.62302350997925,
    0.65329855680466,
    0.64175033569336,
    0.62888097763062,
    0.63303524255753,
    0.65481752157211,
    0.61694514751434,
    0.67283666133881,
    0.66393673419952,
    0.65467059612274,
    0.67301499843597,
    0.63358879089355,
    0.64039474725723,
    0.67944890260696,
    0.58689093589783,
    0.63019406795502,
    0.62950330972672,
    0.63068234920502,
    0.64766484498978,
    0.6476765871048,
    0.62222385406494,
    0.66952234506607,
    0.66019862890244,
    0.65377390384674,
    0.63894587755203,
    0.63182258605957,
    0.65396916866302,
    0.6325495839119,
    0.62261921167374,
    0.67402148246765,
    0.69796884059906,
    0.69350725412369,
    0.61279046535492,
    0.65157634019852,
    0.64614343643188,
    0.63006472587585,
    0.65007704496384,
    0.6495373249054,
    0.64761763811111,
    0.66171461343765,
    0.59284943342209,
    0.62933415174484,
    0.64888054132462,
    0.62798881530762,
    0.63847982883453,
    0.65648078918457,
    0.62618327140808,
    0.61303317546844,
    0.59508150815964,
    0.61361503601074,
    0.60436874628067,
    0.5946951508522,
    0.63761323690414,
    0.58427804708481,
    0.58043205738068,
    0.53843599557877,
    0.58669292926788,
    0.54046320915222,
    0.58833688497543,
    0.57169777154922,
    0.60163605213165,
    0.5725023150444,
    0.59808200597763,
    0.56710106134415,
    0.57232010364532,
    0.59371262788773,
    0.5997850894928,
    0.62638837099075,
    0.61872267723083,
    0.57512652873993,
    0.57080107927322,
    0.60346776247025,
    0.59382712841034,
    0.58300334215164,
    0.59718143939972,
    0.62762945890427,
    0.63135188817978,
    0.61622840166092,
    0.64046496152878,
    0.61262369155884,
    0.62907207012177,
    0.63646149635315,
    0.68843692541122,
    0.61996454000473,
    0.6550287604332,
    0.63643014431,
    0.64881151914597,
    0.6392240524292,
    0.64507365226746,
    0.66450524330139,
    0.73006093502045,
    0.68921726942062,
    0.65963190793991,
    0.65820568799973,
    0.67055237293243,
    0.63956677913666,
    0.67525637149811,
    0.70783859491348,
    0.64150959253311,
    0.66462272405624,
    0.62698996067047,
    0.6486279964447,
    0.64961874485016,
    0.63944864273071,
    0.60786813497543,
    0.64246535301208,
    0.6284087896347,
    0.691565990448,
    0.67633992433548,
    0.65610307455063,
    0.6858834028244,
    0.67063230276108,
    0.64183366298676,
    0.58525574207306,
    0.59912365674973,
    0.63262617588043,
    0.63843762874603,
    0.60264360904694,
    0.62205547094345,
    0.60103929042816,
    0.60122179985046,
    0.63322860002518,
    0.5828452706337,
    0.68091881275177,
    0.66258829832077,
    0.62254977226257,
    0.65624666213989,
    0.62696784734726,
    0.61624360084534,
    0.62485218048096,
    0.68323689699173,
    0.65915775299072,
    0.67464005947113,
    0.70679324865341,
    0.71549612283707,
    0.71988666057587,
    0.67393928766251,
    0.66619479656219,
    0.64799618721008,
    0.66644382476807,
    0.67260855436325,
    0.68249011039734,
    0.68216794729233,
    0.65332722663879,
    0.6730329990387,
    0.63347452878952,
    0.65696752071381,
    0.70041692256927,
    0.68972331285477,
    0.68286830186844,
    0.61608332395554,
    0.61364990472794,
    0.61785930395126,
    0.62229299545288,
    0.64219290018082,
    0.56254988908768,
    0.60847771167755,
    0.58917915821075,
    0.62534642219543,
    0.63216471672058,
    0.61754202842712,
    0.62912583351135,
    0.61726635694504,
    0.65275627374649,
    0.65070027112961,
    0.6255367398262,
    0.66239714622498,
    0.66223514080048,
    0.60500419139862,
    0.66512477397919,
    0.61966496706009,
    0.63761413097382,
    0.62001794576645,
    0.66764271259308,
    0.61676418781281,
    0.60382574796677,
    0.5969831943512,
    0.53193879127502,
    0.57315194606781,
    0.89035838842392,
    1.2909326553345,
    0.70701205730438,
    0.67710798978806,
    0.65477973222733,
    0.68236523866653,
    0.67817854881287,
    0.67079728841782,
    0.64478385448456,
    0.68545460700989,
    0.73352861404419,
    0.64238786697388,
    0.6507054567337,
    0.66967910528183,
    0.65686160326004,
    0.68247920274734,
    0.64596366882324,
    0.65010571479797,
    0.61916249990463,
    0.6365088224411,
    0.70726490020752,
    0.65613889694214,
    0.67831271886826,
    0.67945867776871,
    0.68048846721649,
    0.63429123163223,
    0.62663906812668,
    0.63323551416397,
    0.59728866815567,
    0.61091393232346,
    0.65304630994797,
    0.64310497045517,
    0.61726433038712,
    0.59316730499268,
    0.62243819236755,
    0.5799166560173,
    0.60454607009888,
    0.59916472434998,
    0.63550043106079,
    0.63748836517334,
    0.62221300601959,
    0.62509661912918,
    0.61938440799713,
    0.63361096382141,
    0.63583421707153,
    0.66865390539169,
    0.6620060801506,
    0.68622785806656,
    0.6879894733429,
    0.63703459501266,
    0.67610520124435,
    0.64877086877823,
    0.69030344486237,
    0.66667121648788,
    0.61496740579605,
    0.62931042909622,
    0.62298530340195,
    0.60747134685516,
    0.58152121305466,
    0.59601193666458,
    0.60985970497131,
    0.60990869998932,
    0.60383981466293,
    0.60566800832748,
    0.55146598815918,
    0.61156660318375,
    0.64065766334534,
    0.60038566589355,
    0.59815043210983,
    0.61962026357651,
    0.60846662521362,
    0.62725561857224,
    0.60798197984695,
    0.56113117933273,
    0.56918656826019,
    0.59738785028458,
    0.56055873632431,
    0.5835075378418,
    0.57425832748413,
    0.56904149055481,
    0.55014359951019,
    0.5894415974617,
    0.59095275402069,
    0.58340305089951,
    0.60858285427094,
    0.6223868727684,
    0.6008472442627,
    0.55800116062164,
    0.53570777177811,
    0.57468539476395,
    0.62385433912277,
    0.6248459815979,
    0.5834624171257,
    0.61391860246658,
    0.61883717775345,
    0.60451340675354,
    0.58629995584488,
    0.60708004236221,
    0.55460768938065,
    0.53314900398254,
    0.56869870424271,
    0.5621412396431,
    0.57166123390198,
    0.58332222700119,
    0.56622576713562,
    0.54980021715164,
    0.5751039981842,
    0.5201199054718,
    0.57377749681473,
    0.5960648059845,
    0.58548611402512,
    0.59834611415863,
    0.61675971746445,
    0.56607645750046,
    0.5603215098381,
    0.57258456945419,
    0.54216760396957,
    0.57136750221252,
    0.59495002031326,
    0.5864337682724,
    0.54166692495346,
    0.57841157913208,
    0.58582693338394,
    0.57532167434692,
    0.56419289112091,
    0.57322424650192,
    0.63068503141403,
    0.55837309360504,
    0.58182847499847,
    0.555699467659,
    0.5940323472023,
    0.54640918970108,
    0.5677964091301,
    0.57234483957291,
    0.56642609834671,
    0.59959310293198,
    0.58028554916382,
    0.65402233600616,
    0.62232768535614,
    0.58791702985764,
    0.57894992828369,
    0.52837455272675,
    0.55945003032684,
    0.59642976522446,
    0.62173813581467,
    0.6208478808403,
    0.60927945375443,
    0.66513401269913,
    0.5986949801445,
    0.61676204204559,
    0.61301654577255,
    0.61308580636978,
    0.61288684606552,
    0.61192554235458,
    0.60301917791367,
    0.61706036329269,
    0.6124073266983,
    0.61738538742065,
    0.62487804889679,
    0.63699102401733,
    0.59979873895645,
    0.60728245973587,
    0.61761516332626,
    0.5731281042099,
    0.62465882301331,
    0.63222283124924,
    0.63554012775421,
    0.65584695339203,
    0.60111784934998,
    0.612697660923,
    0.60171556472778,
    0.61739695072174,
    0.58700656890869,
    0.62015849351883,
    0.61037200689316,
    0.61475622653961,
    0.62708961963654,
    0.62834084033966,
    0.60314881801605,
    0.54646492004395,
    0.56347686052322,
    0.54262816905975,
    0.57851654291153,
    0.62983620166779,
    0.60452204942703,
    0.6396723985672,
    0.65043467283249,
    0.62477004528046,
    0.64816927909851,
    0.6564227938652,
    0.63721078634262,
    0.63592559099197,
    0.64408069849014,
    0.62798655033112,
    0.62300217151642,
    0.61346638202667,
    0.56094074249268,
    0.60363632440567,
    0.63411039113998,
    0.64104819297791,
    0.62225764989853,
    0.60989791154861,
    0.62518918514252,
    0.63385492563248,
    0.6573965549469,
    0.66844046115875,
    0.6256600022316,
    0.66176557540894,
    0.65708005428314,
    0.66382348537445,
    0.68843227624893,
    0.65118801593781,
    0.62533074617386,
    0.62871420383453,
    0.62178236246109,
    0.62463217973709,
    0.6031129360199,
    0.63385885953903,
    0.59373128414154,
    0.58726358413696,
    0.56970500946045,
    0.60998702049255,
    0.60490429401398,
    0.64820861816406,
    0.62586838006973,
    0.64514225721359,
    0.70289504528046,
    0.64143759012222,
    0.63985139131546,
    0.59854936599731,
    0.59189289808273,
    0.58228695392609,
    0.64082938432693,
    0.61101120710373,
    0.56216859817505,
    0.58866906166077,
    0.58254665136337,
    0.59437471628189,
    0.59044641256332,
    0.60149645805359,
    0.63018876314163,
    0.60038530826569,
    0.588891685009,
    0.61001306772232,
    0.58987039327621,
    0.58329421281815,
    0.57581967115402,
    0.60546940565109,
    0.58629411458969,
    0.61965376138687,
    0.59616720676422,
    0.66424512863159,
    0.66300183534622,
    0.67258715629578,
    0.60453724861145,
    0.62604200839996,
    0.62271595001221,
    0.61405396461487,
    0.60646986961365,
    0.63916438817978,
    0.63486039638519,
    0.65148156881332,
    0.6467872262001,
    0.61813020706177,
    0.60693562030792,
    0.64219844341278,
    0.63260358572006,
    0.65700280666351,
    0.64292019605637,
    0.60864281654358,
    0.59662616252899,
    0.61987668275833,
    0.64890104532242,
    0.64356410503387,
    0.62422907352448,
    0.60996359586716,
    0.58734875917435,
    0.6033741235733,
    0.63256305456161,
    0.62564384937286,
    0.63768070936203,
    0.59379065036774,
    0.57474225759506,
    0.54697006940842,
    0.55397844314575,
    0.56408888101578,
    0.58880561590195,
    0.59907555580139,
    0.56069254875183,
    0.58307003974915,
    0.56889086961746,
    0.54566407203674,
    0.58552259206772,
    0.57256293296814,
    0.55655837059021,
    0.56589609384537,
    0.58966732025146,
    0.55528712272644,
    0.61197870969772,
    0.60336351394653,
    0.59605973958969,
    0.61932545900345,
    0.58492869138718,
    0.58962881565094,
    0.62377423048019,
    0.5343896150589,
    0.57164698839188,
    0.57358437776566,
    0.56435173749924,
    0.58695256710052,
    0.57981008291245,
    0.56986612081528,
    0.61357146501541,
    0.59868395328522,
    0.60565572977066,
    0.58848088979721,
    0.57326501607895,
    0.60136526823044,
    0.58060443401337,
    0.56806993484497,
    0.60991263389587,
    0.6336013674736,
    0.63115280866623,
    0.55046093463898,
    0.59151166677475,
    0.60078483819962,
    0.58197277784348,
    0.59791827201843,
    0.59376704692841,
    0.59374624490738,
    0.60125917196274,
    0.53666985034943,
    0.58226639032364,
    0.59997808933258,
    0.58780515193939,
    0.59225332736969,
    0.6026132106781,
    0.56961989402771,
    0.55566889047623,
    0.53936970233917,
    0.56389760971069,
    0.55297809839249,
    0.53124952316284,
    0.57614582777023,
    0.53622078895569,
    0.52685540914536,
    0.47754165530205,
    0.52916431427002,
    0.48215553164482,
    0.53640168905258,
    0.51641052961349,
    0.55848956108093,
    0.52730655670166,
    0.55789577960968,
    0.52101737260818,
    0.52902936935425,
    0.53641039133072,
    0.53531354665756,
    0.58070462942123,
    0.56746000051498,
    0.52362090349197,
    0.5267898440361,
    0.55503678321838,
    0.54911458492279,
    0.52987170219421,
    0.54196041822433,
    0.57202261686325,
    0.57739615440369,
    0.54921281337738,
    0.59127444028854,
    0.56475746631622,
    0.58481752872467,
    0.58522945642471,
    0.63103413581848,
    0.56617033481598,
    0.59706556797028,
    0.58310562372208,
    0.59535652399063,
    0.58582651615143,
    0.58670330047607,
    0.59911739826202,
    0.65518671274185,
    0.62387800216675,
    0.60946744680405,
    0.59490936994553,
    0.61308109760284,
    0.58353757858276,
    0.61723381280899,
    0.65322089195251,
    0.59091848134995,
    0.61599135398865,
    0.58565473556519,
    0.59894955158234,
    0.59374189376831,
    0.5875888466835,
    0.55928122997284,
    0.59388250112534,
    0.57675230503082,
    0.63038539886475,
    0.60167467594147,
    0.59913116693497,
    0.63437169790268,
    0.61317813396454,
    0.58120846748352,
    0.52822804450989,
    0.55416768789291,
    0.57343912124634,
    0.57219392061234,
    0.55058687925339,
    0.5751678943634,
    0.54265195131302,
    0.55888557434082,
    0.5878604054451,
    0.52760922908783,
    0.62372618913651,
    0.60520452260971,
    0.57504868507385,
    0.58996450901031,
    0.57659995555878,
    0.55711472034454,
    0.57689338922501,
    0.63429862260818,
    0.60395258665085,
    0.61257719993591,
    0.64116895198822,
    0.66926449537277,
    0.65582036972046,
    0.61237400770187,
    0.59708774089813,
    0.58356130123138,
    0.60714763402939,
    0.63071459531784,
    0.62116456031799,
    0.62596440315247,
    0.6074492931366,
    0.62089323997498,
    0.58408552408218,
    0.60812813043594,
    0.64688301086426,
    0.64052504301071,
    0.63564425706863,
    0.57099294662476,
    0.55199527740479,
    0.56306892633438,
    0.57440155744553,
    0.57771921157837,
    0.51043701171875,
    0.55454659461975,
    0.52272790670395,
    0.56833738088608,
    0.58245134353638,
    0.57346457242966,
    0.57829636335373,
    0.56735378503799,
    0.60085892677307,
    0.59559738636017,
    0.56539630889893,
    0.59768098592758,
    0.60982018709183,
    0.55503857135773,
    0.61158508062363,
    0.56953251361847,
    0.58583050966263,
    0.56785315275192,
    0.60893779993057,
    0.55977040529251,
    0.55032479763031,
    0.54629689455032,
    0.46832889318466,
    0.53186792135239,
    0.86553066968918,
    1.2297533750534,
    0.66423588991165,
    0.6155372262001,
    0.59173274040222,
    0.6196671128273,
    0.6085969209671,
    0.60732144117355,
    0.58346670866013,
    0.62081122398376,
    0.67364299297333,
    0.5921858549118,
    0.60341173410416,
    0.6126816868782,
    0.6044842004776,
    0.62230783700943,
    0.59368199110031,
    0.59561038017273,
    0.55403405427933,
    0.56567800045013,
    0.64967918395996,
    0.60419821739197,
    0.61641138792038,
    0.61775940656662,
    0.62749516963959,
    0.57805061340332,
    0.57765543460846,
    0.58280354738235,
    0.55506461858749,
    0.56024926900864,
    0.59966433048248,
    0.5879875421524,
    0.5533213019371,
    0.54106801748276,
    0.57171618938446,
    0.53356975317001,
    0.56544101238251,
    0.56150233745575,
    0.57557594776154,
    0.57804208993912,
    0.56419044733047,
    0.56623065471649,
    0.54974579811096,
    0.57830554246902,
    0.57619041204453,
    0.60751116275787,
    0.60924500226974,
    0.62734252214432,
    0.63426899909973,
    0.5874724984169,
    0.62620371580124,
    0.59292262792587,
    0.62375330924988,
    0.59879040718079,
    0.55213010311127,
    0.58094429969788,
    0.56874859333038,
    0.56105953454971,
    0.54457765817642,
    0.54900729656219,
    0.56513601541519,
    0.57056337594986,
    0.55880928039551,
    0.56159597635269,
    0.51794230937958,
    0.56161284446716,
    0.57842600345612,
    0.54212194681168,
    0.53674626350403,
    0.56316941976547,
    0.54371076822281,
    0.56257396936417,
    0.54307186603546,
    0.50767225027084,
    0.51109158992767,
    0.53436404466629,
    0.5098340511322,
    0.51306045055389,
    0.51735031604767,
    0.52186834812164,
    0.50088584423065,
    0.53624153137207,
    0.55069380998611,
    0.53485769033432,
    0.56098437309265,
    0.57871633768082,
    0.55230033397675,
    0.5180270075798,
    0.49480000138283,
    0.53739339113235,
    0.56936329603195,
    0.58910715579987,
    0.53955119848251,
    0.57230949401855,
    0.57202309370041,
    0.56853044033051,
    0.53748267889023,
    0.560307264328,
    0.50185745954514,
    0.4872978925705,
    0.51673805713654,
    0.51024258136749,
    0.52125358581543,
    0.5279912352562,
    0.51098370552063,
    0.50500202178955,
    0.52140462398529,
    0.48146039247513,
    0.53098875284195,
    0.55775558948517,
    0.54307103157043,
    0.54652291536331,
    0.55482596158981,
    0.51727849245071,
    0.50643759965897,
    0.52335745096207,
    0.49602466821671,
    0.52094048261642,
    0.5328608751297,
    0.54721134901047,
    0.49598079919815,
    0.90960216522217,
    0.56309193372726,
    0.54371225833893,
    0.52813076972961,
    0.53385907411575,
    0.57143557071686,
    0.5248389840126,
    0.54166620969772,
    0.50139689445496,
    0.5367243885994,
    0.48843735456467,
    0.51206636428833,
    0.53544467687607,
    0.51237142086029,
    0.55010640621185,
    0.53313571214676,
    0.60609710216522,
    0.57780194282532,
    0.55165392160416,
    0.52946782112122,
    0.48726522922516,
    0.50681060552597,
    0.55411607027054,
    0.56758975982666,
    0.57369661331177,
    0.56000226736069,
    0.61960750818253,
    0.55310559272766,
    0.55962991714478,
    0.56315803527832,
    0.5723734498024,
    0.56903219223022,
    0.56326121091843,
    0.55659079551697,
    0.56918030977249,
    0.56743264198303,
    0.57431876659393,
    0.57925117015839,
    0.57607263326645,
    0.55646115541458,
    0.5691841840744,
    0.58686763048172,
    0.53254026174545,
    0.5694015622139,
    0.59070515632629,
    0.57915782928467,
    0.60758644342422,
    0.555644094944,
    0.56352072954178,
    0.56880724430084,
    0.57226186990738,
    0.5416185259819,
    0.56414687633514,
    0.56231194734573,
    0.57156562805176,
    0.58123743534088,
    0.56815046072006,
    0.55429154634476,
    0.49192929267883,
    0.50805985927582,
    0.48883989453316,
    0.51623672246933,
    0.57212507724762,
    0.55543702840805,
    0.58256453275681,
    0.59857577085495,
    0.56730479001999,
    0.59075349569321,
    0.59111768007278,
    0.58368521928787,
    0.58814924955368,
    0.58295142650604,
    0.57878857851028,
    0.56886351108551,
    0.56011629104614,
    0.51811170578003,
    0.54673540592194,
    0.5841526389122,
    0.59728991985321,
    0.56840562820435,
    0.5626512169838,
    0.58318442106247,
    0.58457201719284,
    0.5846540927887,
    0.61334049701691,
    0.56498819589615,
    0.60322225093842,
    0.59631842374802,
    0.61330205202103,
    0.62831062078476,
    0.5904079079628,
    0.58215683698654,
    0.58521443605423,
    0.57105100154877,
    0.57396149635315,
    0.55297815799713,
    0.57912367582321,
    0.53335911035538,
    0.53570795059204,
    0.51397204399109,
    0.56774634122849,
    0.57503527402878,
    0.59928488731384,
    0.56458133459091,
    0.60594284534454,
    0.64300525188446,
    0.600162088871,
    0.58997273445129,
    0.56055068969727,
    0.55188101530075,
    0.53381639719009,
    0.58581483364105,
    0.55331474542618,
    0.51288878917694,
    0.52673542499542,
    0.53612577915192,
    0.54157054424286,
    0.53433704376221,
    0.54857850074768,
    0.57714509963989,
    0.53824263811111,
    0.53457254171371,
    0.55528312921524,
    0.54203480482101,
    0.52091473340988,
    0.5319567322731,
    0.55662739276886,
    0.54142385721207,
    0.58125817775726,
    0.54942941665649,
    0.60924071073532,
    0.60768127441406,
    0.6176101565361,
    0.55305695533752,
    0.58206403255463,
    0.5829171538353,
    0.57584166526794,
    0.56008386611938,
    0.60005295276642,
    0.57720863819122,
    0.59540265798569,
    0.57812404632568,
    0.55715024471283,
    0.54598015546799,
    0.59888058900833,
    0.58103722333908,
    0.59122610092163,
    0.58757656812668,
    0.56249779462814,
    0.54291194677353,
    0.56570613384247,
    0.59180164337158,
    0.59031903743744,
    0.57947117090225,
    0.55702936649323,
    0.53907537460327,
    0.54895228147507,
    0.58705633878708,
    0.56660956144333,
    0.56719607114792,
    0.53987717628479,
    0.5211815237999,
    0.50524884462357,
    0.4960096180439,
    0.51311635971069,
    0.52904891967773,
    0.54051184654236,
    0.50780963897705,
    0.52145135402679,
    0.5225664973259,
    0.48854222893715,
    0.51534879207611,
    0.51777052879333,
    0.50874626636505,
    0.50668060779572,
    0.53199660778046,
    0.50896435976028,
    0.55382257699966,
    0.53906351327896,
    0.54337108135223,
    0.56086593866348,
    0.52071803808212,
    0.5376455783844,
    0.5647794008255,
    0.48702484369278,
    0.51686888933182,
    0.52176189422607,
    0.51865863800049,
    0.53956943750381,
    0.53481096029282,
    0.50035959482193,
    0.55482119321823,
    0.55116665363312,
    0.54327142238617,
    0.52803719043732,
    0.50735908746719,
    0.54175311326981,
    0.51844990253448,
    0.52326583862305,
    0.54737049341202,
    0.5748615860939,
    0.56359875202179,
    0.48817625641823,
    0.53172659873962,
    0.54231137037277,
    0.53043651580811,
    0.54474097490311,
    0.53534597158432,
    0.52611428499222,
    0.52948039770126,
    0.47821322083473,
    0.52693068981171,
    0.54349821805954,
    0.54518073797226,
    0.52953416109085,
    0.54810762405396,
    0.5176705121994,
    0.50098830461502,
    0.49209114909172,
    0.50418490171432,
    0.50726926326752,
    0.47906854748726,
    0.5193002820015,
    0.48974737524986,
    0.47458231449127,
    0.42848524451256,
    0.48314303159714,
    0.43299359083176,
    0.48888263106346,
    0.46352022886276,
    0.50683552026749,
    0.47255897521973,
    0.51265925168991,
    0.47494715452194,
    0.4772025346756,
    0.49344176054001,
    0.47678896784782,
    0.52522778511047,
    0.51010251045227,
    0.4737845659256,
    0.48083603382111,
    0.50751858949661,
    0.49486318230629,
    0.48194867372513,
    0.48805311322212,
    0.5250216126442,
    0.51424551010132,
    0.49375155568123,
    0.52889746427536,
    0.50952613353729,
    0.53266441822052,
    0.5402290225029,
    0.57448726892471,
    0.50842517614365,
    0.53850102424622,
    0.52782171964645,
    0.54523479938507,
    0.53249341249466,
    0.52161222696304,
    0.54522311687469,
    0.59490239620209,
    0.56009894609451,
    0.55316174030304,
    0.54200768470764,
    0.56243842840195,
    0.51741164922714,
    0.55244040489197,
    0.58666276931763,
    0.52967482805252,
    0.56142818927765,
    0.53373974561691,
    0.55408728122711,
    0.54650640487671,
    0.53354328870773,
    0.5051583647728,
    0.52866584062576,
    0.51965236663818,
    0.57440602779388,
    0.54244089126587,
    0.55290520191193,
    0.57502388954163,
    0.55118668079376,
    0.52578586339951,
    0.47314515709877,
    0.50069069862366,
    0.51625084877014,
    0.51486730575562,
    0.49957472085953,
    0.52208817005157,
    0.49629798531532,
    0.49781474471092,
    0.53834414482117,
    0.48054388165474,
    0.57573342323303,
    0.5432471036911,
    0.51412177085876,
    0.51190251111984,
    0.51286590099335,
    0.50535714626312,
    0.53831344842911,
    0.58996897935867,
    0.54547989368439,
    0.56598365306854,
    0.57744377851486,
    0.60685753822327,
    0.58806467056274,
    0.55352902412415,
    0.5402724146843,
    0.5247660279274,
    0.55352926254272,
    0.57317161560059,
    0.56195741891861,
    0.57223284244537,
    0.55702883005142,
    0.57474774122238,
    0.53532600402832,
    0.56877684593201,
    0.60119730234146,
    0.58685165643692,
    0.5652146935463,
    0.52629512548447,
    0.50523275136948,
    0.5169443488121,
    0.53245484828949,
    0.53218215703964,
    0.46006479859352,
    0.50097906589508,
    0.47440326213837,
    0.51990854740143,
    0.54740637540817,
    0.52984267473221,
    0.53393280506134,
    0.51477825641632,
    0.55150401592255,
    0.54582834243774,
    0.52717697620392,
    0.55487638711929,
    0.55379372835159,
    0.52075481414795,
    0.57551169395447,
    0.53851288557053,
    0.55730080604553,
    0.53015714883804,
    0.5823415517807,
    0.53059685230255,
    0.51693141460419,
    0.51430475711823,
    0.44580933451653,
    0.50151360034943,
    0.81041955947876,
    1.2026073932648,
    0.62126111984253,
    0.57175874710083,
    0.56435412168503,
    0.58048784732819,
    0.55826526880264,
    0.56327736377716,
    0.54040896892548,
    0.5823700428009,
    0.63640093803406,
    0.56140744686127,
    0.56882458925247,
    0.58311593532562,
    0.56913393735886,
    0.58015686273575,
    0.55281013250351,
    0.5541587471962,
    0.5203920006752,
    0.52875697612762,
    0.60567599534988,
    0.56915307044983,
    0.58693128824234,
    0.57850003242493,
    0.5879340171814,
    0.53753715753555,
    0.53198838233948,
    0.53779178857803,
    0.50579339265823,
    0.51525408029556,
    0.56356310844421,
    0.55270421504974,
    0.51392501592636,
    0.50841945409775,
    0.54492765665054,
    0.51185768842697,
    0.52706652879715,
    0.52674597501755,
    0.54440075159073,
    0.55207920074463,
    0.52521377801895,
    0.53037059307098,
    0.51391661167145,
    0.54209238290787,
    0.53621649742126,
    0.5661513209343,
    0.56684994697571,
    0.58237081766129,
    0.60059922933578,
    0.55473381280899,
    0.58874607086182,
    0.55505102872849,
    0.58514726161957,
    0.56880104541779,
    0.52654272317886,
    0.54684454202652,
    0.53541922569275,
    0.53516697883606,
    0.50891864299774,
    0.5116041302681,
    0.52595895528793,
    0.53717052936554,
    0.52400767803192,
    0.53273302316666,
    0.48346152901649,
    0.51794546842575,
    0.54548853635788,
    0.51612710952759,
    0.50652873516083,
    0.52357453107834,
    0.51160603761673,
    0.52256619930267,
    0.49937105178833,
    0.47371083498001,
    0.47976532578468,
    0.49234676361084,
    0.4703973531723,
    0.48298692703247,
    0.4811207652092,
    0.48352342844009,
    0.4723327755928,
    0.50061100721359,
    0.51348847150803,
    0.49852749705315,
    0.52338641881943,
    0.5349994301796,
    0.51786607503891,
    0.48159423470497,
    0.46387705206871,
    0.50901424884796,
    0.53780728578568,
    0.55036121606827,
    0.50565493106842,
    0.53178954124451,
    0.53744977712631,
    0.53542637825012,
    0.50058448314667,
    0.52651196718216,
    0.47027999162674,
    0.45301973819733,
    0.48101422190666,
    0.47587904334068,
    0.48284339904785,
    0.49020513892174,
    0.46848505735397,
    0.46821278333664,
    0.48249101638794,
    0.44518035650253,
    0.49486136436462,
    0.52048051357269,
    0.50708359479904,
    0.50388580560684,
    0.5019651055336,
    0.47860953211784,
    0.46914726495743,
    0.48214229941368,
    0.45434248447418,
    0.4906170964241,
    0.49236768484116,
    0.50777941942215,
    0.46553167700768,
    0.49330601096153,
    0.50620436668396,
    0.49722757935524,
    0.49018061161041,
    0.49183794856071,
    0.524074614048,
    0.48153954744339,
    0.49989458918571,
    0.47449707984924,
    0.49740958213806,
    0.45218750834465,
    0.47269397974014,
    0.50159919261932,
    0.4778488278389,
    0.50621449947357,
    0.49307799339294,
    0.55749517679214,
    0.53862589597702,
    0.51414084434509,
    0.48445332050323,
    0.44497266411781,
    0.46056151390076,
    0.5169021487236,
    0.53109842538834,
    0.53694045543671,
    0.52461117506027,
    0.59404587745667,
    0.5150009393692,
    0.51744627952576,
    0.53238868713379,
    0.53341203927994,
    0.5406636595726,
    0.5267950296402,
    0.52507227659225,
    0.53133654594421,
    0.52744460105896,
    0.5430606007576,
    0.54742002487183,
    0.54224306344986,
    0.52556604146957,
    0.5361316204071,
    0.55231666564941,
    0.49592232704163,
    0.53496462106705,
    0.55658376216888,
    0.54776871204376,
    0.57017409801483,
    0.51793783903122,
    0.53321576118469,
    0.53760302066803,
    0.54242670536041,
    0.5121368765831,
    0.53389543294907,
    0.53299123048782,
    0.53366899490356,
    0.5480574965477,
    0.53670638799667,
    0.52265471220016,
    0.46241250634193,
    0.47209483385086,
    0.45832613110542,
    0.48447602987289,
    0.54048639535904,
    0.52782583236694,
    0.55932146310806,
    0.56994783878326,
    0.53226816654205,
    0.56342375278473,
    0.55507570505142,
    0.54948073625565,
    0.5576229095459,
    0.55291205644608,
    0.54320466518402,
    0.53374034166336,
    0.52575671672821,
    0.48823550343513,
    0.52222943305969,
    0.55370819568634,
    0.56325495243073,
    0.53271943330765,
    0.5320862531662,
    0.55446350574493,
    0.55205911397934,
    0.54892140626907,
    0.57299000024796,
    0.52960968017578,
    0.56786358356476,
    0.57171535491943,
    0.58189302682877,
    0.59527844190598,
    0.55629003047943,
    0.54977786540985,
    0.55753219127655,
    0.53785353899002,
    0.54074919223785,
    0.52109158039093,
    0.54871314764023,
    0.49924769997597,
    0.5036284327507,
    0.47853320837021,
    0.53386628627777,
    0.54467111825943,
    0.57763522863388,
    0.53210818767548,
    0.57102501392365,
    0.6052194237709,
    0.57261872291565,
    0.56227844953537,
    0.52729898691177,
    0.52814775705338,
    0.50350075960159,
    0.55506032705307,
    0.52364671230316,
    0.4870431125164,
    0.50190460681915,
    0.50388842821121,
    0.50762391090393,
    0.4975468814373,
    0.51644665002823,
    0.54818493127823,
    0.50474005937576,
    0.50851213932037,
    0.5298507809639,
    0.51253908872604,
    0.49303579330444,
    0.50739246606827,
    0.53035163879395,
    0.51064717769623,
    0.55254381895065,
    0.51983332633972,
    0.57598567008972,
    0.57474285364151,
    0.58727216720581,
    0.51955628395081,
    0.54878383874893,
    0.55283039808273,
    0.54790109395981,
    0.5301479101181,
    0.57035338878632,
    0.54821521043777,
    0.5616746544838,
    0.53940910100937,
    0.52653950452805,
    0.51433503627777,
    0.56007379293442,
    0.54680329561234,
    0.56170278787613,
    0.55831056833267,
    0.53534430265427,
    0.51234894990921,
    0.53010553121567,
    0.56322681903839,
    0.55957424640656,
    0.54508888721466,
    0.52983635663986,
    0.50893181562424,
    0.5187583565712,
    0.55686920881271,
    0.54135018587112,
    0.53298777341843,
    0.50764548778534,
    0.48215416073799,
    0.46701776981354,
    0.46788701415062,
    0.48887020349503,
    0.49963515996933,
    0.50675767660141,
    0.47820943593979,
    0.49241480231285,
    0.49786201119423,
    0.46244817972183,
    0.48833066225052,
    0.49532845616341,
    0.4847452044487,
    0.47686287760735,
    0.49926966428757,
    0.48020052909851,
    0.52352333068848,
    0.50534337759018,
    0.5206732749939,
    0.53729045391083,
    0.49564579129219,
    0.50980722904205,
    0.53714138269424,
    0.46092933416367,
    0.48675742745399,
    0.49227002263069,
    0.49135848879814,
    0.51082164049149,
    0.5098083615303,
    0.47201177477837,
    0.52344816923141,
    0.52029299736023,
    0.51191294193268,
    0.49711284041405,
    0.4798866212368,
    0.51201617717743,
    0.48883953690529,
    0.49590936303139,
    0.52036982774734,
    0.54013884067535,
    0.53679591417313,
    0.46595752239227,
    0.50370562076569,
    0.50975394248962,
    0.49906367063522,
    0.51151472330093,
    0.5054150223732,
    0.50049138069153,
    0.49870428442955,
    0.44960758090019,
    0.50288909673691,
    0.51548904180527,
    0.52287119626999,
    0.50651848316193,
    0.52552282810211,
    0.49467676877975,
    0.47730684280396,
    0.46617549657822,
    0.48139083385468,
    0.48449164628983,
    0.44966471195221,
    0.49115639925003,
    0.46384301781654,
    0.44688150286674,
    0.40391680598259,
    0.45907032489777,
    0.4088576734066,
    0.46425831317902,
    0.43714472651482,
    0.47719410061836,
    0.44187465310097,
    0.4852155148983,
    0.45105248689651,
    0.453204870224,
    0.46513906121254,
    0.44755059480667,
    0.49954521656036,
    0.48451441526413,
    0.45143055915833,
    0.45548236370087,
    0.4792899787426,
    0.47045093774796,
    0.45826244354248,
    0.46021890640259,
    0.50075477361679,
    0.49049478769302,
    0.46572816371918,
    0.50154227018356,
    0.48228865861893,
    0.50933390855789,
    0.52078640460968,
    0.54707735776901,
    0.48393428325653,
    0.50800031423569,
    0.50043469667435,
    0.52227914333344,
    0.50483804941177,
    0.49523320794106,
    0.5241277217865,
    0.57014781236649,
    0.53231167793274,
    0.52988708019257,
    0.51484525203705,
    0.5412717461586,
    0.49322655797005,
    0.52889055013657,
    0.56121653318405,
    0.5032331943512,
    0.53926235437393,
    0.51041519641876,
    0.53124231100082,
    0.52381330728531,
    0.51241606473923,
    0.48691484332085,
    0.50391280651093,
    0.49797138571739,
    0.54823589324951,
    0.51532453298569,
    0.52918004989624,
    0.55193537473679,
    0.52662062644958,
    0.50719428062439,
    0.45211300253868,
    0.48125869035721,
    0.49457564949989,
    0.48779267072678,
    0.47358423471451,
    0.49893847107887,
    0.46948769688606,
    0.47407665848732,
    0.50971364974976,
    0.4565557539463,
    0.55207693576813,
    0.51565158367157,
    0.48903223872185,
    0.48408448696136,
    0.48724913597107,
    0.47890463471413,
    0.51348346471786,
    0.56182509660721,
    0.51885461807251,
    0.5464391708374,
    0.5546749830246,
    0.58200764656067,
    0.57018554210663,
    0.53122448921204,
    0.51749747991562,
    0.50015473365784,
    0.52771031856537,
    0.54598826169968,
    0.53578364849091,
    0.54760044813156,
    0.5319407582283,
    0.54663318395615,
    0.51250261068344,
    0.54339838027954,
    0.57885181903839,
    0.56272345781326,
    0.53568601608276,
    0.5026153922081,
    0.48312652111053,
    0.49672535061836,
    0.51443201303482,
    0.51312702894211,
    0.43704053759575,
    0.47625994682312,
    0.4494614303112,
    0.49277237057686,
    0.52376228570938,
    0.50862848758698,
    0.5060550570488,
    0.48532646894455,
    0.52590411901474,
    0.5202596783638,
    0.49870303273201,
    0.53110462427139,
    0.52432137727737,
    0.49004119634628,
    0.53940200805664,
    0.50608646869659,
    0.52723723649979,
    0.50174856185913,
    0.55185776948929,
    0.50415122509003,
    0.48932445049286,
    0.48640096187592,
    0.41928768157959,
    0.47189646959305,
    0.79175961017609,
    1.1916302442551,
    0.59769004583359,
    0.5477774143219,
    0.54142761230469,
    0.55475372076035,
    0.53497290611267,
    0.5365971326828,
    0.51427030563354,
    0.55131351947784,
    0.59733933210373,
    0.53025823831558,
    0.54023498296738,
    0.55382800102234,
    0.5459116101265,
    0.55113005638123,
    0.52584236860275,
    0.52210158109665,
    0.49367886781693,
    0.50139755010605,
    0.57517051696777,
    0.53725928068161,
    0.55098307132721,
    0.55312448740005,
    0.5572138428688,
    0.51512318849564,
    0.50814783573151,
    0.50835198163986,
    0.47856503725052,
    0.49072381854057,
    0.54003554582596,
    0.5268822312355,
    0.48914062976837,
    0.48787203431129,
    0.51783698797226,
    0.48604798316956,
    0.50162649154663,
    0.50115060806274,
    0.51905411481857,
    0.53059089183807,
    0.49826142191887,
    0.50214606523514,
    0.49342826008797,
    0.51965248584747,
    0.508524954319,
    0.53326618671417,
    0.53789162635803,
    0.5535044670105,
    0.57535344362259,
    0.52791982889175,
    0.56000232696533,
    0.52939116954803,
    0.55877637863159,
    0.54357385635376,
    0.50414872169495,
    0.51992917060852,
    0.51126497983932,
    0.50977891683578,
    0.48213931918144,
    0.48559525609016,
    0.49742361903191,
    0.50937110185623,
    0.49840155243874,
    0.50755351781845,
    0.4538865685463,
    0.48897191882133,
    0.51423293352127,
    0.4921669960022,
    0.48517456650734,
    0.4937596321106,
    0.48199090361595,
    0.48517000675201,
    0.47096112370491,
    0.44651302695274,
    0.45428061485291,
    0.46247148513794,
    0.45039564371109,
    0.45520678162575,
    0.45553284883499,
    0.45518893003464,
    0.45415687561035,
    0.47916412353516,
    0.48790180683136,
    0.47507002949715,
    0.49824464321136,
    0.50622063875198,
    0.49060454964638,
    0.45387294888496,
    0.44193768501282,
    0.48241147398949,
    0.50975954532623,
    0.52541828155518,
    0.48206576704979,
    0.50878298282623,
    0.51443558931351,
    0.5074075460434,
    0.47609913349152,
    0.50132870674133,
    0.44982826709747,
    0.42939454317093,
    0.45863384008408,
    0.45483061671257,
    0.46028417348862,
    0.46243306994438,
    0.4445498585701,
    0.44352352619171,
    0.46113866567612,
    0.42296117544174,
    0.46913301944733,
    0.49628022313118,
    0.48170131444931,
    0.47780308127403,
    0.47156915068626,
    0.4515438079834,
    0.44002476334572,
    0.45673584938049,
    0.42362740635872,
    0.46542012691498,
    0.4623196721077,
    0.48154711723328,
    0.43902397155762,
    0.46419471502304,
    0.476716786623,
    0.46926900744438,
    0.46624878048897,
    0.46855434775352,
    0.49544820189476,
    0.45353639125824,
    0.47223448753357,
    0.45164310932159,
    0.47546270489693,
    0.42889320850372,
    0.4498143196106,
    0.4808207154274,
    0.45828056335449,
    0.47547310590744,
    0.46739068627357,
    0.52351838350296,
    0.51110053062439,
    0.49108934402466,
    0.45383530855179,
    0.41887947916985,
    0.43318393826485,
    0.48713353276253,
    0.50418430566788,
    0.50531405210495,
    0.50272554159164,
    0.56904232501984,
    0.49275210499763,
    0.49096065759659,
    0.51462751626968,
    0.50904601812363,
    0.51751166582108,
    0.50310844182968,
    0.50786530971527,
    0.50554925203323,
    0.49606001377106,
    0.51675403118134,
    0.52672201395035,
    0.51501023769379,
    0.50317060947418,
    0.51437699794769,
    0.5194239616394,
    0.47008442878723,
    0.50965392589569,
    0.52909123897552,
    0.52367848157883,
    0.54673403501511,
    0.49376302957535,
    0.51052457094193,
    0.51387107372284,
    0.52040064334869,
    0.49125164747238,
    0.51123034954071,
    0.51385062932968,
    0.50987082719803,
    0.52620232105255,
    0.51473832130432,
    0.50161665678024,
    0.43923565745354,
    0.45264360308647
  ],
  "memory_usage": {}
}