{
  "i": 2000,
  "val_loss_history": [
    1.0346916492643,
    0.97022425100721
  ],
  "val_loss_history_it": [
    1000,
    2000
  ],
  "forward_backward_times": {},
  "opt": {
    "max_epochs": 50,
    "checkpoint_every": 1000,
    "batch_size": 50,
    "memory_benchmark": 0,
    "init_from": "",
    "grad_clip": 5,
    "model_type": "lstm",
    "lr_decay_every": 5,
    "print_every": 1,
    "wordvec_size": 64,
    "seq_length": 50,
    "input_json": "data\/input.json",
    "num_layers": 3,
    "input_h5": "data\/input.h5",
    "reset_iterations": 1,
    "rnn_size": 128,
    "dropout": 0,
    "checkpoint_name": "cv\/checkpoint",
    "batchnorm": 0,
    "learning_rate": 0.002,
    "speed_benchmark": 0,
    "gpu_backend": "cuda",
    "lr_decay_factor": 0.5,
    "gpu": -1
  },
  "train_loss_history": [
    3.6767129898071,
    3.5704820156097,
    3.4333391189575,
    3.2723343372345,
    3.158262014389,
    3.0753681659698,
    3.0129606723785,
    2.9658510684967,
    2.9815697669983,
    2.8920676708221,
    2.8689293861389,
    2.8526103496552,
    2.8571524620056,
    2.8157773017883,
    2.8299922943115,
    2.8567991256714,
    2.8495717048645,
    2.8059895038605,
    2.7674906253815,
    2.8183414936066,
    2.7546889781952,
    2.7763595581055,
    2.765969991684,
    2.7314100265503,
    2.7193334102631,
    2.7355544567108,
    2.7359726428986,
    2.7129807472229,
    2.7225444316864,
    2.7537653446198,
    2.7374446392059,
    2.7039685249329,
    2.664571762085,
    2.6757926940918,
    2.6785662174225,
    2.6778373718262,
    2.6534080505371,
    2.6779692173004,
    2.6981358528137,
    2.6643254756927,
    2.6432580947876,
    2.6676170825958,
    2.6713218688965,
    2.6864516735077,
    2.6878395080566,
    2.7080698013306,
    2.7392435073853,
    2.7150819301605,
    2.6933500766754,
    2.695121049881,
    2.715532541275,
    2.6886348724365,
    2.6624851226807,
    2.6391563415527,
    2.670419216156,
    2.6762340068817,
    2.6026816368103,
    2.5658962726593,
    2.5924060344696,
    2.5831983089447,
    2.6134412288666,
    2.5462062358856,
    2.5819158554077,
    2.5404295921326,
    2.5255568027496,
    2.5579624176025,
    2.4892358779907,
    2.4522786140442,
    2.4850838184357,
    2.5039567947388,
    2.5345735549927,
    2.4968452453613,
    2.4104082584381,
    2.4057056903839,
    2.3548276424408,
    2.3495242595673,
    2.3416872024536,
    2.262274980545,
    2.2733693122864,
    2.2390198707581,
    2.2470016479492,
    2.1399118900299,
    2.1494264602661,
    2.1360440254211,
    2.1219282150269,
    2.1080708503723,
    2.0362639427185,
    1.9792009592056,
    2.037017583847,
    1.9878002405167,
    1.966591835022,
    1.9159556627274,
    1.9219230413437,
    1.9152089357376,
    1.9076610803604,
    1.8425599336624,
    1.8562474250793,
    1.7793097496033,
    1.7722097635269,
    1.7325879335403,
    1.7940171957016,
    1.8027995824814,
    1.7126865386963,
    1.672966837883,
    1.615953207016,
    1.6663004159927,
    1.5230994224548,
    1.5677574872971,
    1.6299829483032,
    1.5711073875427,
    1.5751912593842,
    1.6104643344879,
    1.5210438966751,
    1.5206857919693,
    1.5219610929489,
    1.4626412391663,
    1.4812159538269,
    1.5162196159363,
    1.4792617559433,
    1.4983930587769,
    1.5276017189026,
    1.5132827758789,
    1.4963300228119,
    1.5036405324936,
    1.4736284017563,
    1.5613470077515,
    1.4418860673904,
    1.4120880365372,
    1.367525935173,
    1.4190746545792,
    1.3631881475449,
    1.4099580049515,
    1.380063533783,
    1.4151767492294,
    1.4550875425339,
    1.3995693922043,
    1.4595303535461,
    1.4303855895996,
    1.3611793518066,
    1.3460772037506,
    1.2998323440552,
    1.2896661758423,
    1.4045485258102,
    1.3780379295349,
    1.4244747161865,
    1.3934885263443,
    1.3664929866791,
    1.3529201745987,
    1.3366545438766,
    1.3353868722916,
    1.3155709505081,
    1.3382894992828,
    1.3471252918243,
    1.3705613613129,
    1.3102633953094,
    1.2823649644852,
    1.3457390069962,
    1.315817117691,
    1.3694440126419,
    1.3072884082794,
    1.3208560943604,
    1.3461023569107,
    1.295827627182,
    1.3413616418839,
    1.3164739608765,
    1.3196039199829,
    1.2979142665863,
    1.2338091135025,
    1.2402439117432,
    1.2559739351273,
    1.2916169166565,
    1.2170658111572,
    1.2512775659561,
    1.2110965251923,
    1.2375988960266,
    1.2317540645599,
    1.2371252775192,
    1.1934901475906,
    1.1394537687302,
    1.179699420929,
    1.1351320743561,
    1.1997607946396,
    1.2619751691818,
    1.2446928024292,
    1.2807269096375,
    1.2658644914627,
    1.2359390258789,
    1.280410528183,
    1.3222465515137,
    1.2756671905518,
    1.2241634130478,
    1.2579894065857,
    1.2706036567688,
    1.2114624977112,
    1.188046336174,
    1.1617666482925,
    1.1806886196136,
    1.2338168621063,
    1.2489156723022,
    1.2157020568848,
    1.2100523710251,
    1.165107011795,
    1.1959145069122,
    1.2714817523956,
    1.297492146492,
    1.2589184045792,
    1.2815579175949,
    1.2502098083496,
    1.2750327587128,
    1.2830539941788,
    1.2866297960281,
    1.230979681015,
    1.2140336036682,
    1.185244679451,
    1.1826120615005,
    1.1620979309082,
    1.1958278417587,
    1.175600528717,
    1.1348439455032,
    1.1226981878281,
    1.1394739151001,
    1.1255288124084,
    1.172701716423,
    1.1649562120438,
    1.2143810987473,
    1.2282214164734,
    1.1824235916138,
    1.1533231735229,
    1.138746380806,
    1.1060421466827,
    1.0737751722336,
    1.1573295593262,
    1.1098304986954,
    1.0600745677948,
    1.0769245624542,
    1.0999132394791,
    1.1218430995941,
    1.1039471626282,
    1.1170799732208,
    1.1421601772308,
    1.1496673822403,
    1.0898441076279,
    1.1193187236786,
    1.0979529619217,
    1.0931161642075,
    1.0577268600464,
    1.0739809274673,
    1.0697274208069,
    1.1233812570572,
    1.068029999733,
    1.138247013092,
    1.1488980054855,
    1.1659580469131,
    1.087792634964,
    1.1186573505402,
    1.1401737928391,
    1.1195480823517,
    1.0861732959747,
    1.1172629594803,
    1.1295243501663,
    1.149934053421,
    1.1319323778152,
    1.1502069234848,
    1.1772652864456,
    1.190669298172,
    1.1673640012741,
    1.1700121164322,
    1.1459277868271,
    1.0880392789841,
    1.0885751247406,
    1.130172252655,
    1.1420584917068,
    1.119234919548,
    1.1013098955154,
    1.0613938570023,
    1.0657485723495,
    1.0734533071518,
    1.1325953006744,
    1.0970585346222,
    1.0686106681824,
    1.0157920122147,
    1.0742756128311,
    1.0412217378616,
    1.0308932065964,
    1.0305259227753,
    1.0671284198761,
    1.0602042675018,
    1.0330337285995,
    1.033486366272,
    1.0205397605896,
    1.0445119142532,
    1.0608587265015,
    1.0533944368362,
    1.0404020547867,
    1.0343848466873,
    1.0455237627029,
    1.0083495378494,
    1.0804096460342,
    1.0765428543091,
    1.0192677974701,
    1.0416368246078,
    1.0159538984299,
    1.027957201004,
    1.0636545419693,
    0.9875191450119,
    1.0202804803848,
    1.0128126144409,
    1.018444776535,
    1.0416197776794,
    1.0377615690231,
    1.0261298418045,
    1.0736123323441,
    1.0527691841125,
    1.0455330610275,
    1.0280448198318,
    1.0110055208206,
    1.0204932689667,
    1.0165439844131,
    1.0113959312439,
    1.0401899814606,
    1.0393975973129,
    1.0460426807404,
    0.96611893177032,
    1.0015190839767,
    0.9828794002533,
    0.99158132076263,
    0.98562294244766,
    0.96370339393616,
    0.98547518253326,
    1.0319381952286,
    0.93082892894745,
    0.99082726240158,
    0.9768488407135,
    0.94383478164673,
    0.94811004400253,
    0.98057687282562,
    0.92721670866013,
    0.91912990808487,
    0.88363337516785,
    0.90876638889313,
    0.90413475036621,
    0.90134656429291,
    0.94449639320374,
    0.91763603687286,
    0.9011949300766,
    0.87597286701202,
    0.92468523979187,
    0.86979949474335,
    0.91017371416092,
    0.88248008489609,
    0.90290558338165,
    0.87026453018188,
    0.88201105594635,
    0.85910242795944,
    0.86844581365585,
    0.8690710067749,
    0.91422206163406,
    0.93836337327957,
    0.93282961845398,
    0.87895458936691,
    0.88100284337997,
    0.92760813236237,
    0.91385251283646,
    0.89237922430038,
    0.89545583724976,
    0.94868147373199,
    0.92866456508636,
    0.92077666521072,
    0.95552551746368,
    0.90356063842773,
    0.91744989156723,
    0.9354659318924,
    1.0019760131836,
    0.92772489786148,
    0.95101964473724,
    0.94034522771835,
    0.96970641613007,
    0.98105549812317,
    0.97266757488251,
    0.97485440969467,
    1.03875207901,
    1.0126091241837,
    0.98432803153992,
    0.95037287473679,
    0.97984558343887,
    0.93495243787766,
    0.9619979262352,
    0.98780488967896,
    0.92962491512299,
    0.97380119562149,
    0.9196560382843,
    0.92436563968658,
    0.92390549182892,
    0.94652599096298,
    0.89413738250732,
    0.89681971073151,
    0.89747393131256,
    0.99136084318161,
    0.98008996248245,
    0.91355401277542,
    0.95228183269501,
    0.9337385892868,
    0.88076865673065,
    0.85581630468369,
    0.88594609498978,
    0.92190146446228,
    0.89301466941833,
    0.865114569664,
    0.88686043024063,
    0.87286651134491,
    0.86876171827316,
    0.88002216815948,
    0.84433966875076,
    0.95655202865601,
    0.9447106719017,
    0.88579940795898,
    0.92883545160294,
    0.89303231239319,
    0.88779783248901,
    0.89233046770096,
    0.95009881258011,
    0.94261640310287,
    0.97005712985992,
    0.99334073066711,
    0.9959409236908,
    0.97932511568069,
    0.91916328668594,
    0.9247944355011,
    0.91927522420883,
    0.95209413766861,
    0.92629355192184,
    0.9647501707077,
    0.94855642318726,
    0.92291623353958,
    0.95960235595703,
    0.91522282361984,
    0.89100480079651,
    0.93396884202957,
    0.94720274209976,
    0.94996923208237,
    0.91345381736755,
    0.88781356811523,
    0.89175683259964,
    0.89035683870316,
    0.91195195913315,
    0.80713778734207,
    0.86521738767624,
    0.84653425216675,
    0.87163758277893,
    0.87734186649323,
    0.87711435556412,
    0.91575634479523,
    0.88773947954178,
    0.91878134012222,
    0.93449890613556,
    0.87746727466583,
    0.94419723749161,
    0.91930401325226,
    0.83436679840088,
    0.89562547206879,
    0.83256852626801,
    0.87074989080429,
    0.85252344608307,
    0.88891112804413,
    0.83655887842178,
    0.79926139116287,
    0.8402470946312,
    0.76913958787918,
    0.79197388887405,
    1.083061337471,
    1.4450081586838,
    0.94882214069366,
    0.93473982810974,
    0.89886647462845,
    0.9513013958931,
    0.93921995162964,
    0.93690627813339,
    0.88861560821533,
    0.93768537044525,
    0.96885007619858,
    0.90959024429321,
    0.91541594266891,
    0.88235175609589,
    0.87967264652252,
    0.91663712263107,
    0.90437811613083,
    0.89990955591202,
    0.85421794652939,
    0.8546090722084,
    0.95455187559128,
    0.87882304191589,
    0.92841017246246,
    0.93268954753876,
    0.91924571990967,
    0.86895656585693,
    0.8588320016861,
    0.87094169855118,
    0.84316086769104,
    0.8496390581131,
    0.88640213012695,
    0.8882155418396,
    0.84651982784271,
    0.8257297873497,
    0.8511871099472,
    0.80343371629715,
    0.85036998987198,
    0.83291667699814,
    0.84957754611969,
    0.86397057771683,
    0.84146565198898,
    0.83907127380371,
    0.82558614015579,
    0.84560412168503,
    0.83050632476807,
    0.8817076086998,
    0.8977809548378,
    0.93835574388504,
    0.94200587272644,
    0.86494463682175,
    0.90634733438492,
    0.85486173629761,
    0.89150547981262,
    0.86602813005447,
    0.83910489082336,
    0.83765196800232,
    0.84122782945633,
    0.82353818416595,
    0.79210543632507,
    0.81591629981995,
    0.81437784433365,
    0.82051622867584,
    0.79639136791229,
    0.81719475984573,
    0.77467203140259,
    0.84696406126022,
    0.86061435937881,
    0.82540154457092,
    0.8050622344017,
    0.84151071310043,
    0.82395732402802,
    0.86460947990417,
    0.87122011184692,
    0.77884864807129,
    0.83066648244858,
    0.82969802618027,
    0.80235642194748,
    0.82109570503235,
    0.80041772127151,
    0.80560237169266,
    0.76689881086349,
    0.80949473381042,
    0.80054551362991,
    0.78304839134216,
    0.83724540472031,
    0.84094482660294,
    0.81003993749619,
    0.75569063425064,
    0.74043309688568,
    0.78353518247604,
    0.84684884548187,
    0.83702117204666,
    0.79262012243271,
    0.83772683143616,
    0.83819025754929,
    0.81662195920944,
    0.79606848955154,
    0.80739188194275,
    0.78129076957703,
    0.7481095790863,
    0.77658182382584,
    0.78318512439728,
    0.81418162584305,
    0.80205774307251,
    0.78466999530792,
    0.77367162704468,
    0.80845075845718,
    0.71862351894379,
    0.7531830072403,
    0.80368363857269,
    0.7690207362175,
    0.79946732521057,
    0.80806684494019,
    0.75234925746918,
    0.7436900138855,
    0.75884687900543,
    0.73622351884842,
    0.7654185295105,
    0.81349587440491,
    0.79222786426544,
    0.74805480241776,
    0.77437019348145,
    0.79109460115433,
    0.78328561782837,
    0.78528088331223,
    0.78208523988724,
    0.83745867013931,
    0.76986783742905,
    0.78117287158966,
    0.72552263736725,
    0.79741579294205,
    0.72587990760803,
    0.77345621585846,
    0.77198195457458,
    0.76657253503799,
    0.81436800956726,
    0.7779369354248,
    0.84259277582169,
    0.81527423858643,
    0.7900505065918,
    0.8002205491066,
    0.74087297916412,
    0.7485123872757,
    0.80863386392593,
    0.81961560249329,
    0.8200609087944,
    0.82095575332642,
    0.82575315237045,
    0.8133887052536,
    0.81198567152023,
    0.79719489812851,
    0.80305051803589,
    0.79901838302612,
    0.78996104001999,
    0.79617935419083,
    0.78789281845093,
    0.78350710868835,
    0.78455770015717,
    0.80604243278503,
    0.84209734201431,
    0.77796852588654,
    0.80920022726059,
    0.81661981344223,
    0.77418118715286,
    0.81756067276001,
    0.8064438700676,
    0.79793983697891,
    0.80885452032089,
    0.75952672958374,
    0.77311456203461,
    0.79030990600586,
    0.78944855928421,
    0.74633347988129,
    0.7848442196846,
    0.75583064556122,
    0.78887963294983,
    0.79162085056305,
    0.79334408044815,
    0.77338469028473,
    0.70223623514175,
    0.72701585292816,
    0.69128406047821,
    0.77041667699814,
    0.80793273448944,
    0.79234933853149,
    0.82544738054276,
    0.81970995664597,
    0.81112587451935,
    0.83697521686554,
    0.852459192276,
    0.83220684528351,
    0.83083057403564,
    0.83823561668396,
    0.83564990758896,
    0.79913890361786,
    0.78906124830246,
    0.74087601900101,
    0.78039640188217,
    0.80897265672684,
    0.82207441329956,
    0.80085021257401,
    0.77680891752243,
    0.7890077829361,
    0.80852317810059,
    0.83625036478043,
    0.86517345905304,
    0.82844132184982,
    0.84829396009445,
    0.81767678260803,
    0.84645193815231,
    0.88202899694443,
    0.84725242853165,
    0.82747930288315,
    0.81251972913742,
    0.78933084011078,
    0.79371285438538,
    0.76232641935349,
    0.82117009162903,
    0.75619924068451,
    0.76912665367126,
    0.74784219264984,
    0.77650183439255,
    0.77961891889572,
    0.81610405445099,
    0.79147529602051,
    0.83267307281494,
    0.87623053789139,
    0.79144549369812,
    0.79102897644043,
    0.77811199426651,
    0.76141619682312,
    0.75254619121552,
    0.80928069353104,
    0.79045915603638,
    0.74410891532898,
    0.75452071428299,
    0.76682883501053,
    0.7842333316803,
    0.76741200685501,
    0.79129326343536,
    0.81460243463516,
    0.79535365104675,
    0.75298994779587,
    0.77560490369797,
    0.76561802625656,
    0.74687427282333,
    0.72099906206131,
    0.75543129444122,
    0.7469357252121,
    0.77955508232117,
    0.75570154190063,
    0.81351053714752,
    0.82700431346893,
    0.82280266284943,
    0.75361412763596,
    0.77824771404266,
    0.78712248802185,
    0.8005199432373,
    0.77347433567047,
    0.79405361413956,
    0.80459213256836,
    0.83001220226288,
    0.83769744634628,
    0.79851198196411,
    0.79797041416168,
    0.83422178030014,
    0.83476120233536,
    0.85061746835709,
    0.82561755180359,
    0.78168034553528,
    0.77636754512787,
    0.79026341438293,
    0.81984609365463,
    0.81077998876572,
    0.79033780097961,
    0.77486330270767,
    0.76061105728149,
    0.768041908741,
    0.82395905256271,
    0.79392170906067,
    0.80219334363937,
    0.74957537651062,
    0.76553112268448,
    0.7422206401825,
    0.73572832345963,
    0.73112052679062,
    0.77143454551697,
    0.78944408893585,
    0.73991471529007,
    0.75935000181198,
    0.75175100564957,
    0.76098430156708,
    0.77090847492218,
    0.74534571170807,
    0.75438761711121,
    0.74513190984726,
    0.7655975818634,
    0.7202957868576,
    0.78158557415009,
    0.77766239643097,
    0.76211577653885,
    0.77259612083435,
    0.71832221746445,
    0.74258089065552,
    0.77312749624252,
    0.69709157943726,
    0.72727340459824,
    0.72684913873672,
    0.72687345743179,
    0.74882829189301,
    0.74399679899216,
    0.72830808162689,
    0.77638798952103,
    0.75722306966782,
    0.76623827219009,
    0.74913191795349,
    0.73039883375168,
    0.74725407361984,
    0.73781901597977,
    0.71697503328323,
    0.75972461700439,
    0.78603404760361,
    0.78775495290756,
    0.68423229455948,
    0.73125720024109,
    0.72666418552399,
    0.72071677446365,
    0.7314532995224,
    0.72863620519638,
    0.72167634963989,
    0.76122760772705,
    0.67055809497833,
    0.7091600894928,
    0.72180181741714,
    0.69751209020615,
    0.72427386045456,
    0.74895507097244,
    0.69622725248337,
    0.69424587488174,
    0.67256700992584,
    0.68867635726929,
    0.68346208333969,
    0.67447423934937,
    0.7193421125412,
    0.68750303983688,
    0.68365234136581,
    0.6335101723671,
    0.68581283092499,
    0.62665349245071,
    0.67150604724884,
    0.65286105871201,
    0.68068879842758,
    0.64860546588898,
    0.68078517913818,
    0.64279592037201,
    0.64750111103058,
    0.67263388633728,
    0.67653447389603,
    0.69730257987976,
    0.70313131809235,
    0.65326905250549,
    0.65376436710358,
    0.6908997297287,
    0.69400012493134,
    0.67988437414169,
    0.68533766269684,
    0.7292532324791,
    0.71941775083542,
    0.70430213212967,
    0.73835897445679,
    0.71004909276962,
    0.71520566940308,
    0.72313630580902,
    0.78076940774918,
    0.70037394762039,
    0.7492441534996,
    0.72694802284241,
    0.74955850839615,
    0.74362951517105,
    0.74424564838409,
    0.77318221330643,
    0.83307009935379,
    0.7914565205574,
    0.75744485855103,
    0.75007224082947,
    0.75115555524826,
    0.71935158967972,
    0.75361663103104,
    0.78418630361557,
    0.71878123283386,
    0.75812637805939,
    0.71874248981476,
    0.73349606990814,
    0.72183585166931,
    0.72317963838577,
    0.70009207725525,
    0.71614962816238,
    0.70456850528717,
    0.77245110273361,
    0.77025902271271,
    0.7408355474472,
    0.76109087467194,
    0.75396209955215,
    0.7105079293251,
    0.67179399728775,
    0.69779777526855,
    0.72290658950806,
    0.70526331663132,
    0.66982167959213,
    0.70125830173492,
    0.68020021915436,
    0.68334478139877,
    0.70908260345459,
    0.66579455137253,
    0.75700229406357,
    0.76072710752487,
    0.70870929956436,
    0.73002791404724,
    0.70638954639435,
    0.69138163328171,
    0.69945895671844,
    0.75513499975204,
    0.75696951150894,
    0.76649630069733,
    0.79639559984207,
    0.8048592209816,
    0.79422736167908,
    0.74648952484131,
    0.73997062444687,
    0.73456633090973,
    0.74925845861435,
    0.7502099275589,
    0.76771277189255,
    0.76713496446609,
    0.73575335741043,
    0.77181267738342,
    0.71739584207535,
    0.72088396549225,
    0.76679146289825,
    0.77083444595337,
    0.7667281627655,
    0.7207555770874,
    0.70189702510834,
    0.70469284057617,
    0.70870679616928,
    0.72455018758774,
    0.62933933734894,
    0.67028659582138,
    0.67125523090363,
    0.70293968915939,
    0.70604646205902,
    0.70584172010422,
    0.7063775062561,
    0.69740664958954,
    0.72945541143417,
    0.73898327350616,
    0.70182204246521,
    0.75212234258652,
    0.74102157354355,
    0.67034727334976,
    0.73698902130127,
    0.68810951709747,
    0.71731382608414,
    0.70421642065048,
    0.74118888378143,
    0.68642556667328,
    0.66927123069763,
    0.66747915744781,
    0.60075378417969,
    0.64708578586578,
    0.97019708156586,
    1.327228307724,
    0.77380937337875,
    0.75693988800049,
    0.73169392347336,
    0.77979022264481,
    0.77752184867859,
    0.7611255645752,
    0.72954845428467,
    0.76384001970291,
    0.8151450753212,
    0.72592216730118,
    0.73466241359711,
    0.7368643283844,
    0.73174196481705,
    0.75141710042953,
    0.71987116336823,
    0.72077435255051,
    0.70325666666031,
    0.71194237470627,
    0.79085373878479,
    0.73201495409012,
    0.75659269094467,
    0.76370638608932,
    0.76544654369354,
    0.70438396930695,
    0.70767420530319,
    0.71348166465759,
    0.68109494447708,
    0.6841344833374,
    0.72381085157394,
    0.71457839012146,
    0.69186121225357,
    0.6730552315712,
    0.70164775848389,
    0.66432577371597,
    0.69006431102753,
    0.67048645019531,
    0.70418351888657,
    0.70098513364792,
    0.69893085956573,
    0.69063055515289,
    0.68722116947174,
    0.69861149787903,
    0.6977881193161,
    0.7406245470047,
    0.7470708489418,
    0.76313990354538,
    0.77437818050385,
    0.72041410207748,
    0.75892794132233,
    0.71868491172791,
    0.75433623790741,
    0.7308474779129,
    0.68619644641876,
    0.69999879598618,
    0.69972079992294,
    0.68245482444763,
    0.65545552968979,
    0.6548587679863,
    0.68477404117584,
    0.97234392166138,
    0.66809672117233,
    0.68020057678223,
    0.62702858448029,
    0.69125598669052,
    0.71470236778259,
    0.67451936006546,
    0.67156147956848,
    0.68847244977951,
    0.6830980181694,
    0.70618343353271,
    0.70246344804764,
    0.62753731012344,
    0.64739030599594,
    0.67701101303101,
    0.64893251657486,
    0.66573518514633,
    0.65337067842484,
    0.65120244026184,
    0.62939357757568,
    0.66352719068527,
    0.65965324640274,
    0.64498120546341,
    0.68671059608459,
    0.69375950098038,
    0.66811311244965,
    0.61732661724091,
    0.59657096862793,
    0.63926762342453,
    0.69275736808777,
    0.70027190446854,
    0.65256667137146,
    0.6927769780159,
    0.69066751003265,
    0.66616588830948,
    0.64314025640488,
    0.67059689760208,
    0.61678689718246,
    0.59397780895233,
    0.62719714641571,
    0.63588154315948,
    0.65015774965286,
    0.64384216070175,
    0.64066517353058,
    0.61514037847519,
    0.6504282951355,
    0.5841925740242,
    0.63785398006439,
    0.67513847351074,
    0.64687275886536,
    0.67094475030899,
    0.67914658784866,
    0.62820154428482,
    0.63058996200562,
    0.63461291790009,
    0.61314421892166,
    0.64585971832275,
    0.67704087495804,
    0.66112607717514,
    0.60734164714813,
    0.64841115474701,
    0.65399783849716,
    0.63923811912537,
    0.64022415876389,
    0.64609080553055,
    0.6949759721756,
    0.64195120334625,
    0.653235912323,
    0.61049938201904,
    0.67185562849045,
    0.61847817897797,
    0.64446526765823,
    0.63789504766464,
    0.64099937677383,
    0.66910475492477,
    0.64068132638931,
    0.71790075302124,
    0.6933661699295,
    0.65971058607101,
    0.66333299875259,
    0.60713577270508,
    0.62784171104431,
    0.67905306816101,
    0.6921438574791,
    0.6925675868988,
    0.69920063018799,
    0.73228394985199,
    0.68557184934616,
    0.69130963087082,
    0.68323516845703,
    0.6885614991188,
    0.68629312515259,
    0.67690801620483,
    0.67525410652161,
    0.67455387115479,
    0.67965078353882,
    0.67459410429001,
    0.68834942579269,
    0.7125791311264,
    0.6573029756546,
    0.68031656742096,
    0.69292694330215,
    0.65166610479355,
    0.7060152888298,
    0.69205731153488,
    0.6963649392128,
    0.71050661802292,
    0.6589942574501,
    0.66001296043396,
    0.65794867277145,
    0.68006581068039,
    0.65092092752457,
    0.67605757713318,
    0.65389996767044,
    0.67617404460907,
    0.67592096328735,
    0.69327467679977,
    0.66511708498001,
    0.60581505298615,
    0.62644523382187,
    0.59365081787109,
    0.6506758928299,
    0.68999344110489,
    0.66725844144821,
    0.7132031917572,
    0.71120363473892,
    0.67854660749435,
    0.71655529737473,
    0.7158961892128,
    0.70363986492157,
    0.69826990365982,
    0.7066108584404,
    0.70180004835129,
    0.69317919015884,
    0.67628926038742,
    0.63057136535645,
    0.66399312019348,
    0.70047652721405,
    0.69513761997223,
    0.67574405670166,
    0.67236125469208,
    0.66623318195343,
    0.69095951318741,
    0.70795583724976,
    0.73862951993942,
    0.69919216632843,
    0.7322273850441,
    0.71231263875961,
    0.73239904642105,
    0.7618368268013,
    0.7210687994957,
    0.70165920257568,
    0.69117558002472,
    0.6828847527504,
    0.67814618349075,
    0.66080522537231,
    0.69797307252884,
    0.65241813659668,
    0.65966248512268,
    0.62447619438171,
    0.67619150876999,
    0.67019695043564,
    0.711485683918,
    0.68330436944962,
    0.71051847934723,
    0.76718020439148,
    0.6971971988678,
    0.69734370708466,
    0.66392493247986,
    0.63974744081497,
    0.64377492666245,
    0.70980107784271,
    0.6849747300148,
    0.63324064016342,
    0.6453275680542,
    0.64684224128723,
    0.65408283472061,
    0.64806437492371,
    0.66629630327225,
    0.69258320331573,
    0.66762310266495,
    0.64574438333511,
    0.67660212516785,
    0.65730690956116,
    0.64323949813843,
    0.63111621141434,
    0.66482841968536,
    0.65248340368271,
    0.67871284484863,
    0.65872597694397,
    0.72582960128784,
    0.71659499406815,
    0.71458005905151,
    0.65684938430786,
    0.69189447164536,
    0.68953400850296,
    0.69217604398727,
    0.68004924058914,
    0.69527244567871,
    0.70146423578262,
    0.7239825129509,
    0.72045397758484,
    0.68420767784119,
    0.67919081449509,
    0.7146213054657,
    0.70768028497696,
    0.72866225242615,
    0.72054815292358,
    0.67797648906708,
    0.66937464475632,
    0.69713002443314,
    0.71542423963547,
    0.70553374290466,
    0.68562167882919,
    0.68017411231995,
    0.65049576759338,
    0.64920383691788,
    0.70616638660431,
    0.68951904773712,
    0.70727252960205,
    0.6509712934494,
    0.63460999727249,
    0.61460065841675,
    0.61892020702362,
    0.62274700403214,
    0.64617645740509,
    0.67359060049057,
    0.63528269529343,
    0.65719211101532,
    0.64355725049973,
    0.62302350997925,
    0.65329855680466,
    0.64175033569336,
    0.62888097763062,
    0.63303524255753,
    0.65481752157211,
    0.61694514751434,
    0.67283666133881,
    0.66393673419952,
    0.65467059612274,
    0.67301499843597,
    0.63358879089355,
    0.64039474725723,
    0.67944890260696,
    0.58689093589783,
    0.63019406795502,
    0.62950330972672,
    0.63068234920502,
    0.64766484498978,
    0.6476765871048,
    0.62222385406494,
    0.66952234506607,
    0.66019862890244,
    0.65377390384674,
    0.63894587755203,
    0.63182258605957,
    0.65396916866302,
    0.6325495839119,
    0.62261921167374,
    0.67402148246765,
    0.69796884059906,
    0.69350725412369,
    0.61279046535492,
    0.65157634019852,
    0.64614343643188,
    0.63006472587585,
    0.65007704496384,
    0.6495373249054,
    0.64761763811111,
    0.66171461343765,
    0.59284943342209,
    0.62933415174484,
    0.64888054132462,
    0.62798881530762,
    0.63847982883453,
    0.65648078918457,
    0.62618327140808,
    0.61303317546844,
    0.59508150815964,
    0.61361503601074,
    0.60436874628067,
    0.5946951508522,
    0.63761323690414,
    0.58427804708481,
    0.58043205738068,
    0.53843599557877,
    0.58669292926788,
    0.54046320915222,
    0.58833688497543,
    0.57169777154922,
    0.60163605213165,
    0.5725023150444,
    0.59808200597763,
    0.56710106134415,
    0.57232010364532,
    0.59371262788773,
    0.5997850894928,
    0.62638837099075,
    0.61872267723083,
    0.57512652873993,
    0.57080107927322,
    0.60346776247025,
    0.59382712841034,
    0.58300334215164,
    0.59718143939972,
    0.62762945890427,
    0.63135188817978,
    0.61622840166092,
    0.64046496152878,
    0.61262369155884,
    0.62907207012177,
    0.63646149635315,
    0.68843692541122,
    0.61996454000473,
    0.6550287604332,
    0.63643014431,
    0.64881151914597,
    0.6392240524292,
    0.64507365226746,
    0.66450524330139,
    0.73006093502045,
    0.68921726942062,
    0.65963190793991,
    0.65820568799973,
    0.67055237293243,
    0.63956677913666,
    0.67525637149811,
    0.70783859491348,
    0.64150959253311,
    0.66462272405624,
    0.62698996067047,
    0.6486279964447,
    0.64961874485016,
    0.63944864273071,
    0.60786813497543,
    0.64246535301208,
    0.6284087896347,
    0.691565990448,
    0.67633992433548,
    0.65610307455063,
    0.6858834028244,
    0.67063230276108,
    0.64183366298676,
    0.58525574207306,
    0.59912365674973,
    0.63262617588043,
    0.63843762874603,
    0.60264360904694,
    0.62205547094345,
    0.60103929042816,
    0.60122179985046,
    0.63322860002518,
    0.5828452706337,
    0.68091881275177,
    0.66258829832077,
    0.62254977226257,
    0.65624666213989,
    0.62696784734726,
    0.61624360084534,
    0.62485218048096,
    0.68323689699173,
    0.65915775299072,
    0.67464005947113,
    0.70679324865341,
    0.71549612283707,
    0.71988666057587,
    0.67393928766251,
    0.66619479656219,
    0.64799618721008,
    0.66644382476807,
    0.67260855436325,
    0.68249011039734,
    0.68216794729233,
    0.65332722663879,
    0.6730329990387,
    0.63347452878952,
    0.65696752071381,
    0.70041692256927,
    0.68972331285477,
    0.68286830186844,
    0.61608332395554,
    0.61364990472794,
    0.61785930395126,
    0.62229299545288,
    0.64219290018082,
    0.56254988908768,
    0.60847771167755,
    0.58917915821075,
    0.62534642219543,
    0.63216471672058,
    0.61754202842712,
    0.62912583351135,
    0.61726635694504,
    0.65275627374649,
    0.65070027112961,
    0.6255367398262,
    0.66239714622498,
    0.66223514080048,
    0.60500419139862,
    0.66512477397919,
    0.61966496706009,
    0.63761413097382,
    0.62001794576645,
    0.66764271259308,
    0.61676418781281,
    0.60382574796677,
    0.5969831943512,
    0.53193879127502,
    0.57315194606781,
    0.89035838842392,
    1.2909326553345,
    0.70701205730438,
    0.67710798978806,
    0.65477973222733,
    0.68236523866653,
    0.67817854881287,
    0.67079728841782,
    0.64478385448456,
    0.68545460700989,
    0.73352861404419,
    0.64238786697388,
    0.6507054567337,
    0.66967910528183,
    0.65686160326004,
    0.68247920274734,
    0.64596366882324,
    0.65010571479797,
    0.61916249990463,
    0.6365088224411,
    0.70726490020752,
    0.65613889694214,
    0.67831271886826,
    0.67945867776871,
    0.68048846721649,
    0.63429123163223,
    0.62663906812668,
    0.63323551416397,
    0.59728866815567,
    0.61091393232346,
    0.65304630994797,
    0.64310497045517,
    0.61726433038712,
    0.59316730499268,
    0.62243819236755,
    0.5799166560173,
    0.60454607009888,
    0.59916472434998,
    0.63550043106079,
    0.63748836517334,
    0.62221300601959,
    0.62509661912918,
    0.61938440799713,
    0.63361096382141,
    0.63583421707153,
    0.66865390539169,
    0.6620060801506,
    0.68622785806656,
    0.6879894733429,
    0.63703459501266,
    0.67610520124435,
    0.64877086877823,
    0.69030344486237,
    0.66667121648788,
    0.61496740579605,
    0.62931042909622,
    0.62298530340195,
    0.60747134685516,
    0.58152121305466,
    0.59601193666458,
    0.60985970497131,
    0.60990869998932,
    0.60383981466293,
    0.60566800832748,
    0.55146598815918,
    0.61156660318375,
    0.64065766334534,
    0.60038566589355,
    0.59815043210983,
    0.61962026357651,
    0.60846662521362,
    0.62725561857224,
    0.60798197984695,
    0.56113117933273,
    0.56918656826019,
    0.59738785028458,
    0.56055873632431,
    0.5835075378418,
    0.57425832748413,
    0.56904149055481,
    0.55014359951019,
    0.5894415974617,
    0.59095275402069,
    0.58340305089951,
    0.60858285427094,
    0.6223868727684,
    0.6008472442627,
    0.55800116062164,
    0.53570777177811,
    0.57468539476395,
    0.62385433912277,
    0.6248459815979,
    0.5834624171257,
    0.61391860246658,
    0.61883717775345,
    0.60451340675354,
    0.58629995584488,
    0.60708004236221,
    0.55460768938065,
    0.53314900398254,
    0.56869870424271,
    0.5621412396431,
    0.57166123390198,
    0.58332222700119,
    0.56622576713562,
    0.54980021715164,
    0.5751039981842,
    0.5201199054718,
    0.57377749681473,
    0.5960648059845,
    0.58548611402512,
    0.59834611415863,
    0.61675971746445,
    0.56607645750046,
    0.5603215098381,
    0.57258456945419,
    0.54216760396957,
    0.57136750221252,
    0.59495002031326,
    0.5864337682724,
    0.54166692495346,
    0.57841157913208,
    0.58582693338394,
    0.57532167434692,
    0.56419289112091,
    0.57322424650192,
    0.63068503141403,
    0.55837309360504,
    0.58182847499847,
    0.555699467659,
    0.5940323472023,
    0.54640918970108,
    0.5677964091301,
    0.57234483957291,
    0.56642609834671,
    0.59959310293198,
    0.58028554916382,
    0.65402233600616,
    0.62232768535614,
    0.58791702985764,
    0.57894992828369,
    0.52837455272675,
    0.55945003032684,
    0.59642976522446,
    0.62173813581467,
    0.6208478808403,
    0.60927945375443,
    0.66513401269913,
    0.5986949801445,
    0.61676204204559,
    0.61301654577255,
    0.61308580636978,
    0.61288684606552,
    0.61192554235458,
    0.60301917791367,
    0.61706036329269,
    0.6124073266983,
    0.61738538742065,
    0.62487804889679,
    0.63699102401733,
    0.59979873895645,
    0.60728245973587,
    0.61761516332626,
    0.5731281042099,
    0.62465882301331,
    0.63222283124924,
    0.63554012775421,
    0.65584695339203,
    0.60111784934998,
    0.612697660923,
    0.60171556472778,
    0.61739695072174,
    0.58700656890869,
    0.62015849351883,
    0.61037200689316,
    0.61475622653961,
    0.62708961963654,
    0.62834084033966,
    0.60314881801605,
    0.54646492004395,
    0.56347686052322,
    0.54262816905975,
    0.57851654291153,
    0.62983620166779,
    0.60452204942703,
    0.6396723985672,
    0.65043467283249,
    0.62477004528046,
    0.64816927909851,
    0.6564227938652,
    0.63721078634262,
    0.63592559099197,
    0.64408069849014,
    0.62798655033112,
    0.62300217151642,
    0.61346638202667,
    0.56094074249268,
    0.60363632440567,
    0.63411039113998,
    0.64104819297791,
    0.62225764989853,
    0.60989791154861,
    0.62518918514252,
    0.63385492563248,
    0.6573965549469,
    0.66844046115875,
    0.6256600022316,
    0.66176557540894,
    0.65708005428314,
    0.66382348537445,
    0.68843227624893,
    0.65118801593781,
    0.62533074617386,
    0.62871420383453,
    0.62178236246109,
    0.62463217973709,
    0.6031129360199,
    0.63385885953903,
    0.59373128414154,
    0.58726358413696,
    0.56970500946045,
    0.60998702049255,
    0.60490429401398,
    0.64820861816406,
    0.62586838006973,
    0.64514225721359,
    0.70289504528046,
    0.64143759012222,
    0.63985139131546,
    0.59854936599731,
    0.59189289808273,
    0.58228695392609,
    0.64082938432693,
    0.61101120710373,
    0.56216859817505,
    0.58866906166077,
    0.58254665136337,
    0.59437471628189,
    0.59044641256332,
    0.60149645805359,
    0.63018876314163,
    0.60038530826569,
    0.588891685009,
    0.61001306772232,
    0.58987039327621,
    0.58329421281815,
    0.57581967115402,
    0.60546940565109,
    0.58629411458969,
    0.61965376138687,
    0.59616720676422,
    0.66424512863159,
    0.66300183534622,
    0.67258715629578,
    0.60453724861145,
    0.62604200839996,
    0.62271595001221,
    0.61405396461487,
    0.60646986961365,
    0.63916438817978,
    0.63486039638519,
    0.65148156881332,
    0.6467872262001,
    0.61813020706177,
    0.60693562030792,
    0.64219844341278,
    0.63260358572006,
    0.65700280666351,
    0.64292019605637,
    0.60864281654358,
    0.59662616252899,
    0.61987668275833,
    0.64890104532242,
    0.64356410503387,
    0.62422907352448,
    0.60996359586716,
    0.58734875917435,
    0.6033741235733,
    0.63256305456161,
    0.62564384937286,
    0.63768070936203,
    0.59379065036774,
    0.57474225759506,
    0.54697006940842,
    0.55397844314575,
    0.56408888101578,
    0.58880561590195,
    0.59907555580139,
    0.56069254875183,
    0.58307003974915,
    0.56889086961746,
    0.54566407203674,
    0.58552259206772,
    0.57256293296814,
    0.55655837059021,
    0.56589609384537,
    0.58966732025146,
    0.55528712272644,
    0.61197870969772,
    0.60336351394653,
    0.59605973958969,
    0.61932545900345,
    0.58492869138718,
    0.58962881565094,
    0.62377423048019,
    0.5343896150589,
    0.57164698839188,
    0.57358437776566,
    0.56435173749924,
    0.58695256710052,
    0.57981008291245,
    0.56986612081528,
    0.61357146501541,
    0.59868395328522,
    0.60565572977066,
    0.58848088979721,
    0.57326501607895,
    0.60136526823044,
    0.58060443401337,
    0.56806993484497,
    0.60991263389587,
    0.6336013674736,
    0.63115280866623,
    0.55046093463898,
    0.59151166677475,
    0.60078483819962,
    0.58197277784348,
    0.59791827201843,
    0.59376704692841,
    0.59374624490738,
    0.60125917196274,
    0.53666985034943,
    0.58226639032364,
    0.59997808933258,
    0.58780515193939,
    0.59225332736969,
    0.6026132106781,
    0.56961989402771,
    0.55566889047623,
    0.53936970233917,
    0.56389760971069,
    0.55297809839249,
    0.53124952316284,
    0.57614582777023,
    0.53622078895569,
    0.52685540914536,
    0.47754165530205,
    0.52916431427002,
    0.48215553164482,
    0.53640168905258,
    0.51641052961349,
    0.55848956108093,
    0.52730655670166,
    0.55789577960968,
    0.52101737260818,
    0.52902936935425,
    0.53641039133072,
    0.53531354665756,
    0.58070462942123,
    0.56746000051498,
    0.52362090349197,
    0.5267898440361,
    0.55503678321838,
    0.54911458492279,
    0.52987170219421,
    0.54196041822433,
    0.57202261686325,
    0.57739615440369,
    0.54921281337738,
    0.59127444028854,
    0.56475746631622,
    0.58481752872467,
    0.58522945642471,
    0.63103413581848,
    0.56617033481598,
    0.59706556797028,
    0.58310562372208,
    0.59535652399063,
    0.58582651615143,
    0.58670330047607,
    0.59911739826202,
    0.65518671274185,
    0.62387800216675,
    0.60946744680405,
    0.59490936994553,
    0.61308109760284,
    0.58353757858276,
    0.61723381280899,
    0.65322089195251,
    0.59091848134995,
    0.61599135398865,
    0.58565473556519,
    0.59894955158234,
    0.59374189376831,
    0.5875888466835,
    0.55928122997284,
    0.59388250112534,
    0.57675230503082,
    0.63038539886475,
    0.60167467594147,
    0.59913116693497,
    0.63437169790268,
    0.61317813396454,
    0.58120846748352,
    0.52822804450989,
    0.55416768789291,
    0.57343912124634,
    0.57219392061234,
    0.55058687925339,
    0.5751678943634,
    0.54265195131302,
    0.55888557434082,
    0.5878604054451,
    0.52760922908783,
    0.62372618913651,
    0.60520452260971,
    0.57504868507385,
    0.58996450901031,
    0.57659995555878,
    0.55711472034454,
    0.57689338922501,
    0.63429862260818,
    0.60395258665085,
    0.61257719993591,
    0.64116895198822,
    0.66926449537277,
    0.65582036972046,
    0.61237400770187,
    0.59708774089813,
    0.58356130123138,
    0.60714763402939,
    0.63071459531784,
    0.62116456031799,
    0.62596440315247,
    0.6074492931366,
    0.62089323997498,
    0.58408552408218,
    0.60812813043594,
    0.64688301086426,
    0.64052504301071,
    0.63564425706863,
    0.57099294662476,
    0.55199527740479,
    0.56306892633438,
    0.57440155744553,
    0.57771921157837,
    0.51043701171875,
    0.55454659461975,
    0.52272790670395,
    0.56833738088608,
    0.58245134353638,
    0.57346457242966,
    0.57829636335373,
    0.56735378503799,
    0.60085892677307,
    0.59559738636017,
    0.56539630889893,
    0.59768098592758,
    0.60982018709183,
    0.55503857135773,
    0.61158508062363,
    0.56953251361847,
    0.58583050966263,
    0.56785315275192,
    0.60893779993057,
    0.55977040529251,
    0.55032479763031,
    0.54629689455032,
    0.46832889318466,
    0.53186792135239,
    0.86553066968918,
    1.2297533750534,
    0.66423588991165,
    0.6155372262001,
    0.59173274040222,
    0.6196671128273,
    0.6085969209671,
    0.60732144117355,
    0.58346670866013,
    0.62081122398376,
    0.67364299297333,
    0.5921858549118,
    0.60341173410416,
    0.6126816868782,
    0.6044842004776,
    0.62230783700943,
    0.59368199110031,
    0.59561038017273,
    0.55403405427933,
    0.56567800045013,
    0.64967918395996,
    0.60419821739197,
    0.61641138792038,
    0.61775940656662,
    0.62749516963959,
    0.57805061340332,
    0.57765543460846,
    0.58280354738235,
    0.55506461858749,
    0.56024926900864,
    0.59966433048248,
    0.5879875421524,
    0.5533213019371,
    0.54106801748276,
    0.57171618938446,
    0.53356975317001,
    0.56544101238251,
    0.56150233745575,
    0.57557594776154,
    0.57804208993912,
    0.56419044733047,
    0.56623065471649,
    0.54974579811096,
    0.57830554246902,
    0.57619041204453,
    0.60751116275787,
    0.60924500226974,
    0.62734252214432,
    0.63426899909973,
    0.5874724984169,
    0.62620371580124,
    0.59292262792587,
    0.62375330924988,
    0.59879040718079,
    0.55213010311127,
    0.58094429969788,
    0.56874859333038,
    0.56105953454971,
    0.54457765817642,
    0.54900729656219,
    0.56513601541519,
    0.57056337594986,
    0.55880928039551,
    0.56159597635269,
    0.51794230937958,
    0.56161284446716,
    0.57842600345612,
    0.54212194681168,
    0.53674626350403,
    0.56316941976547,
    0.54371076822281,
    0.56257396936417,
    0.54307186603546,
    0.50767225027084,
    0.51109158992767,
    0.53436404466629,
    0.5098340511322,
    0.51306045055389,
    0.51735031604767,
    0.52186834812164,
    0.50088584423065,
    0.53624153137207,
    0.55069380998611,
    0.53485769033432,
    0.56098437309265,
    0.57871633768082,
    0.55230033397675,
    0.5180270075798,
    0.49480000138283,
    0.53739339113235,
    0.56936329603195,
    0.58910715579987,
    0.53955119848251,
    0.57230949401855,
    0.57202309370041,
    0.56853044033051,
    0.53748267889023,
    0.560307264328,
    0.50185745954514,
    0.4872978925705,
    0.51673805713654,
    0.51024258136749,
    0.52125358581543,
    0.5279912352562,
    0.51098370552063,
    0.50500202178955,
    0.52140462398529,
    0.48146039247513,
    0.53098875284195,
    0.55775558948517,
    0.54307103157043,
    0.54652291536331,
    0.55482596158981,
    0.51727849245071,
    0.50643759965897,
    0.52335745096207,
    0.49602466821671,
    0.52094048261642,
    0.5328608751297,
    0.54721134901047,
    0.49598079919815
  ],
  "memory_usage": {}
}