{
  "i": 2000,
  "val_loss_history": [
    1.581835584207,
    1.5160252641548
  ],
  "val_loss_history_it": [
    1000,
    2000
  ],
  "forward_backward_times": {},
  "opt": {
    "max_epochs": 50,
    "checkpoint_every": 1000,
    "batch_size": 50,
    "memory_benchmark": 0,
    "init_from": "",
    "grad_clip": 5,
    "model_type": "rnn",
    "lr_decay_every": 5,
    "print_every": 1,
    "wordvec_size": 64,
    "seq_length": 50,
    "input_json": "data\/tiny-shakespeare.json",
    "num_layers": 3,
    "input_h5": "data\/tiny-shakespeare.h5",
    "reset_iterations": 1,
    "rnn_size": 256,
    "dropout": 0,
    "checkpoint_name": "cv\/checkpoint",
    "batchnorm": 0,
    "learning_rate": 0.002,
    "speed_benchmark": 0,
    "gpu_backend": "cuda",
    "lr_decay_factor": 0.5,
    "gpu": -1
  },
  "train_loss_history": [
    4.1698307991028,
    3.8600542545319,
    3.4277093410492,
    3.3321933746338,
    3.2227694988251,
    3.1666276454926,
    3.0589094161987,
    3.0212399959564,
    2.9301357269287,
    2.9281661510468,
    2.8316164016724,
    2.7726426124573,
    2.7938621044159,
    2.6922016143799,
    2.6871824264526,
    2.655029296875,
    2.579859495163,
    2.5675241947174,
    2.5429077148438,
    2.4920117855072,
    2.4884829521179,
    2.4837198257446,
    2.4296593666077,
    2.3805429935455,
    2.4530825614929,
    2.3584213256836,
    2.3619630336761,
    2.3242030143738,
    2.2997269630432,
    2.3477818965912,
    2.2950909137726,
    2.3430268764496,
    2.2924220561981,
    2.275892496109,
    2.243626832962,
    2.306583404541,
    2.30348944664,
    2.262047290802,
    2.2189569473267,
    2.1960637569427,
    2.2070219516754,
    2.1477293968201,
    2.1710448265076,
    2.1610262393951,
    2.1668486595154,
    2.2015452384949,
    2.18239402771,
    2.1819775104523,
    2.1625397205353,
    2.1374680995941,
    2.1204679012299,
    2.141854763031,
    2.1205575466156,
    2.1217882633209,
    2.0905249118805,
    2.0694863796234,
    2.0717115402222,
    2.1293132305145,
    2.0742502212524,
    2.1487431526184,
    2.1314899921417,
    2.0579028129578,
    2.0795094966888,
    2.1055397987366,
    2.0349137783051,
    2.0489156246185,
    2.0718569755554,
    2.0808236598969,
    2.0861737728119,
    2.0921838283539,
    2.1170206069946,
    2.083343744278,
    2.051197052002,
    2.0257205963135,
    2.0779473781586,
    2.019718170166,
    2.014940738678,
    1.9642325639725,
    2.032142162323,
    2.0204229354858,
    2.060163974762,
    2.0352993011475,
    2.0823709964752,
    2.0080213546753,
    2.0376551151276,
    2.0721364021301,
    1.9475975036621,
    1.9920165538788,
    1.9714254140854,
    1.9746955633163,
    1.9885829687119,
    1.9995902776718,
    1.9511148929596,
    1.9572775363922,
    1.9685125350952,
    1.974307179451,
    1.9472765922546,
    1.8679324388504,
    1.8921754360199,
    1.9575225114822,
    1.9214215278625,
    1.9056615829468,
    1.8935941457748,
    1.8659839630127,
    1.9200950860977,
    1.9408591985703,
    1.911682844162,
    1.853901386261,
    1.8393416404724,
    1.9194540977478,
    1.8851554393768,
    1.9668127298355,
    1.962796330452,
    1.8983105421066,
    1.9037051200867,
    1.8693822622299,
    1.9120041131973,
    1.8319262266159,
    1.8883534669876,
    1.9232051372528,
    1.8864278793335,
    1.869490981102,
    1.8769776821136,
    1.8327159881592,
    1.9016941785812,
    1.8731772899628,
    1.8438366651535,
    1.8375207185745,
    1.8741047382355,
    1.8524475097656,
    1.8529769182205,
    1.8646787405014,
    1.8739066123962,
    1.849716424942,
    1.8528107404709,
    1.8335816860199,
    1.8035396337509,
    1.8237274885178,
    1.7986892461777,
    1.8143390417099,
    1.8649339675903,
    1.7977273464203,
    1.8812365531921,
    1.8371976613998,
    1.8208218812943,
    1.86175096035,
    1.7944786548615,
    1.8680136203766,
    1.82368516922,
    1.8534272909164,
    1.8097707033157,
    1.8109835386276,
    1.8119679689407,
    1.8299392461777,
    1.7843384742737,
    1.8628525733948,
    1.8103144168854,
    1.8024314641953,
    1.843116402626,
    1.860968708992,
    1.8324810266495,
    1.8624448776245,
    1.8016562461853,
    1.8728823661804,
    1.7770810127258,
    1.8116927146912,
    1.8077925443649,
    1.773979306221,
    1.8100925683975,
    1.7667520046234,
    1.8342633247375,
    1.8124176263809,
    1.8452323675156,
    1.8407224416733,
    1.8050665855408,
    1.8224507570267,
    1.7527525424957,
    1.7558282613754,
    1.7826484441757,
    1.7468258142471,
    1.7766752243042,
    1.7649739980698,
    1.7418146133423,
    1.7531214952469,
    1.7559744119644,
    1.7611656188965,
    1.7958824634552,
    1.7723990678787,
    1.7744306325912,
    1.8138852119446,
    1.7960036993027,
    1.8122107982635,
    1.807525396347,
    1.7254835367203,
    1.7734571695328,
    1.7190941572189,
    1.7273313999176,
    1.736267209053,
    1.7164202928543,
    1.7457251548767,
    1.7380633354187,
    1.7120275497437,
    1.7256499528885,
    1.826079249382,
    1.6903419494629,
    1.7816972732544,
    1.7477030754089,
    1.6831321716309,
    1.7321190834045,
    1.7412427663803,
    1.742981672287,
    1.7075397968292,
    1.7131959199905,
    1.6589316129684,
    1.7334794998169,
    1.7571706771851,
    1.7186199426651,
    1.6614910364151,
    1.7763307094574,
    1.7359445095062,
    1.7651193141937,
    1.6727864742279,
    1.7506999969482,
    1.6736739873886,
    1.7403367757797,
    1.666267156601,
    1.7806984186172,
    1.7259625196457,
    1.7633249759674,
    1.7130459547043,
    1.6830892562866,
    1.6698800325394,
    1.6731476783752,
    1.7152953147888,
    1.6658577919006,
    1.6671460866928,
    1.7154183387756,
    1.6363401412964,
    1.7011635303497,
    1.7285929918289,
    1.6792664527893,
    1.6654524803162,
    1.722195148468,
    1.6808671951294,
    1.7136313915253,
    1.682978272438,
    1.7091697454453,
    1.6972001791,
    1.6707442998886,
    1.7286939620972,
    1.7581453323364,
    1.6927691698074,
    1.6811369657516,
    1.6619886159897,
    1.7160840034485,
    1.6475659608841,
    1.6621825695038,
    1.7287429571152,
    1.7535244226456,
    1.680016040802,
    1.6342786550522,
    1.7380930185318,
    1.7413537502289,
    1.6257909536362,
    1.7288308143616,
    1.6654419898987,
    1.6580501794815,
    1.6412246227264,
    1.6609939336777,
    1.6878740787506,
    1.6424236297607,
    1.7100939750671,
    1.6913542747498,
    1.6590234041214,
    1.6645241975784,
    1.6743371486664,
    1.6427617073059,
    1.6461083889008,
    1.6596001386642,
    1.6476157903671,
    1.5957268476486,
    1.6554615497589,
    1.6158092021942,
    1.658349275589,
    1.6636968851089,
    1.7097473144531,
    1.669448018074,
    1.6297936439514,
    1.6552314758301,
    1.6699494123459,
    1.6959247589111,
    1.6006315946579,
    1.6383721828461,
    1.5858315229416,
    1.6808421611786,
    1.6543703079224,
    1.6503351926804,
    1.5991721153259,
    1.682625412941,
    1.6719257831573,
    1.6675802469254,
    1.6300985813141,
    1.6037034988403,
    1.6344470977783,
    1.7149379253387,
    1.7207435369492,
    1.6731132268906,
    1.6789234876633,
    1.6548494100571,
    1.6472824811935,
    1.5918819904327,
    1.5984915494919,
    1.5743783712387,
    1.5674387216568,
    1.5538755655289,
    1.6130990982056,
    1.6631587743759,
    1.5980982780457,
    1.6085488796234,
    1.6309033632278,
    1.6151806116104,
    1.6353635787964,
    1.6518174409866,
    1.5800323486328,
    1.6343668699265,
    1.6265040636063,
    1.6084277629852,
    1.5593070983887,
    1.5800513029099,
    1.5862278938293,
    1.6181720495224,
    1.645347237587,
    1.6880571842194,
    1.6441739797592,
    1.6235494613647,
    1.6435146331787,
    1.6035081148148,
    1.6506185531616,
    1.549100279808,
    1.633312702179,
    1.6568034887314,
    1.5729763507843,
    1.581197142601,
    1.6509679555893,
    1.6058585643768,
    1.6637492179871,
    1.6394425630569,
    1.6165412664413,
    1.5922346115112,
    1.5918941497803,
    1.6322305202484,
    1.5756125450134,
    1.590313911438,
    1.6255015134811,
    1.5985866785049,
    1.6270241737366,
    1.642120718956,
    1.5605454444885,
    1.6134918928146,
    1.5273989439011,
    1.6357321739197,
    1.5766630172729,
    1.5982263088226,
    1.5510284900665,
    1.5927255153656,
    1.5706714391708,
    1.5402137041092,
    1.563626408577,
    1.5574462413788,
    1.5916103124619,
    1.6626892089844,
    1.6823689937592,
    1.6410291194916,
    1.5887670516968,
    1.5909155607224,
    1.6110659837723,
    1.5659619569778,
    1.5631068944931,
    1.5443971157074,
    1.5387057065964,
    1.5897988080978,
    1.5708076953888,
    1.5153995752335,
    1.5051143169403,
    1.5707113742828,
    1.5583775043488,
    1.6092104911804,
    1.608365893364,
    1.593678355217,
    1.6130195856094,
    1.5881717205048,
    1.6057147979736,
    1.614542722702,
    1.5885396003723,
    1.5568482875824,
    1.5736637115479,
    1.5789898633957,
    1.5191284418106,
    1.5326060056686,
    1.5588593482971,
    1.5695127248764,
    1.601366519928,
    1.6311378479004,
    1.5963391065598,
    1.543487071991,
    1.5842986106873,
    1.5310406684875,
    1.5745447874069,
    1.5801742076874,
    1.5693383216858,
    1.5624109506607,
    1.5423216819763,
    1.5697991847992,
    1.5516160726547,
    1.5273529291153,
    1.6622310876846,
    1.6014180183411,
    1.5253056287766,
    1.6229724884033,
    1.6285279989243,
    1.566064119339,
    1.5461428165436,
    1.5619608163834,
    1.5990698337555,
    1.5954978466034,
    1.632844209671,
    1.6308655738831,
    1.6351095438004,
    1.5857640504837,
    1.5413097143173,
    1.6181995868683,
    1.6277933120728,
    1.5767456293106,
    1.540656208992,
    1.5647161006927,
    1.5864663124084,
    1.6016385555267,
    1.6053947210312,
    1.6549842357635,
    1.5796298980713,
    1.5748310089111,
    1.6038175821304,
    1.5232075452805,
    1.5510548353195,
    1.5606322288513,
    1.5715217590332,
    1.5370075702667,
    1.5715668201447,
    1.572336435318,
    1.5242611169815,
    1.5459796190262,
    1.5362318754196,
    1.5317050218582,
    1.4789432287216,
    1.5159814357758,
    1.6069355010986,
    1.5328469276428,
    1.5087903738022,
    1.520964384079,
    1.4753632545471,
    1.5336858034134,
    1.5871089696884,
    1.5328903198242,
    1.5121072530746,
    1.4969094991684,
    1.5316218137741,
    1.5051538944244,
    1.5953158140182,
    1.6232907772064,
    1.5441983938217,
    1.5459914207458,
    1.5319352149963,
    1.5487048625946,
    1.5409516096115,
    1.5327631235123,
    1.5842325687408,
    1.5226092338562,
    1.5856505632401,
    1.570797085762,
    1.5135645866394,
    1.5493874549866,
    1.5425736904144,
    1.4740672111511,
    1.5112360715866,
    1.5660752058029,
    1.5487186908722,
    1.5455943346024,
    1.5493150949478,
    1.5741372108459,
    1.5357767343521,
    1.5620150566101,
    1.538226723671,
    1.4915463924408,
    1.5122120380402,
    1.5175687074661,
    1.5364125967026,
    1.5296397209167,
    1.4942375421524,
    1.5634908676147,
    1.5493738651276,
    1.5475833415985,
    1.5618031024933,
    1.4890772104263,
    1.6022855043411,
    1.5441962480545,
    1.5686532258987,
    1.5469563007355,
    1.5161309242249,
    1.5286272764206,
    1.5522844791412,
    1.506847858429,
    1.5983090400696,
    1.5496315956116,
    1.546359539032,
    1.5696688890457,
    1.6111034154892,
    1.5928404331207,
    1.609836935997,
    1.5532563924789,
    1.6207469701767,
    1.5232504606247,
    1.5514888763428,
    1.5443561077118,
    1.5500904321671,
    1.564511179924,
    1.5283559560776,
    1.6016664505005,
    1.5970993041992,
    1.5978944301605,
    1.6211031675339,
    1.5658750534058,
    1.5906450748444,
    1.5188868045807,
    1.5254111289978,
    1.5206109285355,
    1.5175032615662,
    1.5152323246002,
    1.532280921936,
    1.4942473173141,
    1.49496114254,
    1.5330235958099,
    1.5268552303314,
    1.5668668746948,
    1.5419107675552,
    1.5250498056412,
    1.5958670377731,
    1.5581206083298,
    1.5880579948425,
    1.5774067640305,
    1.5177669525146,
    1.5419182777405,
    1.5187497138977,
    1.4917848110199,
    1.5216407775879,
    1.511821269989,
    1.4942493438721,
    1.5251904726028,
    1.4769133329391,
    1.5182234048843,
    1.606330037117,
    1.4666846990585,
    1.5781874656677,
    1.4906004667282,
    1.4503446817398,
    1.5128837823868,
    1.5163145065308,
    1.5507147312164,
    1.5068796873093,
    1.5140582323074,
    1.4502319097519,
    1.5219142436981,
    1.5449393987656,
    1.5020895004272,
    1.4533077478409,
    1.5558226108551,
    1.5169826745987,
    1.547324180603,
    1.4313125610352,
    1.5718404054642,
    1.478348493576,
    1.5409969091415,
    1.4646989107132,
    1.5633279085159,
    1.5145341157913,
    1.5478730201721,
    1.5050845146179,
    1.4870074987411,
    1.4765454530716,
    1.4965356588364,
    1.5193002223969,
    1.469722867012,
    1.4831545352936,
    1.5375047922134,
    1.4433784484863,
    1.5243668556213,
    1.5344680547714,
    1.5317811965942,
    1.5038342475891,
    1.5358920097351,
    1.5186133384705,
    1.5210229158401,
    1.5092641115189,
    1.5183502435684,
    1.5304163694382,
    1.4729046821594,
    1.5444853305817,
    1.5885895490646,
    1.5095534324646,
    1.5079501867294,
    1.4840912818909,
    1.5397890806198,
    1.4651817083359,
    1.495821595192,
    1.5483268499374,
    1.5861451625824,
    1.5010539293289,
    1.4566496610641,
    1.5781893730164,
    1.5651081800461,
    1.4796408414841,
    1.5638973712921,
    1.5131763219833,
    1.4741451740265,
    1.4779793024063,
    1.4850351810455,
    1.5336179733276,
    1.4740568399429,
    1.5555003881454,
    1.5172417163849,
    1.4777005910873,
    1.5157743692398,
    1.5133137702942,
    1.4768198728561,
    1.4760769605637,
    1.5098209381104,
    1.4871935844421,
    1.4193760156631,
    1.4908406734467,
    1.4470471143723,
    1.5063905715942,
    1.5062210559845,
    1.5566911697388,
    1.5171893835068,
    1.4835969209671,
    1.496090054512,
    1.5112134218216,
    1.5503371953964,
    1.440590262413,
    1.489006280899,
    1.4370611906052,
    1.518336057663,
    1.5089443922043,
    1.5045319795609,
    1.4416890144348,
    1.5281103849411,
    1.5317721366882,
    1.5125209093094,
    1.4638166427612,
    1.4479514360428,
    1.4895532131195,
    1.5649000406265,
    1.5739206075668,
    1.5347841978073,
    1.5434695482254,
    1.5111620426178,
    1.4934487342834,
    1.4479376077652,
    1.4555960893631,
    1.4276006221771,
    1.4421812295914,
    1.4285538196564,
    1.4619830846786,
    1.5251532793045,
    1.4541373252869,
    1.4681277275085,
    1.4834656715393,
    1.4748445749283,
    1.4888695478439,
    1.4911323785782,
    1.445959687233,
    1.5016142129898,
    1.4779223203659,
    1.4710928201675,
    1.4108010530472,
    1.4464417695999,
    1.4536250829697,
    1.4788796901703,
    1.5060929059982,
    1.5388640165329,
    1.4852446317673,
    1.4821699857712,
    1.5072433948517,
    1.4644759893417,
    1.5169993638992,
    1.4175344705582,
    1.4973874092102,
    1.5029319524765,
    1.4350502490997,
    1.4551064968109,
    1.5137655735016,
    1.489121556282,
    1.5325437784195,
    1.520047545433,
    1.4783556461334,
    1.4513314962387,
    1.466764330864,
    1.5172228813171,
    1.4506915807724,
    1.4550886154175,
    1.5008391141891,
    1.4533467292786,
    1.5150883197784,
    1.5112011432648,
    1.4483786821365,
    1.4915779829025,
    1.3987947702408,
    1.5170493125916,
    1.4505568742752,
    1.4672691822052,
    1.4294236898422,
    1.4732609987259,
    1.4394550323486,
    1.4230139255524,
    1.4390585422516,
    1.4375318288803,
    1.4704184532166,
    1.5651074647903,
    1.5492621660233,
    1.5273809432983,
    1.4604461193085,
    1.4773150682449,
    1.49380671978,
    1.4456003904343,
    1.443342089653,
    1.4284055233002,
    1.4244049787521,
    1.4449670314789,
    1.4630789756775,
    1.4018486738205,
    1.3911018371582,
    1.4655495882034,
    1.4477897882462,
    1.4873670339584,
    1.4893906116486,
    1.4834312200546,
    1.5035991668701,
    1.4659031629562,
    1.477192401886,
    1.491646528244,
    1.4654960632324,
    1.4455839395523,
    1.4555045366287,
    1.4634996652603,
    1.4233589172363,
    1.4326920509338,
    1.4379823207855,
    1.4627158641815,
    1.4889652729034,
    1.5188980102539,
    1.5051180124283,
    1.4373489618301,
    1.4839409589767,
    1.4207561016083,
    1.4723334312439,
    1.4787821769714,
    1.4643074274063,
    1.4580399990082,
    1.4629652500153,
    1.4645869731903,
    1.4495738744736,
    1.4311739206314,
    1.5713376998901,
    1.4786120653152,
    1.4152630567551,
    1.5295456647873,
    1.5255842208862,
    1.474324464798,
    1.4501221179962,
    1.4520680904388,
    1.5143502950668,
    1.4957185983658,
    1.5207351446152,
    1.5177458524704,
    1.5288915634155,
    1.4858618974686,
    1.4370648860931,
    1.5126407146454,
    1.5309810638428,
    1.4759418964386,
    1.4435478448868,
    1.4722630977631,
    1.4870570898056,
    1.5034058094025,
    1.5071719884872,
    1.5513825416565,
    1.4816789627075,
    1.4838188886642,
    1.5132492780685,
    1.4314585924149,
    1.4640973806381,
    1.4669589996338,
    1.4742577075958,
    1.437784075737,
    1.4666230678558,
    1.4837834835052,
    1.4243501424789,
    1.4626140594482,
    1.4329628944397,
    1.4486005306244,
    1.3865102529526,
    1.418194770813,
    1.5140924453735,
    1.4448366165161,
    1.4174764156342,
    1.4322197437286,
    1.3812786340714,
    1.4450178146362,
    1.4994860887527,
    1.4351890087128,
    1.4410784244537,
    1.416739821434,
    1.4432047605515,
    1.4161515235901,
    1.5075323581696,
    1.5159796476364,
    1.4490352869034,
    1.4522043466568,
    1.4521440267563,
    1.4618126153946,
    1.4546009302139,
    1.4352203607559,
    1.4934722185135,
    1.429502248764,
    1.5016659498215,
    1.4828407764435,
    1.4332093000412,
    1.4733111858368,
    1.4601383209229,
    1.392742395401,
    1.4199011325836,
    1.479532957077,
    1.4687200784683,
    1.4746555089951,
    1.4681094884872,
    1.4921002388,
    1.4526348114014,
    1.4886592626572,
    1.458852648735,
    1.4256328344345,
    1.4439492225647,
    1.4382638931274,
    1.4582298994064,
    1.4405076503754,
    1.4127956628799,
    1.4786365032196,
    1.4634553194046,
    1.4649842977524,
    1.4830330610275,
    1.3947114944458,
    1.5279575586319,
    1.4555629491806,
    1.4749411344528,
    1.4510397911072,
    1.4406064748764,
    1.4448742866516,
    1.4626611471176,
    1.4241261482239,
    1.505819439888,
    1.4721252918243,
    1.4820735454559,
    1.4902727603912,
    1.5317109823227,
    1.5171484947205,
    1.5332757234573,
    1.4705461263657,
    1.5402663946152,
    1.4556859731674,
    1.4710545539856,
    1.4587463140488,
    1.4712451696396,
    1.4915541410446,
    1.4532204866409,
    1.5212570428848,
    1.5290379524231,
    1.5319291353226,
    1.5499320030212,
    1.5138961076736,
    1.5230692625046,
    1.4443101882935,
    1.4516761302948,
    1.4364652633667,
    1.4426352977753,
    1.4349896907806,
    1.4371337890625,
    1.4126441478729,
    1.4190216064453,
    1.4484484195709,
    1.4463398456573,
    1.4932020902634,
    1.4646726846695,
    1.4534168243408,
    1.509340763092,
    1.4675015211105,
    1.516259431839,
    1.5047334432602,
    1.4502053260803,
    1.4521716833115,
    1.4291607141495,
    1.4180269241333,
    1.4410202503204,
    1.4460384845734,
    1.4147458076477,
    1.447138428688,
    1.4194178581238,
    1.4556918144226,
    1.5234583616257,
    1.4088672399521,
    1.518132686615,
    1.4053597450256,
    1.3794730901718,
    1.4336698055267,
    1.4480837583542,
    1.4696300029755,
    1.4504712820053,
    1.4423303604126,
    1.3765913248062,
    1.4463754892349,
    1.4687939882278,
    1.4327129125595,
    1.3782979249954,
    1.4763402938843,
    1.4457906484604,
    1.4670317173004,
    1.363492846489,
    1.503404378891,
    1.4159641265869,
    1.4659242630005,
    1.3929551839828,
    1.4841701984406,
    1.4369021654129,
    1.4708240032196,
    1.4383364915848,
    1.4182903766632,
    1.4100484848022,
    1.4398218393326,
    1.4439690113068,
    1.4051510095596,
    1.4284130334854,
    1.4664199352264,
    1.3798788785934,
    1.4513236284256,
    1.4616496562958,
    1.4610580205917,
    1.4385439157486,
    1.4673795700073,
    1.4495983123779,
    1.4484324455261,
    1.4426817893982,
    1.4426655769348,
    1.4438928365707,
    1.4011784791946,
    1.4835708141327,
    1.5192265510559,
    1.4279817342758,
    1.4249839782715,
    1.4163953065872,
    1.4761819839478,
    1.3935217857361,
    1.4326395988464,
    1.4729552268982,
    1.5164177417755,
    1.4250049591064,
    1.3866454362869,
    1.5039707422256,
    1.4882380962372,
    1.4091480970383,
    1.5015647411346,
    1.4385193586349,
    1.3994033336639,
    1.4043636322021,
    1.4130502939224,
    1.4733383655548,
    1.404132604599,
    1.4841762781143,
    1.4525520801544,
    1.4183702468872,
    1.4465719461441,
    1.4500190019608,
    1.4113554954529,
    1.3987118005753,
    1.4471832513809,
    1.4200394153595,
    1.3484152555466,
    1.43763422966,
    1.3724508285522,
    1.4438656568527,
    1.4470648765564,
    1.4817934036255,
    1.4559891223907,
    1.4281225204468,
    1.5008039474487,
    1.4447386264801,
    1.4788582324982,
    1.3772113323212,
    1.4233046770096,
    1.3822935819626,
    1.4591399431229,
    1.4550051689148,
    1.4493415355682,
    1.3780992031097,
    1.473332285881,
    1.4597254991531,
    1.4512211084366,
    1.3988515138626,
    1.3906927108765,
    1.4327323436737,
    1.5018733739853,
    1.5156248807907,
    1.4780802726746,
    1.4772336483002,
    1.4504050016403,
    1.4375185966492,
    1.3926661014557,
    1.3920621871948,
    1.3583085536957,
    1.3881623744965,
    1.3729823827744,
    1.3945749998093,
    1.4581447839737,
    1.3874939680099,
    1.4087191820145,
    1.4122121334076,
    1.4079418182373,
    1.4284617900848,
    1.4277980327606,
    1.4049091339111,
    1.4412026405334,
    1.4185549020767,
    1.4128339290619,
    1.3469103574753,
    1.3907159566879,
    1.3884137868881,
    1.4155135154724,
    1.437814116478,
    1.4922981262207,
    1.4314457178116,
    1.4212976694107,
    1.4502424001694,
    1.4218782186508,
    1.4639481306076,
    1.3588879108429,
    1.4421584606171,
    1.4395253658295,
    1.3847513198853,
    1.3946378231049,
    1.4455493688583,
    1.4329464435577,
    1.4745221138,
    1.4632679224014,
    1.4177762269974,
    1.3911864757538,
    1.4092395305634,
    1.470703959465,
    1.3916140794754,
    1.3962026834488,
    1.4337302446365,
    1.3843387365341,
    1.4564088582993,
    1.451957821846,
    1.3850786685944,
    1.4385401010513,
    1.3484146595001,
    1.4697917699814,
    1.3966580629349,
    1.4029976129532,
    1.3658268451691,
    1.4139974117279,
    1.3880583047867,
    1.3670806884766,
    1.382928609848,
    1.3839094638824,
    1.4101965427399,
    1.5070387125015,
    1.4699109792709,
    1.4777187108994,
    1.3961297273636,
    1.4226950407028,
    1.4383299350739,
    1.3878247737885,
    1.3915060758591,
    1.3651577234268,
    1.3777676820755,
    1.3869924545288,
    1.4217827320099,
    1.3458334207535,
    1.3436368703842,
    1.4101364612579,
    1.3964451551437,
    1.4355385303497,
    1.423262834549,
    1.4353170394897,
    1.4615678787231,
    1.409539103508,
    1.41188788414,
    1.4310328960419,
    1.4015179872513,
    1.398926615715,
    1.4144108295441,
    1.4059529304504,
    1.3825447559357,
    1.3871431350708,
    1.3859804868698,
    1.4156359434128,
    1.4256950616837,
    1.4737570285797,
    1.4542095661163,
    1.4062584638596,
    1.4445134401321,
    1.3651287555695,
    1.422630906105,
    1.4241229295731,
    1.4138849973679,
    1.4069193601608,
    1.4105857610703,
    1.4218991994858,
    1.4056987762451,
    1.3806073665619,
    1.5084096193314,
    1.430357336998,
    1.3762224912643,
    1.4742724895477,
    1.467342376709,
    1.4245005846024,
    1.4076014757156,
    1.4123569726944,
    1.4690696001053,
    1.4481060504913,
    1.476588845253,
    1.4644218683243,
    1.478453874588,
    1.439252614975,
    1.4021190404892,
    1.4621052742004,
    1.4840803146362,
    1.4279050827026,
    1.3912781476974,
    1.4154096841812,
    1.4369255304337,
    1.4447747468948,
    1.4422285556793,
    1.5006308555603,
    1.4333617687225,
    1.4368373155594,
    1.4655872583389,
    1.377140879631,
    1.4192115068436,
    1.4163123369217,
    1.4301335811615,
    1.3947714567184,
    1.4207971096039,
    1.4419069290161,
    1.3641128540039,
    1.4104743003845,
    1.3848166465759,
    1.4054701328278,
    1.3490036725998,
    1.3800774812698,
    1.4672635793686,
    1.4087977409363,
    1.3778315782547,
    1.3884119987488,
    1.3284668922424,
    1.4084146022797,
    1.4516230821609,
    1.3871959447861,
    1.4031578302383,
    1.3706021308899,
    1.3970412015915,
    1.3801866769791,
    1.4582525491714,
    1.456130862236,
    1.4042038917542,
    1.409684419632,
    1.3915716409683,
    1.4191153049469,
    1.4068911075592,
    1.3960115909576,
    1.4329419136047,
    1.3743835687637,
    1.4526702165604,
    1.4402652978897,
    1.3954595327377,
    1.4210386276245,
    1.409968495369,
    1.3514935970306,
    1.3799357414246,
    1.4423258304596,
    1.4349927902222,
    1.4308141469955,
    1.4187965393066,
    1.4486044645309,
    1.4095010757446,
    1.4408231973648,
    1.4047431945801,
    1.3868299722672,
    1.4036866426468,
    1.385026216507,
    1.4204770326614,
    1.3958760499954,
    1.3706419467926,
    1.4267965555191,
    1.4090353250504,
    1.4179258346558,
    1.4289462566376,
    1.3537950515747,
    1.4832564592361,
    1.4083592891693,
    1.43141746521,
    1.3961802721024,
    1.396712064743,
    1.4086452722549,
    1.4197129011154,
    1.3805856704712,
    1.463220000267,
    1.4342591762543,
    1.4469312429428,
    1.4469785690308,
    1.4835486412048,
    1.4815624952316,
    1.4854818582535,
    1.4356977939606,
    1.4947967529297,
    1.4112508296967,
    1.4319713115692,
    1.3990491628647,
    1.4185615777969,
    1.4590280056,
    1.4148000478745,
    1.4779071807861,
    1.4851789474487,
    1.4867535829544,
    1.5110139846802,
    1.4746506214142,
    1.4820985794067,
    1.3986338376999,
    1.4096279144287,
    1.3947625160217,
    1.4010863304138,
    1.3903059959412,
    1.4007875919342,
    1.3697091341019,
    1.3721151351929,
    1.4054945707321,
    1.3975729942322,
    1.45676445961,
    1.4294766187668,
    1.4175704717636,
    1.4647754430771,
    1.426754117012,
    1.469766497612,
    1.4705208539963,
    1.4093478918076,
    1.4068349599838,
    1.391401052475,
    1.3815748691559,
    1.3913285732269,
    1.4049096107483,
    1.3706451654434,
    1.4110282659531,
    1.3882566690445,
    1.4218755960464,
    1.479038476944,
    1.3702068328857,
    1.4826791286469,
    1.3702998161316,
    1.3420915603638,
    1.3892488479614,
    1.410284280777,
    1.4194610118866,
    1.4145201444626,
    1.3964418172836,
    1.3335998058319,
    1.4072808027267,
    1.4309710264206,
    1.3968518972397,
    1.3382096290588,
    1.4381408691406,
    1.4003026485443,
    1.4228528738022,
    1.3241099119186,
    1.4642772674561,
    1.3831886053085,
    1.4277307987213,
    1.3573622703552,
    1.4389735460281,
    1.4024211168289,
    1.4288597106934,
    1.3977118730545,
    1.3843055963516,
    1.374204158783,
    1.3938344717026,
    1.4029713869095,
    1.3647004365921,
    1.3880990743637,
    1.4210467338562,
    1.3400945663452,
    1.4117764234543,
    1.4168163537979,
    1.4145354032516,
    1.3938195705414,
    1.4356288909912,
    1.410749912262,
    1.4176794290543,
    1.3958798646927,
    1.3964058160782,
    1.3979685306549,
    1.3556877374649,
    1.4384298324585,
    1.481733083725,
    1.3896651268005,
    1.3801412582397,
    1.3816297054291,
    1.4334471225739,
    1.3570603132248,
    1.40012550354,
    1.428147315979,
    1.4771838188171,
    1.3864567279816,
    1.3485180139542,
    1.4620343446732,
    1.4473963975906,
    1.3765910863876,
    1.4561140537262,
    1.3946212530136,
    1.3607311248779,
    1.3647501468658,
    1.3759559392929,
    1.4410418272018,
    1.3613818883896,
    1.4494566917419,
    1.4128112792969,
    1.3791544437408,
    1.4172745943069,
    1.4164925813675,
    1.3730396032333,
    1.352844119072,
    1.4103999137878,
    1.3926408290863,
    1.320840716362,
    1.4042571783066,
    1.3262647390366,
    1.4002525806427,
    1.4108735322952,
    1.4345654249191,
    1.4050900936127,
    1.3942863941193,
    1.3939619064331,
    1.3987811803818,
    1.4434232711792,
    1.341432929039,
    1.3925837278366,
    1.346200466156,
    1.4167412519455,
    1.4261860847473,
    1.4037823677063,
    1.3490873575211,
    1.431776881218,
    1.4258431196213,
    1.4154951572418,
    1.3512395620346,
    1.3453215360641,
    1.3951367139816,
    1.4573005437851,
    1.4803037643433,
    1.4446138143539,
    1.4448925256729,
    1.4171959161758,
    1.4002637863159,
    1.3598607778549,
    1.3587214946747,
    1.3227710723877,
    1.3508964776993,
    1.336851477623,
    1.3625569343567,
    1.4063994884491,
    1.344088435173,
    1.3589857816696,
    1.3733673095703,
    1.3774210214615,
    1.3797818422318,
    1.3896013498306,
    1.3770943880081,
    1.4062926769257,
    1.3857679367065,
    1.3771332502365,
    1.323338508606,
    1.3649187088013,
    1.3578155040741,
    1.386976480484,
    1.395738363266,
    1.4569756984711,
    1.4032768011093,
    1.3816670179367,
    1.4097229242325,
    1.3940798044205,
    1.4181591272354,
    1.3302254676819,
    1.4078466892242,
    1.4065806865692,
    1.3478109836578,
    1.3570884466171,
    1.405947804451,
    1.3977781534195,
    1.4394178390503,
    1.4343980550766,
    1.3836200237274,
    1.356898188591,
    1.3803876638412,
    1.4363088607788,
    1.3553035259247,
    1.3643466234207,
    1.3956818580627,
    1.3536293506622,
    1.4282644987106,
    1.4189697504044,
    1.3480002880096,
    1.38449883461,
    1.2979598045349,
    1.421799659729,
    1.3611286878586,
    1.3690348863602,
    1.3301491737366,
    1.365606546402,
    1.3437722921371,
    1.3328827619553,
    1.3333591222763,
    1.3463156223297,
    1.3558611869812,
    1.4644302129745,
    1.4252200126648,
    1.4324336051941,
    1.3464739322662,
    1.3790389299393,
    1.3910714387894,
    1.3416095972061,
    1.3351820707321,
    1.3178088665009,
    1.3345941305161,
    1.3415350914001,
    1.3772591352463,
    1.3021323680878,
    1.2998584508896,
    1.3465883731842,
    1.3487696647644,
    1.3879008293152,
    1.3663002252579,
    1.3903765678406,
    1.4062815904617,
    1.3460745811462,
    1.3463418483734,
    1.371132850647,
    1.3473855257034,
    1.3576103448868,
    1.3611590862274,
    1.3405590057373,
    1.328466296196,
    1.3324459791183,
    1.3434711694717,
    1.3567707538605,
    1.3776897192001,
    1.4039149284363,
    1.3876457214355,
    1.3493926525116,
    1.3859481811523,
    1.3195958137512,
    1.3681322336197,
    1.3634662628174,
    1.365419626236,
    1.3583828210831,
    1.343262553215,
    1.3624882698059,
    1.3544768095016,
    1.3244965076447,
    1.460534453392,
    1.3843992948532,
    1.3317630290985,
    1.41717004776,
    1.4066679477692,
    1.3553566932678,
    1.357565164566,
    1.3524627685547,
    1.3984762430191,
    1.3941774368286,
    1.422483086586,
    1.399622797966,
    1.4165967702866,
    1.3834321498871,
    1.3419612646103,
    1.41348695755,
    1.4121325016022,
    1.3500435352325,
    1.3281507492065,
    1.3610572814941,
    1.3815816640854,
    1.3849039077759,
    1.384826540947,
    1.4382948875427,
    1.3806869983673,
    1.3861532211304,
    1.4055715799332,
    1.3189294338226,
    1.3660298585892,
    1.3676105737686,
    1.3823935985565,
    1.3447916507721,
    1.35970723629,
    1.3881253004074,
    1.3147650957108,
    1.3646475076675,
    1.3222626447678,
    1.3624632358551,
    1.3026428222656,
    1.3262873888016,
    1.4113949537277,
    1.3489714860916,
    1.3168402910233,
    1.3299320936203,
    1.2626136541367,
    1.3463509082794,
    1.3925694227219,
    1.3270939588547,
    1.3541835546494,
    1.3117251396179,
    1.3381351232529,
    1.3235335350037,
    1.4061913490295,
    1.381552696228,
    1.3438750505447,
    1.3413767814636,
    1.3251873254776,
    1.3643770217896,
    1.3471221923828,
    1.3430203199387,
    1.3704596757889,
    1.3112270832062,
    1.3990069627762,
    1.3808560371399,
    1.3377227783203,
    1.3673852682114,
    1.3509755134583,
    1.2835730314255,
    1.3189264535904,
    1.3834190368652,
    1.3738151788712,
    1.3725966215134,
    1.3623731136322,
    1.3909299373627,
    1.3560042381287,
    1.3834105730057,
    1.3365916013718,
    1.3342715501785,
    1.3497257232666,
    1.3316597938538,
    1.3643084764481,
    1.3324747085571,
    1.3058884143829,
    1.3669350147247,
    1.3488847017288,
    1.3594781160355,
    1.3696227073669,
    1.2920064926147,
    1.420676112175,
    1.3384164571762,
    1.3723076581955,
    1.3333991765976,
    1.3355123996735,
    1.3525376319885,
    1.3601225614548,
    1.3246333599091,
    1.3947631120682,
    1.3558940887451,
    1.3800327777863,
    1.3832769393921,
    1.4156866073608,
    1.4161703586578,
    1.4174374341965,
    1.3749723434448,
    1.4379587173462,
    1.3436086177826,
    1.3741767406464,
    1.3385112285614,
    1.3610453605652,
    1.4037076234818,
    1.3573486804962,
    1.4106401205063,
    1.4252310991287,
    1.4231213331223,
    1.4572265148163,
    1.4183834791183,
    1.4249411821365,
    1.3379361629486,
    1.3637942075729,
    1.3355544805527,
    1.3449296951294,
    1.3271389007568,
    1.3397920131683,
    1.3109576702118,
    1.324166059494,
    1.3401417732239,
    1.3263547420502,
    1.3960199356079,
    1.3596520423889,
    1.3526403903961,
    1.3959567546844,
    1.3663297891617,
    1.4045597314835,
    1.4134604930878,
    1.3517763614655,
    1.3506336212158,
    1.335089802742,
    1.322611451149,
    1.3386998176575,
    1.3514785766602,
    1.3080582618713,
    1.3450211286545,
    1.3330513238907,
    1.3583382368088,
    1.4057136774063,
    1.3118680715561,
    1.4106545448303,
    1.3134353160858,
    1.2845674753189,
    1.32614839077,
    1.3550412654877,
    1.3464902639389,
    1.3582730293274,
    1.3372595310211,
    1.2902899980545,
    1.3328188657761,
    1.364630818367,
    1.3289151191711,
    1.2838779687881,
    1.3713980913162,
    1.3250277042389,
    1.34279692173,
    1.2709139585495,
    1.410306930542,
    1.3192296028137,
    1.3483526706696,
    1.2979964017868,
    1.3796155452728,
    1.3436490297318,
    1.3669273853302,
    1.3247766494751,
    1.3152673244476,
    1.297457575798,
    1.3306858539581,
    1.3408395051956,
    1.3022447824478,
    1.3217515945435,
    1.3503177165985,
    1.2840613126755,
    1.3396722078323,
    1.3570048809052,
    1.3489571809769,
    1.3259673118591,
    1.3702301979065,
    1.3558261394501,
    1.3545405864716,
    1.3383086919785,
    1.3204990625381,
    1.3363567590714,
    1.2995921373367,
    1.3852038383484,
    1.4132441282272,
    1.3262423276901,
    1.3220831155777,
    1.3299877643585,
    1.3563058376312,
    1.2854610681534,
    1.3414572477341,
    1.3631901741028,
    1.4162403345108,
    1.3232808113098,
    1.2874064445496,
    1.4082181453705,
    1.3768752813339,
    1.3215140104294,
    1.3963400125504,
    1.3332947492599,
    1.3065555095673,
    1.3036875724792,
    1.2958859205246,
    1.3625980615616,
    1.289671421051,
    1.3864864110947,
    1.3446894884109,
    1.3235310316086,
    1.3618650436401,
    1.3522847890854,
    1.3293212652206,
    1.2925434112549,
    1.3334385156631,
    1.3260902166367,
    1.2577625513077,
    1.3377228975296,
    1.2638347148895,
    1.3266533613205,
    1.3359320163727,
    1.3730959892273,
    1.3362025022507,
    1.3324432373047,
    1.3251128196716,
    1.3389188051224,
    1.3737109899521,
    1.2832157611847,
    1.3260750770569,
    1.2790973186493,
    1.3551082611084,
    1.3628685474396,
    1.3324272632599,
    1.2927761077881,
    1.3648065328598,
    1.3620710372925,
    1.3544014692307,
    1.2863675355911,
    1.3019416332245,
    1.3314825296402,
    1.3755706548691,
    1.413592338562,
    1.3666800260544,
    1.36862885952,
    1.3459100723267,
    1.3293341398239,
    1.2991528511047,
    1.2952320575714,
    1.2682168483734,
    1.2889852523804,
    1.2712250947952,
    1.3006670475006,
    1.3503977060318,
    1.278039932251,
    1.2909008264542,
    1.3163731098175,
    1.3088579177856,
    1.3120255470276,
    1.3276488780975,
    1.319816827774,
    1.3434715270996,
    1.3227950334549,
    1.3115029335022,
    1.2629145383835,
    1.3041496276855,
    1.3106160163879,
    1.3281952142715,
    1.331294298172,
    1.3792066574097,
    1.3282910585403,
    1.3187996149063,
    1.3531231880188,
    1.3307756185532,
    1.3544141054153,
    1.2800306081772,
    1.3503978252411,
    1.352897644043,
    1.2979284524918,
    1.3078391551971,
    1.3401823043823,
    1.3565163612366,
    1.3979861736298,
    1.3775643110275,
    1.3339856863022,
    1.3131614923477,
    1.3358674049377,
    1.396012544632,
    1.3134812116623,
    1.3184739351273,
    1.3466497659683,
    1.3074209690094,
    1.3545107841492,
    1.3580024242401,
    1.2839639186859,
    1.3269891738892,
    1.258064031601,
    1.3618687391281,
    1.3138588666916,
    1.31851541996,
    1.2791907787323,
    1.3256587982178,
    1.3035510778427,
    1.2896678447723,
    1.2951220273972,
    1.299223780632,
    1.3117669820786,
    1.4209117889404,
    1.3840292692184,
    1.3935412168503,
    1.3136550188065,
    1.3471833467484,
    1.3507125377655,
    1.3027143478394,
    1.3112269639969,
    1.2843149900436,
    1.3045942783356,
    1.3053582906723,
    1.3394459486008,
    1.2711594104767,
    1.2639017105103,
    1.3100556135178,
    1.3168063163757,
    1.3519608974457,
    1.3280440568924,
    1.357294678688,
    1.369953751564,
    1.3079144954681,
    1.3096067905426,
    1.3348567485809,
    1.3157564401627,
    1.3251153230667,
    1.3288046121597,
    1.3084025382996,
    1.3033976554871,
    1.2973879575729,
    1.319375038147,
    1.3204672336578,
    1.3419861793518,
    1.3729522228241,
    1.350399851799,
    1.3195909261703,
    1.3523429632187,
    1.2890087366104,
    1.3349860906601,
    1.3228961229324,
    1.3395169973373,
    1.3336515426636,
    1.3119016885757,
    1.3319536447525,
    1.3230274915695,
    1.2945322990417,
    1.4292823076248,
    1.3512281179428,
    1.3094425201416,
    1.3823628425598,
    1.3722356557846,
    1.3279410600662,
    1.327018737793,
    1.3242329359055,
    1.376228928566,
    1.3558455705643,
    1.3928890228271,
    1.3733285665512,
    1.3832347393036,
    1.3490166664124,
    1.3124731779099,
    1.3804005384445,
    1.3810390233994,
    1.3160208463669,
    1.3021895885468,
    1.3293526172638,
    1.3527067899704,
    1.3489603996277,
    1.3486074209213,
    1.405170917511,
    1.3548961877823,
    1.3623031377792,
    1.3732274770737,
    1.2975060939789,
    1.3343234062195,
    1.343794465065,
    1.3547772169113,
    1.3187670707703,
    1.3309129476547,
    1.3643380403519,
    1.2874513864517,
    1.3352574110031,
    1.2958157062531,
    1.3328870534897,
    1.2814711332321,
    1.2978901863098,
    1.3802269697189,
    1.3201736211777,
    1.2915436029434,
    1.3035976886749,
    1.2330731153488,
    1.3191038370132,
    1.3662647008896,
    1.3027176856995,
    1.3294308185577,
    1.2810579538345,
    1.3101235628128,
    1.2918801307678,
    1.3679736852646,
    1.3500789403915,
    1.3188486099243,
    1.314550280571,
    1.2994360923767,
    1.3337329626083,
    1.3171927928925,
    1.3146582841873,
    1.3405042886734,
    1.2825273275375,
    1.3669849634171,
    1.3553606271744,
    1.3136079311371,
    1.3401529788971,
    1.3267461061478,
    1.2582061290741,
    1.2907526493073,
    1.3579423427582,
    1.3505251407623,
    1.3448357582092,
    1.3347910642624,
    1.3692458868027,
    1.3281890153885,
    1.3565282821655,
    1.309632897377,
    1.3036519289017,
    1.3267394304276,
    1.3054237365723,
    1.3378916978836,
    1.3043937683105,
    1.2777183055878,
    1.3367941379547,
    1.3215106725693,
    1.3284530639648,
    1.340128660202,
    1.2686125040054,
    1.3959366083145,
    1.3146961927414,
    1.3464553356171,
    1.3040065765381,
    1.3052929639816,
    1.3237788677216,
    1.3326163291931,
    1.2967395782471,
    1.3616070747375,
    1.3300794363022,
    1.3546477556229,
    1.3560982942581,
    1.3860530853271,
    1.3890446424484,
    1.386016368866,
    1.3479952812195,
    1.4084124565125,
    1.3190256357193,
    1.343386888504,
    1.3074589967728,
    1.3356546163559,
    1.3787103891373,
    1.3280338048935,
    1.3857623338699,
    1.4008272886276,
    1.3945153951645,
    1.4258534908295,
    1.391585111618,
    1.4047746658325,
    1.3172434568405,
    1.3398234844208,
    1.310261964798,
    1.3246542215347,
    1.3037776947021,
    1.3143059015274,
    1.2861405611038,
    1.3002976179123,
    1.316064119339,
    1.2969297170639,
    1.3721618652344,
    1.3385541439056,
    1.3292044401169,
    1.3741843700409,
    1.3414516448975,
    1.3786667585373,
    1.3863469362259,
    1.3337817192078,
    1.3222972154617,
    1.3120750188828,
    1.2951560020447,
    1.3155323266983,
    1.3295117616653,
    1.2828847169876,
    1.3190025091171,
    1.3088030815125,
    1.3366626501083,
    1.3763558864594,
    1.290295124054,
    1.3856519460678,
    1.2896982431412,
    1.2573976516724,
    1.2996814250946,
    1.3329569101334,
    1.3189128637314,
    1.3376086950302,
    1.3155009746552,
    1.269800901413,
    1.3103822469711,
    1.3366323709488,
    1.306473493576,
    1.2554731369019,
    1.3445965051651,
    1.2946102619171
  ],
  "memory_usage": {}
}